﻿// EVENT 0614
Name "Event: Job EXP (LoC San Ilia NPC)"

ChangeSwitch(73,73,0)
If(1,129,0,0,0)
 ShowMessageFace("saniria_fc1",1,0,2,1)
 ShowMessage("\\n<King of San Ilia>Let us all pray to God, that we may gain wisdom...")
 250(bytes(0x04,0x08,0x6f,0x3a,0x0c,0x52,0x50,0x47,0x3a,0x3a,0x53,0x45,0x08,0x3a,0x0a,0x40,0x6e,0x61,0x6d,0x65,0x49,0x22,0x0a,0x48,0x65,0x61,0x6c,0x37,0x06,0x3a,0x06,0x45,0x54,0x3a,0x0b,0x40,0x70,0x69,0x74,0x63,0x68,0x69,0x69,0x3a,0x0c,0x40,0x76,0x6f,0x6c,0x75,0x6d,0x65,0x69,0x55))
 ShowMessageFace("",0,0,2,2)
 ShowMessage("Praying with the King, the party gained job experience!")
 355("gain_party_class_exp(200)")
 ChangeVariable(129,129,0,0,1)
 ChangeSwitch(73,73,1)
 EndEventProcessing()
 0()
EndIf()
If(1,129,0,1,0)
 ShowMessageFace("saniria_fc1",1,0,2,3)
 ShowMessage("\\n<King of San Ilia>Let us allow God some peace and quiet.\nWe shall offer prayer again later.")
 ChangeSwitch(73,73,1)
 EndEventProcessing()
 0()
EndIf()
0()
