// EVENT 7081
Name "Elissa: Talk"

If(0,25,1)
 ShowMessageFace("",0,0,2,0)
 ShowMessage("You cannot challenge this BF without copying over the pictures from the first chapter.")
 PictureClear(5)
 EndEventProcessing()
 0()
EndIf()
If(1,809,0,0,0)
 ChangeVariable(809,809,0,0,1)
 0()
EndIf()
241(bytes(0x04,0x08,0x6f,0x3a,0x0d,0x52,0x50,0x47,0x3a,0x3a,0x42,0x47,0x4d,0x08,0x3a,0x0a,0x40,0x6e,0x61,0x6d,0x65,0x49,0x22,0x09,0x65,0x72,0x6f,0x32,0x06,0x3a,0x06,0x45,0x54,0x3a,0x0c,0x40,0x76,0x6f,0x6c,0x75,0x6d,0x65,0x69,0x50,0x3a,0x0b,0x40,0x70,0x69,0x74,0x63,0x68,0x69,0x69))
PictureDisplay(5,"80_mob_elf1_st01",0,0,0,0,100,100,0,0)
PictureMove(5,null,0,0,0,0,100,100,255,0,30,true)
ShowMessageFace("mob_elf1_fc1",0,0,2,1)
ShowMessage("\\n<Elissa>Hmm? What is it?\nYou want to Battle Fuck?")
If(1,809,0,2,1)
 ShowMessageFace("mob_elf1_fc1",0,0,2,2)
 ShowMessage("\\n<Elissa>All right then, the bet's 150G.\nNo prizes left, though.")
 0()
Else()
 ShowMessageFace("mob_elf1_fc1",0,0,2,3)
 ShowMessage("\\n<Elissa>All right then, the bet's 150G.\nIf you win, I'll give you an accessory suited for bows and arrows.")
 0()
EndIf()
ShowMessageFace("mob_elf1_fc1",0,0,2,4)
ShowMessage("\\n<Elissa>Want a BF match?")
ShowChoices(strings("Battle Fuck Challenge","Reconsider"),2)
IfPlayerPicksChoice(0,"バトルファックを挑む")
 If(7,150,0)
  If(0,2331,1)
   216(1)
   ShowMessageFace("",0,0,2,5)
   ShowMessage("Luka's allies leave the building...")
   0()
  EndIf()
  RunCommonEvent(7082)
  EndEventProcessing()
  0()
 Else()
  ShowMessageFace("mob_elf1_fc1",0,0,2,6)
  ShowMessage("\\n<Elissa>...You're short on money.")
  PictureClear(5)
  If(0,2331,1)
   241(bytes(0x04,0x08,0x6f,0x3a,0x0d,0x52,0x50,0x47,0x3a,0x3a,0x42,0x47,0x4d,0x08,0x3a,0x0a,0x40,0x6e,0x61,0x6d,0x65,0x49,0x22,0x0b,0x65,0x6e,0x72,0x69,0x6b,0x61,0x06,0x3a,0x06,0x45,0x54,0x3a,0x0c,0x40,0x76,0x6f,0x6c,0x75,0x6d,0x65,0x69,0x69,0x3a,0x0b,0x40,0x70,0x69,0x74,0x63,0x68,0x69,0x69))
   0()
  EndIf()
  EndEventProcessing()
  0()
 EndIf()
 0()
IfPlayerPicksChoice(1,"やめておく")
 ShowMessageFace("mob_elf1_fc1",0,0,2,7)
 ShowMessage("\\n<Elissa>Quitting?\nI'm a little disappointed...")
 PictureClear(5)
 If(0,2331,1)
  241(bytes(0x04,0x08,0x6f,0x3a,0x0d,0x52,0x50,0x47,0x3a,0x3a,0x42,0x47,0x4d,0x08,0x3a,0x0a,0x40,0x6e,0x61,0x6d,0x65,0x49,0x22,0x0b,0x65,0x6e,0x72,0x69,0x6b,0x61,0x06,0x3a,0x06,0x45,0x54,0x3a,0x0c,0x40,0x76,0x6f,0x6c,0x75,0x6d,0x65,0x69,0x69,0x3a,0x0b,0x40,0x70,0x69,0x74,0x63,0x68,0x69,0x69))
  0()
 EndIf()
 EndEventProcessing()
 0()
404()
0()
