﻿// EVENT 3346
Name "Black Mamba"

PictureDisplay(7,"80_sanki_st02",0,0,0,0,100,100,0,0)
PictureDisplay(6,"80_sanki_st12",0,0,0,0,100,100,0,0)
PictureDisplay(5,"80_sanki_st22",0,0,0,0,100,100,0,0)
PictureMove(7,null,0,0,0,0,100,100,255,0,30,false)
PictureMove(6,null,0,0,0,0,100,100,255,0,30,false)
PictureMove(5,null,0,0,0,0,100,100,255,0,30,true)
241(bytes(0x04,0x08,0x6f,0x3a,0x0d,0x52,0x50,0x47,0x3a,0x3a,0x42,0x47,0x4d,0x08,0x3a,0x0a,0x40,0x6e,0x61,0x6d,0x65,0x49,0x22,0x09,0x65,0x72,0x6f,0x31,0x06,0x3a,0x06,0x45,0x54,0x3a,0x0c,0x40,0x76,0x6f,0x6c,0x75,0x6d,0x65,0x69,0x69,0x3a,0x0b,0x40,0x70,0x69,0x74,0x63,0x68,0x69,0x69))
ShowMessageFace("",0,0,2,1)
ShowMessage("\\n<Luka>")
ShowMessage("Auuu...")
ShowMessageFace("sanki1_fc1",1,0,2,2)
ShowMessage("\\n<Black Mamba>")
ShowMessage("I dealt the final blow... He's my prey.")
ShowMessageFace("",0,0,2,3)
ShowMessage("Black Mamba approaches me as I lay fallen down.")
ShowMessage("Her long snake half slithers towards me...")
ShowMessageFace("sanki0_fc1",1,0,2,4)
ShowMessage("\\n<Black Dahlia>")
ShowMessage("So we only get to watch? Oh well, maybe next time.")
ShowMessageFace("sanki2_fc1",1,0,2,5)
ShowMessage("\\n<Black Rose>")
ShowMessage("At least... Make him cry a lot.")
ShowMessageFace("sanki1_fc1",1,0,2,6)
ShowMessage("\\n<Black Mamba>")
ShowMessage("No, I won't.")
ShowMessage("I won't unnecessarily torment my prey...")
ShowMessageFace("",0,0,2,7)
ShowMessage("Black Mamba hugs me as she says that.")
ShowMessage("With no warning, she gives me a passionate kiss.")
ShowMessageFace("",0,0,2,8)
ShowMessage("\\n<Luka>")
ShowMessage("Nn... Ngmf...!")
ShowMessageFace("sanki1_fc1",1,0,2,9)
ShowMessage("\\n<Black Mamba>")
ShowMessage("Like this, hurry up and shoot your semen in my tail.")
ShowMessage("Don't be afraid, it will feel very good...")
ShowMessageFace("",0,0,2,10)
ShowMessage("The tip of Black Mamba's tail opens up like a mouth.")
ShowMessage("It slowly approaches my crotch...")
245(bytes(0x04,0x08,0x6f,0x3a,0x0d,0x52,0x50,0x47,0x3a,0x3a,0x42,0x47,0x53,0x08,0x3a,0x0a,0x40,0x6e,0x61,0x6d,0x65,0x49,0x22,0x1e,0x6d,0x6f,0x6e,0x5f,0x68,0x73,0x65,0x61,0x6e,0x31,0x32,0x5f,0x69,0x6e,0x6e,0x65,0x72,0x77,0x6f,0x72,0x6b,0x73,0x5f,0x63,0x32,0x06,0x3a,0x06,0x45,0x54,0x3a,0x0c,0x40,0x76,0x6f,0x6c,0x75,0x6d,0x65,0x69,0x55,0x3a,0x0b,0x40,0x70,0x69,0x74,0x63,0x68,0x69,0x69))
PictureClear(6)
PictureClear(7)
PictureDisplay(5,"ev_sanki_hb01",0,0,0,0,100,100,0,0)
PictureMove(5,null,0,0,0,0,100,100,255,0,30,true)
ShowMessageFace("",0,0,2,11)
ShowMessage("And my penis is swallowed!")
ShowMessage("My meat rod is covered in a hot, undulating sensation!")
ShowMessageFace("",0,0,2,12)
ShowMessage("\\n<Luka>")
ShowMessage("Ah... Auuuu!")
PictureDisplay(6,"ev_sanki_ct11",0,0,0,0,100,100,255,0)
ShowMessageFace("",0,0,2,13)
ShowMessage("Her lewd flesh squeezes my penis tightly.")
ShowMessage("A strange pleasure washes over me from the tightness.")
ShowMessageFace("",0,0,2,14)
ShowMessage("On top of that, the inside starts undulating.")
ShowMessage("The pleasure my penis feels makes it seem like I'm about to melt.")
ShowMessageFace("",0,0,2,15)
ShowMessage("\\n<Luka>")
ShowMessage("Ah... Aaaaah...")
ShowMessageFace("sanki1_fc1",1,0,2,16)
ShowMessage("\\n<Black Mamba>")
ShowMessage("Fufu, how is it...?")
ShowMessage("My squeezing feels good...")
ShowMessageFace("sanki0_fc1",1,0,2,17)
ShowMessage("\\n<Black Dahlia>")
ShowMessage("Ahaha, he looks like he's enjoying it...")
ShowMessage("Doesn't it feel like she'll make you come instantly?")
ShowMessageFace("sanki2_fc1",1,0,2,18)
ShowMessage("\\n<Black Rose>")
ShowMessage("It's going to feel so good when she wrings you with her tail.")
ShowMessage("You'll love how she'll squeeze you...")
ShowMessageFace("",0,0,2,19)
ShowMessage("The two others mock me, giggling as I moan in agonizing pleasure.")
ShowMessage("Humiliated, I have no choice but to endure this one-sided abuse.")
ShowMessageFace("",0,0,2,20)
ShowMessage("\\n<Luka>")
ShowMessage("Nnn... Nmchp!")
ShowMessageFace("",0,0,2,21)
ShowMessage("My lips are lustfully kissed and my body jerks in agonizing pleasure.")
ShowMessage("But Black Mamba tightly embraces me, holding me down.")
ShowMessageFace("",0,0,2,22)
ShowMessage("It's not an affectionate hug, but one meant to stop me from squirming.")
ShowMessage("Her tight grip doesn't allow me to resist anymore.")
ShowMessageFace("sanki1_fc1",1,0,2,23)
ShowMessage("\\n<Black Mamba>")
ShowMessage("It's no use to struggle, I'm going to suck you dry like this...")
PictureDisplay(5,"ev_sanki_hb02",0,0,0,0,100,100,255,0)
PictureDisplay(6,"ev_sanki_ct12",0,0,0,0,100,100,255,0)
ShowMessageFace("",0,0,2,24)
ShowMessage("\\n<Luka>")
ShowMessage("Ah...! Ugh...!")
ShowMessageFace("",0,0,2,25)
ShowMessage("The tail turns red and the temperature inside it rises.")
ShowMessage("It feels as if the heat is going to melt my penis away.")
ShowMessageFace("sanki1_fc1",1,0,2,26)
ShowMessage("\\n<Black Mamba>")
ShowMessage("I'm going to make it hotter... Don't be afraid, it won't burn you.")
ShowMessage("The heat feels good doesn't it?")
ShowMessageFace("",0,0,2,27)
ShowMessage("\\n<Luka>")
ShowMessage("T-this... A-uuuuu!")
ShowMessageFace("",0,0,2,28)
ShowMessage("Her hot soft meat slowly wriggles.")
ShowMessage("It feels as if my penis is kneaded inside a hot furnace.")
ShowMessageFace("sanki0_fc1",1,0,2,29)
ShowMessage("\\n<Black Dahlia>")
ShowMessage("Hora, hurry up and come.")
ShowMessageFace("sanki2_fc1",1,0,2,30)
ShowMessage("\\n<Black Rose>")
ShowMessage("Ufufufu, looks like he can't take it anymore.")
ShowMessage("We're going to see him in his most pathetic moment as a man...")
ShowMessageFace("",0,0,2,31)
ShowMessage("Her melting hot flesh entwines my penis...")
ShowMessage("Her inner walls contract and slightly squeeze it...")
ShowMessageFace("",0,0,2,32)
ShowMessage("All of a sudden, the pleasure drives me into a corner.")
ShowMessage("I give my body over to the feeling of release as the lewd flesh keeps wriggling in her hot tail.")
ShowMessageFace("",0,0,2,33)
ShowMessage("\\n<Luka>")
ShowMessage("Waah... Aaaau!!")
RunCommonEvent(104)
PictureDisplay(5,"ev_sanki_hb03",0,0,0,0,100,100,255,0)
PictureDisplay(6,"ev_sanki_ct13",0,0,0,0,100,100,255,0)
RunCommonEvent(105)
ShowMessageFace("",0,0,2,34)
ShowMessage("Surrendering to the pleasure, I start shooting my semen inside the tail.")
ShowMessage("Weakness gradually spreads through my body as I ejaculate...")
PictureDisplay(5,"ev_sanki_hb04",0,0,0,0,100,100,255,0)
PictureDisplay(6,"ev_sanki_ct14",0,0,0,0,100,100,255,0)
ShowMessageFace("",0,0,2,35)
ShowMessage("\\n<Luka>")
ShowMessage("Nnn... Mchp..")
ShowMessageFace("",0,0,2,36)
ShowMessage("Ecstasy washes over me as Black Mamba keeps greedily kissing me.")
ShowMessage("Seeing me in this state, the three girls start giggling.")
ShowMessageFace("sanki1_fc1",1,0,2,37)
ShowMessage("\\n<Black Mamba>")
ShowMessage("Fufu... Looks like you're enjoying getting wrung.")
ShowMessage("It feels good for me too.")
ShowMessageFace("sanki0_fc1",1,0,2,38)
ShowMessage("\\n<Black Dahlia>")
ShowMessage("Black Mamba's tail feels so good~♪")
ShowMessageFace("sanki2_fc1",1,0,2,39)
ShowMessage("\\n<Black Rose>")
ShowMessage("What a pitiful face he's making, ufufufu...")
ShowMessageFace("",0,0,2,40)
ShowMessage("\\n<Luka>")
ShowMessage("Ah... Ugh...")
ShowMessageFace("",0,0,2,41)
ShowMessage("I taste humiliation and ecstasy at the same time while they ridicule me.")
ShowMessage("As I tremble in shame, I give myself over to Black Mamba's embrace.")
ShowMessageFace("sanki1_fc1",1,0,2,42)
ShowMessage("\\n<Black Mamba>")
ShowMessage("This human's semen is really tasty.")
ShowMessage("I'll suck it all out and enjoy its taste...")
PictureDisplay(5,"ev_sanki_hb05",0,0,0,0,100,100,255,0)
PictureDisplay(6,"ev_sanki_ct15",0,0,0,0,100,100,255,0)
ShowMessageFace("",0,0,2,43)
ShowMessage("\\n<Luka>")
ShowMessage("Nn... Nmchp!!")
ShowMessageFace("",0,0,2,44)
ShowMessage("Her tail slides up and down, stroking me with its piston-like movement.")
ShowMessage("My penis rubs against the soft fresh and is violently stimulated.")
ShowMessageFace("",0,0,2,45)
ShowMessage("I try to struggle...")
ShowMessage("However, in the tight hug, I can't move at all.")
ShowMessageFace("sanki0_fc1",1,0,2,46)
ShowMessage("\\n<Black Dahlia>")
ShowMessage("Ahaha, it's useless to struggle~♪")
ShowMessageFace("sanki2_fc1",1,0,2,47)
ShowMessage("\\n<Black Rose>")
ShowMessage("Give up and shoot out your semen...")
ShowMessageFace("sanki1_fc1",1,0,2,48)
ShowMessage("\\n<Black Mamba>")
ShowMessage("It's useless to endure it.")
ShowMessage("Here, I'll rub you more inside...")
ShowMessageFace("",0,0,2,49)
ShowMessage("\\n<Luka>")
ShowMessage("Wah... Aaaaau!!")
ShowMessageFace("",0,0,2,50)
ShowMessage("As I'm stimulated by the piston movement of her tail, the meat inside wriggles.")
ShowMessage("I yield at once to this indecent, hot pleasure...")
RunCommonEvent(104)
PictureDisplay(5,"ev_sanki_hb06",0,0,0,0,100,100,255,0)
PictureDisplay(6,"ev_sanki_ct16",0,0,0,0,100,100,255,0)
RunCommonEvent(105)
ShowMessageFace("",0,0,2,51)
ShowMessage("And, once again I shoot my semen inside the tail.")
ShowMessage("Being immersed in ecstasy while being kissed feels too good.")
PictureDisplay(5,"ev_sanki_hb07",0,0,0,0,100,100,255,0)
PictureDisplay(6,"ev_sanki_ct17",0,0,0,0,100,100,255,0)
ShowMessageFace("",0,0,2,52)
ShowMessage("\\n<Luka>")
ShowMessage("Nn... Mchmp...")
ShowMessageFace("sanki0_fc1",1,0,2,53)
ShowMessage("\\n<Black Dahlia>")
ShowMessage("Ahaha, it looks like he's completely bewitched. ♪")
ShowMessageFace("sanki2_fc1",1,0,2,54)
ShowMessage("\\n<Black Rose>")
ShowMessage("Does it feel that good to have your semen wrung out?")
ShowMessage("Fufu, what a shameful boy...")
ShowMessageFace("sanki1_fc1",1,0,2,55)
ShowMessage("\\n<Black Mamba>")
ShowMessage("There's still more to squeeze out...")
ShowMessage("Sora, I'll finish you off!")
PictureDisplay(5,"ev_sanki_hb08",0,0,0,0,100,100,255,0)
PictureDisplay(6,"ev_sanki_ct18",0,0,0,0,100,100,255,0)
ShowMessageFace("",0,0,2,56)
ShowMessage("\\n<Luka>")
ShowMessage("Nnnmchp!!")
ShowMessageFace("",0,0,2,57)
ShowMessage("The soft wriggling meat massages my penis even more insistently than before.")
ShowMessage("On top of that, her tail moves up and down, attacking me with a rapid piston movement.")
ShowMessageFace("sanki1_fc1",1,0,2,58)
ShowMessage("\\n<Black Mamba>")
ShowMessage("You can't resist this can you?")
ShowMessage("Now, shoot out all your sperm...")
ShowMessageFace("",0,0,2,59)
ShowMessage("\\n<Luka>")
ShowMessage("Nnn, nmchp!!")
RunCommonEvent(104)
PictureDisplay(5,"ev_sanki_hb09",0,0,0,0,100,100,255,0)
PictureDisplay(6,"ev_sanki_ct19",0,0,0,0,100,100,255,0)
RunCommonEvent(105)
ShowMessageFace("",0,0,2,60)
ShowMessage("As I drown in pleasure, I shoot out a large amount of semen.")
ShowMessage("I completely relax in Black Mamba's loving embrace...")
246(2)
PictureDisplay(5,"ev_sanki_hb10",0,0,0,0,100,100,255,0)
PictureDisplay(6,"ev_sanki_ct20",0,0,0,0,100,100,255,0)
ShowMessageFace("",0,0,2,61)
ShowMessage("\\n<Luka>")
ShowMessage("Nnn... Nmchp...")
ShowMessageFace("sanki1_fc1",1,0,2,62)
ShowMessage("\\n<Black Mamba>")
ShowMessage("You're far too good as prey to just let you waste away.")
ShowMessage("I'm going to keep you for myself, forever...")
ShowMessageFace("sanki0_fc1",1,0,2,63)
ShowMessage("\\n<Black Dahlia>")
ShowMessage("Ahaha, that was good. ♪")
ShowMessageFace("sanki2_fc1",1,0,2,64)
ShowMessage("\\n<Black Rose>")
ShowMessage("This is a rare occurrence...")
ShowMessage("You narrowly escaped with your life...")
ShowMessageFace("",0,0,2,65)
ShowMessage("\\n<Luka>")
ShowMessage("........")
ShowMessageFace("",0,0,2,66)
ShowMessage("Thus I became Black Mamba's plaything.")
ShowMessage("I'm imprisoned and raped every day.")
ShowMessageFace("",0,0,2,67)
ShowMessage("It wasn't long before I lost my mind and started enjoying the rape.")
ShowMessage("I'm completely content with my life as a sex slave...")
221()
PictureClear(5)
PictureClear(6)
ShowMessageFace("",0,0,2,68)
ShowMessage("......")
221()
242(1)
Wait(120)
355("memory_interruption")
ShowMessageFace("",0,0,2,69)
ShowMessage("You hear Ilias' voice calling out to you...")
ShowMessage("Receive her evaluation?")
ShowChoices(strings("Receive evaluation","Change difficulty","Reincarnate"),3)
IfPlayerPicksChoice(0,"Receive evaluation")
 241(bytes(0x04,0x08,0x6f,0x3a,0x0d,0x52,0x50,0x47,0x3a,0x3a,0x42,0x47,0x4d,0x08,0x3a,0x0a,0x40,0x6e,0x61,0x6d,0x65,0x49,0x22,0x0a,0x69,0x72,0x69,0x61,0x73,0x06,0x3a,0x06,0x45,0x54,0x3a,0x0c,0x40,0x76,0x6f,0x6c,0x75,0x6d,0x65,0x69,0x5f,0x3a,0x0b,0x40,0x70,0x69,0x74,0x63,0x68,0x69,0x6e))
 PictureDisplay(1,"bg001",0,0,0,0,100,100,255,0)
 222()
 PictureDisplay(5,"80_iriasu_st04",0,0,0,0,100,100,0,0)
 PictureMove(5,null,0,0,0,0,100,100,255,0,30,true)
 ShowMessageFace("iriasu_fc1",3,0,2,70)
 ShowMessage("\\n<Ilias>")
 ShowMessage("Why on earth are you even trying to fight the Three Nobles of Black...!?")
 ShowMessage("Weird stuff is happening...")
 PictureDisplay(5,"80_iriasu_st01",0,0,0,0,100,100,255,0)
 ShowMessageFace("iriasu_fc1",0,0,2,71)
 ShowMessage("\\n<Ilias>")
 ShowMessage("Black Mamba is a very powerful Lamia.")
 ShowMessage("She uses Spear skills and skills that Bind.")
 ShowMessageFace("iriasu_fc1",0,0,2,72)
 ShowMessage("\\n<Ilias>")
 ShowMessage("Since she's a Lamia, she's weak to Ice attacks.")
 ShowMessage("She can also be inflicted with Blind, Confusion, and Sleep so use that to your advantage.")
 PictureDisplay(5,"80_iriasu_st04",0,0,0,0,100,100,255,0)
 ShowMessageFace("iriasu_fc1",3,0,2,73)
 ShowMessage("\\n<Ilias>")
 ShowMessage("Now go, oh Brave Luka.")
 ShowMessage("How on earth are you traveling through space-time...")
 242(1)
 221()
 PictureClear(5)
 PictureClear(1)
 Wait(60)
 0()
IfPlayerPicksChoice(1,"Change difficulty")
 ShowMessageFace("",0,0,2,74)
 ShowMessage("Please choose a difficulty level.")
 RunCommonEvent(110)
 0()
IfPlayerPicksChoice(2,"Reincarnate")
 0()
404()
RunCommonEvent(3000)
0()
