// EVENT 0191
Name "サバイバル前章敵"

ChangeVariable(11,11,0,2,1,181)
If(1,11,0,1,0)
 Battle(0,331,false,false)
 EndEventProcessing()
 0()
EndIf()
If(1,11,0,2,0)
 Battle(0,332,false,false)
 EndEventProcessing()
 0()
EndIf()
If(1,11,0,3,0)
 Battle(0,333,false,false)
 EndEventProcessing()
 0()
EndIf()
If(1,11,0,4,0)
 Battle(0,334,false,false)
 EndEventProcessing()
 0()
EndIf()
If(1,11,0,5,0)
 Battle(0,335,false,false)
 EndEventProcessing()
 0()
EndIf()
If(1,11,0,6,0)
 Battle(0,336,false,false)
 EndEventProcessing()
 0()
EndIf()
If(1,11,0,7,0)
 Battle(0,337,false,false)
 EndEventProcessing()
 0()
EndIf()
If(1,11,0,8,0)
 Battle(0,338,false,false)
 EndEventProcessing()
 0()
EndIf()
If(1,11,0,9,0)
 Battle(0,339,false,false)
 EndEventProcessing()
 0()
EndIf()
If(1,11,0,10,0)
 Battle(0,340,false,false)
 EndEventProcessing()
 0()
EndIf()
If(1,11,0,11,0)
 Battle(0,341,false,false)
 EndEventProcessing()
 0()
EndIf()
If(1,11,0,12,0)
 Battle(0,342,false,false)
 EndEventProcessing()
 0()
EndIf()
If(1,11,0,13,0)
 Battle(0,343,false,false)
 EndEventProcessing()
 0()
EndIf()
If(1,11,0,14,0)
 Battle(0,344,false,false)
 EndEventProcessing()
 0()
EndIf()
If(1,11,0,15,0)
 Battle(0,345,false,false)
 EndEventProcessing()
 0()
EndIf()
If(1,11,0,16,0)
 Battle(0,346,false,false)
 EndEventProcessing()
 0()
EndIf()
If(1,11,0,17,0)
 Battle(0,347,false,false)
 EndEventProcessing()
 0()
EndIf()
If(1,11,0,18,0)
 Battle(0,348,false,false)
 EndEventProcessing()
 0()
EndIf()
If(1,11,0,19,0)
 Battle(0,349,false,false)
 EndEventProcessing()
 0()
EndIf()
If(1,11,0,20,0)
 Battle(0,350,false,false)
 EndEventProcessing()
 0()
EndIf()
If(1,11,0,21,0)
 Battle(0,351,false,false)
 EndEventProcessing()
 0()
EndIf()
If(1,11,0,22,0)
 Battle(0,352,false,false)
 EndEventProcessing()
 0()
EndIf()
If(1,11,0,23,0)
 Battle(0,353,false,false)
 EndEventProcessing()
 0()
EndIf()
If(1,11,0,24,0)
 Battle(0,354,false,false)
 EndEventProcessing()
 0()
EndIf()
If(1,11,0,25,0)
 Battle(0,355,false,false)
 EndEventProcessing()
 0()
EndIf()
If(1,11,0,26,0)
 Battle(0,356,false,false)
 EndEventProcessing()
 0()
EndIf()
If(1,11,0,27,0)
 Battle(0,357,false,false)
 EndEventProcessing()
 0()
EndIf()
If(1,11,0,28,0)
 Battle(0,358,false,false)
 EndEventProcessing()
 0()
EndIf()
If(1,11,0,29,0)
 Battle(0,359,false,false)
 EndEventProcessing()
 0()
EndIf()
If(1,11,0,30,0)
 Battle(0,360,false,false)
 EndEventProcessing()
 0()
EndIf()
If(1,11,0,31,0)
 Battle(0,361,false,false)
 EndEventProcessing()
 0()
EndIf()
If(1,11,0,32,0)
 Battle(0,362,false,false)
 EndEventProcessing()
 0()
EndIf()
If(1,11,0,33,0)
 Battle(0,391,false,false)
 EndEventProcessing()
 0()
EndIf()
If(1,11,0,34,0)
 Battle(0,392,false,false)
 EndEventProcessing()
 0()
EndIf()
If(1,11,0,35,0)
 Battle(0,393,false,false)
 EndEventProcessing()
 0()
EndIf()
If(1,11,0,36,0)
 Battle(0,394,false,false)
 EndEventProcessing()
 0()
EndIf()
If(1,11,0,37,0)
 Battle(0,395,false,false)
 EndEventProcessing()
 0()
EndIf()
If(1,11,0,38,0)
 Battle(0,396,false,false)
 EndEventProcessing()
 0()
EndIf()
If(1,11,0,39,0)
 Battle(0,397,false,false)
 EndEventProcessing()
 0()
EndIf()
If(1,11,0,40,0)
 Battle(0,398,false,false)
 EndEventProcessing()
 0()
EndIf()
If(1,11,0,41,0)
 Battle(0,399,false,false)
 EndEventProcessing()
 0()
EndIf()
If(1,11,0,42,0)
 Battle(0,400,false,false)
 EndEventProcessing()
 0()
EndIf()
If(1,11,0,43,0)
 Battle(0,401,false,false)
 EndEventProcessing()
 0()
EndIf()
If(1,11,0,44,0)
 Battle(0,402,false,false)
 EndEventProcessing()
 0()
EndIf()
If(1,11,0,45,0)
 Battle(0,403,false,false)
 EndEventProcessing()
 0()
EndIf()
If(1,11,0,46,0)
 Battle(0,404,false,false)
 EndEventProcessing()
 0()
EndIf()
If(1,11,0,47,0)
 Battle(0,405,false,false)
 EndEventProcessing()
 0()
EndIf()
If(1,11,0,48,0)
 Battle(0,406,false,false)
 EndEventProcessing()
 0()
EndIf()
If(1,11,0,49,0)
 Battle(0,407,false,false)
 EndEventProcessing()
 0()
EndIf()
If(1,11,0,50,0)
 Battle(0,408,false,false)
 EndEventProcessing()
 0()
EndIf()
If(1,11,0,51,0)
 Battle(0,409,false,false)
 EndEventProcessing()
 0()
EndIf()
If(1,11,0,52,0)
 Battle(0,410,false,false)
 EndEventProcessing()
 0()
EndIf()
If(1,11,0,53,0)
 Battle(0,411,false,false)
 EndEventProcessing()
 0()
EndIf()
If(1,11,0,54,0)
 Battle(0,412,false,false)
 EndEventProcessing()
 0()
EndIf()
If(1,11,0,55,0)
 Battle(0,413,false,false)
 EndEventProcessing()
 0()
EndIf()
If(1,11,0,56,0)
 Battle(0,414,false,false)
 EndEventProcessing()
 0()
EndIf()
If(1,11,0,57,0)
 Battle(0,415,false,false)
 EndEventProcessing()
 0()
EndIf()
If(1,11,0,58,0)
 Battle(0,416,false,false)
 EndEventProcessing()
 0()
EndIf()
If(1,11,0,59,0)
 Battle(0,417,false,false)
 EndEventProcessing()
 0()
EndIf()
If(1,11,0,60,0)
 Battle(0,418,false,false)
 EndEventProcessing()
 0()
EndIf()
If(1,11,0,61,0)
 Battle(0,419,false,false)
 EndEventProcessing()
 0()
EndIf()
If(1,11,0,62,0)
 Battle(0,420,false,false)
 EndEventProcessing()
 0()
EndIf()
If(1,11,0,63,0)
 Battle(0,421,false,false)
 EndEventProcessing()
 0()
EndIf()
If(1,11,0,64,0)
 Battle(0,422,false,false)
 EndEventProcessing()
 0()
EndIf()
If(1,11,0,65,0)
 Battle(0,423,false,false)
 EndEventProcessing()
 0()
EndIf()
If(1,11,0,66,0)
 Battle(0,424,false,false)
 EndEventProcessing()
 0()
EndIf()
If(1,11,0,67,0)
 Battle(0,425,false,false)
 EndEventProcessing()
 0()
EndIf()
If(1,11,0,68,0)
 Battle(0,426,false,false)
 EndEventProcessing()
 0()
EndIf()
If(1,11,0,69,0)
 Battle(0,427,false,false)
 EndEventProcessing()
 0()
EndIf()
If(1,11,0,70,0)
 Battle(0,428,false,false)
 EndEventProcessing()
 0()
EndIf()
If(1,11,0,71,0)
 Battle(0,429,false,false)
 EndEventProcessing()
 0()
EndIf()
If(1,11,0,72,0)
 Battle(0,430,false,false)
 EndEventProcessing()
 0()
EndIf()
If(1,11,0,73,0)
 Battle(0,466,false,false)
 EndEventProcessing()
 0()
EndIf()
If(1,11,0,74,0)
 Battle(0,467,false,false)
 EndEventProcessing()
 0()
EndIf()
If(1,11,0,75,0)
 Battle(0,468,false,false)
 EndEventProcessing()
 0()
EndIf()
If(1,11,0,76,0)
 Battle(0,469,false,false)
 EndEventProcessing()
 0()
EndIf()
If(1,11,0,77,0)
 Battle(0,470,false,false)
 EndEventProcessing()
 0()
EndIf()
If(1,11,0,78,0)
 Battle(0,471,false,false)
 EndEventProcessing()
 0()
EndIf()
If(1,11,0,79,0)
 Battle(0,472,false,false)
 EndEventProcessing()
 0()
EndIf()
If(1,11,0,80,0)
 Battle(0,473,false,false)
 EndEventProcessing()
 0()
EndIf()
If(1,11,0,81,0)
 Battle(0,474,false,false)
 EndEventProcessing()
 0()
EndIf()
If(1,11,0,82,0)
 Battle(0,475,false,false)
 EndEventProcessing()
 0()
EndIf()
If(1,11,0,83,0)
 Battle(0,476,false,false)
 EndEventProcessing()
 0()
EndIf()
If(1,11,0,84,0)
 Battle(0,477,false,false)
 EndEventProcessing()
 0()
EndIf()
If(1,11,0,85,0)
 Battle(0,478,false,false)
 EndEventProcessing()
 0()
EndIf()
If(1,11,0,86,0)
 Battle(0,479,false,false)
 EndEventProcessing()
 0()
EndIf()
If(1,11,0,87,0)
 Battle(0,480,false,false)
 EndEventProcessing()
 0()
EndIf()
If(1,11,0,88,0)
 Battle(0,481,false,false)
 EndEventProcessing()
 0()
EndIf()
If(1,11,0,89,0)
 Battle(0,519,false,false)
 EndEventProcessing()
 0()
EndIf()
If(1,11,0,90,0)
 Battle(0,520,false,false)
 EndEventProcessing()
 0()
EndIf()
If(1,11,0,91,0)
 Battle(0,521,false,false)
 EndEventProcessing()
 0()
EndIf()
If(1,11,0,92,0)
 Battle(0,522,false,false)
 EndEventProcessing()
 0()
EndIf()
If(1,11,0,93,0)
 Battle(0,523,false,false)
 EndEventProcessing()
 0()
EndIf()
If(1,11,0,94,0)
 Battle(0,524,false,false)
 EndEventProcessing()
 0()
EndIf()
If(1,11,0,95,0)
 Battle(0,525,false,false)
 EndEventProcessing()
 0()
EndIf()
If(1,11,0,96,0)
 Battle(0,526,false,false)
 EndEventProcessing()
 0()
EndIf()
If(1,11,0,97,0)
 Battle(0,527,false,false)
 EndEventProcessing()
 0()
EndIf()
If(1,11,0,98,0)
 Battle(0,528,false,false)
 EndEventProcessing()
 0()
EndIf()
If(1,11,0,99,0)
 Battle(0,529,false,false)
 EndEventProcessing()
 0()
EndIf()
If(1,11,0,100,0)
 Battle(0,530,false,false)
 EndEventProcessing()
 0()
EndIf()
If(1,11,0,101,0)
 Battle(0,531,false,false)
 EndEventProcessing()
 0()
EndIf()
If(1,11,0,102,0)
 Battle(0,532,false,false)
 EndEventProcessing()
 0()
EndIf()
If(1,11,0,103,0)
 Battle(0,533,false,false)
 EndEventProcessing()
 0()
EndIf()
If(1,11,0,104,0)
 Battle(0,534,false,false)
 EndEventProcessing()
 0()
EndIf()
If(1,11,0,105,0)
 Battle(0,535,false,false)
 EndEventProcessing()
 0()
EndIf()
If(1,11,0,106,0)
 Battle(0,536,false,false)
 EndEventProcessing()
 0()
EndIf()
If(1,11,0,107,0)
 Battle(0,537,false,false)
 EndEventProcessing()
 0()
EndIf()
If(1,11,0,108,0)
 Battle(0,1001,false,false)
 EndEventProcessing()
 0()
EndIf()
If(1,11,0,109,0)
 Battle(0,1002,false,false)
 EndEventProcessing()
 0()
EndIf()
If(1,11,0,110,0)
 Battle(0,1003,false,false)
 EndEventProcessing()
 0()
EndIf()
If(1,11,0,111,0)
 Battle(0,1004,false,false)
 EndEventProcessing()
 0()
EndIf()
If(1,11,0,112,0)
 Battle(0,1005,false,false)
 EndEventProcessing()
 0()
EndIf()
If(1,11,0,113,0)
 Battle(0,1006,false,false)
 EndEventProcessing()
 0()
EndIf()
If(1,11,0,114,0)
 Battle(0,1007,false,false)
 EndEventProcessing()
 0()
EndIf()
If(1,11,0,115,0)
 Battle(0,1008,false,false)
 EndEventProcessing()
 0()
EndIf()
If(1,11,0,116,0)
 Battle(0,1009,false,false)
 EndEventProcessing()
 0()
EndIf()
If(1,11,0,117,0)
 Battle(0,1010,false,false)
 EndEventProcessing()
 0()
EndIf()
If(1,11,0,118,0)
 Battle(0,1011,false,false)
 EndEventProcessing()
 0()
EndIf()
If(1,11,0,119,0)
 Battle(0,1012,false,false)
 EndEventProcessing()
 0()
EndIf()
If(1,11,0,120,0)
 Battle(0,1013,false,false)
 EndEventProcessing()
 0()
EndIf()
If(1,11,0,121,0)
 Battle(0,1014,false,false)
 EndEventProcessing()
 0()
EndIf()
If(1,11,0,122,0)
 Battle(0,1015,false,false)
 EndEventProcessing()
 0()
EndIf()
If(1,11,0,123,0)
 Battle(0,1016,false,false)
 EndEventProcessing()
 0()
EndIf()
If(1,11,0,124,0)
 Battle(0,1017,false,false)
 EndEventProcessing()
 0()
EndIf()
If(1,11,0,125,0)
 Battle(0,1018,false,false)
 EndEventProcessing()
 0()
EndIf()
If(1,11,0,126,0)
 Battle(0,1019,false,false)
 EndEventProcessing()
 0()
EndIf()
If(1,11,0,127,0)
 Battle(0,1020,false,false)
 EndEventProcessing()
 0()
EndIf()
If(1,11,0,128,0)
 Battle(0,1021,false,false)
 EndEventProcessing()
 0()
EndIf()
If(1,11,0,129,0)
 Battle(0,1022,false,false)
 EndEventProcessing()
 0()
EndIf()
If(1,11,0,130,0)
 Battle(0,1049,false,false)
 EndEventProcessing()
 0()
EndIf()
If(1,11,0,131,0)
 Battle(0,1050,false,false)
 EndEventProcessing()
 0()
EndIf()
If(1,11,0,132,0)
 Battle(0,1051,false,false)
 EndEventProcessing()
 0()
EndIf()
If(1,11,0,133,0)
 Battle(0,1052,false,false)
 EndEventProcessing()
 0()
EndIf()
If(1,11,0,134,0)
 Battle(0,1053,false,false)
 EndEventProcessing()
 0()
EndIf()
If(1,11,0,135,0)
 Battle(0,1054,false,false)
 EndEventProcessing()
 0()
EndIf()
If(1,11,0,136,0)
 Battle(0,1055,false,false)
 EndEventProcessing()
 0()
EndIf()
If(1,11,0,137,0)
 Battle(0,1056,false,false)
 EndEventProcessing()
 0()
EndIf()
If(1,11,0,138,0)
 Battle(0,1057,false,false)
 EndEventProcessing()
 0()
EndIf()
If(1,11,0,139,0)
 Battle(0,1058,false,false)
 EndEventProcessing()
 0()
EndIf()
If(1,11,0,140,0)
 Battle(0,1059,false,false)
 EndEventProcessing()
 0()
EndIf()
If(1,11,0,141,0)
 Battle(0,1060,false,false)
 EndEventProcessing()
 0()
EndIf()
If(1,11,0,142,0)
 Battle(0,1061,false,false)
 EndEventProcessing()
 0()
EndIf()
If(1,11,0,143,0)
 Battle(0,1062,false,false)
 EndEventProcessing()
 0()
EndIf()
If(1,11,0,144,0)
 Battle(0,1063,false,false)
 EndEventProcessing()
 0()
EndIf()
If(1,11,0,145,0)
 Battle(0,1064,false,false)
 EndEventProcessing()
 0()
EndIf()
If(1,11,0,146,0)
 Battle(0,1065,false,false)
 EndEventProcessing()
 0()
EndIf()
If(1,11,0,147,0)
 Battle(0,1066,false,false)
 EndEventProcessing()
 0()
EndIf()
If(1,11,0,148,0)
 Battle(0,1067,false,false)
 EndEventProcessing()
 0()
EndIf()
If(1,11,0,149,0)
 Battle(0,1068,false,false)
 EndEventProcessing()
 0()
EndIf()
If(1,11,0,150,0)
 Battle(0,1069,false,false)
 EndEventProcessing()
 0()
EndIf()
If(1,11,0,151,0)
 Battle(0,1070,false,false)
 EndEventProcessing()
 0()
EndIf()
If(1,11,0,152,0)
 Battle(0,1071,false,false)
 EndEventProcessing()
 0()
EndIf()
If(1,11,0,153,0)
 Battle(0,1072,false,false)
 EndEventProcessing()
 0()
EndIf()
If(1,11,0,154,0)
 Battle(0,1145,false,false)
 EndEventProcessing()
 0()
EndIf()
If(1,11,0,155,0)
 Battle(0,1146,false,false)
 EndEventProcessing()
 0()
EndIf()
If(1,11,0,156,0)
 Battle(0,1147,false,false)
 EndEventProcessing()
 0()
EndIf()
If(1,11,0,157,0)
 Battle(0,1148,false,false)
 EndEventProcessing()
 0()
EndIf()
If(1,11,0,158,0)
 Battle(0,1149,false,false)
 EndEventProcessing()
 0()
EndIf()
If(1,11,0,159,0)
 Battle(0,1150,false,false)
 EndEventProcessing()
 0()
EndIf()
If(1,11,0,160,0)
 Battle(0,1151,false,false)
 EndEventProcessing()
 0()
EndIf()
If(1,11,0,161,0)
 Battle(0,1152,false,false)
 EndEventProcessing()
 0()
EndIf()
If(1,11,0,162,0)
 Battle(0,1153,false,false)
 EndEventProcessing()
 0()
EndIf()
If(1,11,0,163,0)
 Battle(0,1154,false,false)
 EndEventProcessing()
 0()
EndIf()
If(1,11,0,164,0)
 Battle(0,1155,false,false)
 EndEventProcessing()
 0()
EndIf()
If(1,11,0,165,0)
 Battle(0,1156,false,false)
 EndEventProcessing()
 0()
EndIf()
If(1,11,0,166,0)
 Battle(0,1157,false,false)
 EndEventProcessing()
 0()
EndIf()
If(1,11,0,167,0)
 Battle(0,1158,false,false)
 EndEventProcessing()
 0()
EndIf()
If(1,11,0,168,0)
 Battle(0,1159,false,false)
 EndEventProcessing()
 0()
EndIf()
If(1,11,0,169,0)
 Battle(0,1160,false,false)
 EndEventProcessing()
 0()
EndIf()
If(1,11,0,170,0)
 Battle(0,1161,false,false)
 EndEventProcessing()
 0()
EndIf()
If(1,11,0,171,0)
 Battle(0,1162,false,false)
 EndEventProcessing()
 0()
EndIf()
If(1,11,0,172,0)
 Battle(0,1163,false,false)
 EndEventProcessing()
 0()
EndIf()
If(1,11,0,173,0)
 Battle(0,1164,false,false)
 EndEventProcessing()
 0()
EndIf()
If(1,11,0,174,0)
 Battle(0,1165,false,false)
 EndEventProcessing()
 0()
EndIf()
If(1,11,0,175,0)
 Battle(0,1166,false,false)
 EndEventProcessing()
 0()
EndIf()
If(1,11,0,176,0)
 Battle(0,1167,false,false)
 EndEventProcessing()
 0()
EndIf()
If(1,11,0,177,0)
 Battle(0,1168,false,false)
 EndEventProcessing()
 0()
EndIf()
If(1,11,0,178,0)
 Battle(0,1169,false,false)
 EndEventProcessing()
 0()
EndIf()
If(1,11,0,179,0)
 Battle(0,1170,false,false)
 EndEventProcessing()
 0()
EndIf()
If(1,11,0,180,0)
 Battle(0,1171,false,false)
 EndEventProcessing()
 0()
EndIf()
If(1,11,0,181,0)
 Battle(0,1172,false,false)
 EndEventProcessing()
 0()
EndIf()
0()
