// EVENT 7091
Name "Fuisz: Talk"

If(0,25,1)
 ShowMessageFace("",0,0,2,0)
 ShowMessage("You cannot challenge this BF without copying over the pictures from the first chapter.")
 PictureClear(5)
 EndEventProcessing()
 0()
EndIf()
If(1,810,0,0,0)
 ChangeVariable(810,810,0,0,1)
 0()
EndIf()
241(bytes(0x04,0x08,0x6f,0x3a,0x0d,0x52,0x50,0x47,0x3a,0x3a,0x42,0x47,0x4d,0x08,0x3a,0x0a,0x40,0x6e,0x61,0x6d,0x65,0x49,0x22,0x09,0x65,0x72,0x6f,0x32,0x06,0x3a,0x06,0x45,0x54,0x3a,0x0c,0x40,0x76,0x6f,0x6c,0x75,0x6d,0x65,0x69,0x50,0x3a,0x0b,0x40,0x70,0x69,0x74,0x63,0x68,0x69,0x69))
PictureDisplay(5,"80_mob_gakusya1_st01",0,0,0,0,100,100,0,0)
PictureMove(5,null,0,0,0,0,100,100,255,0,30,true)
ShowMessageFace("mob_gakusya1_fc1",0,0,2,1)
ShowMessage("\\n<Fizz>Please stop bothering me, I'm busy compiling my report...\nOh, could you be challenging me to a Battle Fuck?")
If(1,810,0,2,1)
 ShowMessageFace("mob_gakusya1_fc1",0,0,2,2)
 ShowMessage("\\n<Fizz>The stake is 180G. You've already won a prize though.\nNow, I'm a bit busy, so...")
 0()
Else()
 ShowMessageFace("mob_gakusya1_fc1",0,0,2,3)
 ShowMessage("\\n<Fizz>The stake is 180G. The prize is an accessory for job changing.\nNow, I'm a bit busy, so...")
 0()
EndIf()
PictureDisplay(5,"80_mob_gakusya1_st02",0,0,0,0,100,100,255,0)
ShowMessageFace("mob_gakusya1_fc1",1,0,2,4)
ShowMessage("\\n<Fizz>Honestly, I'm extremely busy right now...\nDo you really want to challenge me that badly?")
ShowChoices(strings("Battle Fuck Challenge","Reconsider"),2)
IfPlayerPicksChoice(0,"バトルファックを挑む")
 If(7,180,0)
  If(0,2331,1)
   216(1)
   ShowMessageFace("",0,0,2,5)
   ShowMessage("Luka's allies leave the building...")
   0()
  EndIf()
  RunCommonEvent(7092)
  EndEventProcessing()
  0()
 Else()
  ShowMessageFace("mob_gakusya1_fc1",1,0,2,6)
  ShowMessage("\\n<Fizz>Uhm... You don't have enough money.\nI'm really busy right now, so that's fine.")
  PictureClear(5)
  If(0,2331,1)
   241(bytes(0x04,0x08,0x6f,0x3a,0x0d,0x52,0x50,0x47,0x3a,0x3a,0x42,0x47,0x4d,0x08,0x3a,0x0a,0x40,0x6e,0x61,0x6d,0x65,0x49,0x22,0x0a,0x63,0x69,0x74,0x79,0x31,0x06,0x3a,0x06,0x45,0x54,0x3a,0x0c,0x40,0x76,0x6f,0x6c,0x75,0x6d,0x65,0x69,0x69,0x3a,0x0b,0x40,0x70,0x69,0x74,0x63,0x68,0x69,0x69))
   0()
  EndIf()
  EndEventProcessing()
  0()
 EndIf()
 0()
IfPlayerPicksChoice(1,"やめておく")
 PictureDisplay(5,"80_mob_gakusya1_st01",0,0,0,0,100,100,255,0)
 ShowMessageFace("mob_gakusya1_fc1",0,0,2,7)
 ShowMessage("\\n<Fizz>Well then, come back later.\nI'm quite busy right now.")
 PictureClear(5)
 If(0,2331,1)
  241(bytes(0x04,0x08,0x6f,0x3a,0x0d,0x52,0x50,0x47,0x3a,0x3a,0x42,0x47,0x4d,0x08,0x3a,0x0a,0x40,0x6e,0x61,0x6d,0x65,0x49,0x22,0x0a,0x63,0x69,0x74,0x79,0x31,0x06,0x3a,0x06,0x45,0x54,0x3a,0x0c,0x40,0x76,0x6f,0x6c,0x75,0x6d,0x65,0x69,0x69,0x3a,0x0b,0x40,0x70,0x69,0x74,0x63,0x68,0x69,0x69))
  0()
 EndIf()
 EndEventProcessing()
 0()
404()
0()
