// EVENT 4321
Name "Nanabi 1"

If(0,25,1)
 221()
 PictureClear(5)
 PictureClear(6)
 ShowMessageFace("",0,0,2,0)
 ShowMessage("......")
 242(2)
 Wait(120)
 241(bytes(0x04,0x08,0x6f,0x3a,0x0d,0x52,0x50,0x47,0x3a,0x3a,0x42,0x47,0x4d,0x08,0x3a,0x0a,0x40,0x6e,0x61,0x6d,0x65,0x49,0x22,0x0c,0x63,0x61,0x73,0x74,0x6c,0x65,0x36,0x06,0x3a,0x06,0x45,0x54,0x3a,0x0c,0x40,0x76,0x6f,0x6c,0x75,0x6d,0x65,0x69,0x69,0x3a,0x0b,0x40,0x70,0x69,0x74,0x63,0x68,0x69,0x69))
 EndEventProcessing()
 0()
EndIf()
PictureDisplay(5,"80_nanabi_st01",0,0,0,0,100,100,255,0)
ShowMessageFace("nanabi_fc1",0,0,2,1)
ShowMessage("\\n<Nanabi>Fufu, you wish to be squeezed by me...?\nI am a bit hungry after all.")
ShowMessageFace("nanabi_fc1",0,0,2,2)
ShowMessage("\\n<Nanabi>Come to my room.\nI'll let you taste suitable pleasure...")
ShowMessageFace("",0,0,2,3)
ShowMessage("\\n<Luka>......")
ShowMessageFace("",0,0,2,4)
ShowMessage("I follow Nanabi to her room...")
221()
PictureDisplay(1,"bg195",0,0,0,0,100,100,255,0)
PictureDisplay(5,"80_nanabi_st02",0,0,0,0,100,100,255,0)
222()
241(bytes(0x04,0x08,0x6f,0x3a,0x0d,0x52,0x50,0x47,0x3a,0x3a,0x42,0x47,0x4d,0x08,0x3a,0x0a,0x40,0x6e,0x61,0x6d,0x65,0x49,0x22,0x09,0x65,0x72,0x6f,0x31,0x06,0x3a,0x06,0x45,0x54,0x3a,0x0c,0x40,0x76,0x6f,0x6c,0x75,0x6d,0x65,0x69,0x69,0x3a,0x0b,0x40,0x70,0x69,0x74,0x63,0x68,0x69,0x69))
ShowMessageFace("nanabi_fc1",0,0,2,5)
ShowMessage("\\n<Nanabi>Very well then, shall I have you supply me with energy?\nAs you desired... Fufufu.")
PictureDisplay(5,"80_nanabi_st11",0,0,0,0,100,100,255,0)
ShowMessageFace("",0,0,2,6)
ShowMessage("Nanabi's tails change into a strange shape.")
ShowMessageFace("",0,0,2,7)
ShowMessage("A strange, pink looking mouth opens up at the tip of each tail.")
ShowMessageFace("",0,0,2,8)
ShowMessage("A slimy looking tongue is inside each, much longer than a human's.")
ShowMessageFace("nanabi_fc1",1,0,2,9)
ShowMessage("\\n<Nanabi>I'll suck out all of your semen with my tails...\nUntil you fill all seven, my energy won't be restored...")
ShowMessageFace("",0,0,2,10)
ShowMessage("\\n<Luka>All seven!? Seven times?!\nThat's impossible! Ahh!")
ShowMessageFace("",0,0,2,11)
ShowMessage("Nanabi grabs me with one of her tails and pulls me closer to her, and...")
245(bytes(0x04,0x08,0x6f,0x3a,0x0d,0x52,0x50,0x47,0x3a,0x3a,0x42,0x47,0x53,0x08,0x3a,0x0a,0x40,0x6e,0x61,0x6d,0x65,0x49,0x22,0x17,0x6d,0x6f,0x6e,0x5f,0x68,0x73,0x65,0x61,0x6e,0x31,0x35,0x5f,0x6b,0x79,0x75,0x69,0x6e,0x32,0x06,0x3a,0x06,0x45,0x54,0x3a,0x0c,0x40,0x76,0x6f,0x6c,0x75,0x6d,0x65,0x69,0x55,0x3a,0x0b,0x40,0x70,0x69,0x74,0x63,0x68,0x69,0x69))
PictureDisplay(5,"ev_nanabi_h1",0,0,0,0,100,100,255,0)
ShowMessageFace("",0,0,2,12)
ShowMessage("Her pink opening sucks in my penis!")
ShowMessageFace("",0,0,2,13)
ShowMessage("\\n<Luka>Aaa! Ahi!")
ShowMessageFace("",0,0,2,14)
ShowMessage("Her warm insides shoot pleasure through me as soon as I'm sucked into her tail opening.")
ShowMessageFace("",0,0,2,15)
ShowMessage("The folds and creases inside of her rub me with every movement, as the slimy tongue inside licks me all over.")
ShowMessageFace("",0,0,2,16)
ShowMessage("\\n<Luka>Ahaa! Haaa...")
ShowMessageFace("nanabi_fc1",1,0,2,17)
ShowMessage("\\n<Nanabi>Fufu... Amazing, right?\nJust shoot everything out inside...")
ShowMessageFace("",0,0,2,18)
ShowMessage("\\n<Luka>Aaaa!")
ShowMessageFace("",0,0,2,19)
ShowMessage("Stuck inside of her from the tip to the base, she forcefully rubs my penis all over.")
ShowMessageFace("",0,0,2,20)
ShowMessage("In addition, her slimy tongue inside the tail is gently wrapped around me, licking me gently.")
ShowMessageFace("",0,0,2,21)
ShowMessage("To such overpowering double stimulation, I'm unable to resist the rising orgasm.")
ShowMessageFace("",0,0,2,22)
ShowMessage("\\n<Luka>Coming! Ahhh!")
RunCommonEvent(104)
PictureDisplay(5,"ev_nanabi_h2",0,0,0,0,100,100,255,0)
RunCommonEvent(105)
ShowMessageFace("",0,0,2,23)
ShowMessage("The overpowering pleasure quickly forces me to orgasm, as I gush out semen inside her tail.")
ShowMessageFace("",0,0,2,24)
ShowMessage("\\n<Luka>Ah... I came so... Stop...")
ShowMessageFace("",0,0,2,25)
ShowMessage("The tongue licks my urethral opening, licking out the last of semen as my body twitches.")
ShowMessageFace("nanabi_fc1",1,0,2,27)
ShowMessage("\\n<Nanabi>Fufu... Did it feel good?")
246(1)
ShowMessageFace("",0,0,2,28)
ShowMessage("She pulls her tail back, finally releasing me...")
245(bytes(0x04,0x08,0x6f,0x3a,0x0d,0x52,0x50,0x47,0x3a,0x3a,0x42,0x47,0x53,0x08,0x3a,0x0a,0x40,0x6e,0x61,0x6d,0x65,0x49,0x22,0x17,0x6d,0x6f,0x6e,0x5f,0x68,0x73,0x65,0x61,0x6e,0x31,0x35,0x5f,0x6b,0x79,0x75,0x69,0x6e,0x32,0x06,0x3a,0x06,0x45,0x54,0x3a,0x0c,0x40,0x76,0x6f,0x6c,0x75,0x6d,0x65,0x69,0x55,0x3a,0x0b,0x40,0x70,0x69,0x74,0x63,0x68,0x69,0x69))
ShowMessageFace("",0,0,2,29)
ShowMessage("...Or so I thought.\nAnother tail suddenly sucks me back up!")
ShowMessageFace("",0,0,2,30)
ShowMessage("\\n<Luka>Auuu!")
ShowMessageFace("nanabi_fc1",1,0,2,31)
ShowMessage("\\n<Nanabi>I told you, remember?\nYou have to let all seven of my tails get a turn.")
ShowMessageFace("nanabi_fc1",1,0,2,32)
ShowMessage("\\n<Nanabi>Doesn't this one feel different from the last?")
ShowMessageFace("",0,0,2,33)
ShowMessage("\\n<Luka>Aaaa....")
ShowMessageFace("",0,0,2,34)
ShowMessage("This tail had lots of little creases all over her tight walls.")
ShowMessageFace("",0,0,2,35)
ShowMessage("Just from insertion into all of the little bumps and creases left me short of breath.")
ShowMessageFace("",0,0,2,36)
ShowMessage("\\n<Luka>Auu... Like this, I'll come again...")
ShowMessageFace("",0,0,2,37)
ShowMessage("While reeling from the stimulation from the creases in her, I let out a pathetic moan.")
ShowMessageFace("nanabi_fc1",1,0,2,38)
ShowMessage("\\n<Nanabi>Arara... Already coming again?\nHow pathetic.")
ShowMessageFace("nanabi_fc1",1,0,2,39)
ShowMessage("\\n<Nanabi>Then I'll make you come quickly...\nJust let it out!")
ShowMessageFace("",0,0,2,40)
ShowMessage("Nanabi tightens up, forcing the creases to wrap tightly around my penis, violently rubbing me with every movement.")
ShowMessageFace("",0,0,2,41)
ShowMessage("The intense pleasure forces me to the limit instantly.")
ShowMessageFace("",0,0,2,42)
ShowMessage("\\n<Luka>Aaaa!")
RunCommonEvent(104)
PictureDisplay(5,"ev_nanabi_h3",0,0,0,0,100,100,255,0)
RunCommonEvent(105)
ShowMessageFace("",0,0,2,43)
ShowMessage("Unable to endure, I explode in the second tail, filling it with my semen.")
ShowMessageFace("",0,0,2,44)
ShowMessage("As soon as the last drop is out, she quickly pulls me out of the tail and puts me in another.")
245(bytes(0x04,0x08,0x6f,0x3a,0x0d,0x52,0x50,0x47,0x3a,0x3a,0x42,0x47,0x53,0x08,0x3a,0x0a,0x40,0x6e,0x61,0x6d,0x65,0x49,0x22,0x17,0x6d,0x6f,0x6e,0x5f,0x68,0x73,0x65,0x61,0x6e,0x31,0x36,0x5f,0x6b,0x79,0x75,0x69,0x6e,0x33,0x06,0x3a,0x06,0x45,0x54,0x3a,0x0c,0x40,0x76,0x6f,0x6c,0x75,0x6d,0x65,0x69,0x55,0x3a,0x0b,0x40,0x70,0x69,0x74,0x63,0x68,0x69,0x69))
ShowMessageFace("",0,0,2,45)
ShowMessage("This tail is even tighter than the last...")
ShowMessageFace("",0,0,2,46)
ShowMessage("\\n<Luka>Ahii!")
ShowMessageFace("",0,0,2,47)
ShowMessage("Stuck in her tight opening, I writhe pitifully.")
ShowMessage("Unable to last even a short duration, I feel pathetic.")
ShowMessageFace("nanabi_fc1",1,0,2,48)
ShowMessage("\\n<Nanabi>There's no point in resisting...\nJust surrender to the pleasure...")
ShowMessageFace("",0,0,2,49)
ShowMessage("\\n<Luka>Aaaa!")
RunCommonEvent(104)
RunCommonEvent(105)
ShowMessageFace("",0,0,2,50)
ShowMessage("Quickly forced to ejaculate, she exchanges the tail again after squeezing out the last drop.")
ShowMessageFace("",0,0,2,51)
ShowMessage("It looks like she'll really rape me with all seven...")
ShowMessageFace("",0,0,2,52)
ShowMessage("\\n<Luka>Auu... Stop already...")
ShowMessageFace("nanabi_fc1",1,0,2,53)
ShowMessage("\\n<Nanabi>Just give up and enjoy it.\nHorahora, you're going to come again.")
ShowMessageFace("",0,0,2,54)
ShowMessage("\\n<Luka>Ah... Au!!")
ShowMessageFace("",0,0,2,55)
ShowMessage("As I complain, she forcibly stimulates me with a grin on her face.")
RunCommonEvent(104)
PictureDisplay(5,"ev_nanabi_h4",0,0,0,0,100,100,255,0)
RunCommonEvent(105)
ShowMessageFace("",0,0,2,56)
ShowMessage("I'm quickly forced to ejaculate again.")
ShowMessageFace("",0,0,2,57)
ShowMessage("My entire lower body feels as if it's melting in pleasure.")
ShowMessageFace("nanabi_fc1",1,0,2,58)
ShowMessage("\\n<Nanabi>There are still more tails to go...")
ShowMessageFace("",0,0,2,59)
ShowMessage("\\n<Luka>Auu...")
ShowMessageFace("",0,0,2,60)
ShowMessage("One after another, the tails keep violating me.")
ShowMessage("Raped by her tails, she continues to squeeze out my semen.")
ShowMessageFace("",0,0,2,61)
ShowMessage("\\n<Luka>A...aa...")
ShowMessageFace("",0,0,2,62)
ShowMessage("My whole body too weak to do anything, my consciousness starts to slowly fade.")
ShowMessage("A pleasurable fatigue washes over me as I'm unable to fight back.")
ShowMessageFace("nanabi_fc1",1,0,2,63)
ShowMessage("\\n<Nanabi>Fufu... You're not used to being squeezed...\nFainting with just this much...")
ShowMessageFace("nanabi_fc1",1,0,2,64)
ShowMessage("\\n<Nanabi>I'll continue to train you.\nCome back to me again...")
ShowMessageFace("",0,0,2,65)
ShowMessage("\\n<Luka>............")
ShowMessageFace("",0,0,2,66)
ShowMessage("As Nanabi whispers that in my ear, I lose consciousness.")
221()
PictureClear(5)
PictureClear(6)
246(2)
ShowMessageFace("",0,0,2,67)
ShowMessage("............")
242(2)
Wait(120)
241(bytes(0x04,0x08,0x6f,0x3a,0x0d,0x52,0x50,0x47,0x3a,0x3a,0x42,0x47,0x4d,0x08,0x3a,0x0a,0x40,0x6e,0x61,0x6d,0x65,0x49,0x22,0x0c,0x63,0x61,0x73,0x74,0x6c,0x65,0x36,0x06,0x3a,0x06,0x45,0x54,0x3a,0x0c,0x40,0x76,0x6f,0x6c,0x75,0x6d,0x65,0x69,0x69,0x3a,0x0b,0x40,0x70,0x69,0x74,0x63,0x68,0x69,0x69))
0()
