// EVENT 7011
Name "Eri: Talk"

If(0,25,1)
 ShowMessageFace("",0,0,2,0)
 ShowMessage("You cannot challenge this BF without copying over the pictures from the first chapter.")
 PictureClear(5)
 EndEventProcessing()
 0()
EndIf()
If(1,802,0,0,0)
 ChangeVariable(802,802,0,0,1)
 0()
EndIf()
241(bytes(0x04,0x08,0x6f,0x3a,0x0d,0x52,0x50,0x47,0x3a,0x3a,0x42,0x47,0x4d,0x08,0x3a,0x0a,0x40,0x6e,0x61,0x6d,0x65,0x49,0x22,0x09,0x65,0x72,0x6f,0x32,0x06,0x3a,0x06,0x45,0x54,0x3a,0x0c,0x40,0x76,0x6f,0x6c,0x75,0x6d,0x65,0x69,0x50,0x3a,0x0b,0x40,0x70,0x69,0x74,0x63,0x68,0x69,0x69))
PictureDisplay(5,"80_mob_murabito1_st01",0,0,0,0,100,100,0,0)
PictureMove(5,null,0,0,0,0,100,100,255,0,30,true)
If(0,2331,1)
 ShowMessageFace("mob_murabito1_fc1",0,0,2,1)
 ShowMessage("\\n<Eri>Ah, a traveler? How about a battle fuck?")
 0()
EndIf()
If(1,802,0,2,1)
 ShowMessageFace("mob_murabito1_fc1",0,0,2,2)
 ShowMessage("\\n<Eri>I can't offer you anything extra, but it'll still be 20G if you lose.")
 0()
Else()
 ShowMessageFace("mob_murabito1_fc1",0,0,2,3)
 ShowMessage("\\n<Eri>If you defeat me, I'll give you a wind accessory. On the other hand, if you lose, it'll cost you 20G.")
 0()
EndIf()
ShowMessageFace("mob_murabito1_fc1",0,0,2,4)
ShowMessage("\\n<Eri>I'm very confident in my oral techniques, by the way. I'm sure you won't last... ufufu.")
ShowChoices(strings("Battle Fuck Challenge","Reconsider"),2)
IfPlayerPicksChoice(0,"バトルファックを挑む")
 If(7,20,0)
  RunCommonEvent(7012)
  EndEventProcessing()
  0()
 Else()
  ShowMessageFace("mob_murabito1_fc1",0,0,2,5)
  ShowMessage("\\n<Eri>...huh? Looks like you're broke. Save up some gold and come right back, okay?")
  PictureClear(5)
  EndEventProcessing()
  0()
 EndIf()
 0()
IfPlayerPicksChoice(1,"やめておく")
 ShowMessageFace("mob_murabito1_fc1",0,0,2,6)
 ShowMessage("\\n<Eri>Scared of having me make you come? It'll feel real good though...")
 PictureClear(5)
 EndEventProcessing()
 0()
404()
0()
