// EVENT 7221
Name "Lara: Talk"

If(1,823,0,0,0)
 ChangeVariable(823,823,0,0,1)
 0()
EndIf()
241(bytes(0x04,0x08,0x6f,0x3a,0x0d,0x52,0x50,0x47,0x3a,0x3a,0x42,0x47,0x4d,0x08,0x3a,0x0a,0x40,0x6e,0x61,0x6d,0x65,0x49,0x22,0x09,0x65,0x72,0x6f,0x32,0x06,0x3a,0x06,0x45,0x54,0x3a,0x0c,0x40,0x76,0x6f,0x6c,0x75,0x6d,0x65,0x69,0x50,0x3a,0x0b,0x40,0x70,0x69,0x74,0x63,0x68,0x69,0x69))
PictureDisplay(5,"80_mob_murabito3_st01",0,0,0,0,100,100,0,0)
PictureMove(5,null,0,0,0,0,100,100,255,0,30,true)
If(0,2331,1)
 ShowMessageFace("mob_murabito3_fc1",0,0,2,1)
 ShowMessage("\\n<Lara>You're a Battle Fucker, right?\nI'm confident in my abilities, too.")
 0()
EndIf()
If(1,823,0,2,1)
 ShowMessageFace("mob_murabito3_fc1",0,0,2,2)
 ShowMessage("\\n<Lara>The stakes are 500G.\nSadly, there's no prize left.")
 0()
Else()
 ShowMessageFace("mob_murabito3_fc1",0,0,2,3)
 ShowMessage("\\n<Lara>The stakes are 500G.\nIf you win, I'll give you a cute accessory.")
 0()
EndIf()
ShowMessageFace("mob_murabito3_fc1",0,0,2,4)
ShowMessage("\\n<Lara>Ufufu, well?\nWant to compete against me?")
ShowChoices(strings("Battle Fuck Challenge","Reconsider"),2)
IfPlayerPicksChoice(0,"バトルファックを挑む")
 If(7,500,0)
  RunCommonEvent(7222)
  EndEventProcessing()
  0()
 Else()
  ShowMessageFace("mob_murabito3_fc1",4,0,2,5)
  ShowMessage("\\n<Lara>Ara, you're short money. Sorry.")
  PictureClear(5)
  EndEventProcessing()
  0()
 EndIf()
 0()
IfPlayerPicksChoice(1,"やめておく")
 ShowMessageFace("mob_murabito3_fc1",3,0,2,6)
 ShowMessage("\\n<Lara>Arere, running away?\nAre you too embarrassed to come?")
 PictureClear(5)
 EndEventProcessing()
 0()
404()
0()
