﻿// EVENT 1229
Name "Blue Slime"

If(1,20,0,1,0)
 JumpToLabel("情報")
 0()
EndIf()
If(1,20,0,2,0)
 JumpToLabel("質問")
 0()
EndIf()
If(1,20,0,3,0)
 JumpToLabel("要求")
 0()
EndIf()
If(1,20,0,4,0)
 JumpToLabel("贈与")
 0()
EndIf()
DefineLabel("情報")
ChangeVariable(13,13,0,2,1,100)
If(1,13,0,10,2)
 ShowMessageFace("slime_blue_fc1",0,0,2,1)
 ShowMessage("\\n<Blue Slime>Red Slime is kind of hot...")
 EndEventProcessing()
 0()
EndIf()
If(1,13,0,20,2)
 ShowMessageFace("slime_blue_fc1",0,0,2,2)
 ShowMessage("\\n<Blue Slime>Green Slime is always energetic...")
 EndEventProcessing()
 0()
EndIf()
If(1,13,0,30,2)
 ShowMessageFace("slime_blue_fc1",0,0,2,3)
 ShowMessage("\\n<Blue Slime>Purple Slime is always having a hard time...")
 EndEventProcessing()
 0()
EndIf()
If(1,13,0,40,2)
 ShowMessageFace("slime_blue_fc1",0,0,2,4)
 ShowMessage("\\n<Blue Slime>I'm a good friend of the Jelly Girl.\nWe take walks together...")
 EndEventProcessing()
 0()
EndIf()
If(1,13,0,50,2)
 ShowMessageFace("slime_blue_fc1",0,0,2,5)
 ShowMessage("\\n<Blue Slime>I hate humans who pollute the water...")
 EndEventProcessing()
 0()
EndIf()
If(1,13,0,60,2)
 ShowMessageFace("slime_blue_fc1",0,0,2,6)
 ShowMessage("\\n<Blue Slime>Go somewhere else...")
 EndEventProcessing()
 0()
EndIf()
If(1,13,0,70,2)
 ShowMessageFace("slime_blue_fc1",0,0,2,7)
 ShowMessage("\\n<Blue Slime>I don't like violent humans...")
 EndEventProcessing()
 0()
EndIf()
If(1,13,0,80,2)
 ShowMessageFace("slime_blue_fc1",0,0,2,8)
 ShowMessage("\\n<Blue Slime>Nyurunyuru I go...")
 EndEventProcessing()
 0()
EndIf()
If(1,13,0,90,2)
 ShowMessageFace("slime_blue_fc1",0,0,2,9)
 ShowMessage("\\n<Blue Slime>I love the water in this spring because it is so beautiful...")
 EndEventProcessing()
 0()
EndIf()
If(1,13,0,100,2)
 ShowMessageFace("slime_blue_fc1",0,0,2,10)
 ShowMessage("\\n<Blue Slime>I want to live peacefully...")
 EndEventProcessing()
 0()
EndIf()
DefineLabel("質問")
ChangeVariable(13,13,0,2,1,50)
If(1,13,0,10,2)
 ShowMessageFace("slime_blue_fc1",0,0,2,11)
 ShowMessage("\\n<Blue Slime>Is it true that the sea is blue...?")
 ShowChoices(strings("It's true","False","There is no sea"),0)
 IfPlayerPicksChoice(0,"本当")
  ShowMessageFace("slime_blue_fc1",0,0,2,12)
  ShowMessage("\\n<Blue Slime>Then I am the same color as the sea...\nI'm glad...")
  355("change_friend(10)")
  0()
 IfPlayerPicksChoice(1,"嘘")
  ShowMessageFace("slime_blue_fc1",2,0,2,13)
  ShowMessage("\\n<Blue Slime>Disappointing...")
  0()
 IfPlayerPicksChoice(2,"海なんてない")
  ShowMessageFace("slime_blue_fc1",2,0,2,14)
  ShowMessage("\\n<Blue Slime>Liar...")
  355("change_friend(-5)")
  0()
 404()
 EndEventProcessing()
 0()
EndIf()
If(1,13,0,20,2)
 ShowMessageFace("slime_blue_fc1",0,0,2,15)
 ShowMessage("\\n<Blue Slime>What does blue make you think of...?")
 ShowChoices(strings("Mysterious","Sea color","Dirty"),0)
 IfPlayerPicksChoice(0,"神秘的")
  ShowMessageFace("slime_blue_fc1",0,0,2,16)
  ShowMessage("\\n<Blue Slime>I'm glad...")
  355("change_friend(10)")
  0()
 IfPlayerPicksChoice(1,"海の色")
  ShowMessageFace("slime_blue_fc1",0,0,2,17)
  ShowMessage("\\n<Blue Slime>I've never seen the sea.\nI'd like to see it...")
  355("change_friend(5)")
  0()
 IfPlayerPicksChoice(2,"汚い")
  ShowMessageFace("slime_blue_fc1",2,0,2,18)
  ShowMessage("\\n<Blue Slime>Hate...")
  355("change_friend(-5)")
  0()
 404()
 EndEventProcessing()
 0()
EndIf()
If(1,13,0,30,2)
 ShowMessageFace("slime_blue_fc1",0,0,2,19)
 ShowMessage("\\n<Blue Slime>If you take a walk, you'll arrive at an unfamiliar place... That's common, right?")
 ShowChoices(strings("It is","It's not","It is now"),0)
 IfPlayerPicksChoice(0,"ある")
  ShowMessageFace("slime_blue_fc1",0,0,2,20)
  ShowMessage("\\n<Blue Slime>It's strange...")
  355("change_friend(10)")
  0()
 IfPlayerPicksChoice(1,"ない")
  ShowMessageFace("slime_blue_fc1",2,0,2,21)
  ShowMessage("\\n<Blue Slime>Really...")
  0()
 IfPlayerPicksChoice(2,"今がそうだ")
  ShowMessageFace("slime_blue_fc1",0,0,2,22)
  ShowMessage("\\n<Blue Slime>Did you get lost here...?\nThen give up.")
  0()
 404()
 EndEventProcessing()
 0()
EndIf()
If(1,13,0,40,2)
 ShowMessageFace("slime_blue_fc1",0,0,2,23)
 ShowMessage("\\n<Blue Slime>Which is more beautiful, the blue sky or the blue sea...?")
 ShowChoices(strings("Sky","Sea","You're more beautiful"),0)
 IfPlayerPicksChoice(0,"空")
  ShowMessageFace("slime_blue_fc1",0,0,2,24)
  ShowMessage("\\n<Blue Slime>I see... The sky is beautiful.")
  355("change_friend(5)")
  0()
 IfPlayerPicksChoice(1,"海")
  ShowMessageFace("slime_blue_fc1",0,0,2,25)
  ShowMessage("\\n<Blue Slime>I've never seen the sea.\nI'd like to see it...")
  355("change_friend(5)")
  0()
 IfPlayerPicksChoice(2,"君の方が綺麗")
  ShowMessageFace("slime_blue_fc1",0,0,2,26)
  ShowMessage("\\n<Blue Slime>That makes me happy...")
  355("change_friend(10)")
  0()
 404()
 EndEventProcessing()
 0()
EndIf()
If(1,13,0,50,2)
 ShowMessageFace("slime_blue_fc1",0,0,2,27)
 ShowMessage("\\n<Blue Slime>Blue is good...")
 ShowChoices(strings("Good...","No...","Luka is good..."),0)
 IfPlayerPicksChoice(0,"いい……")
  ShowMessageFace("slime_blue_fc1",0,0,2,28)
  ShowMessage("\\n<Blue Slime>............")
  ShowMessageFace("",0,0,2,29)
  ShowMessage("You feel like you are able to communicate each other's feelings...")
  355("change_friend(10)")
  0()
 IfPlayerPicksChoice(1,"いや……")
  ShowMessageFace("slime_blue_fc1",2,0,2,30)
  ShowMessage("\\n<Blue Slime>............")
  355("change_friend(-5)")
  0()
 IfPlayerPicksChoice(2,"ルカ、いいよね……")
  ShowMessageFace("slime_blue_fc1",0,0,2,31)
  ShowMessage("\\n<Blue Slime>Good...")
  355("change_friend(10)")
  0()
 404()
 EndEventProcessing()
 0()
EndIf()
DefineLabel("要求")
ChangeVariable(13,13,0,2,1,30)
If(1,13,0,10,2)
 If(8,343)
  ShowMessageFace("slime_blue_fc1",0,0,2,32)
  ShowMessage("\\n<Blue Slime>Does bread taste good...?")
  ChangeVariable(24,24,0,3,0,343,0)
  ShowMessageFace("",0,0,2,33)
  ShowMessage("Do you want to give some \\ii[343]? (Have:\\V[24])")
  ShowChoices(strings("Yes","No"),2)
  IfPlayerPicksChoice(0,"Yes")
   ShowMessageFace("slime_blue_fc1",0,0,2,34)
   ShowMessage("\\n<Blue Slime>I'm happy...")
   ChangeInventory_Item(343,1,0,1)
   355("change_friend(20)")
   EndEventProcessing()
   0()
  IfPlayerPicksChoice(1,"No")
   ShowMessageFace("slime_blue_fc1",2,0,2,35)
   ShowMessage("\\n<Blue Slime>I-I'm sorry...")
   EndEventProcessing()
   0()
  404()
  0()
 Else()
  ChangeVariable(13,13,0,0,20)
  0()
 EndIf()
 0()
EndIf()
If(1,13,0,20,2)
 If(8,71)
  ShowMessageFace("slime_blue_fc1",0,0,2,36)
  ShowMessage("\\n<Blue Slime>I want a water stone...")
  ChangeVariable(24,24,0,3,0,71,0)
  ShowMessageFace("",0,0,2,37)
  ShowMessage("Do you want to give a \\ii[71]? (Have:\\V[24])")
  ShowChoices(strings("Yes","No"),2)
  IfPlayerPicksChoice(0,"Yes")
   ShowMessageFace("slime_blue_fc1",0,0,2,38)
   ShowMessage("\\n<Blue Slime>I'm happy...")
   ChangeInventory_Item(71,1,0,1)
   355("change_friend(30)")
   EndEventProcessing()
   0()
  IfPlayerPicksChoice(1,"No")
   ShowMessageFace("slime_blue_fc1",2,0,2,39)
   ShowMessage("\\n<Blue Slime>I-I'm sorry...")
   EndEventProcessing()
   0()
  404()
  0()
 Else()
  ChangeVariable(13,13,0,0,30)
  0()
 EndIf()
 0()
EndIf()
If(1,13,0,30,2)
 ShowMessageFace("slime_blue_fc1",0,0,2,40)
 ShowMessage("\\n<Blue Slime>I want money...")
 If(7,435,0)
  ChangeVariable(24,24,0,3,7,2,0)
  ShowMessageFace("",0,0,2,41)
  ShowMessage("Do you want to give 435G? (Remaining:\\V[24])")
  ShowChoices(strings("Yes","No"),2)
  IfPlayerPicksChoice(0,"Yes")
   ShowMessageFace("slime_blue_fc1",0,0,2,42)
   ShowMessage("\\n<Blue Slime>I'm happy...")
   125(1,0,435)
   355("change_friend(25)")
   EndEventProcessing()
   0()
  IfPlayerPicksChoice(1,"No")
   ShowMessageFace("slime_blue_fc1",2,0,2,43)
   ShowMessage("\\n<Blue Slime>I-I'm sorry...")
   EndEventProcessing()
   0()
  404()
  0()
 Else()
  ShowMessageFace("slime_blue_fc1",2,0,2,44)
  ShowMessage("\\n<Blue Slime>...You don't have any? Sorry...")
  EndEventProcessing()
  0()
 EndIf()
 0()
EndIf()
DefineLabel("贈与")
ChangeVariable(13,13,0,2,1,30)
If(1,25,0,1,0)
 ChangeVariable(13,13,0,0,30)
 ChangeVariable(25,25,0,0,0)
 0()
EndIf()
If(1,25,0,2,0)
 ChangeVariable(13,13,0,2,1,20)
 ChangeVariable(25,25,0,0,0)
 0()
EndIf()
If(1,13,0,10,2)
 ShowMessageFace("slime_blue_fc1",0,0,2,45)
 ShowMessage("\\n<Blue Slime>I'll give you my jelly...")
 250(bytes(0x04,0x08,0x6f,0x3a,0x0c,0x52,0x50,0x47,0x3a,0x3a,0x53,0x45,0x08,0x3a,0x0a,0x40,0x6e,0x61,0x6d,0x65,0x49,0x22,0x0a,0x49,0x74,0x65,0x6d,0x31,0x06,0x3a,0x06,0x45,0x54,0x3a,0x0b,0x40,0x70,0x69,0x74,0x63,0x68,0x69,0x69,0x3a,0x0c,0x40,0x76,0x6f,0x6c,0x75,0x6d,0x65,0x69,0x55))
 ChangeInventory_Item(218,0,0,1)
 ShowMessageFace("",0,0,2,46)
 ShowMessage("The Blue Slime gave you some \\ii[218]!")
 EndEventProcessing()
 0()
EndIf()
If(1,13,0,20,2)
 ShowMessageFace("slime_blue_fc1",0,0,2,47)
 ShowMessage("\\n<Blue Slime>I'll give you some holy water...")
 250(bytes(0x04,0x08,0x6f,0x3a,0x0c,0x52,0x50,0x47,0x3a,0x3a,0x53,0x45,0x08,0x3a,0x0a,0x40,0x6e,0x61,0x6d,0x65,0x49,0x22,0x0a,0x49,0x74,0x65,0x6d,0x31,0x06,0x3a,0x06,0x45,0x54,0x3a,0x0b,0x40,0x70,0x69,0x74,0x63,0x68,0x69,0x69,0x3a,0x0c,0x40,0x76,0x6f,0x6c,0x75,0x6d,0x65,0x69,0x55))
 ChangeInventory_Item(19,0,0,1)
 ShowMessageFace("",0,0,2,48)
 ShowMessage("The Blue Slime gave you some \\ii[19]!")
 EndEventProcessing()
 0()
EndIf()
If(1,13,0,30,2)
 ShowMessageFace("slime_blue_fc1",0,0,2,49)
 ShowMessage("\\n<Blue Slime>I'll give you money...")
 250(bytes(0x04,0x08,0x6f,0x3a,0x0c,0x52,0x50,0x47,0x3a,0x3a,0x53,0x45,0x08,0x3a,0x0a,0x40,0x6e,0x61,0x6d,0x65,0x49,0x22,0x0a,0x49,0x74,0x65,0x6d,0x31,0x06,0x3a,0x06,0x45,0x54,0x3a,0x0b,0x40,0x70,0x69,0x74,0x63,0x68,0x69,0x69,0x3a,0x0c,0x40,0x76,0x6f,0x6c,0x75,0x6d,0x65,0x69,0x55))
 125(0,0,725)
 ShowMessageFace("",0,0,2,50)
 ShowMessage("The Blue Slime gave you 725G!")
 EndEventProcessing()
 0()
EndIf()
0()
