﻿// EVENT 2199
Name "Seduction: Magical Ladybug"

355("$game_troop.lose_event_id = 3199")
ChangeVariable(26,26,0,3,3,1,4)
ChangeVariable(26,26,4,0,10)
ShowMessageFace("m_tento_fc1",2,0,2,1)
ShowMessage("\\n<Magical Ladybug>Am I in big trouble...?\nIf that's the case, then... Eiii!")
355("battler_graphic_hide")
PictureDisplay(5,"ev_m_tento_h1",0,0,0,0,100,100,255,0)
ShowMessageFace("",0,0,2,2)
ShowMessage("The Magical Ladybug forcibly pushes Luka down!")
ShowMessageFace("m_tento_fc1",0,0,2,3)
ShowMessage("\\n<Magical Ladybug>Hey, let's mate like this!\nSo don't move...")
ChangeSwitch(98,98,0)
ChangeSwitch(96,96,0)
ShowChoices(strings("Struggle","Let her continue"),1)
IfPlayerPicksChoice(0,"Struggle")
 ShowMessageFace("",0,0,2,4)
 ShowMessage("Luka struggles violently, and escapes from the Magical Ladybug's restraint!")
 RunCommonEvent(1999)
 EndEventProcessing()
 0()
IfPlayerPicksChoice(1,"Let her continue")
 0()
404()
ShowMessageFace("m_tento_fc1",0,0,2,5)
ShowMessage("\\n<Magical Ladybug>Then let's mate! ♪")
ChangeVariable(26,26,3,0,4)
250(bytes(0x04,0x08,0x6f,0x3a,0x0c,0x52,0x50,0x47,0x3a,0x3a,0x53,0x45,0x08,0x3a,0x0a,0x40,0x6e,0x61,0x6d,0x65,0x49,0x22,0x11,0x6d,0x6f,0x6e,0x5f,0x65,0x72,0x6f,0x5f,0x70,0x79,0x75,0x31,0x06,0x3a,0x06,0x45,0x54,0x3a,0x0b,0x40,0x70,0x69,0x74,0x63,0x68,0x69,0x69,0x3a,0x0c,0x40,0x76,0x6f,0x6c,0x75,0x6d,0x65,0x69,0x69))
PictureDisplay(5,"ev_m_tento_h2",0,0,0,0,100,100,255,0)
311(0,1,1,1,26,true)
ShowMessageFace("",0,0,2,6)
ShowMessage("The Magical Ladybug brings Luka's penis into her vagina!\nHer soft vagina wraps tightly around his dick!\\D")
ShowMessage("Luka takes \\V[26] damage!")
ChangeVariable(27,27,0,3,3,1,2)
If(1,27,0,0,0)
 JumpToLabel("射精1")
 0()
EndIf()
ShowMessageFace("m_tento_fc1",0,0,2,7)
ShowMessage("\\n<Magical Ladybug>Ei, eiii! It feels good!")
250(bytes(0x04,0x08,0x6f,0x3a,0x0c,0x52,0x50,0x47,0x3a,0x3a,0x53,0x45,0x08,0x3a,0x0a,0x40,0x6e,0x61,0x6d,0x65,0x49,0x22,0x13,0x6d,0x6f,0x6e,0x5f,0x65,0x72,0x6f,0x5f,0x63,0x68,0x75,0x70,0x61,0x33,0x06,0x3a,0x06,0x45,0x54,0x3a,0x0b,0x40,0x70,0x69,0x74,0x63,0x68,0x69,0x69,0x3a,0x0c,0x40,0x76,0x6f,0x6c,0x75,0x6d,0x65,0x69,0x69))
311(0,1,1,1,26,true)
ShowMessageFace("",0,0,2,8)
ShowMessage("The Magical Ladybug bounces her waist up and down!\nHer narrow vagina rubs tightly against Luka's penis!\\D")
ShowMessage("Luka takes \\V[26] damage!")
ChangeVariable(27,27,0,3,3,1,2)
If(1,27,0,0,0)
 JumpToLabel("射精1")
 0()
EndIf()
ShowMessageFace("m_tento_fc1",0,0,2,9)
ShowMessage("\\n<Magical Ladybug>Hora, come! ♪\nLet it out inside me! ♪")
250(bytes(0x04,0x08,0x6f,0x3a,0x0c,0x52,0x50,0x47,0x3a,0x3a,0x53,0x45,0x08,0x3a,0x0a,0x40,0x6e,0x61,0x6d,0x65,0x49,0x22,0x13,0x6d,0x6f,0x6e,0x5f,0x65,0x72,0x6f,0x5f,0x63,0x68,0x75,0x70,0x61,0x33,0x06,0x3a,0x06,0x45,0x54,0x3a,0x0b,0x40,0x70,0x69,0x74,0x63,0x68,0x69,0x69,0x3a,0x0c,0x40,0x76,0x6f,0x6c,0x75,0x6d,0x65,0x69,0x69))
311(0,1,1,1,26,true)
ShowMessageFace("",0,0,2,10)
ShowMessage("The Magical Ladybug bends her waist back and forth, tormenting Luka!\\D")
ShowMessage("Luka takes \\V[26] damage!")
ChangeVariable(27,27,0,3,3,1,2)
If(1,27,0,0,0)
 JumpToLabel("射精1")
 0()
EndIf()
DefineLabel("射精1")
ShowMessageFace("",0,0,2,11)
ShowMessage("\\n<Luka>No, I'm coming... Aaaah...")
RunCommonEvent(104)
PictureDisplay(5,"ev_m_tento_h3",0,0,0,0,100,100,255,0)
RunCommonEvent(105)
PictureDisplay(5,"ev_m_tento_h4",0,0,0,0,100,100,255,0)
ShowMessageFace("",0,0,2,12)
ShowMessage("I miserably come inside of the Magical Ladybug's vagina. My semen pours steadily into her narrow vagina.")
ShowMessageFace("m_tento_fc1",0,0,2,13)
ShowMessage("\\n<Magical Ladybug>Ahaha, you came! ♪\nHey hey, did it feel good?")
RunCommonEvent(2000)
EndEventProcessing()
0()
