// EVENT 3171
Name "Alraune"

PictureDisplay(5,"80_alraune_st02",0,0,0,0,100,100,0,0)
PictureMove(5,null,0,0,0,0,100,100,255,0,30,true)
241(bytes(0x04,0x08,0x6f,0x3a,0x0d,0x52,0x50,0x47,0x3a,0x3a,0x42,0x47,0x4d,0x08,0x3a,0x0a,0x40,0x6e,0x61,0x6d,0x65,0x49,0x22,0x09,0x65,0x72,0x6f,0x31,0x06,0x3a,0x06,0x45,0x54,0x3a,0x0c,0x40,0x76,0x6f,0x6c,0x75,0x6d,0x65,0x69,0x69,0x3a,0x0b,0x40,0x70,0x69,0x74,0x63,0x68,0x69,0x69))
ShowMessageFace("",0,0,2,1)
ShowMessage("\\n<Luka>")
ShowMessage("Auuuu...")
ShowMessageFace("",0,0,2,2)
ShowMessage("Stuck in the afterglow of the orgasm, my body relaxes.")
ShowMessage("As soon as I do, the Alraune's petals start to spread out over my waist.")
250(bytes(0x04,0x08,0x6f,0x3a,0x0c,0x52,0x50,0x47,0x3a,0x3a,0x53,0x45,0x08,0x3a,0x0a,0x40,0x6e,0x61,0x6d,0x65,0x49,0x22,0x16,0x6d,0x6f,0x6e,0x5f,0x65,0x72,0x6f,0x5f,0x6d,0x61,0x6b,0x69,0x74,0x75,0x6b,0x69,0x33,0x06,0x3a,0x06,0x45,0x54,0x3a,0x0b,0x40,0x70,0x69,0x74,0x63,0x68,0x69,0x69,0x3a,0x0c,0x40,0x76,0x6f,0x6c,0x75,0x6d,0x65,0x69,0x69))
ShowMessageFace("",0,0,2,3)
ShowMessage("In only a few seconds, I'm completely covered by her flowers and petals.")
ShowMessageFace("alraune_fc1",2,0,2,4)
ShowMessage("\\n<Alraune>")
ShowMessage("Now, next I'm going to use this to suck you dry...")
ShowMessage("This hole down here is the best way to extract nutrients, after all. ♪")
ShowMessageFace("",0,0,2,5)
ShowMessage("Alraune moves some flowers to reveal a pink opening into her body.")
ShowMessageFace("",0,0,2,6)
ShowMessage("It almost looks like a human female's, but inside the pink opening, something is wriggling and squirming inside.")
ShowMessageFace("",0,0,2,7)
ShowMessage("\\n<Luka>")
ShowMessage("S-Stop...!")
ShowMessageFace("alraune_fc1",2,0,2,8)
ShowMessage("\\n<Alraune>")
ShowMessage("Eh? But your penis is already big.")
ShowMessageFace("alraune_fc1",2,0,2,9)
ShowMessage("\\n<Alraune>")
ShowMessage("Doesn't that mean it wants to be inserted in here?")
ShowMessage("It wants to be sucked dry, until it's shriveled and wilts...")
ShowMessageFace("",0,0,2,10)
ShowMessage("Alraune leans on top of me, and aims my penis toward her small pink slit.")
ShowMessageFace("",0,0,2,11)
ShowMessage("Already erect, she easily forces me into her in one smooth movement.")
245(bytes(0x04,0x08,0x6f,0x3a,0x0d,0x52,0x50,0x47,0x3a,0x3a,0x42,0x47,0x53,0x08,0x3a,0x0a,0x40,0x6e,0x61,0x6d,0x65,0x49,0x22,0x1e,0x6d,0x6f,0x6e,0x5f,0x68,0x73,0x65,0x61,0x6e,0x30,0x31,0x5f,0x69,0x6e,0x6e,0x65,0x72,0x77,0x6f,0x72,0x6b,0x73,0x5f,0x61,0x31,0x06,0x3a,0x06,0x45,0x54,0x3a,0x0c,0x40,0x76,0x6f,0x6c,0x75,0x6d,0x65,0x69,0x55,0x3a,0x0b,0x40,0x70,0x69,0x74,0x63,0x68,0x69,0x69))
PictureDisplay(5,"ev_alraune_h1",0,0,0,0,100,100,255,0)
ShowMessageFace("alraune_fc1",2,0,2,12)
ShowMessage("\\n<Alraune>")
ShowMessage("Ehehe. I swallowed your penis. ♪")
ShowMessage("Now, all of your sperm is officially mine! ♪")
ShowMessageFace("",0,0,2,13)
ShowMessage("\\n<Luka>")
ShowMessage("Unnnngh...!!")
ShowMessageFace("",0,0,2,14)
ShowMessage("Nectar drips out of both her small pink opening and some of her flowers, giving off a sweet scent.")
ShowMessageFace("",0,0,2,15)
ShowMessage("Wrapped in the pleasant stimulation from insertion, the sweet smells cause my body to relax.")
ShowMessageFace("",0,0,2,16)
ShowMessage("But the feeling after insertion suddenly changes, as it feels like her vaginal walls themselves are coming alive.")
ShowMessageFace("",0,0,2,17)
ShowMessage("From her entrance, to all the way inside, it feels like every bump, crease, and fold inside of her has a mind of its own, moving and rubbing every direction at once.")
ShowMessageFace("",0,0,2,18)
ShowMessage("\\n<Luka>")
ShowMessage("Ahhh!!")
ShowMessageFace("",0,0,2,19)
ShowMessage("My body shakes involuntarily as I let out a pathetic moan at the sudden unexpected pleasure.")
ShowMessageFace("alraune_fc1",2,0,2,20)
ShowMessage("\\n<Alraune>")
ShowMessage("Hehehe... What a pitiful face.")
ShowMessageFace("alraune_fc1",2,0,2,21)
ShowMessage("\\n<Alraune>")
ShowMessage("As soon as a man feels this, they always go insane with ecstasy. ♪")
ShowMessageFace("",0,0,2,22)
ShowMessage("\\n<Luka>")
ShowMessage("Nnngh...")
ShowMessageFace("",0,0,2,23)
ShowMessage("It's as if I was forced into a massage, specially tailored for maximum stimulation.")
ShowMessageFace("",0,0,2,24)
ShowMessage("Her soft, wriggling walls gently rub and massage me, urging me toward a quick orgasm.")
ShowMessageFace("",0,0,2,25)
ShowMessage("\\n<Luka>")
ShowMessage("Ahhh... I... I'm going to come...!")
ShowMessageFace("alraune_fc1",2,0,2,26)
ShowMessage("\\n<Alraune>")
ShowMessage("Hehe, that's good.")
ShowMessage("I need to suck out alllll of your semen, after all. ♪")
ShowMessageFace("",0,0,2,27)
ShowMessage("As if encouraged by my words, the speed of the massage increases, almost turning into a milking movement.")
ShowMessage("Unable to take it any more, I give in to the rising climax.")
ShowMessageFace("",0,0,2,28)
ShowMessage("\\n<Luka>")
ShowMessage("I'm coming....")
ShowMessage("Ah, aaaahhh!")
RunCommonEvent(104)
PictureDisplay(5,"ev_alraune_h2",0,0,0,0,100,100,255,0)
RunCommonEvent(105)
ShowMessageFace("",0,0,2,29)
ShowMessage("As soon as the first spurt of semen shoots into Alraune's vagina, her walls increase in force and speed into a strong milking movement, making sure every single drop is squeezed out of me into her.")
ShowMessageFace("alraune_fc1",2,0,2,30)
ShowMessage("\\n<Alraune>")
ShowMessage("Aha, you're coming, you're coming.")
ShowMessage("I'll milk you to the last drop. ♪")
ShowMessageFace("",0,0,2,31)
ShowMessage("\\n<Luka>")
ShowMessage("Ahhh... Y...You're wringing it all out...")
ShowMessageFace("",0,0,2,32)
ShowMessage("Designed just for extracting semen from men, her pussy squeezes out every drop of my last orgasm.")
ShowMessageFace("",0,0,2,33)
ShowMessage("\\n<Luka>")
ShowMessage("Unnngh...")
ShowMessageFace("alraune_fc1",2,0,2,34)
ShowMessage("\\n<Alraune>")
ShowMessage("Ehehe, your face looks so happy. ♪")
ShowMessage("It makes me want to tease you a little. ♪")
PictureDisplay(5,"ev_alraune_h3",0,0,0,0,100,100,255,0)
ShowMessageFace("",0,0,2,35)
ShowMessage("Two long flowers come out from Alraune's lower body.")
ShowMessageFace("",0,0,2,36)
ShowMessage("Suddenly, both of them latch onto my nipples!")
ShowMessage("The unexpected touch on my chest causes me to shiver, and my penis gets hard again inside of Alraune's vagina.")
ShowMessageFace("",0,0,2,37)
ShowMessage("\\n<Luka>")
ShowMessage("Wh...What are you doing...?")
ShowMessageFace("alraune_fc1",2,0,2,38)
ShowMessage("\\n<Alraune>")
ShowMessage("These flowers are for using on girls.")
ShowMessage("They latch onto their breasts, and are able to suck out milk.")
ShowMessageFace("alraune_fc1",2,0,2,39)
ShowMessage("\\n<Alraune>")
ShowMessage("I've never used them on a boy before...")
ShowMessage("I want to see what happens!")
ShowMessageFace("",0,0,2,40)
ShowMessage("\\n<Luka>")
ShowMessage("N...no way... Ahhh!")
ShowMessageFace("",0,0,2,41)
ShowMessage("The flowers on my left and right nipple latch on, and start to suck on them.")
ShowMessageFace("",0,0,2,42)
ShowMessage("The soft, honey covered flowers put pressure on me, while her pussy starts its massaging motions again.")
ShowMessageFace("",0,0,2,43)
ShowMessage("The three different sources of milking motions make it feel like my entire body is being exploited.")
ShowMessageFace("",0,0,2,44)
ShowMessage("\\n<Luka>")
ShowMessage("Ahh! Ahhhh!!")
ShowMessageFace("",0,0,2,45)
ShowMessage("My body shivers as the sucking motions get more intense.")
ShowMessage("If I were a woman, would milk be coming out...?")
ShowMessageFace("",0,0,2,46)
ShowMessage("But of course, nothing comes out.")
ShowMessage("Even so, the flowers latched onto me don't give up, and continue to suck with ever increasing pressure.")
ShowMessageFace("",0,0,2,47)
ShowMessage("\\n<Luka>")
ShowMessage("Ahhh! Stop!")
ShowMessage("Ahhhhh!")
ShowMessageFace("alraune_fc1",2,0,2,48)
ShowMessage("\\n<Alraune>")
ShowMessage("Milk really won't come out...")
ShowMessage("But it looks like it feels good anyway. ♪")
ShowMessageFace("",0,0,2,49)
ShowMessage("\\n<Luka>")
ShowMessage("Ahhh!")
ShowMessageFace("",0,0,2,50)
ShowMessage("The flowers on my nipples continue to uselessly milk me, while her pussy continues to actually milk me.")
ShowMessageFace("",0,0,2,51)
ShowMessage("If it were given to a woman, this would be one to make her milk squirt out but since I'm a man, it only gives me hellish pleasure.")
ShowMessageFace("",0,0,2,52)
ShowMessage("\\n<Luka>")
ShowMessage("Stop it!")
ShowMessage("Stop this!!")
ShowMessageFace("",0,0,2,53)
ShowMessage("The bizarre new stimulation on my nipples causes me to reach another orgasm, shooting milk out of my penis instead of my breasts...")
RunCommonEvent(104)
PictureDisplay(5,"ev_alraune_h4",0,0,0,0,100,100,255,0)
RunCommonEvent(105)
ShowMessageFace("",0,0,2,54)
ShowMessage("I spill my semen inside her vagina as I'm being milked...")
ShowMessageFace("alraune_fc1",2,0,2,55)
ShowMessage("\\n<Alraune>")
ShowMessage("Arara... So the milk came out down here.")
ShowMessage("I guess there's no harm in milking both places at once, then. ♪")
ShowMessageFace("",0,0,2,56)
ShowMessage("\\n<Luka>")
ShowMessage("Ahh! Stop!")
ShowMessage("Aaaaaahhhh!!")
ShowMessageFace("",0,0,2,57)
ShowMessage("Thus began a nightmare of being sucked from three places at once...")
ShowMessageFace("",0,0,2,58)
ShowMessage("The flowers suck pointlessly on my nipples, while her pussy milks my penis...")
PictureDisplay(5,"ev_alraune_h5",0,0,0,0,100,100,255,0)
ShowMessageFace("",0,0,2,59)
ShowMessage("But then, more flowers come up to start sucking on my entire body!")
ShowMessageFace("",0,0,2,60)
ShowMessage("\\n<Luka>")
ShowMessage("Aaaahhh...!")
ShowMessageFace("alraune_fc1",2,0,2,61)
ShowMessage("\\n<Alraune>")
ShowMessage("I'm milking your breasts like a girl...")
ShowMessage("But just look at that reaction when I embrace your whole body. You're so shy. ♪")
ShowMessageFace("",0,0,2,62)
ShowMessage("Fine hairs inside the flowers start to tickle my body, sending a new stimulation racing throughout me.")
ShowMessageFace("",0,0,2,63)
ShowMessage("Then, as if there were two tiny mouths inside, both of my nipples are sucked into a small opening.")
ShowMessageFace("",0,0,2,64)
ShowMessage("\\n<Luka>")
ShowMessage("Ahhh! Ahhhhh!!")
ShowMessageFace("alraune_fc1",2,0,2,65)
ShowMessage("\\n<Alraune>")
ShowMessage("Ahaha, you look so frantic all of a sudden.")
ShowMessage("Don't worry, you can shoot out your milk whenever it's too much to hold in. ♪")
ShowMessageFace("",0,0,2,66)
ShowMessage("Her pussy tightens after her words, as if emphasizing that it's hungry for more...")
ShowMessageFace("",0,0,2,67)
ShowMessage("Way too late to do anything about it, I realize that her whole body has evolved into an efficient way to milk men for their semen...")
ShowMessageFace("",0,0,2,68)
ShowMessage("\\n<Luka>")
ShowMessage("No more...! I'm going to come!")
ShowMessageFace("",0,0,2,69)
ShowMessage("While being sucked all over, I quickly given in again.")
ShowMessage("Then...")
RunCommonEvent(104)
PictureDisplay(5,"ev_alraune_h6",0,0,0,0,100,100,255,0)
RunCommonEvent(105)
ShowMessageFace("",0,0,2,70)
ShowMessage("The semen, the proof of my submission to her, is quickly sucked up by her waiting pussy.")
ShowMessageFace("",0,0,2,71)
ShowMessage("\\n<Luka>")
ShowMessage("Ahh... Stop this... Someone help me...")
ShowMessageFace("",0,0,2,72)
ShowMessage("Overcome by the intensity of it all, I beg for Alraune to stop with tears in my eyes.")
ShowMessage("But she just looks back at me with a smile on her face, not stopping the milking.")
ShowMessageFace("alraune_fc1",2,0,2,73)
ShowMessage("\\n<Alraune>")
ShowMessage("Not until you're empty.")
ShowMessage("I'll stop right before you would die, so don't worry. ♪")
ShowMessageFace("alraune_fc1",2,0,2,74)
ShowMessage("\\n<Alraune>")
ShowMessage("I wouldn't waste a delicious source of milk like you.")
ShowMessageFace("",0,0,2,75)
ShowMessage("\\n<Luka>")
ShowMessage("Ahhh... Help me...")
RunCommonEvent(104)
RunCommonEvent(105)
ShowMessageFace("",0,0,2,76)
ShowMessage("Milked a final time, I feel myself about to faint.")
ShowMessage("The endless barrage of pleasure finally starts to fade, as I slip into sleep.")
ShowMessageFace("",0,0,2,77)
ShowMessage("\\n<Luka>")
ShowMessage("Ah... Ahhh...")
ShowMessageFace("",0,0,2,78)
ShowMessage("Wrapped in an endless ecstasy, I finally lose consciousness.")
221()
PictureClear(5)
PictureClear(6)
246(2)
ShowMessageFace("alraune_fc1",2,0,2,79)
ShowMessage("\\n<Alraune>")
ShowMessage("Arere...? He fainted while I'm still sucking on him?")
ShowMessage("But that's fine... I'll be milking him for forever from now on. ♪")
ShowMessageFace("",0,0,2,80)
ShowMessage("I hear those horrifying words right as my world fades to black.")
ShowMessageFace("",0,0,2,81)
ShowMessage("Sleep will only be a short respite from this endless pleasure...")
ShowMessageFace("",0,0,2,82)
ShowMessage("......")
221()
242(1)
Wait(120)
355("memory_interruption")
ShowMessageFace("",0,0,2,83)
ShowMessage("You hear Ilias' voice calling out to you...")
ShowMessage("Receive her evaluation?")
ShowChoices(strings("Receive Evaluation","Change Difficulty","Reincarnate"),3)
IfPlayerPicksChoice(0,"Receive Evaluation")
 241(bytes(0x04,0x08,0x6f,0x3a,0x0d,0x52,0x50,0x47,0x3a,0x3a,0x42,0x47,0x4d,0x08,0x3a,0x0a,0x40,0x6e,0x61,0x6d,0x65,0x49,0x22,0x0a,0x69,0x72,0x69,0x61,0x73,0x06,0x3a,0x06,0x45,0x54,0x3a,0x0c,0x40,0x76,0x6f,0x6c,0x75,0x6d,0x65,0x69,0x5f,0x3a,0x0b,0x40,0x70,0x69,0x74,0x63,0x68,0x69,0x6e))
 PictureDisplay(1,"bg001",0,0,0,0,100,100,255,0)
 222()
 PictureDisplay(5,"80_iriasu_st04",0,0,0,0,100,100,0,0)
 PictureMove(5,null,0,0,0,0,100,100,255,0,30,true)
 ShowMessageFace("iriasu_fc1",3,0,2,84)
 ShowMessage("\\n<Ilias>")
 ShowMessage("This time, sucked dry by a flower...")
 ShowMessage("Really, you are quite pitiful...")
 PictureDisplay(5,"80_iriasu_st01",0,0,0,0,100,100,255,0)
 ShowMessageFace("iriasu_fc1",0,0,2,85)
 ShowMessage("\\n<Ilias>")
 ShowMessage("Alraune is mostly a support type, using recovery and status inducing skills.")
 ShowMessage("She is really annoying because she appears along with the Centaur Girl.")
 ShowMessageFace("iriasu_fc1",0,0,2,86)
 ShowMessage("\\n<Ilias>")
 ShowMessage("Since she is a plant, her defense isn't that great and she's especially weak to Fire.")
 ShowMessage("In terms of offense, this shouldn't be a hard fight.")
 PictureDisplay(5,"80_iriasu_st02",0,0,0,0,100,100,255,0)
 ShowMessageFace("iriasu_fc1",1,0,2,87)
 ShowMessage("\\n<Ilias>")
 ShowMessage("Now go, oh Brave Luka.")
 ShowMessage("Make Alraune's next blooming be a shower of blood.")
 242(1)
 221()
 PictureClear(5)
 PictureClear(1)
 Wait(60)
 0()
IfPlayerPicksChoice(1,"Change Difficulty")
 ShowMessageFace("",0,0,2,88)
 ShowMessage("Please choose a difficulty level.")
 RunCommonEvent(110)
 0()
IfPlayerPicksChoice(2,"Reincarnate")
 0()
404()
RunCommonEvent(3000)
0()
