// EVENT 0188
Name "サバイバルコース1"

ChangeSwitch(48,48,0)
ChangeSwitch(49,49,1)
If(1,82,0,0,0)
 ShowMessageFace("",0,0,2,1)
 ShowMessage("\\n<Official>Currently, Luka's number of victories is....still zero.\nDo you want to try a Survival challenge?")
 0()
Else()
 ShowMessageFace("",0,0,2,2)
 ShowMessage("\\n<Official>Currently, Luka's number of victories is....\\V[82] consecutive wins.\nDo you want to try a Survival challenge?")
 0()
EndIf()
ShowChoices(strings("Yes","No"),2)
IfPlayerPicksChoice(0,null)
 0()
IfPlayerPicksChoice(1,null)
 RunCommonEvent(159)
 EndEventProcessing()
 0()
404()
ShowMessageFace("",0,0,2,3)
ShowMessage("\\n<Official>In that case, please proceed to the arena!")
TeleportPlayer(0,483,32,31,6,0)
ChangeVariable(1002,1002,0,0,41)
ChangeVariable(81,81,0,0,0)
ShowMessageFace("",0,0,2,4)
ShowMessage("\\n<Referee>Team Luka has entered!\nWithout further ado, the survival challenge begins!!")
ChangeVariable(1002,1002,0,0,41)
RunCommonEvent(10)
DefineLabel("ループ")
RunCommonEvent(191)
ChangeVariable(81,81,1,0,1)
If(1,81,1,82,1)
 ChangeVariable(82,82,0,1,81)
 0()
EndIf()
ChangeVariable(12,12,0,1,81)
ChangeVariable(12,12,3,0,10)
ChangeVariable(41,41,0,0,100)
ChangeVariable(41,41,1,1,12)
ChangeVariable(42,42,0,0,100)
ChangeVariable(42,42,1,1,12)
ChangeVariable(43,43,0,0,100)
ChangeVariable(43,43,1,1,12)
ChangeVariable(44,44,0,0,100)
ChangeVariable(44,44,1,1,12)
ChangeVariable(46,46,0,0,100)
ChangeVariable(47,47,0,0,100)
ChangeVariable(45,45,0,0,25)
If(1,43,0,300,1)
 ChangeVariable(43,43,0,0,300)
 0()
EndIf()
If(1,81,0,3,1)
 If(1,83,0,0,0)
  ChangeVariable(83,83,0,0,1)
  250(bytes(0x04,0x08,0x6f,0x3a,0x0c,0x52,0x50,0x47,0x3a,0x3a,0x53,0x45,0x08,0x3a,0x0a,0x40,0x6e,0x61,0x6d,0x65,0x49,0x22,0x0a,0x49,0x74,0x65,0x6d,0x31,0x06,0x3a,0x06,0x45,0x54,0x3a,0x0b,0x40,0x70,0x69,0x74,0x63,0x68,0x69,0x69,0x3a,0x0c,0x40,0x76,0x6f,0x6c,0x75,0x6d,0x65,0x69,0x55))
  ChangeInventory_Item(32,0,0,1)
  0()
 EndIf()
 0()
EndIf()
If(1,81,0,7,1)
 If(1,83,0,1,0)
  ChangeVariable(83,83,0,0,2)
  250(bytes(0x04,0x08,0x6f,0x3a,0x0c,0x52,0x50,0x47,0x3a,0x3a,0x53,0x45,0x08,0x3a,0x0a,0x40,0x6e,0x61,0x6d,0x65,0x49,0x22,0x0a,0x49,0x74,0x65,0x6d,0x31,0x06,0x3a,0x06,0x45,0x54,0x3a,0x0b,0x40,0x70,0x69,0x74,0x63,0x68,0x69,0x69,0x3a,0x0c,0x40,0x76,0x6f,0x6c,0x75,0x6d,0x65,0x69,0x55))
  ChangeInventory_Item(37,0,0,1)
  ChangeInventory_Item(41,0,0,1)
  ChangeInventory_Item(45,0,0,1)
  0()
 EndIf()
 0()
EndIf()
If(1,81,0,10,1)
 If(1,83,0,2,0)
  ChangeVariable(83,83,0,0,3)
  250(bytes(0x04,0x08,0x6f,0x3a,0x0c,0x52,0x50,0x47,0x3a,0x3a,0x53,0x45,0x08,0x3a,0x0a,0x40,0x6e,0x61,0x6d,0x65,0x49,0x22,0x0a,0x49,0x74,0x65,0x6d,0x31,0x06,0x3a,0x06,0x45,0x54,0x3a,0x0b,0x40,0x70,0x69,0x74,0x63,0x68,0x69,0x69,0x3a,0x0c,0x40,0x76,0x6f,0x6c,0x75,0x6d,0x65,0x69,0x55))
  ChangeInventory_Item(550,0,0,1)
  0()
 EndIf()
 0()
EndIf()
If(1,81,0,15,1)
 If(1,83,0,3,0)
  ChangeVariable(83,83,0,0,4)
  250(bytes(0x04,0x08,0x6f,0x3a,0x0c,0x52,0x50,0x47,0x3a,0x3a,0x53,0x45,0x08,0x3a,0x0a,0x40,0x6e,0x61,0x6d,0x65,0x49,0x22,0x0a,0x49,0x74,0x65,0x6d,0x31,0x06,0x3a,0x06,0x45,0x54,0x3a,0x0b,0x40,0x70,0x69,0x74,0x63,0x68,0x69,0x69,0x3a,0x0c,0x40,0x76,0x6f,0x6c,0x75,0x6d,0x65,0x69,0x55))
  ChangeInventoryArmor(1592,0,0,1,false)
  0()
 EndIf()
 0()
EndIf()
If(1,81,0,20,1)
 If(1,83,0,4,0)
  ChangeVariable(83,83,0,0,5)
  250(bytes(0x04,0x08,0x6f,0x3a,0x0c,0x52,0x50,0x47,0x3a,0x3a,0x53,0x45,0x08,0x3a,0x0a,0x40,0x6e,0x61,0x6d,0x65,0x49,0x22,0x0a,0x49,0x74,0x65,0x6d,0x31,0x06,0x3a,0x06,0x45,0x54,0x3a,0x0b,0x40,0x70,0x69,0x74,0x63,0x68,0x69,0x69,0x3a,0x0c,0x40,0x76,0x6f,0x6c,0x75,0x6d,0x65,0x69,0x55))
  ChangeInventoryArmor(1485,0,0,1,false)
  0()
 EndIf()
 0()
EndIf()
If(1,81,0,25,1)
 If(1,83,0,5,0)
  ChangeVariable(83,83,0,0,6)
  250(bytes(0x04,0x08,0x6f,0x3a,0x0c,0x52,0x50,0x47,0x3a,0x3a,0x53,0x45,0x08,0x3a,0x0a,0x40,0x6e,0x61,0x6d,0x65,0x49,0x22,0x0a,0x49,0x74,0x65,0x6d,0x31,0x06,0x3a,0x06,0x45,0x54,0x3a,0x0b,0x40,0x70,0x69,0x74,0x63,0x68,0x69,0x69,0x3a,0x0c,0x40,0x76,0x6f,0x6c,0x75,0x6d,0x65,0x69,0x55))
  ChangeInventoryArmor(1097,0,0,1,false)
  0()
 EndIf()
 0()
EndIf()
If(1,81,0,30,1)
 If(1,83,0,6,0)
  ChangeVariable(83,83,0,0,7)
  250(bytes(0x04,0x08,0x6f,0x3a,0x0c,0x52,0x50,0x47,0x3a,0x3a,0x53,0x45,0x08,0x3a,0x0a,0x40,0x6e,0x61,0x6d,0x65,0x49,0x22,0x0a,0x49,0x74,0x65,0x6d,0x31,0x06,0x3a,0x06,0x45,0x54,0x3a,0x0b,0x40,0x70,0x69,0x74,0x63,0x68,0x69,0x69,0x3a,0x0c,0x40,0x76,0x6f,0x6c,0x75,0x6d,0x65,0x69,0x55))
  ChangeInventoryArmor(1093,0,0,1,false)
  0()
 EndIf()
 0()
EndIf()
ChangeVariable(11,11,0,1,81)
ChangeVariable(11,11,5,0,5)
If(1,11,0,0,0)
 ShowMessageFace("",0,0,2,5)
 ShowMessage("\\n<Referee>With this, Team Luka has won \\V[81] consecutive battles!\nYou can retire from the challenge at this point, but do you want to?")
 ShowChoices(strings("Continue fighting","Retire"),0)
 IfPlayerPicksChoice(0,null)
  ShowMessageFace("",0,0,2,6)
  ShowMessage("\\n<Referee>Team Luka will continue the challenge!\nThank you, on to the next battle!")
  JumpToLabel("ループ")
  0()
 IfPlayerPicksChoice(1,null)
  ShowMessageFace("",0,0,2,7)
  ShowMessage("\\n<Referee>Do you really want to retire now...?")
  ShowChoices(strings("Continue fighting after all","Retire"),0)
  IfPlayerPicksChoice(0,null)
   ShowMessageFace("",0,0,2,8)
   ShowMessage("\\n<Referee>Team Luka will continue the challenge!\nWell then, on to the next battle!")
   JumpToLabel("ループ")
   0()
  IfPlayerPicksChoice(1,null)
   ShowMessageFace("",0,0,2,9)
   ShowMessage("\\n<Referee>Team Luka will retire here~!\nAfter winning \\V[81] consecutive battles, they are finally at their limit!")
   ShowMessageFace("",0,0,2,10)
   ShowMessage("\\n<Referee>Well then, we shall await their next challenge!")
   ShowMessage("Everyone, please give applause for the great battles Team Luka showed us today~!!")
   221()
   RunCommonEvent(159)
   TeleportPlayer(0,484,14,10,2,2)
   Wait(60)
   222()
   EndEventProcessing()
   0()
  404()
  0()
 404()
 0()
Else()
 ShowMessageFace("",0,0,2,11)
 ShowMessage("\\n<Referee>Team Luka has won \\V[81] consecutive battles!\nWell then, on to the next battle!")
 JumpToLabel("ループ")
 0()
EndIf()
0()
