// EVENT 4172
Name "Sully 2"

If(0,25,1)
 221()
 PictureClear(5)
 PictureClear(6)
 ShowMessageFace("",0,0,2,0)
 ShowMessage("......")
 242(2)
 Wait(120)
 241(bytes(0x04,0x08,0x6f,0x3a,0x0d,0x52,0x50,0x47,0x3a,0x3a,0x42,0x47,0x4d,0x08,0x3a,0x0a,0x40,0x6e,0x61,0x6d,0x65,0x49,0x22,0x0c,0x63,0x61,0x73,0x74,0x6c,0x65,0x36,0x06,0x3a,0x06,0x45,0x54,0x3a,0x0c,0x40,0x76,0x6f,0x6c,0x75,0x6d,0x65,0x69,0x69,0x3a,0x0b,0x40,0x70,0x69,0x74,0x63,0x68,0x69,0x69))
 EndEventProcessing()
 0()
EndIf()
PictureDisplay(5,"80_syuree_st01",0,0,0,0,100,100,255,0)
ShowMessageFace("syuree_fc1",0,0,2,1)
ShowMessage("\\n<Sully>You want to do lewd things with me~?")
ShowMessageFace("",0,0,2,2)
ShowMessage("\\n<Luka>P-please...")
ShowMessageFace("syuree_fc1",1,0,2,3)
ShowMessage("\\n<Sully>Okay~♪")
241(bytes(0x04,0x08,0x6f,0x3a,0x0d,0x52,0x50,0x47,0x3a,0x3a,0x42,0x47,0x4d,0x08,0x3a,0x0a,0x40,0x6e,0x61,0x6d,0x65,0x49,0x22,0x09,0x65,0x72,0x6f,0x31,0x06,0x3a,0x06,0x45,0x54,0x3a,0x0c,0x40,0x76,0x6f,0x6c,0x75,0x6d,0x65,0x69,0x69,0x3a,0x0b,0x40,0x70,0x69,0x74,0x63,0x68,0x69,0x69))
PictureDisplay(5,"ev_syuree_hc01",0,0,0,0,100,100,0,0)
PictureMove(5,null,0,0,0,0,100,100,255,0,30,true)
ShowMessageFace("",0,0,2,4)
ShowMessage("As soon as she says that, Sully coils around my body.")
ShowMessage("Her tongue stretches out toward my own.")
ShowMessageFace("syuree_fc1",0,0,2,5)
ShowMessage("\\n<Sully>Nnn... *Lick*♪")
ShowMessageFace("",0,0,2,6)
ShowMessage("Our bodies close together, we share a wet kiss.")
ShowMessage("Our tongues coil around each other, dripping saliva.")
ShowMessageFace("",0,0,2,7)
ShowMessage("\\n<Luka>Nnn... Nnnnn...")
ShowMessageFace("",0,0,2,8)
ShowMessage("At the same time, Sully is playing with my nipples.")
ShowMessage("The ticklish feeling gets me quickly excited.")
ShowMessageFace("syuree_fc1",0,0,2,9)
ShowMessage("\\n<Sully>Your nipples are all stiff...\nYou really like this, don't you?♪")
ShowMessageFace("syuree_fc1",0,0,2,10)
ShowMessage("\\n<Sully>Hey, you've never been a Papa, right?\nYour big sister here will guide you through it.")
ShowMessageFace("",0,0,2,11)
ShowMessage("\\n<Luka>Papa? You can't possibly mean...")
ShowMessageFace("",0,0,2,12)
ShowMessage("Sully's tail strokes my penis as I stutter in confusion.")
ShowMessage("Her tail clearly has an insertion hole in it of some sort.")
ShowMessageFace("syuree_fc1",0,0,2,13)
ShowMessage("\\n<Sully>I'll give you a reeaaaally good feeling becoming a Papa.\nTell me when your penis is ready.♪")
ShowMessageFace("",0,0,2,14)
ShowMessage("Saying that, she rubs the slit of her hole against my tip.")
ShowMessage("The seductive touch makes me completely excited.")
ShowMessageFace("",0,0,2,15)
ShowMessage("\\n<Luka>Aaah... I-I want to put it in...")
PictureDisplay(5,"ev_syuree_hc02",0,0,0,0,100,100,255,0)
ShowMessageFace("syuree_fc1",0,0,2,16)
ShowMessage("\\n<Sully>Ahh, I was right.~♪\nThe preparations are ready, you can do it anytime.~♪")
ShowMessageFace("syuree_fc1",0,0,2,17)
ShowMessage("\\n<Sully>Just a little nipple rubbing and a kiss got you this excited?")
ShowMessageFace("",0,0,2,18)
ShowMessage("Sully gazes at my hard cock and giggles.")
ShowMessage("My cheeks flush with embarassement, but the excitement causes my cock to tremble.")
ShowMessageFace("syuree_fc1",0,0,2,19)
ShowMessage("\\n<Sully>It's a baby-making organ.♪\nGoood boy, good boy, I'll make you a Papa now.♪")
ShowMessageFace("",0,0,2,20)
ShowMessage("\\n<Luka>Ah... Aaah...")
ShowMessageFace("",0,0,2,21)
ShowMessage("Giggling, Sully slowly moves her tail...")
PictureDisplay(5,"ev_syuree_hc03",0,0,0,0,100,100,255,0)
245(bytes(0x04,0x08,0x6f,0x3a,0x0d,0x52,0x50,0x47,0x3a,0x3a,0x42,0x47,0x53,0x08,0x3a,0x0a,0x40,0x6e,0x61,0x6d,0x65,0x49,0x22,0x1e,0x6d,0x6f,0x6e,0x5f,0x68,0x73,0x65,0x61,0x6e,0x30,0x39,0x5f,0x69,0x6e,0x6e,0x65,0x72,0x77,0x6f,0x72,0x6b,0x73,0x5f,0x62,0x31,0x06,0x3a,0x06,0x45,0x54,0x3a,0x0c,0x40,0x76,0x6f,0x6c,0x75,0x6d,0x65,0x69,0x55,0x3a,0x0b,0x40,0x70,0x69,0x74,0x63,0x68,0x69,0x69))
ShowMessageFace("",0,0,2,22)
ShowMessage("The tip of my penis slips into her reproductive hole.")
ShowMessage("The warm, wet touch overrides my senses with pleasure.")
ShowMessageFace("",0,0,2,23)
ShowMessage("\\n<Luka>Ah... Aaah!")
ShowMessageFace("syuree_fc1",0,0,2,24)
ShowMessage("\\n<Sully>It's reeeealy slow at first.♪\nAt first, only your sensitive tip is allowed in.♪")
ShowMessageFace("",0,0,2,25)
ShowMessage("Telling me that, Sully starts to move her tail up and down.")
ShowMessage("My glans is stroked inside her organ.")
ShowMessageFace("",0,0,2,26)
ShowMessage("Slowly moving, it isn't intense at all.")
ShowMessage("But despite that, even the moderate pleasure is enough to make me moan.")
ShowMessageFace("syuree_fc1",0,0,2,27)
ShowMessage("\\n<Sully>As we go slowly, you need to really think it over.♪\nAs soon as you come, you'll know you've had made a baby.♪")
ShowMessageFace("",0,0,2,28)
ShowMessage("\\n<Luka>Ah, a baby... That's not...\nWe can't do that...")
ShowMessageFace("syuree_fc1",0,0,2,29)
ShowMessage("\\n<Sully>You want your penis to feel good?\nBut don't want to become a Papa? That's not fair at all!♪")
PictureDisplay(5,"ev_syuree_hc04",0,0,0,0,100,100,255,0)
ShowMessageFace("",0,0,2,30)
ShowMessage("Her tail movements get a little faster.")
ShowMessage("Her slowly increasing piston movements treat my penis like prey.")
ShowMessageFace("",0,0,2,31)
ShowMessage("Even though Sully is my ally, she's a strange creature...")
ShowMessage("The though of impregnating her goes against my nature.")
ShowMessageFace("",0,0,2,32)
ShowMessage("\\n<Luka>Ah, unnngh...")
ShowMessageFace("",0,0,2,33)
ShowMessage("The desire to ejaculate slowly rises up in my body.")
ShowMessage("Urged by her piston-like movements, my body wants nothing more than to come.")
ShowMessageFace("syuree_fc1",0,0,2,34)
ShowMessage("\\n<Sully>Are you scared? Don't be!♪\nWe can hold hands together to calm you down.♪")
ShowMessageFace("syuree_fc1",0,0,2,35)
ShowMessage("\\n<Sully>When it feels so good you can't hold back, just let go!\nJust let it go pew pew! Let it go.♪")
ShowMessageFace("",0,0,2,36)
ShowMessage("\\n<Luka>I can't do that...")
ShowMessageFace("",0,0,2,37)
ShowMessage("Despite my words, I can't endure it much longer.")
ShowMessage("Even though I know if I come, she'll get pregnant...")
ShowMessageFace("",0,0,2,38)
ShowMessage("I can't resist this bizarre organ.")
ShowMessage("Urged by her piston-like movements, I'm pushed to the edge at once.")
ShowMessageFace("",0,0,2,39)
ShowMessage("\\n<Luka>Aaah...Oh no, I'm coming...\nEven though I shouldn't come...!")
ShowMessageFace("syuree_fc1",0,0,2,40)
ShowMessage("\\n<Sully>Coming?\nIs the sperm that's going to make a baby flowing from your balls right now?")
ShowMessageFace("",0,0,2,41)
ShowMessage("\\n<Luka>Ah...Coming! Ahh...")
ShowMessageFace("syuree_fc1",1,0,2,42)
ShowMessage("\\n<Sully>Hoora, it's happening!♪\nYou're going to become a Papa!♪")
ShowMessageFace("",0,0,2,43)
ShowMessage("The moment of my submission is coming at last.")
ShowMessage("Surrendering to the pleasure, my penis pulses.")
RunCommonEvent(104)
PictureDisplay(5,"ev_syuree_hc05",0,0,0,0,100,100,255,0)
RunCommonEvent(105)
ShowMessageFace("",0,0,2,44)
ShowMessage("\\n<Luka>Aaah...")
ShowMessageFace("",0,0,2,45)
ShowMessage("My semen explodes into Sully's reproductive organ.")
ShowMessage("It shoots deep into her, too late to take back.")
ShowMessageFace("syuree_fc1",0,0,2,46)
ShowMessage("\\n<Sully>Ahh~hhh, you came~♪\nAnd your face looks like it felt amazing, too.♪")
ShowMessageFace("",0,0,2,47)
ShowMessage("\\n<Luka>Nnngh...")
ShowMessageFace("",0,0,2,48)
ShowMessage("Each time my semen spurts into her, I feel a melancholic pleasure.")
ShowMessage("My hips press forward as my male instinct takes over, seeking pleasure.")
ShowMessageFace("syuree_fc1",0,0,2,49)
ShowMessage("\\n<Sully>Look at you, bucking your waist.♪\nDid you want to impregnate me that badly?")
ShowMessageFace("syuree_fc1",0,0,2,50)
ShowMessage("\\n<Sully>Come on, let's get the rest out of you too.♪")
ShowMessageFace("",0,0,2,51)
ShowMessage("Sully moves her tail, squeezing out every drop of semen.")
ShowMessage("The sweet feeling of being squeezed dry fills me.")
ShowMessageFace("",0,0,2,52)
ShowMessage("Like that, I came inside Sully...")
ShowMessage("A forbidden impregnation.")
PictureDisplay(5,"ev_syuree_hc06",0,0,0,0,100,100,255,0)
ShowMessageFace("syuree_fc1",0,0,2,53)
ShowMessage("\\n<Sully>Ah, amazing.♪\nThe little tadpoles are swimming.♪")
ShowMessageFace("syuree_fc1",0,0,2,54)
ShowMessage("\\n<Sully>They want to fertilize me so bad.\nThey're trying so hard~♪")
ShowMessageFace("",0,0,2,55)
ShowMessage("Sully seems to be able to sense what's happening inside her.")
ShowMessage("The forbidden fertilization is about to happen...")
ShowMessageFace("syuree_fc1",0,0,2,56)
ShowMessage("\\n<Sully>Hora, come here~♪\nAn egg is ready for you, little sperm~♪")
ShowMessageFace("",0,0,2,57)
ShowMessage("\\n<Luka>No, don't...\nDon't fertilize her...")
ShowMessageFace("syuree_fc1",0,0,2,58)
ShowMessage("\\n<Sully>Don't? Don't be so pessimistic.♪\nYour sperm are trying their hardest.♪")
ShowMessageFace("",0,0,2,59)
ShowMessage("Sully continues moving her tail as she speaks.")
ShowMessage("At the same time, she's narrating everything that's happening inside her.")
PictureDisplay(5,"ev_syuree_hc07",0,0,0,0,100,100,255,0)
ShowMessageFace("syuree_fc1",0,0,2,60)
ShowMessage("\\n<Sully>Wow, amazing.♪\nMy eggs are all rushing after your sperm..♪")
ShowMessageFace("syuree_fc1",0,0,2,61)
ShowMessage("\\n<Sully>Geez, stop fighting each other!♪\nThere's no need to rush, there's plenty of sperm to fertilize all of you~♪")
ShowMessageFace("",0,0,2,62)
ShowMessage("\\n<Luka>Aaah... Stop...Don't...")
PictureDisplay(5,"ev_syuree_hc08",0,0,0,0,100,100,255,0)
ShowMessageFace("syuree_fc1",0,0,2,63)
ShowMessage("\\n<Sully>Ah.♪ It fertilized it~♪")
ShowMessageFace("",0,0,2,64)
ShowMessage("Then...")
ShowMessage("Sully says something horrifying with a smile.")
ShowMessageFace("syuree_fc1",0,0,2,65)
ShowMessage("\\n<Sully>Hey... You're a Papa now!♪\nCongratulations!♪")
ShowMessageFace("",0,0,2,66)
ShowMessage("\\n<Luka>N...no way... Aaah...")
ShowMessageFace("",0,0,2,67)
ShowMessage("A truly taboo statement.")
ShowMessage("I impregnated a monster, far different from my own species...")
PictureDisplay(5,"ev_syuree_hc09",0,0,0,0,100,100,255,0)
ShowMessageFace("syuree_fc1",0,0,2,68)
ShowMessage("\\n<Sully>Hey, let's mate more.\nCome a lot, and you can be Papa to even more babies.♪")
ShowMessageFace("",0,0,2,69)
ShowMessage("\\n<Luka>N-noooo... No more, we have to stop...")
ShowMessageFace("syuree_fc1",0,0,2,70)
ShowMessage("\\n<Sully>It's pointless to say no!\nI'll make you feel even better than before~♪")
PictureDisplay(5,"ev_syuree_hc10",0,0,0,0,100,100,255,0)
ShowMessageFace("",0,0,2,71)
ShowMessage("Sully violently moves her tail!")
ShowMessage("A far more intense piston than before, pleasure is forced into me.")
ShowMessageFace("",0,0,2,72)
ShowMessage("\\n<Luka>Ah... Aaah...!!")
ShowMessageFace("syuree_fc1",0,0,2,73)
ShowMessage("\\n<Sully>*Kiss*♪\nAha, what a lewd moan.♪")
ShowMessageFace("",0,0,2,74)
ShowMessage("At the same time as her renewed piston movement, she continues to tickle my nipples.")
ShowMessage("The membrane inside her scissor-like arms rubs over my sensitive nipples.")
ShowMessageFace("",0,0,2,75)
ShowMessage("\\n<Luka>Don't... Stop touching my nipples...\nAaah... That feels good...")
ShowMessageFace("syuree_fc1",0,0,2,76)
ShowMessage("\\n<Sully>It's not good to be a Papa who likes his nipples touched~♪\nBut you just love it too much, don't you?")
ShowMessageFace("syuree_fc1",0,0,2,77)
ShowMessage("\\n<Sully>Nipple tickling and intense mating.♪\nDon't you just love having both at once?")
ShowMessageFace("",0,0,2,78)
ShowMessage("The nipple rub gets even more intense.")
ShowMessage("At the same time, her tail is moving up and down like a piston on my penis.")
ShowMessageFace("",0,0,2,79)
ShowMessage("Attacking my sensitive spots, I quickly moan in pleasure.")
ShowMessage("With my body and penis trembling, I reach another forbidden climax.")
ShowMessageFace("",0,0,2,80)
ShowMessage("\\n<Luka>Ah, aaaah...!")
RunCommonEvent(104)
PictureDisplay(5,"ev_syuree_hc11",0,0,0,0,100,100,255,0)
RunCommonEvent(105)
ShowMessageFace("",0,0,2,81)
ShowMessage("I ejaculate a second time.")
ShowMessage("My semen shoots into Sully's reproductive organ again.")
ShowMessageFace("syuree_fc1",0,0,2,82)
ShowMessage("\\n<Sully>Ah, you came again?\nBut I'm not stopping.♪ Horahorahora~♪")
ShowMessageFace("",0,0,2,83)
ShowMessage("As soon as I come, the piston movement gets even more intense.")
ShowMessage("Moving faster, my penis is forced in and out of her all the way to my base now.")
ShowMessageFace("",0,0,2,84)
ShowMessage("I can't do anything but writhe in agony under her assault.")
ShowMessage("Unable to do anything, I can only just continue to come...")
PictureDisplay(5,"ev_syuree_hc12",0,0,0,0,100,100,255,0)
ShowMessageFace("syuree_fc1",0,0,2,85)
ShowMessage("\\n<Sully>Hora, look, you're becoming a Papa again.\nWe're making lots of babies inside my reproductive organ.♪")
ShowMessageFace("syuree_fc1",0,0,2,86)
ShowMessage("\\n<Sully>Your sperm and my eggs are all having a huge orgy.♪\nMy eggs are all fighting over who's next to get fertilized.♪")
ShowMessageFace("",0,0,2,87)
ShowMessage("\\n<Luka>No, this isn't good...")
ShowMessageFace("",0,0,2,88)
ShowMessage("Sully's declaration makes me feel miserable.")
ShowMessage("Her eggs are being fertilized, one after another.")
ShowMessageFace("",0,0,2,89)
ShowMessage("Despite knowing what was happening, I couldn't stop...")
ShowMessageFace("",0,0,2,90)
ShowMessage("\\n<Luka>Ah... Aaah...")
RunCommonEvent(104)
PictureDisplay(5,"ev_syuree_hc13",0,0,0,0,100,100,255,0)
RunCommonEvent(105)
ShowMessageFace("",0,0,2,91)
ShowMessage("I pour more of my seed into her reproductive organ.")
ShowMessage("Despite knowing I shouldn't come in her, I can't stop.")
ShowMessageFace("syuree_fc1",0,0,2,92)
ShowMessage("\\n<Sully>Aha, so much seed.♪\nEvery time you do, you make another baby.♪")
ShowMessageFace("",0,0,2,93)
ShowMessage("\\n<Luka>Ngh...Unnngh...")
ShowMessageFace("syuree_fc1",0,0,2,94)
ShowMessage("\\n<Sully>The face you make on becoming a Papa... So lewd.♪\nI'm getting really into it, too.♪")
ShowMessageFace("",0,0,2,95)
ShowMessage("While being fertilized, Sully keeps up her tail movements.")
ShowMessage("Overwhelmed by her piston movements, I keep coming into her organ.")
RunCommonEvent(104)
PictureDisplay(5,"ev_syuree_hc14",0,0,0,0,100,100,255,0)
RunCommonEvent(105)
ShowMessageFace("",0,0,2,96)
ShowMessage("Coming again and again, I keep impregnating her.")
ShowMessage("As her reproductive organ is filled with my semen, Sully looks satisfied.")
ShowMessageFace("syuree_fc1",0,0,2,97)
ShowMessage("\\n<Sully>Aha... My eggs are fighting over your sperm.\nEvery time your sperm comes close, they get gang-banged into submission.♪")
ShowMessageFace("syuree_fc1",0,0,2,98)
ShowMessage("\\n<Sully>My eggs are raping your sperm...\nMy eggs are all trying to be fertilized first.")
ShowMessageFace("",0,0,2,99)
ShowMessage("\\n<Luka>Ah... Aaah...")
ShowMessageFace("",0,0,2,100)
ShowMessage("While told of the immoral thing that's happening, I...")
RunCommonEvent(104)
PictureDisplay(5,"ev_syuree_hc15",0,0,0,0,100,100,255,0)
RunCommonEvent(105)
ShowMessageFace("",0,0,2,101)
ShowMessage("Come inside her yet again.")
ShowMessage("Despite knowing what happens every time I come in her...")
ShowMessageFace("syuree_fc1",0,0,2,102)
ShowMessage("\\n<Sully>Ahaha, did the thought of my eggs violating you sperm excite you?\nEven in my womb, your sperm are being raped by my eggs.~♪")
ShowMessageFace("",0,0,2,103)
ShowMessage("\\n<Luka>......")
ShowMessageFace("",0,0,2,104)
ShowMessage("Squeezed to the last drop, a miserable feeling overtakes me.")
246(2)
PictureDisplay(5,"ev_syuree_hc16",0,0,0,0,100,100,255,0)
ShowMessageFace("",0,0,2,105)
ShowMessage("With that, the long mating is finally over.")
ShowMessage("Sully is filled with my semen...")
ShowMessageFace("syuree_fc1",1,0,2,106)
ShowMessage("\\n<Sully>You're Papa to so many babies!♪\nI'll be counting on you from now on~♪")
ShowMessageFace("",0,0,2,107)
ShowMessage("\\n<Luka>......")
ShowMessageFace("",0,0,2,108)
ShowMessage("Satisfied, Sully shows off her swollen abdomen.")
ShowMessage("Meanwhile, I tremble at the immorality of what we just did...")
221()
PictureClear(5)
ShowMessageFace("",0,0,2,109)
ShowMessage("......")
242(2)
Wait(120)
241(bytes(0x04,0x08,0x6f,0x3a,0x0d,0x52,0x50,0x47,0x3a,0x3a,0x42,0x47,0x4d,0x08,0x3a,0x0a,0x40,0x6e,0x61,0x6d,0x65,0x49,0x22,0x0c,0x63,0x61,0x73,0x74,0x6c,0x65,0x36,0x06,0x3a,0x06,0x45,0x54,0x3a,0x0c,0x40,0x76,0x6f,0x6c,0x75,0x6d,0x65,0x69,0x69,0x3a,0x0b,0x40,0x70,0x69,0x74,0x63,0x68,0x69,0x69))
0()
