﻿// EVENT 0506
Name "コラボC2：妖狐仲間に"

217()
PictureDisplay(5,"80_youkosan_st01",0,0,-200,0,100,100,0,0)
PictureDisplay(6,"80_youkosan_st01",0,0,0,0,100,100,0,0)
PictureDisplay(7,"80_youkosan_st01",0,0,200,0,100,100,0,0)
PictureMove(5,null,0,0,-200,0,100,100,255,0,30,false)
PictureMove(6,null,0,0,0,0,100,100,255,0,30,false)
PictureMove(7,null,0,0,200,0,100,100,255,0,30,true)
ShowMessageFace("youkosan_fc1",2,0,2,1)
ShowMessage("\\n<酔狐>")
ShowMessage("ウチ達、あのミュスカに勧誘されたんだけどさぁ……")
ShowMessage("正直、ここまでやるのは引くよね。")
ShowMessageFace("youkosan_fc1",2,0,2,2)
ShowMessage("\\n<呑狐>")
ShowMessage("男を襲い放題、酒も飲み放題って話だったんだ。")
ShowMessage("でも、あんなにひどい事するなんて聞いてないよ。")
ShowMessageFace("youkosan_fc1",2,0,2,3)
ShowMessage("\\n<Dream Fox>")
ShowMessage("ウチ達は、欲望に弱い酔いどれ妖怪だけど……")
ShowMessage("それでも、命まで奪ったりはしない。")
ShowMessageFace("byakunen_fc1",0,0,2,4)
ShowMessage("\\n<Hakunen>")
ShowMessage("そうですよね……お狐さん達はいたずら好きですが、")
ShowMessage("決して悪い妖怪ではありません。")
ShowMessageFace("youkosan_fc1",2,0,2,5)
ShowMessage("\\n<酔狐>")
ShowMessage("それが、こんな事になっちゃうなんて……")
ShowMessage("ウチ達、ちょっと事態の大きさに戸惑ってるわけよ。")
ShowMessageFace("youkosan_fc1",0,0,2,6)
ShowMessage("\\n<呑狐>")
ShowMessage("だから、もうキミ達を追い回したりしないよ。")
ShowMessage("ミュスカに手を貸すこともやめる！")
ShowMessageFace("youkosan_fc1",0,0,2,7)
ShowMessage("\\n<Dream Fox>")
ShowMessage("なんか困ってること、あったら言ってよ。")
ShowMessage("出来ることがあったら、手伝うから。")
ShowMessageFace("kazuya_fc2",0,0,2,8)
ShowMessage("\\n<Kazuya>")
ShowMessage("困ってるのは、やっぱり戦力不足だな。")
ShowMessage("仲間として、僕たちについてきてくれるか？")
ShowMessageFace("youkosan_fc1",3,0,2,9)
ShowMessage("\\n<酔狐>")
ShowMessage("そ、それはちょっと……")
ShowMessageFace("youkosan_fc1",3,0,2,10)
ShowMessage("\\n<呑狐>")
ShowMessage("あのミュスカと、戦り合う可能性大……")
ShowMessage("流石にそれは、遠慮願いたい……")
ShowMessageFace("youkosan_fc1",2,0,2,11)
ShowMessage("\\n<Dream Fox>")
ShowMessage("……………………")
ShowMessageFace("youkosan_fc1",1,0,2,12)
ShowMessage("\\n<Dream Fox>")
ShowMessage("……分かった！")
ShowMessage("ウチが、一緒に行ってあげる！")
ShowMessageFace("youkosan_fc1",0,0,2,13)
ShowMessage("\\n<酔狐>")
ShowMessage("さすが、ウチらの中でも最も命知らずな夢狐！")
ShowMessageFace("youkosan_fc1",0,0,2,14)
ShowMessage("\\n<呑狐>")
ShowMessage("今回も、また伝説を築くつもりだな！？")
ShowMessageFace("youkosan_fc1",1,0,2,15)
ShowMessage("\\n<Dream Fox>")
ShowMessage("見せてやるのさ！")
ShowMessage("キツネの意地ってやつを……！")
ShowMessageFace("kazuya_fc4",7,0,2,16)
ShowMessage("\\n<Kazuya>")
ShowMessage("なんか三人ですごい盛り上がってる……")
ShowMessage("やっぱりこのテンション、苦手だぁ……")
ShowMessageFace("byakunen_fc1",2,0,2,17)
ShowMessage("\\n<Hakunen>")
ShowMessage("本当に、良いんですか？")
ShowMessage("かなり危険だと思いますけど……")
ShowMessageFace("youkosan_fc1",0,0,2,18)
ShowMessage("\\n<Dream Fox>")
ShowMessage("ねぇ、白念君……")
ShowMessage("ウチ、前に一度君と追いかけっこした事があるんだ。")
ShowMessageFace("byakunen_fc1",2,0,2,19)
ShowMessage("\\n<Hakunen>")
ShowMessage("そうだったのですか……")
ShowMessage("申し訳ありません、当時は顔の区別がつかなくて……")
ShowMessageFace("youkosan_fc1",0,0,2,20)
ShowMessage("\\n<Dream Fox>")
ShowMessage("君の噂も、色々と聞いてるし……")
ShowMessage("一緒に冒険が出来る、良い機会だと思ったんだよ。")
ShowMessageFace("kazuya_fc2",1,0,2,21)
ShowMessage("\\n<Kazuya>")
ShowMessage("……ありがとう、助かるよ。")
ShowMessage("これも白念くんの人徳のおかげだな。")
ShowMessageFace("byakunen_fc1",1,0,2,22)
ShowMessage("\\n<Hakunen>")
ShowMessage("い、いえ……")
ShowMessage("私なんて、まだまだですよ……")
ShowMessageFace("youkosan_fc1",1,0,2,23)
ShowMessage("\\n<Dream Fox>")
ShowMessage("それじゃあ……よろしくね♪")
PictureClear(5)
PictureClear(6)
PictureClear(7)
205(185,bytes(0x04,0x08,0x6f,0x3a,0x13,0x52,0x50,0x47,0x3a,0x3a,0x4d,0x6f,0x76,0x65,0x52,0x6f,0x75,0x74,0x65,0x09,0x3a,0x0c,0x40,0x72,0x65,0x70,0x65,0x61,0x74,0x46,0x3a,0x0f,0x40,0x73,0x6b,0x69,0x70,0x70,0x61,0x62,0x6c,0x65,0x46,0x3a,0x0a,0x40,0x77,0x61,0x69,0x74,0x54,0x3a,0x0a,0x40,0x6c,0x69,0x73,0x74,0x5b,0x09,0x6f,0x3a,0x15,0x52,0x50,0x47,0x3a,0x3a,0x4d,0x6f,0x76,0x65,0x43,0x6f,0x6d,0x6d,0x61,0x6e,0x64,0x07,0x3a,0x0a,0x40,0x63,0x6f,0x64,0x65,0x69,0x2a,0x3a,0x10,0x40,0x70,0x61,0x72,0x61,0x6d,0x65,0x74,0x65,0x72,0x73,0x5b,0x00,0x6f,0x3b,0x0a,0x07,0x3b,0x0b,0x69,0x0f,0x3b,0x0c,0x5b,0x00,0x6f,0x3b,0x0a,0x07,0x3b,0x0b,0x69,0x2c,0x3b,0x0c,0x5b,0x00,0x6f,0x3b,0x0a,0x07,0x3b,0x0b,0x69,0x00,0x3b,0x0c,0x5b,0x00))
355("add_temp_actors(813)")
249(bytes(0x04,0x08,0x6f,0x3a,0x0c,0x52,0x50,0x47,0x3a,0x3a,0x4d,0x45,0x08,0x3a,0x0a,0x40,0x6e,0x61,0x6d,0x65,0x49,0x22,0x0c,0x66,0x61,0x6e,0x66,0x61,0x6c,0x65,0x06,0x3a,0x06,0x45,0x54,0x3a,0x0b,0x40,0x70,0x69,0x74,0x63,0x68,0x69,0x69,0x3a,0x0c,0x40,0x76,0x6f,0x6c,0x75,0x6d,0x65,0x69,0x69))
ShowMessageFace("",0,0,2,24)
ShowMessage("夢狐が仲間に加わった！")
Wait(60)
ShowMessageFace("lanpass_fc2",0,0,2,25)
ShowMessage("\\n<Lampas>")
ShowMessage("仲間が増えるって、嬉しいよね♪")
ShowMessageFace("kazuya_fc2",2,0,2,26)
ShowMessage("\\n<Kazuya>")
ShowMessage("これで、こっちは四人か……")
ShowMessage("一番の課題は、やっぱりミュスカだな……")
ShowMessageFace("",0,0,2,27)
ShowMessage("ミュスカは強さも貪欲さも、悪魔として並外れている。")
ShowMessage("言葉は悪いが、即席メンバーで倒せる相手じゃない。")
ShowMessageFace("byakunen_fc1",2,0,2,28)
ShowMessage("\\n<Hakunen>")
ShowMessage("やはり……")
ShowMessage("向こうに気付かれずに逃げるしかないのでは？")
ShowMessageFace("kazuya_fc2",0,0,2,29)
ShowMessage("\\n<Kazuya>")
ShowMessage("確かに、それが一番なんだけどね……")
ShowMessage("状況によっては難しい場合もありそうだし……")
ShowMessageFace("",0,0,2,30)
ShowMessage("ミュスカは、僕達を逃がすつもりなどない――")
ShowMessage("あいつの言葉から、それがうかがい知れる。")
ShowMessageFace("byakunen_fc1",0,0,2,31)
ShowMessage("\\n<Hakunen>")
ShowMessage("あの、ここから立ち去る前に……")
ShowMessage("あちらの仏様達に、手を合わせたいのですが。")
ShowMessageFace("kazuya_fc2",0,0,2,32)
ShowMessage("\\n<Kazuya>")
ShowMessage("ああ、遺体をそのままにしておけないしな。")
ShowMessage("僕も手伝うよ。")
221()
ShowMessageFace("",0,0,2,33)
ShowMessage("あんな怪物が相手なら、仕方がないとはいえ――")
ShowMessage("目の前で助けられなかったのは、心に重くのしかかる。")
ShowMessageFace("",0,0,2,34)
ShowMessage("外に出られない以上、埋葬することも出来ないが――")
ShowMessage("せめて、出来るだけの事はしてやろう。")
ChangeVariable(1202,1202,0,0,26)
TeleportPlayer(0,858,13,181,8,2)
222()
ShowMessageFace("",0,0,2,35)
ShowMessage("亡骸をベッドに運び、布団を被せておく。")
ShowMessage("この場で出来るのは、たったそれだけの事だった。")
ShowMessageFace("kazuya_fc2",0,0,2,36)
ShowMessage("\\n<Kazuya>")
ShowMessage("それじゃあ、行こう。")
ShowMessage("力を合わせて、ここから生きて脱出するんだ。")
ShowMessageFace("byakunen_fc1",0,0,2,37)
ShowMessage("\\n<Hakunen>")
ShowMessage("はい……お供させて頂きます！")
ShowMessageFace("youkosan_fc1",0,0,2,38)
ShowMessage("\\n<Dream Fox>")
ShowMessage("ウチもがんばるよ♪")
ShowMessageFace("lanpass_fc2",0,0,2,39)
ShowMessage("\\n<Lampas>")
ShowMessage("景気づけに、ドロップ舐めとく？")
ShowMessageFace("",0,0,2,40)
ShowMessage("出口も、そう遠くはない――")
ShowMessage("僕はそう予感していた。")
ShowMessageFace("",0,0,2,41)
ShowMessage("脱出まで、あと少し。")
ShowMessage("しかし、そこにそびえる壁は大きそうだ。")
314(0,0)
EndEventProcessing()
0()
