// EVENT 4163
Name "Rabbit Girl 3"

If(0,25,1)
 221()
 PictureClear(5)
 PictureClear(6)
 ShowMessageFace("",0,0,2,0)
 ShowMessage("......")
 242(2)
 Wait(120)
 241(bytes(0x04,0x08,0x6f,0x3a,0x0d,0x52,0x50,0x47,0x3a,0x3a,0x42,0x47,0x4d,0x08,0x3a,0x0a,0x40,0x6e,0x61,0x6d,0x65,0x49,0x22,0x0c,0x63,0x61,0x73,0x74,0x6c,0x65,0x36,0x06,0x3a,0x06,0x45,0x54,0x3a,0x0c,0x40,0x76,0x6f,0x6c,0x75,0x6d,0x65,0x69,0x69,0x3a,0x0b,0x40,0x70,0x69,0x74,0x63,0x68,0x69,0x69))
 EndEventProcessing()
 0()
EndIf()
PictureDisplay(5,"80_usagi_st01",0,0,0,0,100,100,255,0)
ShowMessageFace("usagi_fc1",0,0,2,1)
ShowMessage("\\n<Barbun>You want to use your big sis for sex? What a lewd kid...")
ShowMessageFace("usagi_fc1",0,0,2,2)
ShowMessage("\\n<Barbun>But, I don't want to ignore your male urges... How about big sis helps you out?")
ShowMessageFace("",0,0,2,3)
ShowMessage("\\n<Luka>Okay... please.")
ShowMessageFace("usagi_fc1",0,0,2,4)
ShowMessage("\\n<Barbun>Well then, come to my room.")
ShowMessageFace("",0,0,2,5)
ShowMessage("Thus, I was invited to Barbun's room.")
221()
PictureDisplay(1,"bg195",0,0,0,0,100,100,255,0)
PictureDisplay(5,"80_usagi_st01",0,0,0,0,100,100,255,0)
222()
241(bytes(0x04,0x08,0x6f,0x3a,0x0d,0x52,0x50,0x47,0x3a,0x3a,0x42,0x47,0x4d,0x08,0x3a,0x0a,0x40,0x6e,0x61,0x6d,0x65,0x49,0x22,0x09,0x65,0x72,0x6f,0x31,0x06,0x3a,0x06,0x45,0x54,0x3a,0x0c,0x40,0x76,0x6f,0x6c,0x75,0x6d,0x65,0x69,0x69,0x3a,0x0b,0x40,0x70,0x69,0x74,0x63,0x68,0x69,0x69))
ShowMessageFace("usagi_fc1",0,0,2,6)
ShowMessage("\\n<Barbun>All right, lay down.")
ShowMessageFace("",0,0,2,7)
ShowMessage("\\n<Luka>......")
ShowMessageFace("",0,0,2,8)
ShowMessage("I take off my clothes and lie down as I am told. Now she has complete control.")
ShowMessageFace("usagi_fc1",0,0,2,9)
ShowMessage("\\n<Barbun>Hehe, that's a good boy. Big sis will take good care of you.")
PictureDisplay(5,"ev_usagi_hc1",0,0,0,0,100,100,255,0)
ShowMessageFace("",0,0,2,10)
ShowMessage("Barbun walks over and straddles me, lowering her vagina right over the tip of my penis.")
ShowMessageFace("",0,0,2,11)
ShowMessage("Her vagina feels hot and it's already dripping wet with honey. I get excited from just the thought of entering.")
ShowMessageFace("usagi_fc1",0,0,2,12)
ShowMessage("\\n<Barbun>Big sis will train your body... Use your leg muscles to thrust into the vagina, and let it close over you.")
ShowMessageFace("usagi_fc1",0,0,2,13)
ShowMessage("\\n<Barbun>Do you think you could endure it? Fufufu... please don't come the moment you go inside.")
ShowMessageFace("",0,0,2,14)
ShowMessage("Barbun slowly lowers her waist...")
245(bytes(0x04,0x08,0x6f,0x3a,0x0d,0x52,0x50,0x47,0x3a,0x3a,0x42,0x47,0x53,0x08,0x3a,0x0a,0x40,0x6e,0x61,0x6d,0x65,0x49,0x22,0x1e,0x6d,0x6f,0x6e,0x5f,0x68,0x73,0x65,0x61,0x6e,0x30,0x32,0x5f,0x69,0x6e,0x6e,0x65,0x72,0x77,0x6f,0x72,0x6b,0x73,0x5f,0x61,0x32,0x06,0x3a,0x06,0x45,0x54,0x3a,0x0c,0x40,0x76,0x6f,0x6c,0x75,0x6d,0x65,0x69,0x55,0x3a,0x0b,0x40,0x70,0x69,0x74,0x63,0x68,0x69,0x69))
PictureDisplay(5,"ev_usagi_hc2",0,0,0,0,100,100,255,0)
ShowMessageFace("",0,0,2,15)
ShowMessage("\\n<Luka>Auuu, oh!")
ShowMessageFace("",0,0,2,16)
ShowMessage("Barbun's honeyed opening encloses around the shaft, all the way to the base. Instantly, the hot muscles of her vagina tighten around my penis.")
ShowMessageFace("",0,0,2,17)
ShowMessage("Her vagina, wet and hot, frantically squeezes the penis from all angles. Barbun presses down gently, while wiggling her ass around in circles.")
ShowMessageFace("usagi_fc1",0,0,2,18)
ShowMessage("\\n<Barbun>Fufufu, it's inside. I wonder how your dick feels now?")
ShowMessageFace("",0,0,2,19)
ShowMessage("\\n<Luka>Auugh... A-Awesome... Ohh, aya...!")
ShowMessageFace("",0,0,2,20)
ShowMessage("Exposed to the sweet hugging tightness, my cock feels better than it's ever felt. The tip is swelling up, red with sensation overload.")
ShowMessageFace("",0,0,2,21)
ShowMessage("\\n<Luka>Oh n-no... Ayahhh...")
RunCommonEvent(104)
PictureDisplay(5,"ev_usagi_hc3",0,0,0,0,100,100,255,0)
RunCommonEvent(105)
ShowMessageFace("",0,0,2,22)
ShowMessage("Overcome with new sensations, my semen spurts into Barbun's vagina. It felt too good, I had to come.")
ShowMessageFace("",0,0,2,23)
ShowMessage("My penis pulsates and spurts more and more semen into her. Barbun giggles as she feels it begin to leak out...")
ShowMessageFace("usagi_fc1",0,0,2,24)
ShowMessage("\\n<Barbun>Uh oh, have you come already? Doing it so soon after entering is no good...")
ShowMessageFace("",0,0,2,25)
ShowMessage("\\n<Luka>S-sorry...")
ShowMessageFace("usagi_fc1",0,0,2,26)
ShowMessage("\\n<Barbun>Well, I knew you would come quickly. But can you handle my pussy when I do this?")
PictureDisplay(5,"ev_usagi_hc4",0,0,0,0,100,100,255,0)
ShowMessageFace("",0,0,2,27)
ShowMessage("As she says that, Barbun slowly raises her tail into the air. The wall of her vagina slides gently over my penis as it exits.")
ShowMessageFace("",0,0,2,28)
ShowMessage("\\n<Luka>Haugh...")
ShowMessageFace("usagi_fc1",0,0,2,29)
ShowMessage("\\n<Barbun>You haven't had enough, have you? I'll fuck you even more now...")
PictureDisplay(5,"ev_usagi_hc5",0,0,0,0,100,100,255,0)
ShowMessageFace("",0,0,2,30)
ShowMessage("The very next moment, Barbun reverses direction and slams down on my penis. The tip reaches the back of her vagina again!")
ShowMessageFace("",0,0,2,31)
ShowMessage("\\n<Luka>Ah, aaah!")
ShowMessageFace("usagi_fc1",0,0,2,32)
ShowMessage("\\n<Barbun>I guess it feels good again. Fufufu. Don't you want to come inside again?")
PictureDisplay(5,"ev_usagi_hc4",0,0,0,0,100,100,255,0)
ShowMessageFace("",0,0,2,33)
ShowMessage("Barbun slowly raises her bottom...")
PictureDisplay(5,"ev_usagi_hc5",0,0,0,0,100,100,255,0)
ShowMessageFace("",0,0,2,34)
ShowMessage("Then, she rams it down again. She begins moving her hips up and down like a piston.")
ShowMessageFace("usagi_fc1",0,0,2,35)
ShowMessage("\\n<Barbun>Fufuu... Eh eh eh... I wonder if you can endure big sis's hips?")
PictureDisplay(5,"ev_usagi_hc4",0,0,0,0,100,100,255,0)
ShowMessageFace("",0,0,2,36)
ShowMessage("When she lifts her hips, her vaginal lips slide and rub against the shaft. As she goes back down her lips slide back in, stimulating the tip of my penis.")
PictureDisplay(5,"ev_usagi_hc5",0,0,0,0,100,100,255,0)
ShowMessageFace("",0,0,2,37)
ShowMessage("The feeling to come inside her again swells up. Her vagina tightens and drives my penis mad with pleasure.")
ShowMessageFace("",0,0,2,38)
ShowMessage("\\n<Luka>Auugh..! Ayaa! C-coming!")
PictureDisplay(5,"ev_usagi_hc4",0,0,0,0,100,100,255,0)
ShowMessageFace("usagi_fc1",0,0,2,39)
ShowMessage("\\n<Barbun>Fufuu... will you come even more? I won't give up on training your penis...")
PictureDisplay(5,"ev_usagi_hc5",0,0,0,0,100,100,255,0)
ShowMessageFace("",0,0,2,40)
ShowMessage("The pleasure increases as she forces her vagina up and down like a piston. Barbun is completely lost in her fucking, and is barely coherent to any attempt at a response.")
PictureDisplay(5,"ev_usagi_hc4",0,0,0,0,100,100,255,0)
ShowMessageFace("",0,0,2,41)
ShowMessage("I'm at the mercy of her hips, my lower body becoming more and more numb from the pounding. The feeling of release begins to fade away, giving way to a sweet pain...")
ShowMessageFace("",0,0,2,42)
ShowMessage("\\n<Luka>Hauu... I will come again!")
ShowMessageFace("usagi_fc1",0,0,2,43)
ShowMessage("\\n<Barbun>Fufuu... Ah hahh... your big sis is coming too! Come deep inside Luka, please! ♪")
PictureDisplay(5,"ev_usagi_hc5",0,0,0,0,100,100,255,0)
ShowMessageFace("",0,0,2,44)
ShowMessage("Barbun slams her vagina down to the bottom of my shaft, her muscles tightening and squeezing like crazy. The stimulation makes my head dizzy as I surrender to her...")
ShowMessageFace("",0,0,2,45)
ShowMessage("\\n<Luka>D-do don't do that.. Auugh!")
RunCommonEvent(104)
PictureDisplay(5,"ev_usagi_hc6",0,0,0,0,100,100,255,0)
RunCommonEvent(105)
ShowMessageFace("",0,0,2,46)
ShowMessage("Barbun finally makes me come in her pussy again. My penis pulsates and semen pours out into her deepest parts.")
ShowMessageFace("usagi_fc1",0,0,2,47)
ShowMessage("\\n<Barbun>You came inside me again...♪")
ShowMessageFace("",0,0,2,48)
ShowMessage("\\n<Luka>Well...")
ShowMessageFace("",0,0,2,49)
ShowMessage("Barbun's soft pussy shrinks even smaller and undulates inward, facilitating the ejaculation. Immersed in a heavenly feeling, my balls release everything to the last drop.")
246(2)
PictureDisplay(5,"ev_usagi_hc7",0,0,0,0,100,100,255,0)
ShowMessageFace("",0,0,2,50)
ShowMessage("Finally, the rhythmic pulsing of my penis slows, and I stop coming. Barbun slowly raises up...")
ShowMessageFace("usagi_fc1",0,0,2,51)
ShowMessage("\\n<Barbun>Look and see... You left so much cum in your sister...")
ShowMessageFace("",0,0,2,52)
ShowMessage("\\n<Luka>...")
ShowMessageFace("",0,0,2,53)
ShowMessage("A huge amount of sticky white goo hangs and drips from Barbun. As she shows it to me, I feel ashamed.")
ShowMessageFace("usagi_fc1",0,0,2,54)
ShowMessage("\\n<Barbun>Are you satisfied today? If you ever get urges again, just let big sis know, and she will train you some more. ♪")
ShowMessageFace("",0,0,2,55)
ShowMessage("\\n<Luka>...")
ShowMessageFace("",0,0,2,56)
ShowMessage("Barbun satisfied me completely, so I have no choice but to nod in acknowledgment.")
221()
PictureClear(5)
ShowMessageFace("",0,0,2,57)
ShowMessage("...")
242(2)
Wait(120)
241(bytes(0x04,0x08,0x6f,0x3a,0x0d,0x52,0x50,0x47,0x3a,0x3a,0x42,0x47,0x4d,0x08,0x3a,0x0a,0x40,0x6e,0x61,0x6d,0x65,0x49,0x22,0x0c,0x63,0x61,0x73,0x74,0x6c,0x65,0x36,0x06,0x3a,0x06,0x45,0x54,0x3a,0x0c,0x40,0x76,0x6f,0x6c,0x75,0x6d,0x65,0x69,0x69,0x3a,0x0b,0x40,0x70,0x69,0x74,0x63,0x68,0x69,0x69))
0()
