// EVENT 4618
Name "Lily 3"

If(0,25,1)
 221()
 PictureClear(5)
 PictureClear(6)
 ShowMessageFace("",0,0,2,0)
 ShowMessage("......")
 242(2)
 Wait(120)
 241(bytes(0x04,0x08,0x6f,0x3a,0x0d,0x52,0x50,0x47,0x3a,0x3a,0x42,0x47,0x4d,0x08,0x3a,0x0a,0x40,0x6e,0x61,0x6d,0x65,0x49,0x22,0x0c,0x63,0x61,0x73,0x74,0x6c,0x65,0x36,0x06,0x3a,0x06,0x45,0x54,0x3a,0x0c,0x40,0x76,0x6f,0x6c,0x75,0x6d,0x65,0x69,0x69,0x3a,0x0b,0x40,0x70,0x69,0x74,0x63,0x68,0x69,0x69))
 EndEventProcessing()
 0()
EndIf()
PictureDisplay(5,"80_lily_st02",0,0,0,0,100,100,255,0)
ShowMessageFace("lily_fc1",4,0,2,1)
ShowMessage("\\n<Lily>You want to do lewd things with my tentacles...?")
ShowMessageFace("",0,0,2,2)
ShowMessage("\\n<Luka>Y...Yes... Please...")
ShowMessageFace("lily_fc1",4,0,2,3)
ShowMessage("\\n<Lily>You desire something so disgusting...\nCome to my room.")
ShowMessageFace("",0,0,2,4)
ShowMessage("Thus, I was invited to Lily's room...")
221()
PictureDisplay(1,"bg195",0,0,0,0,100,100,255,0)
PictureDisplay(5,"80_lily_st02",0,0,0,0,100,100,255,0)
222()
241(bytes(0x04,0x08,0x6f,0x3a,0x0d,0x52,0x50,0x47,0x3a,0x3a,0x42,0x47,0x4d,0x08,0x3a,0x0a,0x40,0x6e,0x61,0x6d,0x65,0x49,0x22,0x09,0x65,0x72,0x6f,0x31,0x06,0x3a,0x06,0x45,0x54,0x3a,0x0c,0x40,0x76,0x6f,0x6c,0x75,0x6d,0x65,0x69,0x69,0x3a,0x0b,0x40,0x70,0x69,0x74,0x63,0x68,0x69,0x69))
ShowMessageFace("",0,0,2,5)
ShowMessage("I sit down naked on a chair in her room.")
ShowMessage("Before that, Lily stared at me with an expressionless gaze.")
ShowMessageFace("lily_fc1",4,0,2,6)
ShowMessage("\\n<Lily>You look pitiful...\nHora, I'll seal your movement.")
250(bytes(0x04,0x08,0x6f,0x3a,0x0c,0x52,0x50,0x47,0x3a,0x3a,0x53,0x45,0x08,0x3a,0x0a,0x40,0x6e,0x61,0x6d,0x65,0x49,0x22,0x16,0x6d,0x6f,0x6e,0x5f,0x65,0x72,0x6f,0x5f,0x6d,0x61,0x6b,0x69,0x74,0x75,0x6b,0x69,0x33,0x06,0x3a,0x06,0x45,0x54,0x3a,0x0b,0x40,0x70,0x69,0x74,0x63,0x68,0x69,0x69,0x3a,0x0c,0x40,0x76,0x6f,0x6c,0x75,0x6d,0x65,0x69,0x69))
PictureDisplay(5,"ev_lily_h01",0,0,0,0,100,100,255,0)
ShowMessageFace("",0,0,2,7)
ShowMessage("Her tentacles wind around my body as I sit helplessly on the chair.")
ShowMessage("Bound by her tentacles, I'm both physically and mentally under her rule...")
ShowMessageFace("lily_fc1",4,0,2,8)
ShowMessage("\\n<Lily>First I'll take a genetic sample.\nAllow me to use these tentacles to suck it out...")
ShowMessageFace("",0,0,2,9)
ShowMessage("A tentacle approaches my groin as its mouth opens and closes with a lewd, sticky noise.")
ShowMessageFace("",0,0,2,10)
ShowMessage("With mucus dripping from the opening, I can see innumerable bumps and folds lining the soft flesh inside.")
ShowMessageFace("",0,0,2,11)
ShowMessage("I swallow nervously as the sticky mucus drips out of the opening onto my thigh.")
ShowMessageFace("lily_fc1",4,0,2,12)
ShowMessage("\\n<Lily>Doesn't it look amazing?\nI painstakingly experimented on those girls so I could create this.")
ShowMessageFace("lily_fc1",4,0,2,13)
ShowMessage("\\n<Lily>Able to bring the ultimate pleasure... No man can endure more than a few seconds.\nI'll let you have a taste of that research you so decried.")
ShowMessageFace("",0,0,2,14)
ShowMessage("The opening slowly approaches my penis...")
245(bytes(0x04,0x08,0x6f,0x3a,0x0d,0x52,0x50,0x47,0x3a,0x3a,0x42,0x47,0x53,0x08,0x3a,0x0a,0x40,0x6e,0x61,0x6d,0x65,0x49,0x22,0x17,0x6d,0x6f,0x6e,0x5f,0x68,0x73,0x65,0x61,0x6e,0x31,0x34,0x5f,0x6b,0x79,0x75,0x69,0x6e,0x31,0x06,0x3a,0x06,0x45,0x54,0x3a,0x0c,0x40,0x76,0x6f,0x6c,0x75,0x6d,0x65,0x69,0x55,0x3a,0x0b,0x40,0x70,0x69,0x74,0x63,0x68,0x69,0x69))
PictureDisplay(5,"ev_lily_h06",0,0,0,0,100,100,255,0)
ShowMessageFace("",0,0,2,15)
ShowMessage("And sucks me inside!")
ShowMessageFace("",0,0,2,16)
ShowMessage("\\n<Luka>Ahhhh!")
ShowMessageFace("",0,0,2,17)
ShowMessage("As soon as I'm forced into the tentacles, the soft bumps wriggle and vibrate around me.")
ShowMessage("\n")
ShowMessage("The flesh seems to have a mind of its own as it moves around in random directions, stroking and rubbing me in every direction.")
ShowMessageFace("",0,0,2,18)
ShowMessage("\\n<Luka>Aiee! What is this...\nIt feels incredible...!")
ShowMessageFace("",0,0,2,19)
ShowMessage("The stimulation is way more powerful than I thought.")
ShowMessage("My body relaxes at once as I yell out in surprise.")
ShowMessageFace("",0,0,2,20)
ShowMessage("The tentacles starts to contract in waves, as if it was trying to milk me.")
ShowMessage("As the rhythmic contractions continue, the bumps and flesh continue to wriggle and randomly move.")
ShowMessageFace("",0,0,2,21)
ShowMessage("The overwhelming stimulations don't allow me to think about anything but the coming orgasm.")
ShowMessageFace("",0,0,2,22)
ShowMessage("\\n<Luka>Aaaaaah!!")
ShowMessageFace("",0,0,2,23)
ShowMessage("Only a few seconds after being sucked into her tentacles, I'm already forced to come.")
RunCommonEvent(104)
PictureDisplay(5,"ev_lily_h07",0,0,0,0,100,100,255,0)
RunCommonEvent(105)
ShowMessageFace("",0,0,2,24)
ShowMessage("Each spurt of semen is sucked up in an instant with a powerful suction.")
ShowMessage("After my orgasm finishes, the milking motion resumes as it squeezes out the rest of my semen still in my urethra.")
ShowMessageFace("",0,0,2,25)
ShowMessage("The pleasure overpowers the deep sense of humiliation flowing through me.")
ShowMessageFace("",0,0,2,26)
ShowMessage("\\n<Luka>Faaa... Incredible...")
ShowMessageFace("",0,0,2,27)
ShowMessage("With every drop of my last ejaculation squeezed out, the tentacle starts to violently start its milking motion over again.")
ShowMessageFace("",0,0,2,28)
ShowMessage("My body writhes as I feel her tentacles wriggle and vibrate against my penis.")
ShowMessageFace("",0,0,2,29)
ShowMessage("I moan out as her tentacles forcefully stimulate me.")
ShowMessageFace("",0,0,2,30)
ShowMessage("\\n<Luka>Auuu...")
ShowMessageFace("lily_fc1",4,0,2,31)
ShowMessage("\\n<Lily>Hehe... Was it good?\nYou let out so much... You must have really enjoyed it.")
ShowMessageFace("lily_fc1",4,0,2,32)
ShowMessage("\\n<Lily>But I need a larger sample.\nFor now, I'll just collect it until you faint.")
ShowMessageFace("",0,0,2,33)
ShowMessage("\\n<Luka>No way... Stop...")
ShowMessageFace("lily_fc1",4,0,2,34)
ShowMessage("\\n<Lily>You wanted it yourself, didn't you?\nYou wanted to taste the pleasure of being squeezed by this tentacle...")
245(bytes(0x04,0x08,0x6f,0x3a,0x0d,0x52,0x50,0x47,0x3a,0x3a,0x42,0x47,0x53,0x08,0x3a,0x0a,0x40,0x6e,0x61,0x6d,0x65,0x49,0x22,0x17,0x6d,0x6f,0x6e,0x5f,0x68,0x73,0x65,0x61,0x6e,0x31,0x36,0x5f,0x6b,0x79,0x75,0x69,0x6e,0x33,0x06,0x3a,0x06,0x45,0x54,0x3a,0x0c,0x40,0x76,0x6f,0x6c,0x75,0x6d,0x65,0x69,0x55,0x3a,0x0b,0x40,0x70,0x69,0x74,0x63,0x68,0x69,0x69))
ShowMessageFace("",0,0,2,35)
ShowMessage("Lily cruelly rebukes my protest.")
ShowMessageFace("",0,0,2,36)
ShowMessage("More sticky mucus starts to flow out of her tentacle, covering my penis.")
ShowMessageFace("",0,0,2,37)
ShowMessage("Her soft folds and protrusions,")
ShowMessage("it feels like they're licking me like countless tongues.")
ShowMessageFace("",0,0,2,38)
ShowMessage("The friction from the mucus against the soft flesh of her tentacles doubles the pleasure from before, as my body starts to tremble.")
ShowMessageFace("",0,0,2,39)
ShowMessage("\\n<Luka>Ah...!! Aaaaaah!!")
ShowMessageFace("lily_fc1",4,0,2,40)
ShowMessage("\\n<Lily>Ah... I love the pathetic voice of a male screaming.\nI'll give you more of my special service...")
ShowMessageFace("lily_fc1",4,0,2,41)
ShowMessage("\\n<Lily>This is the pleasure you wanted to taste...\nYou begged me to shame you, didn't you?")
ShowMessageFace("",0,0,2,42)
ShowMessage("\\n<Luka>Ahh!")
ShowMessageFace("",0,0,2,43)
ShowMessage("Her tentacle starts to move up and down.")
ShowMessage("As if my waist was going to be pulled off, I can't concentrate on anything but the overwhelming sensations being forced into me.")
ShowMessageFace("",0,0,2,44)
ShowMessage("If she does it like this, there's no way I can hold on...")
ShowMessageFace("",0,0,2,45)
ShowMessage("\\n<Luka>Aiee! No more... I'm going to come!")
RunCommonEvent(104)
RunCommonEvent(105)
ShowMessageFace("",0,0,2,46)
ShowMessage("I explode in her tentacles as I yield to the pleasure again.")
ShowMessage("Just like the last time, she carefully squeezes out every drop of semen from my orgasm.")
ShowMessageFace("",0,0,2,47)
ShowMessage("Pleasure like this would make any man into a slave...")
ShowMessageFace("lily_fc1",4,0,2,48)
ShowMessage("\\n<Lily>Fufu, how does it feel?\nThis is what you wanted...")
ShowMessageFace("lily_fc1",4,0,2,49)
ShowMessage("\\n<Lily>You wanted me to suck the semen out of your penis...\nNow you'll have to endure the misery in order to feel pleasure...")
ShowMessageFace("",0,0,2,50)
ShowMessage("\\n<Luka>Ahhh...")
ShowMessageFace("",0,0,2,51)
ShowMessage("Her soft flesh narrows around my penis.")
ShowMessageFace("",0,0,2,52)
ShowMessage("The tentacle, designed only to squeeze out semen, continues its function.")
ShowMessageFace("",0,0,2,53)
ShowMessage("Right now, I'm the current target of its compulsory milking...")
RunCommonEvent(104)
RunCommonEvent(105)
ShowMessageFace("",0,0,2,54)
ShowMessage("\\n<Luka>Aaa...")
ShowMessageFace("",0,0,2,55)
ShowMessage("Bound and unable to move, I continue to be milked by her tentacle.")
ShowMessageFace("",0,0,2,56)
ShowMessage("I want this mysterious tentacle to dominate me...")
ShowMessage("And feel the humiliation of having my semen sucked out.")
ShowMessageFace("",0,0,2,57)
ShowMessage("Dominated by this strange appendage, I shake my head in a futile attempt to shake off this bad dream.")
ShowMessageFace("",0,0,2,58)
ShowMessage("\\n<Luka>I don't want this... No... Stop...")
ShowMessageFace("lily_fc1",4,0,2,59)
ShowMessage("\\n<Lily>You still don't understand..?\nThen, I'll enlighten you.")
ShowMessageFace("lily_fc1",4,0,2,60)
ShowMessage("\\n<Lily>You don't know the real taste of this sucking hell.\nThen let me show you...")
ShowMessageFace("",0,0,2,61)
ShowMessage("Her tentacle starts to move even faster than before.")
ShowMessageFace("",0,0,2,62)
ShowMessage("Sucking me like a pump, the milking stimulation doesn't allow me to resist.")
ShowMessageFace("",0,0,2,63)
ShowMessage("\\n<Luka>Ahhhh!!")
RunCommonEvent(104)
RunCommonEvent(105)
ShowMessageFace("",0,0,2,64)
ShowMessage("Even as I ejaculate, she doesn't stop.")
ShowMessageFace("",0,0,2,65)
ShowMessage("Violently milking me even during my ejaculation, she's already bringing me towards another.")
ShowMessageFace("",0,0,2,66)
ShowMessage("\\n<Luka>Aiee! If you keep doing... Again!\nAhhh!!")
RunCommonEvent(104)
RunCommonEvent(105)
ShowMessageFace("",0,0,2,67)
ShowMessage("With a sucking noise, my semen is slurped up by the tentacle.")
ShowMessage("But even with that, she still doesn't stop.")
ShowMessageFace("",0,0,2,68)
ShowMessage("\\n<Luka>Aiee! Help me... No more... I can't take it...")
ShowMessageFace("lily_fc1",4,0,2,69)
ShowMessage("\\n<Lily>Fufu, you wanted this, didn't you?\nYou wanted to have your semen squeezed out, didn't you...?")
ShowMessageFace("",0,0,2,70)
ShowMessage("\\n<Luka>Auuu... Stop...")
RunCommonEvent(104)
PictureDisplay(5,"ev_lily_h13",0,0,0,0,100,100,255,0)
RunCommonEvent(105)
ShowMessageFace("",0,0,2,71)
ShowMessage("Forced to orgasm over and over, I yell out as I start to lose my sanity.")
ShowMessageFace("",0,0,2,72)
ShowMessage("\\n<Luka>Ahhh! I'm coming again...!\nStop... Help me!")
RunCommonEvent(104)
RunCommonEvent(105)
ShowMessageFace("",0,0,2,73)
ShowMessage("With her tentacle forcing me to orgasm over and over, my mind and body are in tatters.")
ShowMessageFace("",0,0,2,74)
ShowMessage("My consciousness fades after coming so many times in a row.")
ShowMessage("Weakness takes over my body and my vision goes dark...")
ShowMessageFace("",0,0,2,75)
ShowMessage("\\n<Luka>Unnngh...")
RunCommonEvent(104)
RunCommonEvent(105)
221()
PictureClear(5)
246(2)
ShowMessageFace("lily_fc1",4,0,2,76)
ShowMessage("\\n<Lily>How pathetic, you fainted...\nThis should teach you a lesson, not to make rash decisions.")
ShowMessageFace("",0,0,2,77)
ShowMessage("Lily's voice sounds distant in my head as I lose my consciousness.")
ShowMessage("I regret from the bottom of my heart that I asked her for pleasure....")
ShowMessageFace("",0,0,2,78)
ShowMessage("......")
242(2)
Wait(120)
241(bytes(0x04,0x08,0x6f,0x3a,0x0d,0x52,0x50,0x47,0x3a,0x3a,0x42,0x47,0x4d,0x08,0x3a,0x0a,0x40,0x6e,0x61,0x6d,0x65,0x49,0x22,0x0c,0x63,0x61,0x73,0x74,0x6c,0x65,0x36,0x06,0x3a,0x06,0x45,0x54,0x3a,0x0c,0x40,0x76,0x6f,0x6c,0x75,0x6d,0x65,0x69,0x69,0x3a,0x0b,0x40,0x70,0x69,0x74,0x63,0x68,0x69,0x69))
0()
