﻿// EVENT 2103
Name "Seduction: Ostrich Girl"

If(0,25,1)
 EndEventProcessing()
 0()
EndIf()
355("$game_troop.lose_event_id = 3103")
ChangeVariable(26,26,0,3,3,1,4)
ChangeVariable(26,26,4,0,10)
ShowMessageFace("datyou_fc1",2,0,2,1)
ShowMessage("\\n<Ostrich Girl>I'm in a pinch!\nI'll be defeated if this keeps up...")
ShowMessageFace("datyou_fc1",1,0,2,2)
ShowMessage("\\n<Ostrich Girl>Will you overlook this if I service you with my mouth?\nI'm very confident in my vacuum.")
ChangeSwitch(98,98,0)
ChangeSwitch(96,96,0)
ShowChoices(strings("Ignore her","Give in to temptation"),1)
IfPlayerPicksChoice(0,"Ignore her")
 ShowMessageFace("",0,0,2,3)
 ShowMessage("Luka resists her temptation!")
 RunCommonEvent(1999)
 EndEventProcessing()
 0()
IfPlayerPicksChoice(1,"Give in to temptation")
 0()
404()
ShowMessageFace("datyou_fc1",1,0,2,4)
ShowMessage("\\n<Ostrich Girl>Well then...\nPlease say \"waaah\" when I give you my vacuum fellatio! ♪")
ChangeVariable(26,26,3,0,4)
250(bytes(0x04,0x08,0x6f,0x3a,0x0c,0x52,0x50,0x47,0x3a,0x3a,0x53,0x45,0x08,0x3a,0x0a,0x40,0x6e,0x61,0x6d,0x65,0x49,0x22,0x13,0x6d,0x6f,0x6e,0x5f,0x65,0x72,0x6f,0x5f,0x62,0x75,0x63,0x68,0x75,0x33,0x06,0x3a,0x06,0x45,0x54,0x3a,0x0b,0x40,0x70,0x69,0x74,0x63,0x68,0x69,0x69,0x3a,0x0c,0x40,0x76,0x6f,0x6c,0x75,0x6d,0x65,0x69,0x69))
311(0,1,1,1,26,true)
ShowMessageFace("",0,0,2,5)
ShowMessage("The Ostrich Girl greedily sucks on Luka's penis!\nShe sucks on his dick like a fierce vacuum!\\D")
ShowMessage("Luka takes \\V[26] damage!")
ChangeVariable(27,27,0,3,3,1,2)
If(1,27,0,0,0)
 JumpToLabel("射精1")
 0()
EndIf()
ShowMessageFace("datyou_fc1",1,0,2,6)
ShowMessage("\\n<Ostrich Girl>Ahaha, this is just the beginning! ♪\n*suuuuuuck*!!")
250(bytes(0x04,0x08,0x6f,0x3a,0x0c,0x52,0x50,0x47,0x3a,0x3a,0x53,0x45,0x08,0x3a,0x0a,0x40,0x6e,0x61,0x6d,0x65,0x49,0x22,0x13,0x6d,0x6f,0x6e,0x5f,0x65,0x72,0x6f,0x5f,0x62,0x75,0x63,0x68,0x75,0x33,0x06,0x3a,0x06,0x45,0x54,0x3a,0x0b,0x40,0x70,0x69,0x74,0x63,0x68,0x69,0x69,0x3a,0x0c,0x40,0x76,0x6f,0x6c,0x75,0x6d,0x65,0x69,0x69))
311(0,1,1,1,26,true)
ShowMessageFace("",0,0,2,7)
ShowMessage("The Ostrich Girl relentlessly vacuums Luka's penis!\nHer furious vacuum brings intense pleasure!\\D")
ShowMessage("Luka takes \\V[26] damage!")
ChangeVariable(27,27,0,3,3,1,2)
If(1,27,0,0,0)
 JumpToLabel("射精2")
 0()
EndIf()
ShowMessageFace("datyou_fc1",1,0,2,8)
ShowMessage("\\n<Ostrich Girl>Are you about to finish...?\nThen I'll end it with this, *suuuuuuck*♪")
250(bytes(0x04,0x08,0x6f,0x3a,0x0c,0x52,0x50,0x47,0x3a,0x3a,0x53,0x45,0x08,0x3a,0x0a,0x40,0x6e,0x61,0x6d,0x65,0x49,0x22,0x13,0x6d,0x6f,0x6e,0x5f,0x65,0x72,0x6f,0x5f,0x62,0x75,0x63,0x68,0x75,0x33,0x06,0x3a,0x06,0x45,0x54,0x3a,0x0b,0x40,0x70,0x69,0x74,0x63,0x68,0x69,0x69,0x3a,0x0c,0x40,0x76,0x6f,0x6c,0x75,0x6d,0x65,0x69,0x69))
311(0,1,1,1,26,true)
ShowMessageFace("",0,0,2,9)
ShowMessage("The Ostrich Girl stakes her best effort! She vacuums Luka's penis without pause, sucking out his semen!\\D")
ShowMessage("Luka takes \\V[26] damage!")
ChangeVariable(27,27,0,3,3,1,2)
If(1,27,0,0,0)
 JumpToLabel("射精2")
 0()
EndIf()
DefineLabel("射精1")
ShowMessageFace("",0,0,2,10)
ShowMessage("\\n<Luka>A-amazing... Aaah!")
RunCommonEvent(104)
RunCommonEvent(105)
ShowMessageFace("",0,0,2,11)
ShowMessage("Within an instant, my semen scattered inside the Ostrich Girl's mouth. Her skilled vacuum sucked it out in the blink of an eye.")
ShowMessageFace("datyou_fc1",1,0,2,12)
ShowMessage("\\n<Ostrich Girl>Nnn... You were defeated in a second.\nYou can't win against my mouth, ahaha...♪")
RunCommonEvent(2000)
EndEventProcessing()
DefineLabel("射精2")
ShowMessageFace("",0,0,2,13)
ShowMessage("\\n<Luka>It's being sucked out... Aaah...!")
RunCommonEvent(104)
RunCommonEvent(105)
ShowMessageFace("",0,0,2,14)
ShowMessage("The Ostrich Girl's skilled vacuum made me come miserably. My semen was sucked up by the Ostrich Girl's mouth.")
ShowMessageFace("datyou_fc1",1,0,2,15)
ShowMessage("\\n<Ostrich Girl>Nnfufu, you looose! ♪\nWere you overwhelmed by my vacuum fellatio?")
RunCommonEvent(2000)
EndEventProcessing()
0()
