// EVENT 4068
Name "Succubus Sara 3"

PictureDisplay(5,"80_saraevil_st02",0,0,0,0,100,100,255,0)
ShowMessageFace("sara_fc4",1,0,2,0)
ShowMessage("\\n<Sara>")
ShowMessage("You want me to squeeze your dick between my tits, Luka?")
ShowMessageFace("",0,0,2,1)
ShowMessage("\\n<Luka>")
ShowMessage("Y-Yes... Please...")
ShowMessageFace("sara_fc4",1,0,2,2)
ShowMessage("\\n<Sara>")
ShowMessage("All right, I'll show you a bit of heaven with my breasts...")
ShowMessage("Come on, come to my room...")
ShowMessageFace("",0,0,2,3)
ShowMessage("With that, I follow Sara to her room...")
221()
PictureDisplay(1,"bg195",0,0,0,0,100,100,255,0)
PictureDisplay(5,"80_saraevil_st02",0,0,0,0,100,100,255,0)
222()
241(bytes(0x04,0x08,0x6f,0x3a,0x0d,0x52,0x50,0x47,0x3a,0x3a,0x42,0x47,0x4d,0x08,0x3a,0x0a,0x40,0x6e,0x61,0x6d,0x65,0x49,0x22,0x09,0x65,0x72,0x6f,0x31,0x06,0x3a,0x06,0x45,0x54,0x3a,0x0c,0x40,0x76,0x6f,0x6c,0x75,0x6d,0x65,0x69,0x69,0x3a,0x0b,0x40,0x70,0x69,0x74,0x63,0x68,0x69,0x69))
245(bytes(0x04,0x08,0x6f,0x3a,0x0d,0x52,0x50,0x47,0x3a,0x3a,0x42,0x47,0x53,0x08,0x3a,0x0a,0x40,0x6e,0x61,0x6d,0x65,0x49,0x22,0x17,0x6d,0x6f,0x6e,0x5f,0x68,0x73,0x65,0x61,0x6e,0x31,0x37,0x5f,0x73,0x69,0x67,0x6f,0x6b,0x69,0x06,0x3a,0x06,0x45,0x54,0x3a,0x0c,0x40,0x76,0x6f,0x6c,0x75,0x6d,0x65,0x69,0x55,0x3a,0x0b,0x40,0x70,0x69,0x74,0x63,0x68,0x69,0x69))
ShowMessageFace("sara_fc4",1,0,2,4)
ShowMessage("\\n<Sara>")
ShowMessage("All right, I'll finish you off with my tits...")
ShowMessageFace("",0,0,2,5)
ShowMessage("\\n<Luka>")
ShowMessage("A-Ahhh...")
ShowMessageFace("",0,0,2,6)
ShowMessage("Sara lewdly sticks out her breasts as she walks toward me.")
PictureDisplay(5,"80_saraevil_st02",0,0,0,0,100,100,255,0)
PictureDisplay(6,"ev_saraevil_ctb01",0,0,0,0,100,100,255,0)
ShowMessageFace("",0,0,2,7)
ShowMessage("She squeezes my penis between her breasts!")
ShowMessage("I tremble as her soft chest wraps me up.")
ShowMessageFace("",0,0,2,8)
ShowMessage("\\n<Luka>")
ShowMessage("Ah... Hauuu!")
ShowMessageFace("sara_fc4",1,0,2,9)
ShowMessage("\\n<Sara>")
ShowMessage("Ufufu, are your hips already trembling?")
ShowMessage("I'll milk out your semen with my breasts...")
ShowMessageFace("",0,0,2,10)
ShowMessage("Sara slowly presses her breasts against my penis.")
ShowMessage("Just being pressed between them already feels amazing.")
ShowMessageFace("",0,0,2,11)
ShowMessage("I can't afford to come that fast...")
ShowMessage("With that in mind, I clench and try to hold back.")
ShowMessageFace("sara_fc4",1,0,2,12)
ShowMessage("\\n<Sara>")
ShowMessage("Ufufufu...")
ShowMessage("I want you to come all over my tits, Luka...")
ShowMessageFace("",0,0,2,13)
ShowMessage("Sara whispers that in my ear as she starts moving her breasts up and down.")
ShowMessage("The sweet sense of oppression makes me want to release.")
ShowMessageFace("",0,0,2,14)
ShowMessage("Sandwiched between her soft breasts, and the sweet rhythm...")
ShowMessageFace("",0,0,2,15)
ShowMessage("\\n<Luka>")
ShowMessage("Hauu... Ahhh!")
ShowMessageFace("",0,0,2,16)
ShowMessage("My endurance is quickly breaking down.")
ShowMessage("Everything crumbles as the desire to come takes over everything else.")
ShowMessageFace("sara_fc4",1,0,2,17)
ShowMessage("\\n<Sara>")
ShowMessage("Fufufu, coming?")
ShowMessage("Luka, are you going to come?")
ShowMessageFace("",0,0,2,18)
ShowMessage("I can't suppress the urge to come.")
ShowMessage("Surrendering to that sweet feeling, my back arches backwards as I embrace it.")
ShowMessageFace("",0,0,2,19)
ShowMessage("\\n<Luka>")
ShowMessage("I-I'm coming...! Ahhh!")
RunCommonEvent(104)
PictureDisplay(6,"ev_saraevil_ctb02",0,0,0,0,100,100,255,0)
RunCommonEvent(105)
ShowMessageFace("",0,0,2,20)
ShowMessage("As Sara rubs me with her breasts, I come, shooting it all over her chest.")
ShowMessageFace("",0,0,2,21)
ShowMessage("\\n<Luka>")
ShowMessage("Ahhh...")
ShowMessageFace("sara_fc4",1,0,2,22)
ShowMessage("\\n<Sara>")
ShowMessage("Ahaha... You came.")
ShowMessage("Look... Luka's semen got my breasts all sticky...")
ShowMessageFace("",0,0,2,23)
ShowMessage("Sara murmurs to herself, almost in a trance herself.")
ShowMessage("But she's still pressing her breasts together, rubbing my penis with them.")
ShowMessageFace("",0,0,2,24)
ShowMessage("\\n<Luka>")
ShowMessage("Auu... Let's stop...")
ShowMessageFace("sara_fc4",1,0,2,25)
ShowMessage("\\n<Sara>")
ShowMessage("No, I want to milk more.")
ShowMessage("Hora, hora, let out more...")
ShowMessageFace("",0,0,2,26)
ShowMessage("Sara presses even harder on her breasts.")
ShowMessage("The strong pressure crushes my penis in her soft valley.")
ShowMessageFace("",0,0,2,27)
ShowMessage("\\n<Luka>")
ShowMessage("Hau... Ahh...")
ShowMessageFace("sara_fc4",1,0,2,28)
ShowMessage("\\n<Sara>")
ShowMessage("Fufufu...")
ShowMessage("My breasts are incredible, aren't they?")
ShowMessageFace("",0,0,2,29)
ShowMessage("Sara squeezes me even more.")
ShowMessage("My penis nearly sinks into her soft flesh.")
ShowMessageFace("",0,0,2,30)
ShowMessage("Pressed and crushed from every direction...")
ShowMessage("Led by the sweet stimulation, I already feel another orgasm coming.")
ShowMessageFace("",0,0,2,31)
ShowMessage("\\n<Luka>")
ShowMessage("Auuu... I'm going to come again...!")
ShowMessageFace("sara_fc4",1,0,2,32)
ShowMessage("\\n<Sara>")
ShowMessage("Ahaha... My breasts are making you come again.")
ShowMessage("Come all over me...♪")
ShowMessageFace("",0,0,2,33)
ShowMessage("Sara bounces her breasts up and down.")
ShowMessage("Rubbing me with them, she moves them up and down in alternating motions.")
ShowMessageFace("",0,0,2,34)
ShowMessage("\\n<Luka>")
ShowMessage("Ah... That's... Too much... Ahhh!")
ShowMessageFace("",0,0,2,35)
ShowMessage("My penis is rubbed and massaged in her cleavage.")
ShowMessage("Her intense paizuri pushes me right to the limit in no time.")
ShowMessageFace("",0,0,2,36)
ShowMessage("\\n<Luka>")
ShowMessage("A-Ahhhh!!")
RunCommonEvent(104)
PictureDisplay(6,"ev_saraevil_ctb03",0,0,0,0,100,100,255,0)
RunCommonEvent(105)
ShowMessageFace("",0,0,2,37)
ShowMessage("My semen shoots up from between her breasts again.")
ShowMessage("But Sara doesn't let up at all.")
ShowMessageFace("sara_fc4",1,0,2,38)
ShowMessage("\\n<Sara>")
ShowMessage("Ahaha, I'll make you come again.")
ShowMessage("I'll milk you like a cow...")
ShowMessageFace("",0,0,2,39)
ShowMessage("Her up and down movements get even more intense.")
ShowMessage("Sara's smooth skin rubs against me as she bounces.")
ShowMessageFace("",0,0,2,40)
ShowMessage("My glans presses into her soft breasts as she massages my penis.")
ShowMessage("Up and down, she's trying to force me to another consecutive orgasm.")
ShowMessageFace("",0,0,2,41)
ShowMessage("\\n<Luka>")
ShowMessage("S-Stop...")
ShowMessageFace("",0,0,2,42)
ShowMessage("My whole body squirms to escape from the intense pleasure.")
ShowMessage("But even if I pull out, she just forces me back between her breasts.")
ShowMessageFace("sara_fc4",1,0,2,43)
ShowMessage("\\n<Sara>")
ShowMessage("No running, Luka...")
ShowMessage("I'm going to milk you dry.")
ShowMessageFace("",0,0,2,44)
ShowMessage("Sara only squeezes me even harder.")
ShowMessage("Tossed side to side, my penis is rocked in her movements.")
ShowMessageFace("",0,0,2,45)
ShowMessage("I'm quickly put into a helpless corner by her technique.")
ShowMessage("Even though it's the third time, I'm going to come all too quickly again.")
ShowMessageFace("",0,0,2,46)
ShowMessage("\\n<Luka>")
ShowMessage("I-I'm coming again...!")
ShowMessageFace("sara_fc4",1,0,2,47)
ShowMessage("\\n<Sara>")
ShowMessage("Hora, come...♪")
ShowMessage("Spray it everywhere. ♪")
ShowMessageFace("",0,0,2,48)
ShowMessage("Sara tightens her grip as she moves to make me come again.")
ShowMessage("Bouncing up and down, she's forcing me to another climax.")
ShowMessageFace("",0,0,2,49)
ShowMessage("\\n<Luka>")
ShowMessage("Auuu...!!")
ShowMessageFace("",0,0,2,50)
ShowMessage("The sweet, soft tightness of her breasts forces me over the edge yet again.")
RunCommonEvent(104)
PictureDisplay(6,"ev_saraevil_ctb04",0,0,0,0,100,100,255,0)
RunCommonEvent(105)
ShowMessageFace("",0,0,2,51)
ShowMessage("More semen leaks out onto her chest.")
ShowMessage("Feeling overwhelmed by ecstasy, my body goes limp.")
ShowMessageFace("",0,0,2,52)
ShowMessage("\\n<Luka>")
ShowMessage("Hauuu...")
ShowMessageFace("",0,0,2,53)
ShowMessage("Sara's breasts are all covered in my white semen.")
ShowMessage("Nevertheless, her paizuri doesn't stop.")
ShowMessageFace("",0,0,2,54)
ShowMessage("\\n<Luka>")
ShowMessage("S-Stop already... I can't do it anymore...")
ShowMessageFace("sara_fc4",1,0,2,55)
ShowMessage("\\n<Sara>")
ShowMessage("I'll milk more...")
ShowMessage("I'll squeeze you until you dry up...")
ShowMessageFace("",0,0,2,56)
ShowMessage("\\n<Luka>")
ShowMessage("Ahhh...")
RunCommonEvent(104)
RunCommonEvent(105)
ShowMessageFace("",0,0,2,57)
ShowMessage("I feebly struggle as I come over and over on her breasts.")
RunCommonEvent(104)
RunCommonEvent(105)
221()
PictureClear(1)
PictureClear(5)
PictureClear(6)
ShowMessageFace("",0,0,2,58)
ShowMessage("In the middle of her hellish paizuri, I finally faint.")
ShowMessageFace("sara_fc4",1,0,2,59)
ShowMessage("\\n<Sara>")
ShowMessage("You won't escape, just because you fainted.")
ShowMessage("Hora, hora... Ufufufu...")
ShowMessageFace("",0,0,2,60)
ShowMessage("\\n<Luka>")
ShowMessage(".........")
RunCommonEvent(104)
RunCommonEvent(105)
ShowMessageFace("",0,0,2,61)
ShowMessage("Despite fainting, Sara's paizuri continues.")
ShowMessage("Even while sleeping, I'm forced to come over and over...")
246(2)
ShowMessageFace("",0,0,2,62)
ShowMessage("......")
242(2)
Wait(120)
241(bytes(0x04,0x08,0x6f,0x3a,0x0d,0x52,0x50,0x47,0x3a,0x3a,0x42,0x47,0x4d,0x08,0x3a,0x0a,0x40,0x6e,0x61,0x6d,0x65,0x49,0x22,0x0c,0x63,0x61,0x73,0x74,0x6c,0x65,0x36,0x06,0x3a,0x06,0x45,0x54,0x3a,0x0c,0x40,0x76,0x6f,0x6c,0x75,0x6d,0x65,0x69,0x69,0x3a,0x0b,0x40,0x70,0x69,0x74,0x63,0x68,0x69,0x69))
0()
