﻿// EVENT 0354
Name "White Rabbit Thunder"

ShowMessageFace("sirousagi_fc1",0,0,2,1)
ShowMessage("\\n<White Rabbit>Over here!\nLook, \"that\" is right there--")
241(bytes(0x04,0x08,0x6f,0x3a,0x0d,0x52,0x50,0x47,0x3a,0x3a,0x42,0x47,0x4d,0x08,0x3a,0x0a,0x40,0x6e,0x61,0x6d,0x65,0x49,0x22,0x0a,0x6b,0x69,0x6b,0x69,0x32,0x06,0x3a,0x06,0x45,0x54,0x3a,0x0c,0x40,0x76,0x6f,0x6c,0x75,0x6d,0x65,0x69,0x69,0x3a,0x0b,0x40,0x70,0x69,0x74,0x63,0x68,0x69,0x69))
ShowMessageFace("",0,0,2,2)
ShowMessage("\\n<？？？>How dare you refer to me as \"that\"--")
212(27,515,false)
Wait(30)
ChangeVariable(1075,1075,0,0,12)
ShowMessageFace("sirousagi_fc1",2,0,2,3)
ShowMessage("\\n<White Rabbit>Hyaaaaaaaaah?!")
Wait(30)
ShowMessageFace("ruka_fc1",0,0,2,4)
ShowMessage("\\n<Luka>Wh-what...?!")
ScrollMap(8,10,5)
Wait(60)
If(0,4,0)
 ShowMessageFace("alice_fc6",0,0,2,5)
 ShowMessage("\\n<Alice>No way, is that... Ilias?!")
 0()
EndIf()
If(0,5,0)
 ShowMessageFace("iriasu_fc4",5,0,2,6)
 ShowMessage("\\n<Ilias>No, is that... Me?!")
 0()
EndIf()
ScrollMap(2,10,6)
Wait(60)
241(bytes(0x04,0x08,0x6f,0x3a,0x0d,0x52,0x50,0x47,0x3a,0x3a,0x42,0x47,0x4d,0x08,0x3a,0x0a,0x40,0x6e,0x61,0x6d,0x65,0x49,0x22,0x14,0x64,0x75,0x6e,0x67,0x65,0x6f,0x6e,0x5f,0x73,0x69,0x6e,0x64,0x65,0x6e,0x33,0x06,0x3a,0x06,0x45,0x54,0x3a,0x0c,0x40,0x76,0x6f,0x6c,0x75,0x6d,0x65,0x69,0x69,0x3a,0x0b,0x40,0x70,0x69,0x74,0x63,0x68,0x69,0x69))
0()
