// EVENT 0035
Name "Get: Rank 3 Single Item"

ChangeVariable(11,11,0,2,1,165)
If(1,11,0,1,0)
 ChangeInventory_Item(4,0,0,1)
 ShowMessageFace("",0,0,2,1)
 ShowMessage("You obtain \\ii[4]!")
 EndEventProcessing()
 0()
EndIf()
If(1,11,0,2,0)
 ChangeInventory_Item(8,0,0,1)
 ShowMessageFace("",0,0,2,2)
 ShowMessage("You obtain \\ii[8]!")
 EndEventProcessing()
 0()
EndIf()
If(1,11,0,3,0)
 ChangeInventory_Item(20,0,0,1)
 ShowMessageFace("",0,0,2,3)
 ShowMessage("You obtain \\ii[20]!")
 EndEventProcessing()
 0()
EndIf()
If(1,11,0,4,0)
 ChangeInventory_Item(21,0,0,1)
 ShowMessageFace("",0,0,2,4)
 ShowMessage("You obtain \\ii[21]!")
 EndEventProcessing()
 0()
EndIf()
If(1,11,0,5,0)
 ChangeInventory_Item(102,0,0,1)
 ShowMessageFace("",0,0,2,5)
 ShowMessage("You obtain \\ii[102]!")
 EndEventProcessing()
 0()
EndIf()
If(1,11,0,6,0)
 ChangeInventory_Item(204,0,0,1)
 ShowMessageFace("",0,0,2,6)
 ShowMessage("You obtain \\ii[204]!")
 EndEventProcessing()
 0()
EndIf()
If(1,11,0,7,0)
 ChangeInventory_Item(205,0,0,1)
 ShowMessageFace("",0,0,2,7)
 ShowMessage("You obtain \\ii[205]!")
 EndEventProcessing()
 0()
EndIf()
If(1,11,0,8,0)
 ChangeInventory_Item(206,0,0,1)
 ShowMessageFace("",0,0,2,8)
 ShowMessage("You obtain \\ii[206]!")
 EndEventProcessing()
 0()
EndIf()
If(1,11,0,9,0)
 ChangeInventory_Item(207,0,0,1)
 ShowMessageFace("",0,0,2,9)
 ShowMessage("You obtain \\ii[207]!")
 EndEventProcessing()
 0()
EndIf()
If(1,11,0,10,0)
 ChangeInventory_Item(208,0,0,1)
 ShowMessageFace("",0,0,2,10)
 ShowMessage("You obtain \\ii[208]!")
 EndEventProcessing()
 0()
EndIf()
If(1,11,0,11,0)
 ChangeInventory_Item(209,0,0,1)
 ShowMessageFace("",0,0,2,11)
 ShowMessage("You obtain \\ii[209]!")
 EndEventProcessing()
 0()
EndIf()
If(1,11,0,12,0)
 ChangeInventory_Item(210,0,0,1)
 ShowMessageFace("",0,0,2,12)
 ShowMessage("You obtain \\ii[210]!")
 EndEventProcessing()
 0()
EndIf()
If(1,11,0,13,0)
 ChangeInventory_Item(211,0,0,1)
 ShowMessageFace("",0,0,2,13)
 ShowMessage("You obtain \\ii[211]!")
 EndEventProcessing()
 0()
EndIf()
If(1,11,0,14,0)
 ChangeInventory_Item(212,0,0,1)
 ShowMessageFace("",0,0,2,14)
 ShowMessage("You obtain \\ii[212]!")
 EndEventProcessing()
 0()
EndIf()
If(1,11,0,15,0)
 ChangeInventory_Item(213,0,0,1)
 ShowMessageFace("",0,0,2,15)
 ShowMessage("You obtain \\ii[213]!")
 EndEventProcessing()
 0()
EndIf()
If(1,11,0,16,0)
 ChangeInventory_Item(214,0,0,1)
 ShowMessageFace("",0,0,2,16)
 ShowMessage("You obtain \\ii[214]!")
 EndEventProcessing()
 0()
EndIf()
If(1,11,0,17,0)
 ChangeInventory_Item(215,0,0,1)
 ShowMessageFace("",0,0,2,17)
 ShowMessage("You obtain \\ii[215]!")
 EndEventProcessing()
 0()
EndIf()
If(1,11,0,18,0)
 ChangeInventory_Item(216,0,0,1)
 ShowMessageFace("",0,0,2,18)
 ShowMessage("You obtain \\ii[216]!")
 EndEventProcessing()
 0()
EndIf()
If(1,11,0,19,0)
 ChangeInventory_Item(217,0,0,1)
 ShowMessageFace("",0,0,2,19)
 ShowMessage("You obtain \\ii[217]!")
 EndEventProcessing()
 0()
EndIf()
If(1,11,0,20,0)
 ChangeInventory_Item(218,0,0,1)
 ShowMessageFace("",0,0,2,20)
 ShowMessage("You obtain \\ii[218]!")
 EndEventProcessing()
 0()
EndIf()
If(1,11,0,21,0)
 ChangeInventory_Item(219,0,0,1)
 ShowMessageFace("",0,0,2,21)
 ShowMessage("You obtain \\ii[219]!")
 EndEventProcessing()
 0()
EndIf()
If(1,11,0,22,0)
 ChangeInventory_Item(220,0,0,1)
 ShowMessageFace("",0,0,2,22)
 ShowMessage("You obtain \\ii[220]!")
 EndEventProcessing()
 0()
EndIf()
If(1,11,0,23,0)
 ChangeInventory_Item(221,0,0,1)
 ShowMessageFace("",0,0,2,23)
 ShowMessage("You obtain \\ii[221]!")
 EndEventProcessing()
 0()
EndIf()
If(1,11,0,24,0)
 ChangeInventory_Item(222,0,0,1)
 ShowMessageFace("",0,0,2,24)
 ShowMessage("You obtain \\ii[222]!")
 EndEventProcessing()
 0()
EndIf()
If(1,11,0,25,0)
 ChangeInventory_Item(223,0,0,1)
 ShowMessageFace("",0,0,2,25)
 ShowMessage("You obtain \\ii[223]!")
 EndEventProcessing()
 0()
EndIf()
If(1,11,0,26,0)
 ChangeInventory_Item(224,0,0,1)
 ShowMessageFace("",0,0,2,26)
 ShowMessage("You obtain \\ii[224]!")
 EndEventProcessing()
 0()
EndIf()
If(1,11,0,27,0)
 ChangeInventory_Item(225,0,0,1)
 ShowMessageFace("",0,0,2,27)
 ShowMessage("You obtain \\ii[225]!")
 EndEventProcessing()
 0()
EndIf()
If(1,11,0,28,0)
 ChangeInventory_Item(344,0,0,1)
 ShowMessageFace("",0,0,2,28)
 ShowMessage("You obtain \\ii[344]!")
 EndEventProcessing()
 0()
EndIf()
If(1,11,0,29,0)
 ChangeInventory_Item(345,0,0,1)
 ShowMessageFace("",0,0,2,29)
 ShowMessage("You obtain \\ii[345]!")
 EndEventProcessing()
 0()
EndIf()
If(1,11,0,30,0)
 ChangeInventory_Item(346,0,0,1)
 ShowMessageFace("",0,0,2,30)
 ShowMessage("You obtain \\ii[346]!")
 EndEventProcessing()
 0()
EndIf()
If(1,11,0,31,0)
 ChangeInventory_Item(347,0,0,1)
 ShowMessageFace("",0,0,2,31)
 ShowMessage("You obtain \\ii[347]!")
 EndEventProcessing()
 0()
EndIf()
If(1,11,0,32,0)
 ChangeInventory_Item(348,0,0,1)
 ShowMessageFace("",0,0,2,32)
 ShowMessage("You obtain \\ii[348]!")
 EndEventProcessing()
 0()
EndIf()
If(1,11,0,33,0)
 ChangeInventory_Item(349,0,0,1)
 ShowMessageFace("",0,0,2,33)
 ShowMessage("You obtain \\ii[349]!")
 EndEventProcessing()
 0()
EndIf()
If(1,11,0,34,0)
 ChangeInventory_Item(350,0,0,1)
 ShowMessageFace("",0,0,2,34)
 ShowMessage("You obtain \\ii[350]!")
 EndEventProcessing()
 0()
EndIf()
If(1,11,0,35,0)
 ChangeInventory_Item(351,0,0,1)
 ShowMessageFace("",0,0,2,35)
 ShowMessage("You obtain \\ii[351]!")
 EndEventProcessing()
 0()
EndIf()
If(1,11,0,36,0)
 ChangeInventory_Item(352,0,0,1)
 ShowMessageFace("",0,0,2,36)
 ShowMessage("You obtain \\ii[352]!")
 EndEventProcessing()
 0()
EndIf()
If(1,11,0,37,0)
 ChangeInventory_Item(353,0,0,1)
 ShowMessageFace("",0,0,2,37)
 ShowMessage("You obtain \\ii[353]!")
 EndEventProcessing()
 0()
EndIf()
If(1,11,0,38,0)
 ChangeInventory_Item(354,0,0,1)
 ShowMessageFace("",0,0,2,38)
 ShowMessage("You obtain \\ii[354]!")
 EndEventProcessing()
 0()
EndIf()
If(1,11,0,39,0)
 ChangeInventory_Item(355,0,0,1)
 ShowMessageFace("",0,0,2,39)
 ShowMessage("You obtain \\ii[355]!")
 EndEventProcessing()
 0()
EndIf()
If(1,11,0,40,0)
 ChangeInventory_Item(356,0,0,1)
 ShowMessageFace("",0,0,2,40)
 ShowMessage("You obtain \\ii[356]!")
 EndEventProcessing()
 0()
EndIf()
If(1,11,0,41,0)
 ChangeInventory_Item(363,0,0,1)
 ShowMessageFace("",0,0,2,41)
 ShowMessage("You obtain \\ii[363]!")
 EndEventProcessing()
 0()
EndIf()
If(1,11,0,42,0)
 ChangeInventory_Item(364,0,0,1)
 ShowMessageFace("",0,0,2,42)
 ShowMessage("You obtain \\ii[364]!")
 EndEventProcessing()
 0()
EndIf()
If(1,11,0,43,0)
 ChangeInventory_Item(365,0,0,1)
 ShowMessageFace("",0,0,2,43)
 ShowMessage("You obtain \\ii[365]!")
 EndEventProcessing()
 0()
EndIf()
If(1,11,0,44,0)
 ChangeInventory_Item(366,0,0,1)
 ShowMessageFace("",0,0,2,44)
 ShowMessage("You obtain \\ii[366]!")
 EndEventProcessing()
 0()
EndIf()
If(1,11,0,45,0)
 ChangeInventory_Item(367,0,0,1)
 ShowMessageFace("",0,0,2,45)
 ShowMessage("You obtain \\ii[367]!")
 EndEventProcessing()
 0()
EndIf()
If(1,11,0,46,0)
 ChangeInventory_Item(368,0,0,1)
 ShowMessageFace("",0,0,2,46)
 ShowMessage("You obtain \\ii[368]!")
 EndEventProcessing()
 0()
EndIf()
If(1,11,0,47,0)
 ChangeInventory_Item(370,0,0,1)
 ShowMessageFace("",0,0,2,47)
 ShowMessage("You obtain \\ii[370]!")
 EndEventProcessing()
 0()
EndIf()
If(1,11,0,48,0)
 ChangeInventory_Item(371,0,0,1)
 ShowMessageFace("",0,0,2,48)
 ShowMessage("You obtain \\ii[371]!")
 EndEventProcessing()
 0()
EndIf()
If(1,11,0,49,0)
 ChangeInventory_Item(374,0,0,1)
 ShowMessageFace("",0,0,2,49)
 ShowMessage("You obtain \\ii[374]!")
 EndEventProcessing()
 0()
EndIf()
If(1,11,0,50,0)
 ChangeInventory_Item(385,0,0,1)
 ShowMessageFace("",0,0,2,50)
 ShowMessage("You obtain \\ii[385]!")
 EndEventProcessing()
 0()
EndIf()
If(1,11,0,51,0)
 ChangeInventory_Item(386,0,0,1)
 ShowMessageFace("",0,0,2,51)
 ShowMessage("You obtain \\ii[386]!")
 EndEventProcessing()
 0()
EndIf()
If(1,11,0,52,0)
 ChangeInventory_Item(387,0,0,1)
 ShowMessageFace("",0,0,2,52)
 ShowMessage("You obtain \\ii[387]!")
 EndEventProcessing()
 0()
EndIf()
If(1,11,0,53,0)
 ChangeInventory_Item(388,0,0,1)
 ShowMessageFace("",0,0,2,53)
 ShowMessage("You obtain \\ii[388]!")
 EndEventProcessing()
 0()
EndIf()
If(1,11,0,54,0)
 ChangeInventory_Item(384,0,0,1)
 ShowMessageFace("",0,0,2,54)
 ShowMessage("You obtain \\ii[384]!")
 EndEventProcessing()
 0()
EndIf()
If(1,11,0,55,0)
 ChangeInventory_Item(390,0,0,1)
 ShowMessageFace("",0,0,2,55)
 ShowMessage("You obtain \\ii[390]!")
 EndEventProcessing()
 0()
EndIf()
If(1,11,0,56,0)
 ChangeInventory_Item(391,0,0,1)
 ShowMessageFace("",0,0,2,56)
 ShowMessage("You obtain \\ii[391]!")
 EndEventProcessing()
 0()
EndIf()
If(1,11,0,57,0)
 ChangeInventory_Item(393,0,0,1)
 ShowMessageFace("",0,0,2,57)
 ShowMessage("You obtain \\ii[393]!")
 EndEventProcessing()
 0()
EndIf()
If(1,11,0,58,0)
 ChangeInventory_Item(394,0,0,1)
 ShowMessageFace("",0,0,2,58)
 ShowMessage("You obtain \\ii[394]!")
 EndEventProcessing()
 0()
EndIf()
If(1,11,0,59,0)
 ChangeInventory_Item(395,0,0,1)
 ShowMessageFace("",0,0,2,59)
 ShowMessage("You obtain \\ii[395]!")
 EndEventProcessing()
 0()
EndIf()
If(1,11,0,60,0)
 ChangeInventory_Item(396,0,0,1)
 ShowMessageFace("",0,0,2,60)
 ShowMessage("You obtain \\ii[396]!")
 EndEventProcessing()
 0()
EndIf()
If(1,11,0,61,0)
 ChangeInventory_Item(397,0,0,1)
 ShowMessageFace("",0,0,2,61)
 ShowMessage("You obtain \\ii[397]!")
 EndEventProcessing()
 0()
EndIf()
If(1,11,0,62,0)
 ChangeInventory_Item(398,0,0,1)
 ShowMessageFace("",0,0,2,62)
 ShowMessage("You obtain \\ii[398]!")
 EndEventProcessing()
 0()
EndIf()
If(1,11,0,63,0)
 ChangeInventory_Item(399,0,0,1)
 ShowMessageFace("",0,0,2,63)
 ShowMessage("You obtain \\ii[399]!")
 EndEventProcessing()
 0()
EndIf()
If(1,11,0,64,0)
 ChangeInventory_Item(400,0,0,1)
 ShowMessageFace("",0,0,2,64)
 ShowMessage("You obtain \\ii[400]!")
 EndEventProcessing()
 0()
EndIf()
If(1,11,0,65,0)
 ChangeInventory_Item(401,0,0,1)
 ShowMessageFace("",0,0,2,65)
 ShowMessage("You obtain \\ii[401]!")
 EndEventProcessing()
 0()
EndIf()
If(1,11,0,66,0)
 ChangeInventory_Item(402,0,0,1)
 ShowMessageFace("",0,0,2,66)
 ShowMessage("You obtain \\ii[402]!")
 EndEventProcessing()
 0()
EndIf()
If(1,11,0,67,0)
 ChangeInventory_Item(403,0,0,1)
 ShowMessageFace("",0,0,2,67)
 ShowMessage("You obtain \\ii[403]!")
 EndEventProcessing()
 0()
EndIf()
If(1,11,0,68,0)
 ChangeInventory_Item(404,0,0,1)
 ShowMessageFace("",0,0,2,68)
 ShowMessage("You obtain \\ii[404]!")
 EndEventProcessing()
 0()
EndIf()
If(1,11,0,69,0)
 ChangeInventory_Item(405,0,0,1)
 ShowMessageFace("",0,0,2,69)
 ShowMessage("You obtain \\ii[405]!")
 EndEventProcessing()
 0()
EndIf()
If(1,11,0,70,0)
 ChangeInventory_Item(406,0,0,1)
 ShowMessageFace("",0,0,2,70)
 ShowMessage("You obtain \\ii[406]!")
 EndEventProcessing()
 0()
EndIf()
If(1,11,0,71,0)
 ChangeInventory_Item(407,0,0,1)
 ShowMessageFace("",0,0,2,71)
 ShowMessage("You obtain \\ii[407]!")
 EndEventProcessing()
 0()
EndIf()
If(1,11,0,72,0)
 ChangeInventory_Item(450,0,0,1)
 ShowMessageFace("",0,0,2,72)
 ShowMessage("You obtain \\ii[450]!")
 EndEventProcessing()
 0()
EndIf()
If(1,11,0,73,0)
 ChangeInventoryArmor(1003,0,0,1,false)
 ShowMessageFace("",0,0,2,73)
 ShowMessage("You obtain \\ia[1003]!")
 EndEventProcessing()
 0()
EndIf()
If(1,11,0,74,0)
 ChangeInventoryArmor(1008,0,0,1,false)
 ShowMessageFace("",0,0,2,74)
 ShowMessage("You obtain \\ia[1008]!")
 EndEventProcessing()
 0()
EndIf()
If(1,11,0,75,0)
 ChangeInventoryArmor(1013,0,0,1,false)
 ShowMessageFace("",0,0,2,75)
 ShowMessage("You obtain \\ia[1013]!")
 EndEventProcessing()
 0()
EndIf()
If(1,11,0,76,0)
 ChangeInventoryArmor(1018,0,0,1,false)
 ShowMessageFace("",0,0,2,76)
 ShowMessage("You obtain \\ia[1018]!")
 EndEventProcessing()
 0()
EndIf()
If(1,11,0,77,0)
 ChangeInventoryArmor(1023,0,0,1,false)
 ShowMessageFace("",0,0,2,77)
 ShowMessage("You obtain \\ia[1023]!")
 EndEventProcessing()
 0()
EndIf()
If(1,11,0,78,0)
 ChangeInventoryArmor(1028,0,0,1,false)
 ShowMessageFace("",0,0,2,78)
 ShowMessage("You obtain \\ia[1028]!")
 EndEventProcessing()
 0()
EndIf()
If(1,11,0,79,0)
 ChangeInventoryArmor(1033,0,0,1,false)
 ShowMessageFace("",0,0,2,79)
 ShowMessage("You obtain \\ia[1033]!")
 EndEventProcessing()
 0()
EndIf()
If(1,11,0,80,0)
 ChangeInventoryArmor(1038,0,0,1,false)
 ShowMessageFace("",0,0,2,80)
 ShowMessage("You obtain \\ia[1038]!")
 EndEventProcessing()
 0()
EndIf()
If(1,11,0,81,0)
 ChangeInventoryArmor(1043,0,0,1,false)
 ShowMessageFace("",0,0,2,81)
 ShowMessage("You obtain \\ia[1043]!")
 EndEventProcessing()
 0()
EndIf()
If(1,11,0,82,0)
 ChangeInventoryArmor(1047,0,0,1,false)
 ShowMessageFace("",0,0,2,82)
 ShowMessage("You obtain \\ia[1047]!")
 EndEventProcessing()
 0()
EndIf()
If(1,11,0,83,0)
 ChangeInventoryArmor(1051,0,0,1,false)
 ShowMessageFace("",0,0,2,83)
 ShowMessage("You obtain \\ia[1051]!")
 EndEventProcessing()
 0()
EndIf()
If(1,11,0,84,0)
 ChangeInventoryArmor(1055,0,0,1,false)
 ShowMessageFace("",0,0,2,84)
 ShowMessage("You obtain \\ia[1055]!")
 EndEventProcessing()
 0()
EndIf()
If(1,11,0,85,0)
 ChangeInventoryArmor(1057,0,0,1,false)
 ShowMessageFace("",0,0,2,85)
 ShowMessage("You obtain \\ia[1057]!")
 EndEventProcessing()
 0()
EndIf()
If(1,11,0,86,0)
 ChangeInventoryArmor(1060,0,0,1,false)
 ShowMessageFace("",0,0,2,86)
 ShowMessage("You obtain \\ia[1060]!")
 EndEventProcessing()
 0()
EndIf()
If(1,11,0,87,0)
 ChangeInventoryArmor(1062,0,0,1,false)
 ShowMessageFace("",0,0,2,87)
 ShowMessage("You obtain \\ia[1062]!")
 EndEventProcessing()
 0()
EndIf()
If(1,11,0,88,0)
 ChangeInventoryArmor(1065,0,0,1,false)
 ShowMessageFace("",0,0,2,88)
 ShowMessage("You obtain \\ia[1065]!")
 EndEventProcessing()
 0()
EndIf()
If(1,11,0,89,0)
 ChangeInventoryArmor(1067,0,0,1,false)
 ShowMessageFace("",0,0,2,89)
 ShowMessage("You obtain \\ia[1067]!")
 EndEventProcessing()
 0()
EndIf()
If(1,11,0,90,0)
 ChangeInventoryArmor(1072,0,0,1,false)
 ShowMessageFace("",0,0,2,90)
 ShowMessage("You obtain \\ia[1072]!")
 EndEventProcessing()
 0()
EndIf()
If(1,11,0,91,0)
 ChangeInventoryArmor(1077,0,0,1,false)
 ShowMessageFace("",0,0,2,91)
 ShowMessage("You obtain \\ia[1077]!")
 EndEventProcessing()
 0()
EndIf()
If(1,11,0,92,0)
 ChangeInventoryArmor(1101,0,0,1,false)
 ShowMessageFace("",0,0,2,92)
 ShowMessage("You obtain \\ia[1101]!")
 EndEventProcessing()
 0()
EndIf()
If(1,11,0,93,0)
 ChangeInventoryArmor(1107,0,0,1,false)
 ShowMessageFace("",0,0,2,93)
 ShowMessage("You obtain \\ia[1107]!")
 EndEventProcessing()
 0()
EndIf()
If(1,11,0,94,0)
 ChangeInventoryArmor(1109,0,0,1,false)
 ShowMessageFace("",0,0,2,94)
 ShowMessage("You obtain \\ia[1109]!")
 EndEventProcessing()
 0()
EndIf()
If(1,11,0,95,0)
 ChangeInventoryArmor(1114,0,0,1,false)
 ShowMessageFace("",0,0,2,95)
 ShowMessage("You obtain \\ia[1114]!")
 EndEventProcessing()
 0()
EndIf()
If(1,11,0,96,0)
 ChangeInventoryArmor(1116,0,0,1,false)
 ShowMessageFace("",0,0,2,96)
 ShowMessage("You obtain \\ia[1116]!")
 EndEventProcessing()
 0()
EndIf()
If(1,11,0,97,0)
 ChangeInventoryArmor(1118,0,0,1,false)
 ShowMessageFace("",0,0,2,97)
 ShowMessage("You obtain \\ia[1118]!")
 EndEventProcessing()
 0()
EndIf()
If(1,11,0,98,0)
 ChangeInventoryArmor(1121,0,0,1,false)
 ShowMessageFace("",0,0,2,98)
 ShowMessage("You obtain \\ia[1121]!")
 EndEventProcessing()
 0()
EndIf()
If(1,11,0,99,0)
 ChangeInventoryArmor(1127,0,0,1,false)
 ShowMessageFace("",0,0,2,99)
 ShowMessage("You obtain \\ia[1127]!")
 EndEventProcessing()
 0()
EndIf()
If(1,11,0,100,0)
 ChangeInventoryArmor(1131,0,0,1,false)
 ShowMessageFace("",0,0,2,100)
 ShowMessage("You obtain \\ia[1131]!")
 EndEventProcessing()
 0()
EndIf()
If(1,11,0,101,0)
 ChangeInventoryArmor(1143,0,0,1,false)
 ShowMessageFace("",0,0,2,101)
 ShowMessage("You obtain \\ia[1143]!")
 EndEventProcessing()
 0()
EndIf()
If(1,11,0,102,0)
 ChangeInventoryArmor(1146,0,0,1,false)
 ShowMessageFace("",0,0,2,102)
 ShowMessage("You obtain \\ia[1146]!")
 EndEventProcessing()
 0()
EndIf()
If(1,11,0,103,0)
 ChangeInventoryArmor(1148,0,0,1,false)
 ShowMessageFace("",0,0,2,103)
 ShowMessage("You obtain \\ia[1148]!")
 EndEventProcessing()
 0()
EndIf()
If(1,11,0,104,0)
 ChangeInventoryArmor(1154,0,0,1,false)
 ShowMessageFace("",0,0,2,104)
 ShowMessage("You obtain \\ia[1154]!")
 EndEventProcessing()
 0()
EndIf()
If(1,11,0,105,0)
 ChangeInventoryArmor(1155,0,0,1,false)
 ShowMessageFace("",0,0,2,105)
 ShowMessage("You obtain \\ia[1155]!")
 EndEventProcessing()
 0()
EndIf()
If(1,11,0,106,0)
 ChangeInventoryArmor(1161,0,0,1,false)
 ShowMessageFace("",0,0,2,106)
 ShowMessage("You obtain \\ia[1161]!")
 EndEventProcessing()
 0()
EndIf()
If(1,11,0,107,0)
 ChangeInventoryArmor(1165,0,0,1,false)
 ShowMessageFace("",0,0,2,107)
 ShowMessage("You obtain \\ia[1165]!")
 EndEventProcessing()
 0()
EndIf()
If(1,11,0,108,0)
 ChangeInventoryArmor(1168,0,0,1,false)
 ShowMessageFace("",0,0,2,108)
 ShowMessage("You obtain \\ia[1168]!")
 EndEventProcessing()
 0()
EndIf()
If(1,11,0,109,0)
 ChangeInventoryArmor(1174,0,0,1,false)
 ShowMessageFace("",0,0,2,109)
 ShowMessage("You obtain \\ia[1174]!")
 EndEventProcessing()
 0()
EndIf()
If(1,11,0,110,0)
 ChangeInventoryArmor(1176,0,0,1,false)
 ShowMessageFace("",0,0,2,110)
 ShowMessage("You obtain \\ia[1176]!")
 EndEventProcessing()
 0()
EndIf()
If(1,11,0,111,0)
 ChangeInventoryArmor(1183,0,0,1,false)
 ShowMessageFace("",0,0,2,111)
 ShowMessage("You obtain \\ia[1183]!")
 EndEventProcessing()
 0()
EndIf()
If(1,11,0,112,0)
 ChangeInventoryArmor(1186,0,0,1,false)
 ShowMessageFace("",0,0,2,112)
 ShowMessage("You obtain \\ia[1186]!")
 EndEventProcessing()
 0()
EndIf()
If(1,11,0,113,0)
 ChangeInventoryArmor(1191,0,0,1,false)
 ShowMessageFace("",0,0,2,113)
 ShowMessage("You obtain \\ia[1191]!")
 EndEventProcessing()
 0()
EndIf()
If(1,11,0,114,0)
 ChangeInventoryArmor(1192,0,0,1,false)
 ShowMessageFace("",0,0,2,114)
 ShowMessage("You obtain \\ia[1192]!")
 EndEventProcessing()
 0()
EndIf()
If(1,11,0,115,0)
 ChangeInventoryArmor(1193,0,0,1,false)
 ShowMessageFace("",0,0,2,115)
 ShowMessage("You obtain \\ia[1193]!")
 EndEventProcessing()
 0()
EndIf()
If(1,11,0,116,0)
 ChangeInventoryArmor(1201,0,0,1,false)
 ShowMessageFace("",0,0,2,116)
 ShowMessage("You obtain \\ia[1201]!")
 EndEventProcessing()
 0()
EndIf()
If(1,11,0,117,0)
 ChangeInventoryArmor(1202,0,0,1,false)
 ShowMessageFace("",0,0,2,117)
 ShowMessage("You obtain \\ia[1202]!")
 EndEventProcessing()
 0()
EndIf()
If(1,11,0,118,0)
 ChangeInventoryArmor(1203,0,0,1,false)
 ShowMessageFace("",0,0,2,118)
 ShowMessage("You obtain \\ia[1203]!")
 EndEventProcessing()
 0()
EndIf()
If(1,11,0,119,0)
 ChangeInventoryArmor(1204,0,0,1,false)
 ShowMessageFace("",0,0,2,119)
 ShowMessage("You obtain \\ia[1204]!")
 EndEventProcessing()
 0()
EndIf()
If(1,11,0,120,0)
 ChangeInventoryArmor(1205,0,0,1,false)
 ShowMessageFace("",0,0,2,120)
 ShowMessage("You obtain \\ia[1205]!")
 EndEventProcessing()
 0()
EndIf()
If(1,11,0,121,0)
 ChangeInventoryArmor(1206,0,0,1,false)
 ShowMessageFace("",0,0,2,121)
 ShowMessage("You obtain \\ia[1206]!")
 EndEventProcessing()
 0()
EndIf()
If(1,11,0,122,0)
 ChangeInventoryArmor(1207,0,0,1,false)
 ShowMessageFace("",0,0,2,122)
 ShowMessage("You obtain \\ia[1207]!")
 EndEventProcessing()
 0()
EndIf()
If(1,11,0,123,0)
 ChangeInventoryArmor(1208,0,0,1,false)
 ShowMessageFace("",0,0,2,123)
 ShowMessage("You obtain \\ia[1208]!")
 EndEventProcessing()
 0()
EndIf()
If(1,11,0,124,0)
 ChangeInventoryArmor(1209,0,0,1,false)
 ShowMessageFace("",0,0,2,124)
 ShowMessage("You obtain \\ia[1209]!")
 EndEventProcessing()
 0()
EndIf()
If(1,11,0,125,0)
 ChangeInventoryArmor(1210,0,0,1,false)
 ShowMessageFace("",0,0,2,125)
 ShowMessage("You obtain \\ia[1210]!")
 EndEventProcessing()
 0()
EndIf()
If(1,11,0,126,0)
 ChangeInventoryArmor(1211,0,0,1,false)
 ShowMessageFace("",0,0,2,126)
 ShowMessage("You obtain \\ia[1211]!")
 EndEventProcessing()
 0()
EndIf()
If(1,11,0,127,0)
 ChangeInventoryArmor(1279,0,0,1,false)
 ShowMessageFace("",0,0,2,127)
 ShowMessage("You obtain \\ia[1279]!")
 EndEventProcessing()
 0()
EndIf()
If(1,11,0,128,0)
 ChangeInventoryArmor(1413,0,0,1,false)
 ShowMessageFace("",0,0,2,128)
 ShowMessage("You obtain \\ia[1413]!")
 EndEventProcessing()
 0()
EndIf()
If(1,11,0,129,0)
 ChangeInventoryArmor(1416,0,0,1,false)
 ShowMessageFace("",0,0,2,129)
 ShowMessage("You obtain \\ia[1416]!")
 EndEventProcessing()
 0()
EndIf()
If(1,11,0,130,0)
 ChangeInventoryArmor(1419,0,0,1,false)
 ShowMessageFace("",0,0,2,130)
 ShowMessage("You obtain \\ia[1419]!")
 EndEventProcessing()
 0()
EndIf()
If(1,11,0,131,0)
 ChangeInventoryArmor(1422,0,0,1,false)
 ShowMessageFace("",0,0,2,131)
 ShowMessage("You obtain \\ia[1422]!")
 EndEventProcessing()
 0()
EndIf()
If(1,11,0,132,0)
 ChangeInventoryArmor(1425,0,0,1,false)
 ShowMessageFace("",0,0,2,132)
 ShowMessage("You obtain \\ia[1425]!")
 EndEventProcessing()
 0()
EndIf()
If(1,11,0,133,0)
 ChangeInventoryArmor(1428,0,0,1,false)
 ShowMessageFace("",0,0,2,133)
 ShowMessage("You obtain \\ia[1428]!")
 EndEventProcessing()
 0()
EndIf()
If(1,11,0,134,0)
 ChangeInventoryArmor(1431,0,0,1,false)
 ShowMessageFace("",0,0,2,134)
 ShowMessage("You obtain \\ia[1431]!")
 EndEventProcessing()
 0()
EndIf()
If(1,11,0,135,0)
 ChangeInventoryArmor(1434,0,0,1,false)
 ShowMessageFace("",0,0,2,135)
 ShowMessage("You obtain \\ia[1434]!")
 EndEventProcessing()
 0()
EndIf()
If(1,11,0,136,0)
 ChangeInventoryArmor(1437,0,0,1,false)
 ShowMessageFace("",0,0,2,136)
 ShowMessage("You obtain \\ia[1437]!")
 EndEventProcessing()
 0()
EndIf()
If(1,11,0,137,0)
 ChangeInventoryArmor(1440,0,0,1,false)
 ShowMessageFace("",0,0,2,137)
 ShowMessage("You obtain \\ia[1440]!")
 EndEventProcessing()
 0()
EndIf()
If(1,11,0,138,0)
 ChangeInventoryArmor(1443,0,0,1,false)
 ShowMessageFace("",0,0,2,138)
 ShowMessage("You obtain \\ia[1443]!")
 EndEventProcessing()
 0()
EndIf()
If(1,11,0,139,0)
 ChangeInventoryArmor(1446,0,0,1,false)
 ShowMessageFace("",0,0,2,139)
 ShowMessage("You obtain \\ia[1446]!")
 EndEventProcessing()
 0()
EndIf()
If(1,11,0,140,0)
 ChangeInventoryArmor(1449,0,0,1,false)
 ShowMessageFace("",0,0,2,140)
 ShowMessage("You obtain \\ia[1449]!")
 EndEventProcessing()
 0()
EndIf()
If(1,11,0,141,0)
 ChangeInventoryArmor(1452,0,0,1,false)
 ShowMessageFace("",0,0,2,141)
 ShowMessage("You obtain \\ia[1452]!")
 EndEventProcessing()
 0()
EndIf()
If(1,11,0,142,0)
 ChangeInventoryArmor(1455,0,0,1,false)
 ShowMessageFace("",0,0,2,142)
 ShowMessage("You obtain \\ia[1455]!")
 EndEventProcessing()
 0()
EndIf()
If(1,11,0,143,0)
 ChangeInventoryArmor(1458,0,0,1,false)
 ShowMessageFace("",0,0,2,143)
 ShowMessage("You obtain \\ia[1458]!")
 EndEventProcessing()
 0()
EndIf()
If(1,11,0,144,0)
 ChangeInventoryArmor(1461,0,0,1,false)
 ShowMessageFace("",0,0,2,144)
 ShowMessage("You obtain \\ia[1461]!")
 EndEventProcessing()
 0()
EndIf()
If(1,11,0,145,0)
 ChangeInventoryArmor(1464,0,0,1,false)
 ShowMessageFace("",0,0,2,145)
 ShowMessage("You obtain \\ia[1464]!")
 EndEventProcessing()
 0()
EndIf()
If(1,11,0,146,0)
 ChangeInventoryArmor(1467,0,0,1,false)
 ShowMessageFace("",0,0,2,146)
 ShowMessage("You obtain \\ia[1467]!")
 EndEventProcessing()
 0()
EndIf()
If(1,11,0,147,0)
 ChangeInventoryArmor(1470,0,0,1,false)
 ShowMessageFace("",0,0,2,147)
 ShowMessage("You obtain \\ia[1470]!")
 EndEventProcessing()
 0()
EndIf()
If(1,11,0,148,0)
 ChangeInventoryArmor(1473,0,0,1,false)
 ShowMessageFace("",0,0,2,148)
 ShowMessage("You obtain \\ia[1473]!")
 EndEventProcessing()
 0()
EndIf()
If(1,11,0,149,0)
 ChangeInventoryArmor(1476,0,0,1,false)
 ShowMessageFace("",0,0,2,149)
 ShowMessage("You obtain \\ia[1476]!")
 EndEventProcessing()
 0()
EndIf()
If(1,11,0,150,0)
 ChangeInventoryArmor(1479,0,0,1,false)
 ShowMessageFace("",0,0,2,150)
 ShowMessage("You obtain \\ia[1479]!")
 EndEventProcessing()
 0()
EndIf()
If(1,11,0,151,0)
 ChangeInventoryArmor(1482,0,0,1,false)
 ShowMessageFace("",0,0,2,151)
 ShowMessage("You obtain \\ia[1482]!")
 EndEventProcessing()
 0()
EndIf()
If(1,11,0,152,0)
 ChangeInventoryArmor(1493,0,0,1,false)
 ShowMessageFace("",0,0,2,152)
 ShowMessage("You obtain \\ia[1493]!")
 EndEventProcessing()
 0()
EndIf()
If(1,11,0,153,0)
 ChangeInventoryArmor(1497,0,0,1,false)
 ShowMessageFace("",0,0,2,153)
 ShowMessage("You obtain \\ia[1497]!")
 EndEventProcessing()
 0()
EndIf()
If(1,11,0,154,0)
 ChangeInventoryArmor(1501,0,0,1,false)
 ShowMessageFace("",0,0,2,154)
 ShowMessage("You obtain \\ia[1501]!")
 EndEventProcessing()
 0()
EndIf()
If(1,11,0,155,0)
 ChangeInventoryArmor(1505,0,0,1,false)
 ShowMessageFace("",0,0,2,155)
 ShowMessage("You obtain \\ia[1505]!")
 EndEventProcessing()
 0()
EndIf()
If(1,11,0,156,0)
 ChangeInventoryArmor(1509,0,0,1,false)
 ShowMessageFace("",0,0,2,156)
 ShowMessage("You obtain \\ia[1509]!")
 EndEventProcessing()
 0()
EndIf()
If(1,11,0,157,0)
 ChangeInventoryArmor(1513,0,0,1,false)
 ShowMessageFace("",0,0,2,157)
 ShowMessage("You obtain \\ia[1513]!")
 EndEventProcessing()
 0()
EndIf()
If(1,11,0,158,0)
 ChangeInventoryArmor(1525,0,0,1,false)
 ShowMessageFace("",0,0,2,158)
 ShowMessage("You obtain \\ia[1525]!")
 EndEventProcessing()
 0()
EndIf()
If(1,11,0,159,0)
 ChangeInventoryArmor(1529,0,0,1,false)
 ShowMessageFace("",0,0,2,159)
 ShowMessage("You obtain \\ia[1529]!")
 EndEventProcessing()
 0()
EndIf()
If(1,11,0,160,0)
 ChangeInventoryArmor(1688,0,0,1,false)
 ShowMessageFace("",0,0,2,160)
 ShowMessage("You obtain \\ia[1688]!")
 EndEventProcessing()
 0()
EndIf()
If(1,11,0,161,0)
 ChangeInventoryArmor(1691,0,0,1,false)
 ShowMessageFace("",0,0,2,161)
 ShowMessage("You obtain \\ia[1691]!")
 EndEventProcessing()
 0()
EndIf()
If(1,11,0,162,0)
 ChangeInventoryArmor(1694,0,0,1,false)
 ShowMessageFace("",0,0,2,162)
 ShowMessage("You obtain \\ia[1694]!")
 EndEventProcessing()
 0()
EndIf()
If(1,11,0,163,0)
 ChangeInventoryArmor(1697,0,0,1,false)
 ShowMessageFace("",0,0,2,163)
 ShowMessage("You obtain \\ia[1697]!")
 EndEventProcessing()
 0()
EndIf()
If(1,11,0,164,0)
 ChangeInventoryArmor(1700,0,0,1,false)
 ShowMessageFace("",0,0,2,164)
 ShowMessage("You obtain \\ia[1700]!")
 EndEventProcessing()
 0()
EndIf()
If(1,11,0,165,0)
 ChangeInventoryArmor(1703,0,0,1,false)
 ShowMessageFace("",0,0,2,165)
 ShowMessage("You obtain \\ia[1703]!")
 EndEventProcessing()
 0()
EndIf()
0()
