// EVENT 3120
Name "Lily"

If(0,25,1)
 JumpToLabel("反省会")
 0()
EndIf()
PictureDisplay(5,"80_lily_st02",0,0,0,0,100,100,0,0)
PictureMove(5,null,0,0,0,0,100,100,255,0,30,true)
241(bytes(0x04,0x08,0x6f,0x3a,0x0d,0x52,0x50,0x47,0x3a,0x3a,0x42,0x47,0x4d,0x08,0x3a,0x0a,0x40,0x6e,0x61,0x6d,0x65,0x49,0x22,0x09,0x65,0x72,0x6f,0x31,0x06,0x3a,0x06,0x45,0x54,0x3a,0x0c,0x40,0x76,0x6f,0x6c,0x75,0x6d,0x65,0x69,0x69,0x3a,0x0b,0x40,0x70,0x69,0x74,0x63,0x68,0x69,0x69))
ShowMessageFace("",0,0,2,1)
ShowMessage("\\n<Luka>Auuu...")
ShowMessageFace("lily_fc1",4,0,2,2)
ShowMessage("\\n<Lily>For now, I need to make sure you will be unable to disobey my orders.\nIt already looks like you can't fight back.")
250(bytes(0x04,0x08,0x6f,0x3a,0x0c,0x52,0x50,0x47,0x3a,0x3a,0x53,0x45,0x08,0x3a,0x0a,0x40,0x6e,0x61,0x6d,0x65,0x49,0x22,0x16,0x6d,0x6f,0x6e,0x5f,0x65,0x72,0x6f,0x5f,0x6d,0x61,0x6b,0x69,0x74,0x75,0x6b,0x69,0x33,0x06,0x3a,0x06,0x45,0x54,0x3a,0x0b,0x40,0x70,0x69,0x74,0x63,0x68,0x69,0x69,0x3a,0x0c,0x40,0x76,0x6f,0x6c,0x75,0x6d,0x65,0x69,0x69))
PictureDisplay(5,"ev_lily_h08",0,0,0,0,100,100,255,0)
ShowMessageFace("",0,0,2,3)
ShowMessage("Lily's tentacles wrap up my body as I'm too weak to resist her.")
ShowMessage("Bound by her tentacles, I'm both physically and mentally under her rule...")
ShowMessageFace("lily_fc1",4,0,2,4)
ShowMessage("\\n<Lily>First I'll take a genetic sample.\nAllow me to use these tentacles to suck it out...")
ShowMessageFace("",0,0,2,5)
ShowMessage("A tentacle approaches my groin as its mouth opens and closes with a lewd, sticky noise.")
ShowMessageFace("",0,0,2,6)
ShowMessage("With mucus dripping from the opening, I can see innumerable bumps and folds lining the soft flesh inside.")
ShowMessageFace("",0,0,2,7)
ShowMessage("I swallow nervously as the sticky mucus drips out of the opening onto my thigh.")
ShowMessageFace("lily_fc1",4,0,2,8)
ShowMessage("\\n<Lily>Doesn't it look amazing?\nI painstakingly experimented on those girls so I could create this.")
ShowMessageFace("lily_fc1",4,0,2,9)
ShowMessage("\\n<Lily>Able to bring the ultimate pleasure... No man can endure more than a few seconds.\nI'll let you have a taste of that research you so decried.")
ShowMessageFace("",0,0,2,10)
ShowMessage("The opening slowly approaches my penis...")
245(bytes(0x04,0x08,0x6f,0x3a,0x0d,0x52,0x50,0x47,0x3a,0x3a,0x42,0x47,0x53,0x08,0x3a,0x0a,0x40,0x6e,0x61,0x6d,0x65,0x49,0x22,0x17,0x6d,0x6f,0x6e,0x5f,0x68,0x73,0x65,0x61,0x6e,0x31,0x34,0x5f,0x6b,0x79,0x75,0x69,0x6e,0x31,0x06,0x3a,0x06,0x45,0x54,0x3a,0x0c,0x40,0x76,0x6f,0x6c,0x75,0x6d,0x65,0x69,0x55,0x3a,0x0b,0x40,0x70,0x69,0x74,0x63,0x68,0x69,0x69))
PictureDisplay(5,"ev_lily_h09",0,0,0,0,100,100,255,0)
ShowMessageFace("",0,0,2,11)
ShowMessage("And sucks me inside!")
ShowMessageFace("",0,0,2,12)
ShowMessage("\\n<Luka>Ahhhh!")
ShowMessageFace("",0,0,2,13)
ShowMessage("As soon as I'm forced into the tentacles, the soft bumps wriggle and vibrate around me.")
ShowMessage("The flesh seems to have a mind of its own as it moves around in random directions, stroking and rubbing me in every direction.")
ShowMessageFace("",0,0,2,14)
ShowMessage("\\n<Luka>Aiee! What is this...\nIt feels incredible...!")
ShowMessageFace("",0,0,2,15)
ShowMessage("The stimulation is way more powerful than I thought.")
ShowMessage("My body relaxes at once as I yell out in surprise.")
PictureDisplay(5,"ev_lily_h10",0,0,0,0,100,100,255,0)
ShowMessageFace("",0,0,2,16)
ShowMessage("The tentacles starts to contract in waves, as if it was trying to milk me.")
ShowMessage("As the rhythmic contractions continue, the bumps and flesh continue to wriggle and randomly move.")
ShowMessageFace("",0,0,2,17)
ShowMessage("The overwhelming stimulations don't allow me to think about anything but the coming orgasm.")
ShowMessageFace("",0,0,2,18)
ShowMessage("\\n<Luka>Ahhhh!!")
ShowMessageFace("",0,0,2,19)
ShowMessage("Only a few seconds after being sucked into her tentacles, I'm already forced to come.")
RunCommonEvent(104)
PictureDisplay(5,"ev_lily_h11",0,0,0,0,100,100,255,0)
RunCommonEvent(105)
ShowMessageFace("",0,0,2,20)
ShowMessage("Each spurt of semen is sucked up in an instant with a powerful suction.")
ShowMessage("After my orgasm finishes, the milking motion resumes as it squeezes out the rest of my semen still in my urethra.")
ShowMessageFace("",0,0,2,21)
ShowMessage("The pleasure overpowers the deep sense of humiliation flowing through me.")
ShowMessageFace("",0,0,2,22)
ShowMessage("\\n<Luka>Faaa... Incredible...")
ShowMessageFace("",0,0,2,23)
ShowMessage("With every drop of my last ejaculation squeezed out, the tentacle starts to violently start its milking motion over again.")
ShowMessageFace("",0,0,2,24)
ShowMessage("My body writhes as I feel her tentacles wriggle and vibrate against my penis.")
ShowMessageFace("",0,0,2,25)
ShowMessage("I moan out as her tentacles forcefully stimulate me.")
ShowMessageFace("",0,0,2,26)
ShowMessage("\\n<Luka>Auuu...")
ShowMessageFace("lily_fc1",4,0,2,27)
ShowMessage("\\n<Lily>Hehe... Was it good?\nYou let out so much... You must have really enjoyed it.")
ShowMessageFace("lily_fc1",4,0,2,28)
ShowMessage("\\n<Lily>But I need a larger sample.\nFor now, I'll just collect it until you faint.")
ShowMessageFace("",0,0,2,29)
ShowMessage("\\n<Luka>No way... Stop...")
ShowMessageFace("lily_fc1",4,0,2,30)
ShowMessage("\\n<Lily>You need to learn your new role.\nYou're just my guinea pig.")
245(bytes(0x04,0x08,0x6f,0x3a,0x0d,0x52,0x50,0x47,0x3a,0x3a,0x42,0x47,0x53,0x08,0x3a,0x0a,0x40,0x6e,0x61,0x6d,0x65,0x49,0x22,0x17,0x6d,0x6f,0x6e,0x5f,0x68,0x73,0x65,0x61,0x6e,0x31,0x36,0x5f,0x6b,0x79,0x75,0x69,0x6e,0x33,0x06,0x3a,0x06,0x45,0x54,0x3a,0x0c,0x40,0x76,0x6f,0x6c,0x75,0x6d,0x65,0x69,0x55,0x3a,0x0b,0x40,0x70,0x69,0x74,0x63,0x68,0x69,0x69))
ShowMessageFace("",0,0,2,31)
ShowMessage("Lily cruelly rebukes my protest.")
ShowMessageFace("",0,0,2,32)
ShowMessage("I feel horror at the realization that I might never escape from this...")
ShowMessageFace("",0,0,2,33)
ShowMessage("More sticky mucus starts to flow out of her tentacle, covering my penis.")
ShowMessageFace("",0,0,2,34)
ShowMessage("The friction from the mucus against the soft flesh of her tentacles doubles the pleasure from before, as my body starts to tremble.")
ShowMessageFace("",0,0,2,35)
ShowMessage("\\n<Luka>Ah! Ahhh!!")
ShowMessageFace("lily_fc1",4,0,2,36)
ShowMessage("\\n<Lily>Ah... I love the pathetic voice of a male screaming.\nI'll give you more of my special service...")
ShowMessageFace("lily_fc1",4,0,2,37)
ShowMessage("\\n<Lily>A pleasure that's too good for a guinea pig like you...")
ShowMessageFace("",0,0,2,38)
ShowMessage("\\n<Luka>Ahh!")
ShowMessageFace("",0,0,2,39)
ShowMessage("Her tentacle starts to move up and down.")
ShowMessage("As if my waist was going to be pulled off, I can't concentrate on anything but the overwhelming sensations being forced into me.")
ShowMessageFace("",0,0,2,40)
ShowMessage("If she does it like this, there's no way I can hold on...")
ShowMessageFace("",0,0,2,41)
ShowMessage("\\n<Luka>Aiee! No more... I'm going to come!")
RunCommonEvent(104)
PictureDisplay(5,"ev_lily_h12",0,0,0,0,100,100,255,0)
RunCommonEvent(105)
ShowMessageFace("",0,0,2,42)
ShowMessage("I explode in her tentacles as I yield to the pleasure again.")
ShowMessage("Just like the last time, she carefully squeezes out every drop of semen from my orgasm.")
ShowMessageFace("",0,0,2,43)
ShowMessage("Pleasure like this would make any man into a slave...")
ShowMessageFace("lily_fc1",4,0,2,44)
ShowMessage("\\n<Lily>You still have more in you...\nThis is your new life as a guinea pig.")
ShowMessageFace("lily_fc1",4,0,2,45)
ShowMessage("\\n<Lily>Your first job is to give me plenty of genetic samples.\nNow get to work and give me everything!")
ShowMessageFace("",0,0,2,46)
ShowMessage("\\n<Luka>Ahhh...")
ShowMessageFace("",0,0,2,47)
ShowMessage("Her soft flesh narrows around my penis.")
ShowMessageFace("",0,0,2,48)
ShowMessage("The tentacle, designed only to squeeze out semen, continues its function.")
ShowMessageFace("",0,0,2,49)
ShowMessage("Right now, I'm the current target of its compulsory milking...")
RunCommonEvent(104)
RunCommonEvent(105)
ShowMessageFace("",0,0,2,50)
ShowMessage("\\n<Luka>Aaa...")
ShowMessageFace("",0,0,2,51)
ShowMessage("Bound and unable to move, I continue to be milked by her tentacle.")
ShowMessageFace("",0,0,2,52)
ShowMessage("The constant stimulation of her tentacle causes my mind to reel.")
ShowMessageFace("",0,0,2,53)
ShowMessage("Dominated by this strange appendage, I shake my head in a futile attempt to shake off this bad dream.")
ShowMessageFace("",0,0,2,54)
ShowMessage("\\n<Luka>I don't want this... No... Stop...")
ShowMessageFace("lily_fc1",4,0,2,55)
ShowMessage("\\n<Lily>You still don't understand your new role?\nIt seems I need to educate you a bit more.")
ShowMessageFace("lily_fc1",4,0,2,56)
ShowMessage("\\n<Lily>Stuck in this hell, learn your place.\nThe rest of your life will be here, as my guinea pig!")
ShowMessageFace("",0,0,2,57)
ShowMessage("Her tentacle starts to move even faster than before.")
ShowMessageFace("",0,0,2,58)
ShowMessage("Sucking me like a pump, the milking stimulation doesn't allow me to resist.")
ShowMessageFace("",0,0,2,59)
ShowMessage("\\n<Luka>Ahhhh!!")
RunCommonEvent(104)
RunCommonEvent(105)
ShowMessageFace("",0,0,2,60)
ShowMessage("Even as I ejaculate, she doesn't stop.")
ShowMessageFace("",0,0,2,61)
ShowMessage("Violently milking me even during my ejaculation, she's already bringing me towards another.")
ShowMessageFace("",0,0,2,62)
ShowMessage("\\n<Luka>Aiee! If you keep doing... Again!\nAhhh!!")
RunCommonEvent(104)
RunCommonEvent(105)
ShowMessageFace("",0,0,2,63)
ShowMessage("With a sucking noise, my semen is slurped up by the tentacle.")
ShowMessage("But even with that, she still doesn't stop.")
ShowMessageFace("",0,0,2,64)
ShowMessage("\\n<Luka>Aiee! Help me... No more... I can't take it...")
ShowMessageFace("lily_fc1",4,0,2,65)
ShowMessage("\\n<Lily>Hehe... I wonder about that?")
ShowMessageFace("lily_fc1",4,0,2,66)
ShowMessage("\\n<Lily>Do you understand yet that you're just a guinea pig to be milked like this?")
ShowMessageFace("",0,0,2,67)
ShowMessage("\\n<Luka>Auuu... Stop...")
RunCommonEvent(104)
PictureDisplay(5,"ev_lily_h13",0,0,0,0,100,100,255,0)
RunCommonEvent(105)
ShowMessageFace("",0,0,2,68)
ShowMessage("Forced to orgasm over and over, I yell out as I start to lose my sanity.")
ShowMessageFace("",0,0,2,69)
ShowMessage("\\n<Luka>Ahhh! I'm coming again...!\nStop... Help me!")
RunCommonEvent(104)
RunCommonEvent(105)
ShowMessageFace("",0,0,2,70)
ShowMessage("With her tentacle forcing me to orgasm over and over, my mind and body are in tatters.")
ShowMessageFace("",0,0,2,71)
ShowMessage("She's training me with her tentacle...")
ShowMessage("Destroying my spirit, until I can't resist her any longer...")
ShowMessageFace("",0,0,2,72)
ShowMessage("\\n<Luka>Auuuu...")
ShowMessageFace("",0,0,2,73)
ShowMessage("Realizing I have no escape, I surrender to Lily and give in to the pleasure.")
ShowMessage("Just as she said, I'm going to be her guinea pig...")
ShowMessageFace("lily_fc1",4,0,2,74)
ShowMessage("\\n<Lily>Hehe... you gave in. That's good, you'll be happier this way.\nNow, I'll give my new guinea pig a reward.")
ShowMessageFace("",0,0,2,75)
ShowMessage("\\n<Luka>Aaaa...")
ShowMessageFace("",0,0,2,76)
ShowMessage("As she said, it's easier to just surrender...")
ShowMessageFace("",0,0,2,77)
ShowMessage("Able to freely taste this pleasure, I can orgasm as much as I want...")
ShowMessageFace("",0,0,2,78)
ShowMessage("\\n<Luka>Auuu... Incredible... I'm coming!")
RunCommonEvent(104)
RunCommonEvent(105)
ShowMessageFace("",0,0,2,79)
ShowMessage("I relax my body as more of my semen is sucked out by her tentacle.")
ShowMessageFace("",0,0,2,80)
ShowMessage("The ecstasy fills my body as I allow Lily to dominate me.")
ShowMessageFace("",0,0,2,81)
ShowMessage("Thus, I accept my new role as her guinea pig.")
221()
PictureClear(5)
246(2)
ShowMessageFace("lily_fc1",4,0,2,82)
ShowMessage("\\n<Lily>The subject fainted after twenty-three ejaculations.\nThat's around average... I'll need to analyze his genes now.")
ShowMessageFace("",0,0,2,83)
ShowMessage("Lily's voice is the last thing I hear before I faint.")
ShowMessage("From then on, she forces me to orgasm repeatedly until I faint every day.")
ShowMessageFace("",0,0,2,84)
ShowMessage("But having surrendered to Lily, I was able to feel nothing but pleasure during the rest of my cruel life.")
DefineLabel("反省会")
ShowMessageFace("",0,0,2,85)
ShowMessage("......")
221()
242(1)
Wait(120)
355("memory_interruption")
ShowMessageFace("",0,0,2,86)
ShowMessage("You hear Ilias' voice calling out to you...")
ShowMessage("Receive her evaluation?")
ShowChoices(strings("Receive evaluation","Change difficulty","Reincarnate"),3)
IfPlayerPicksChoice(0,null)
 241(bytes(0x04,0x08,0x6f,0x3a,0x0d,0x52,0x50,0x47,0x3a,0x3a,0x42,0x47,0x4d,0x08,0x3a,0x0a,0x40,0x6e,0x61,0x6d,0x65,0x49,0x22,0x0a,0x69,0x72,0x69,0x61,0x73,0x06,0x3a,0x06,0x45,0x54,0x3a,0x0c,0x40,0x76,0x6f,0x6c,0x75,0x6d,0x65,0x69,0x5f,0x3a,0x0b,0x40,0x70,0x69,0x74,0x63,0x68,0x69,0x6e))
 PictureDisplay(1,"bg001",0,0,0,0,100,100,255,0)
 222()
 PictureDisplay(5,"80_iriasu_st04",0,0,0,0,100,100,0,0)
 PictureMove(5,null,0,0,0,0,100,100,255,0,30,true)
 ShowMessageFace("iriasu_fc1",3,0,2,87)
 ShowMessage("\\n<Ilias>It looks like you enjoyed your short life as a guinea pig. Would you like to be reborn as one next time? And the time after that, too?")
 PictureDisplay(5,"80_iriasu_st01",0,0,0,0,100,100,255,0)
 ShowMessageFace("iriasu_fc1",0,0,2,88)
 ShowMessage("\\n<Ilias>Lily is like the other caster monsters you've faced, but with added tentacle skills. She can use pleasure attacks along with fire, ice, and lightning skills that hit your entire party.")
 ShowMessageFace("iriasu_fc1",0,0,2,89)
 ShowMessage("\\n<Ilias>The effective rate of silencing her is moderate, but it's worth it to seal the dangerous full party elemental skills.")
 ShowMessageFace("iriasu_fc1",0,0,2,90)
 ShowMessage("\\n<Ilias>Except for silence and the ones caused by time magic, status ailments are ineffective. Her elemental weaknesses are similar to other casters: wind, earth, and water.")
 ShowMessageFace("iriasu_fc1",0,0,2,91)
 ShowMessage("\\n<Ilias>Fire, ice, and lightning will do reduced damage, of course. Make good use of support skills and you should have your revenge.")
 PictureDisplay(5,"80_iriasu_st02",0,0,0,0,100,100,255,0)
 ShowMessageFace("iriasu_fc1",1,0,2,92)
 ShowMessage("\\n<Ilias>Now go, oh brave Luka.\nNow is the time to destroy the source of evil and save the village.")
 242(1)
 221()
 PictureClear(5)
 PictureClear(1)
 Wait(60)
 0()
IfPlayerPicksChoice(1,null)
 ShowMessageFace("",0,0,2,93)
 ShowMessage("Please choose a difficulty level.")
 RunCommonEvent(110)
 0()
IfPlayerPicksChoice(2,null)
 0()
404()
RunCommonEvent(3000)
0()
