﻿// EVENT 0066
Name "Skill: Play 261-270"

ChangeVariable(11,11,0,2,1,5)
If(1,100,0,261,0)
 If(1,11,0,1,0)
  ShowMessageFace("madgolem_fc1",0,0,2,1)
  ShowMessage("\\n<Knog>STONE CANNON, LAUNCHING...")
  355("interrupt_skill(3307)")
  EndEventProcessing()
  0()
 EndIf()
 If(1,11,0,2,0)
  ShowMessageFace("madgolem_fc1",0,0,2,2)
  ShowMessage("\\n<Knog>COMMUNICATING WITH THE EARTH...")
  ShowMessageFace("",0,0,2,3)
  ShowMessage("Knog is doodling on the ground...")
  EndEventProcessing()
  0()
 EndIf()
 If(1,11,0,3,0)
  ShowMessageFace("madgolem_fc1",0,0,2,4)
  ShowMessage("\\n<Knog>INITIATING DORMANCY...")
  313(0,261,0,11)
  ShowMessageFace("",0,0,2,5)
  ShowMessage("Knog fell asleep...")
  EndEventProcessing()
  0()
 EndIf()
 If(1,11,0,4,0)
  ShowMessageFace("madgolem_fc1",0,0,2,6)
  ShowMessage("\\n<Knog>PRESENTING DANGO...")
  ShowMessageFace("",0,0,2,7)
  ShowMessage("Knog presents a gift!")
  250(bytes(0x04,0x08,0x6f,0x3a,0x0c,0x52,0x50,0x47,0x3a,0x3a,0x53,0x45,0x08,0x3a,0x0a,0x40,0x6e,0x61,0x6d,0x65,0x49,0x22,0x0a,0x49,0x74,0x65,0x6d,0x31,0x06,0x3a,0x06,0x45,0x54,0x3a,0x0b,0x40,0x70,0x69,0x74,0x63,0x68,0x69,0x69,0x3a,0x0c,0x40,0x76,0x6f,0x6c,0x75,0x6d,0x65,0x69,0x55))
  ChangeInventory_Item(408,0,0,1)
  ShowMessageFace("",0,0,2,8)
  ShowMessage("You obtain a \\ii[408]!")
  EndEventProcessing()
  0()
 EndIf()
 If(1,11,0,5,0)
  ShowMessageFace("madgolem_fc1",0,0,2,9)
  ShowMessage("\\n<Knog>MUDDY...")
  355("interrupt_skill(3174)")
  EndEventProcessing()
  0()
 EndIf()
 0()
EndIf()
If(1,100,0,262,0)
 If(1,11,0,1,0)
  ShowMessageFace("golem_fc1",0,0,2,10)
  ShowMessage("\\n<Emeth>SIGNALLING TO THE EARTH...")
  ShowMessageFace("",0,0,2,11)
  ShowMessage("Emeth is doodling on the ground...")
  EndEventProcessing()
  0()
 EndIf()
 If(1,11,0,2,0)
  ShowMessageFace("golem_fc1",0,0,2,12)
  ShowMessage("\\n<Emeth>STANDING BY...")
  ShowMessageFace("",0,0,2,13)
  ShowMessage("Emeth is staring blankly...")
  EndEventProcessing()
  0()
 EndIf()
 If(1,11,0,3,0)
  ShowMessageFace("golem_fc1",0,0,2,14)
  ShowMessage("\\n<Emeth>CIRCUIT CONNECTION DEFECTIVE...")
  313(0,262,0,12)
  ShowMessageFace("",0,0,2,15)
  ShowMessage("Emeth has become paralyzed!")
  EndEventProcessing()
  0()
 EndIf()
 If(1,11,0,4,0)
  ShowMessageFace("golem_fc1",0,0,2,16)
  ShowMessage("\\n<Emeth>WARNING, CIRCUIT LEAKAGE OCCURING...")
  355("interrupt_skill(3308)")
  EndEventProcessing()
  0()
 EndIf()
 If(1,11,0,5,0)
  ShowMessageFace("golem_fc1",0,0,2,17)
  ShowMessage("\\n<Emeth>LET'S PLAY STONE THROWING...")
  355("interrupt_skill(2991)")
  EndEventProcessing()
  0()
 EndIf()
 0()
EndIf()
If(1,100,0,263,0)
 If(1,11,0,1,0)
  ShowMessageFace("h_kamakiri_fc1",0,0,2,18)
  ShowMessage("\\n<Hinageshi>Witness my dance...")
  355("interrupt_skill(2036)")
  EndEventProcessing()
  0()
 EndIf()
 If(1,11,0,2,0)
  ShowMessageFace("h_kamakiri_fc1",0,0,2,19)
  ShowMessage("\\n<Hinageshi>Let's have fun dancing...")
  ShowMessageFace("",0,0,2,20)
  ShowMessage("Hinageshi is dancing and singing happily...")
  EndEventProcessing()
  0()
 EndIf()
 If(1,11,0,3,0)
  ShowMessageFace("h_kamakiri_fc1",0,0,2,21)
  ShowMessage("\\n<Hinageshi>Stop it...stop it...")
  ShowMessageFace("",0,0,2,22)
  ShowMessage("Hinageshi tries to stop the fight!\nBut no one is listening...")
  EndEventProcessing()
  0()
 EndIf()
 If(1,11,0,4,0)
  ShowMessageFace("h_kamakiri_fc1",0,0,2,23)
  ShowMessage("\\n<Hinageshi>Please eat this...")
  ShowMessageFace("",0,0,2,24)
  ShowMessage("Hinageshi presents a gift!")
  250(bytes(0x04,0x08,0x6f,0x3a,0x0c,0x52,0x50,0x47,0x3a,0x3a,0x53,0x45,0x08,0x3a,0x0a,0x40,0x6e,0x61,0x6d,0x65,0x49,0x22,0x0a,0x49,0x74,0x65,0x6d,0x31,0x06,0x3a,0x06,0x45,0x54,0x3a,0x0b,0x40,0x70,0x69,0x74,0x63,0x68,0x69,0x69,0x3a,0x0c,0x40,0x76,0x6f,0x6c,0x75,0x6d,0x65,0x69,0x55))
  ChangeInventory_Item(361,0,0,1)
  ShowMessageFace("",0,0,2,25)
  ShowMessage("You obtain a \\ii[361]!")
  EndEventProcessing()
  0()
 EndIf()
 If(1,11,0,5,0)
  ShowMessageFace("h_kamakiri_fc1",0,0,2,26)
  ShowMessage("\\n<Hinageshi>............")
  355("interrupt_skill(3296)")
  EndEventProcessing()
  0()
 EndIf()
 0()
EndIf()
If(1,100,0,264,0)
 If(1,11,0,1,0)
  ShowMessageFace("bgolem_fc1",0,0,2,27)
  ShowMessage("\\n<Maiss>So much trouble...")
  ShowMessageFace("",0,0,2,28)
  ShowMessage("Maiss is staring blankly...")
  EndEventProcessing()
  0()
 EndIf()
 If(1,11,0,2,0)
  ShowMessageFace("bgolem_fc1",2,0,2,29)
  ShowMessage("\\n<Maiss>Uweeeh!")
  ShowMessageFace("",0,0,2,30)
  ShowMessage("Maiss suddenly starts crying!")
  EndEventProcessing()
  0()
 EndIf()
 If(1,11,0,3,0)
  ShowMessageFace("bgolem_fc1",1,0,2,31)
  ShowMessage("\\n<Maiss>Banzaiii!")
  ShowMessageFace("",0,0,2,32)
  ShowMessage("Maiss popped a party cracker!\n...But no one paid any attention.")
  EndEventProcessing()
  0()
 EndIf()
 If(1,11,0,4,0)
  ShowMessageFace("bgolem_fc1",1,0,2,33)
  ShowMessage("\\n<Maiss>I'll give you this!")
  ShowMessageFace("",0,0,2,34)
  ShowMessage("Maiss presents a gift!")
  250(bytes(0x04,0x08,0x6f,0x3a,0x0c,0x52,0x50,0x47,0x3a,0x3a,0x53,0x45,0x08,0x3a,0x0a,0x40,0x6e,0x61,0x6d,0x65,0x49,0x22,0x0a,0x49,0x74,0x65,0x6d,0x31,0x06,0x3a,0x06,0x45,0x54,0x3a,0x0b,0x40,0x70,0x69,0x74,0x63,0x68,0x69,0x69,0x3a,0x0c,0x40,0x76,0x6f,0x6c,0x75,0x6d,0x65,0x69,0x55))
  ChangeInventory_Item(444,0,0,1)
  ShowMessageFace("",0,0,2,35)
  ShowMessage("You obtain a \\ii[444]!")
  EndEventProcessing()
  0()
 EndIf()
 If(1,11,0,5,0)
  ShowMessageFace("bgolem_fc1",1,0,2,36)
  ShowMessage("\\n<Maiss>Playing with fire is so cool!")
  355("interrupt_skill(3295)")
  EndEventProcessing()
  0()
 EndIf()
 0()
EndIf()
If(1,100,0,265,0)
 If(1,11,0,1,0)
  ShowMessageFace("kitunezyu_fc1",0,0,2,37)
  ShowMessage("\\n<Haruka>Let's go, Haruka♪")
  ShowMessageFace("",0,0,2,38)
  ShowMessage("Haruka struck her signature pose!\n...But nobody was watching.")
  EndEventProcessing()
  0()
 EndIf()
 If(1,11,0,2,0)
  ShowMessageFace("kitunezyu_fc1",0,0,2,39)
  ShowMessage("\\n<Haruka>Dig dig, dig a hole...")
  355("interrupt_skill(3297)")
  EndEventProcessing()
  0()
 EndIf()
 If(1,11,0,3,0)
  ShowMessageFace("kitunezyu_fc1",1,0,2,40)
  ShowMessage("\\n<Haruka>............")
  313(0,265,0,24)
  ShowMessageFace("",0,0,2,41)
  ShowMessage("Haruka is thinking about lewd things...\nHaruka has become horny!")
  EndEventProcessing()
  0()
 EndIf()
 If(1,11,0,4,0)
  ShowMessageFace("kitunezyu_fc1",0,0,2,42)
  ShowMessage("\\n<Haruka>I'll share this with you!")
  ShowMessageFace("",0,0,2,43)
  ShowMessage("Haruka presents a gift!")
  250(bytes(0x04,0x08,0x6f,0x3a,0x0c,0x52,0x50,0x47,0x3a,0x3a,0x53,0x45,0x08,0x3a,0x0a,0x40,0x6e,0x61,0x6d,0x65,0x49,0x22,0x0a,0x49,0x74,0x65,0x6d,0x31,0x06,0x3a,0x06,0x45,0x54,0x3a,0x0b,0x40,0x70,0x69,0x74,0x63,0x68,0x69,0x69,0x3a,0x0c,0x40,0x76,0x6f,0x6c,0x75,0x6d,0x65,0x69,0x55))
  ChangeInventory_Item(333,0,0,1)
  ShowMessageFace("",0,0,2,44)
  ShowMessage("You obtain some \\ii[333]!")
  EndEventProcessing()
  0()
 EndIf()
 If(1,11,0,5,0)
  ShowMessageFace("kitunezyu_fc1",0,0,2,45)
  ShowMessage("\\n<Haruka>Dig dig, dig a hole...")
  355("interrupt_skill(3298)")
  EndEventProcessing()
  0()
 EndIf()
 0()
EndIf()
If(1,100,0,266,0)
 If(1,11,0,1,0)
  ShowMessageFace("kunoitisanbi_fc1",0,0,2,46)
  ShowMessage("\\n<Minamo>Nin nin...")
  ShowMessageFace("",0,0,2,47)
  ShowMessage("Minamo is muttering \"nin nin\"...")
  EndEventProcessing()
  0()
 EndIf()
 If(1,11,0,2,0)
  ShowMessageFace("kunoitisanbi_fc1",2,0,2,48)
  ShowMessage("\\n<Minamo>In order to create a kudagitsune, I'm certain I must use my Taoism like this...\n...Damn it!")
  355("interrupt_skill(3306)")
  EndEventProcessing()
  0()
 EndIf()
 If(1,11,0,3,0)
  ShowMessageFace("kunoitisanbi_fc1",0,0,2,49)
  ShowMessage("\\n<Minamo>I have no spirit left...")
  313(0,266,0,11)
  ShowMessageFace("",0,0,2,50)
  ShowMessage("Minamo fell asleep...")
  EndEventProcessing()
  0()
 EndIf()
 If(1,11,0,4,0)
  ShowMessageFace("kunoitisanbi_fc1",0,0,2,51)
  ShowMessage("\\n<Minamo>You should eat this...")
  ShowMessageFace("",0,0,2,52)
  ShowMessage("Minamo presents a gift!")
  250(bytes(0x04,0x08,0x6f,0x3a,0x0c,0x52,0x50,0x47,0x3a,0x3a,0x53,0x45,0x08,0x3a,0x0a,0x40,0x6e,0x61,0x6d,0x65,0x49,0x22,0x0a,0x49,0x74,0x65,0x6d,0x31,0x06,0x3a,0x06,0x45,0x54,0x3a,0x0b,0x40,0x70,0x69,0x74,0x63,0x68,0x69,0x69,0x3a,0x0c,0x40,0x76,0x6f,0x6c,0x75,0x6d,0x65,0x69,0x55))
  ChangeInventory_Item(333,0,0,1)
  ShowMessageFace("",0,0,2,53)
  ShowMessage("You obtain some \\ii[333]!")
  EndEventProcessing()
  0()
 EndIf()
 If(1,11,0,5,0)
  ShowMessageFace("kunoitisanbi_fc1",0,0,2,54)
  ShowMessage("\\n<Minamo>Haaa!")
  355("interrupt_skill(3294)")
  EndEventProcessing()
  0()
 EndIf()
 0()
EndIf()
If(1,100,0,267,0)
 If(1,11,0,1,0)
  ShowMessageFace("mononohuyonbi_fc1",0,0,2,55)
  ShowMessage("\\n<Izuna>I'm full of spirit!!")
  355("interrupt_skill(3294)")
  EndEventProcessing()
  0()
 EndIf()
 If(1,11,0,2,0)
  ShowMessageFace("mononohuyonbi_fc1",0,0,2,56)
  ShowMessage("\\n<Izuna>Kudagitsune...? Hey, where did my kudagitsune go?")
  ShowMessageFace("",0,0,2,57)
  ShowMessage("Izuna is looking for her missing kudagitsune...")
  EndEventProcessing()
  0()
 EndIf()
 If(1,11,0,3,0)
  ShowMessageFace("mononohuyonbi_fc1",0,0,2,58)
  ShowMessage("\\n<Izuna>Training is essential at any moment...")
  ShowMessageFace("",0,0,2,59)
  ShowMessage("Izuna is training in secret...")
  EndEventProcessing()
  0()
 EndIf()
 If(1,11,0,4,0)
  ShowMessageFace("mononohuyonbi_fc1",0,0,2,60)
  ShowMessage("\\n<Izuna>Here, you should eat this.")
  ShowMessageFace("",0,0,2,61)
  ShowMessage("Izuna presents a gift!")
  250(bytes(0x04,0x08,0x6f,0x3a,0x0c,0x52,0x50,0x47,0x3a,0x3a,0x53,0x45,0x08,0x3a,0x0a,0x40,0x6e,0x61,0x6d,0x65,0x49,0x22,0x0a,0x49,0x74,0x65,0x6d,0x31,0x06,0x3a,0x06,0x45,0x54,0x3a,0x0b,0x40,0x70,0x69,0x74,0x63,0x68,0x69,0x69,0x3a,0x0c,0x40,0x76,0x6f,0x6c,0x75,0x6d,0x65,0x69,0x55))
  ChangeInventory_Item(333,0,0,1)
  ShowMessageFace("",0,0,2,62)
  ShowMessage("You obtain some \\ii[333]!")
  EndEventProcessing()
  0()
 EndIf()
 If(1,11,0,5,0)
  ShowMessageFace("mononohuyonbi_fc1",0,0,2,63)
  ShowMessage("\\n<Izuna>Hiyaaa!!")
  355("interrupt_skill(3292)")
  EndEventProcessing()
  0()
 EndIf()
 0()
EndIf()
If(1,100,0,268,0)
 If(1,11,0,1,0)
  ShowMessageFace("queenant_fc1",1,0,2,64)
  ShowMessage("\\n<Antine Ann>Spider Princess, you...")
  ShowMessageFace("",0,0,2,65)
  ShowMessage("Antine Ann stuffs hair from the Spider Princess into a straw doll...\nShe then nails it to a tree with a long spike!")
  EndEventProcessing()
  0()
 EndIf()
 If(1,11,0,2,0)
  ShowMessageFace("queenant_fc1",0,0,2,66)
  ShowMessage("\\n<Antine Ann>Attack the enemy, my daughters...!")
  355("interrupt_skill(2878)")
  EndEventProcessing()
  0()
 EndIf()
 If(1,11,0,3,0)
  ShowMessageFace("queenant_fc1",0,0,2,67)
  ShowMessage("\\n<Antine Ann>Let's take a short rest...")
  313(0,268,0,11)
  ShowMessageFace("",0,0,2,68)
  ShowMessage("Antine Ann fell asleep...")
  EndEventProcessing()
  0()
 EndIf()
 If(1,11,0,4,0)
  ShowMessageFace("queenant_fc1",0,0,2,69)
  ShowMessage("\\n<Antine Ann>Come, let us dance...♪")
  ShowMessageFace("",0,0,2,70)
  ShowMessage("Antine Ann is dancing a cheerful dance!\n...But nothing happened.")
  EndEventProcessing()
  0()
 EndIf()
 If(1,11,0,5,0)
  ShowMessageFace("queenant_fc1",0,0,2,71)
  ShowMessage("\\n<Antine Ann>Fufu...")
  355("interrupt_skill(3296)")
  EndEventProcessing()
  0()
 EndIf()
 0()
EndIf()
If(1,100,0,269,0)
 If(1,11,0,1,0)
  ShowMessageFace("yougan_fc1",0,0,2,72)
  ShowMessage("\\n<Romi>Sticky...")
  ShowMessageFace("",0,0,2,73)
  ShowMessage("Romi is doing nothing...")
  EndEventProcessing()
  0()
 EndIf()
 If(1,11,0,2,0)
  ShowMessageFace("yougan_fc1",0,0,2,74)
  ShowMessage("\\n<Romi>Even lava gets hungry...")
  ShowMessageFace("",0,0,2,75)
  ShowMessage("Romi is eating some food she stole...")
  EndEventProcessing()
  0()
 EndIf()
 If(1,11,0,3,0)
  ShowMessageFace("yougan_fc1",1,0,2,76)
  ShowMessage("\\n<Romi>...*smile*.")
  ShowMessageFace("",0,0,2,77)
  ShowMessage("Romi flashes a sweet smile!\n...But nothing happened.")
  EndEventProcessing()
  0()
 EndIf()
 If(1,11,0,4,0)
  ShowMessageFace("yougan_fc1",1,0,2,78)
  ShowMessage("\\n<Romi>Here, eat this...")
  ShowMessageFace("",0,0,2,79)
  ShowMessage("Romi presents a gift!")
  250(bytes(0x04,0x08,0x6f,0x3a,0x0c,0x52,0x50,0x47,0x3a,0x3a,0x53,0x45,0x08,0x3a,0x0a,0x40,0x6e,0x61,0x6d,0x65,0x49,0x22,0x0a,0x49,0x74,0x65,0x6d,0x31,0x06,0x3a,0x06,0x45,0x54,0x3a,0x0b,0x40,0x70,0x69,0x74,0x63,0x68,0x69,0x69,0x3a,0x0c,0x40,0x76,0x6f,0x6c,0x75,0x6d,0x65,0x69,0x55))
  ChangeInventory_Item(413,0,0,1)
  ShowMessageFace("",0,0,2,80)
  ShowMessage("You obtain a \\ii[413]!")
  EndEventProcessing()
  0()
 EndIf()
 If(1,11,0,5,0)
  ShowMessageFace("yougan_fc1",1,0,2,81)
  ShowMessage("\\n<Romi>Overflowing magma...")
  355("interrupt_skill(3030)")
  EndEventProcessing()
  0()
 EndIf()
 0()
EndIf()
If(1,100,0,270,0)
 If(1,11,0,1,0)
  ShowMessageFace("lamiad_fc1",0,0,2,82)
  ShowMessage("\\n<Albina>I'm good at juggling!")
  ShowMessageFace("",0,0,2,83)
  ShowMessage("Albina is juggling!\n...But nobody is watching her.")
  EndEventProcessing()
  0()
 EndIf()
 If(1,11,0,2,0)
  ShowMessageFace("lamiad_fc1",0,0,2,84)
  ShowMessage("\\n<Albina>Roll rollll♪")
  355("interrupt_skill(3317)")
  EndEventProcessing()
  0()
 EndIf()
 If(1,11,0,3,0)
  ShowMessageFace("lamiad_fc1",0,0,2,85)
  ShowMessage("\\n<Albina>I hate Scylla...")
  ShowMessageFace("",0,0,2,86)
  ShowMessage("Albina is complaining to herself...")
  EndEventProcessing()
  0()
 EndIf()
 If(1,11,0,4,0)
  ShowMessageFace("lamiad_fc1",0,0,2,87)
  ShowMessage("\\n<Albina>This is delicious! ♪")
  ShowMessageFace("",0,0,2,88)
  ShowMessage("Albina presents a gift!")
  250(bytes(0x04,0x08,0x6f,0x3a,0x0c,0x52,0x50,0x47,0x3a,0x3a,0x53,0x45,0x08,0x3a,0x0a,0x40,0x6e,0x61,0x6d,0x65,0x49,0x22,0x0a,0x49,0x74,0x65,0x6d,0x31,0x06,0x3a,0x06,0x45,0x54,0x3a,0x0b,0x40,0x70,0x69,0x74,0x63,0x68,0x69,0x69,0x3a,0x0c,0x40,0x76,0x6f,0x6c,0x75,0x6d,0x65,0x69,0x55))
  ChangeInventory_Item(331,0,0,1)
  ShowMessageFace("",0,0,2,89)
  ShowMessage("You obtain a \\ii[331]!")
  EndEventProcessing()
  0()
 EndIf()
 If(1,11,0,5,0)
  ShowMessageFace("lamiad_fc1",0,0,2,90)
  ShowMessage("\\n<Albina>Ufufu♪")
  355("interrupt_skill(3296)")
  EndEventProcessing()
  0()
 EndIf()
 0()
EndIf()
0()
