﻿// EVENT 0534
Name "コラボC3：グランドノア城"

250(bytes(0x04,0x08,0x6f,0x3a,0x0c,0x52,0x50,0x47,0x3a,0x3a,0x53,0x45,0x08,0x3a,0x0a,0x40,0x6e,0x61,0x6d,0x65,0x49,0x22,0x09,0x4d,0x6f,0x76,0x65,0x06,0x3a,0x06,0x45,0x54,0x3a,0x0b,0x40,0x70,0x69,0x74,0x63,0x68,0x69,0x69,0x3a,0x0c,0x40,0x76,0x6f,0x6c,0x75,0x6d,0x65,0x69,0x55))
242(1)
221()
Wait(60)
ShowMessageFace("",0,0,2,1)
ShowMessage("こうして僕達は、盛況な城下町を抜け――")
ShowMessage("そして、壮麗たるグランドノア城の前に辿り着いたのだった。")
281(0)
ChangeSwitch(31,31,1)
ChangeSwitch(32,32,1)
ChangeSwitch(33,33,1)
TeleportPlayer(0,859,38,5,8,2)
241(bytes(0x04,0x08,0x6f,0x3a,0x0d,0x52,0x50,0x47,0x3a,0x3a,0x42,0x47,0x4d,0x08,0x3a,0x0a,0x40,0x6e,0x61,0x6d,0x65,0x49,0x22,0x16,0x64,0x75,0x6e,0x67,0x65,0x6f,0x6e,0x5f,0x63,0x6f,0x6c,0x6f,0x73,0x73,0x65,0x75,0x6d,0x06,0x3a,0x06,0x45,0x54,0x3a,0x0c,0x40,0x76,0x6f,0x6c,0x75,0x6d,0x65,0x69,0x69,0x3a,0x0b,0x40,0x70,0x69,0x74,0x63,0x68,0x69,0x69))
222()
ShowMessageFace("rest_fc1",0,0,2,2)
ShowMessage("\\n<Lest>")
ShowMessage("ここが、グランドノア城か。")
ShowMessage("さて……")
205(-1,bytes(0x04,0x08,0x6f,0x3a,0x13,0x52,0x50,0x47,0x3a,0x3a,0x4d,0x6f,0x76,0x65,0x52,0x6f,0x75,0x74,0x65,0x09,0x3a,0x0c,0x40,0x72,0x65,0x70,0x65,0x61,0x74,0x46,0x3a,0x0f,0x40,0x73,0x6b,0x69,0x70,0x70,0x61,0x62,0x6c,0x65,0x46,0x3a,0x0a,0x40,0x77,0x61,0x69,0x74,0x54,0x3a,0x0a,0x40,0x6c,0x69,0x73,0x74,0x5b,0x07,0x6f,0x3a,0x15,0x52,0x50,0x47,0x3a,0x3a,0x4d,0x6f,0x76,0x65,0x43,0x6f,0x6d,0x6d,0x61,0x6e,0x64,0x07,0x3a,0x0a,0x40,0x63,0x6f,0x64,0x65,0x69,0x16,0x3a,0x10,0x40,0x70,0x61,0x72,0x61,0x6d,0x65,0x74,0x65,0x72,0x73,0x5b,0x00,0x6f,0x3b,0x0a,0x07,0x3b,0x0b,0x69,0x00,0x3b,0x0c,0x5b,0x00))
ShowMessageFace("",0,0,2,3)
ShowMessage("\\n<衛兵>")
ShowMessage("城内の見学は自由だ。")
ShowMessage("ただし、特別な許可がなければ二階には上がれないよ。")
ShowMessageFace("rest_fc1",0,0,2,4)
ShowMessage("\\n<Lest>")
ShowMessage("あの、僕達は異国から来たのですが……")
ShowMessage("異世界について有力な情報があります。")
ShowMessageFace("",0,0,2,5)
ShowMessage("\\n<衛兵>")
ShowMessage("ああ、なるほど……")
ShowMessage("そういう人も、最近は多いんだよな。")
ShowMessageFace("",0,0,2,6)
ShowMessage("……まあ、こう来るだろう。")
ShowMessage("異世界の情報を求める布告は、近隣の噂になるほどなのだ。")
ShowMessageFace("",0,0,2,7)
ShowMessage("だからこそ、集める側はデマや偽情報に悩まされる。")
ShowMessage("そういうのを寄り分けるため、どうしているかというと――")
ShowMessageFace("rest_fc1",0,0,2,8)
ShowMessage("\\n<Lest>")
ShowMessage("……「夢の主」に関して。")
ShowMessageFace("",0,0,2,9)
ShowMessage("\\n<衛兵>")
ShowMessage("…………！？")
ShowMessageFace("",0,0,2,10)
ShowMessage("重要ワードの有無でチェックする。")
ShowMessage("こういう言葉が出たら要注意、というのが真偽の判別基準になるはず。")
ShowMessageFace("",0,0,2,11)
ShowMessage("幸い、そうした情報は兵の末端にまで行き渡っているらしい。")
ShowMessage("風通しが良く、優れた軍隊組織だ。")
205(55,bytes(0x04,0x08,0x6f,0x3a,0x13,0x52,0x50,0x47,0x3a,0x3a,0x4d,0x6f,0x76,0x65,0x52,0x6f,0x75,0x74,0x65,0x09,0x3a,0x0c,0x40,0x72,0x65,0x70,0x65,0x61,0x74,0x46,0x3a,0x0f,0x40,0x73,0x6b,0x69,0x70,0x70,0x61,0x62,0x6c,0x65,0x46,0x3a,0x0a,0x40,0x77,0x61,0x69,0x74,0x54,0x3a,0x0a,0x40,0x6c,0x69,0x73,0x74,0x5b,0x07,0x6f,0x3a,0x15,0x52,0x50,0x47,0x3a,0x3a,0x4d,0x6f,0x76,0x65,0x43,0x6f,0x6d,0x6d,0x61,0x6e,0x64,0x07,0x3a,0x0a,0x40,0x63,0x6f,0x64,0x65,0x69,0x08,0x3a,0x10,0x40,0x70,0x61,0x72,0x61,0x6d,0x65,0x74,0x65,0x72,0x73,0x5b,0x00,0x6f,0x3b,0x0a,0x07,0x3b,0x0b,0x69,0x00,0x3b,0x0c,0x5b,0x00))
ShowMessageFace("",0,0,2,12)
ShowMessage("\\n<衛兵>")
ShowMessage("なるほど、こっちに来てくれ。")
ShowMessage("上に話を通そう……")
242(1)
221()
ShowMessageFace("",0,0,2,13)
ShowMessage("そこから先は、スムーズに話が流れていった。")
ShowMessage("上官から関連部署、そして情報官の元へと連れて行かれ――")
ShowMessageFace("",0,0,2,14)
ShowMessage("あっという間に、女王に謁見するという流れとなった。")
ShowMessage("こういう所からも、グランドノア女王の優秀さがうかがえる。")
ShowMessageFace("",0,0,2,15)
ShowMessage("女王は頭がおかしくなったという噂さえ囁かれているようだが――")
ShowMessage("これだけ洗練された官僚機構を組織するなんて、大した名君だ。")
Wait(30)
211(0)
TeleportPlayer(0,862,22,10,8,2)
222()
0()
