﻿// EVENT 2006
Name "Seduction: Mandragora"

If(0,25,1)
 EndEventProcessing()
 0()
EndIf()
355("$game_troop.lose_event_id = 3006")
ChangeVariable(26,26,0,3,3,1,4)
ChangeVariable(26,26,4,0,10)
ShowMessageFace("mdg_fc1",2,0,2,1)
ShowMessage("\\n<Mandragora>I'm in a pinch...\nI should use my boobs to plead for my life.")
ShowMessageFace("mdg_fc1",0,0,2,2)
ShowMessage("\\n<Mandragora>Say...\nDon't you want to use my breasts to feel good?")
ChangeSwitch(98,98,0)
ChangeSwitch(96,96,0)
ShowChoices(strings("Ignore her","I want your breasts"),1)
IfPlayerPicksChoice(0,"Ignore her")
 ShowMessageFace("",0,0,2,3)
 ShowMessage("Luka resists her temptation!")
 RunCommonEvent(1999)
 EndEventProcessing()
 0()
IfPlayerPicksChoice(1,"おっぱいで挟んでもらう")
 0()
404()
ShowMessageFace("mdg_fc1",0,0,2,4)
ShowMessage("\\n<Mandragora>Good boy. Now, stay still...")
250(bytes(0x04,0x08,0x6f,0x3a,0x0c,0x52,0x50,0x47,0x3a,0x3a,0x53,0x45,0x08,0x3a,0x0a,0x40,0x6e,0x61,0x6d,0x65,0x49,0x22,0x14,0x6d,0x6f,0x6e,0x5f,0x65,0x72,0x6f,0x5f,0x73,0x69,0x67,0x6f,0x6b,0x69,0x31,0x06,0x3a,0x06,0x45,0x54,0x3a,0x0b,0x40,0x70,0x69,0x74,0x63,0x68,0x69,0x69,0x3a,0x0c,0x40,0x76,0x6f,0x6c,0x75,0x6d,0x65,0x69,0x69))
311(0,1,1,1,26,true)
PictureDisplay(5,"ev_mdg_ct21",0,0,0,0,100,100,255,0)
ShowMessageFace("",0,0,2,5)
ShowMessage("The Mandragora takes off Luka's pants!\nAt the same time, her soft chest pushes against Luka's groin!\\D")
ShowMessage("Luka takes \\V[26] damage!")
ChangeVariable(27,27,0,3,3,1,2)
If(1,27,0,0,0)
 JumpToLabel("射精1")
 0()
EndIf()
ShowMessageFace("",0,0,2,6)
ShowMessage("\\n<Luka>Aah!")
ShowMessageFace("mdg_fc1",0,0,2,7)
ShowMessage("\\n<Mandragora>Fufu... I'll make you come with your penis between my boobs...")
250(bytes(0x04,0x08,0x6f,0x3a,0x0c,0x52,0x50,0x47,0x3a,0x3a,0x53,0x45,0x08,0x3a,0x0a,0x40,0x6e,0x61,0x6d,0x65,0x49,0x22,0x14,0x6d,0x6f,0x6e,0x5f,0x65,0x72,0x6f,0x5f,0x73,0x69,0x67,0x6f,0x6b,0x69,0x31,0x06,0x3a,0x06,0x45,0x54,0x3a,0x0b,0x40,0x70,0x69,0x74,0x63,0x68,0x69,0x69,0x3a,0x0c,0x40,0x76,0x6f,0x6c,0x75,0x6d,0x65,0x69,0x69))
311(0,1,1,1,26,true)
ShowMessageFace("",0,0,2,8)
ShowMessage("Luka's penis is sandwiched in her soft cleavage!\\D")
ShowMessage("Luka takes \\V[26] damage!")
ChangeVariable(27,27,0,3,3,1,2)
If(1,27,0,0,0)
 JumpToLabel("射精1")
 0()
EndIf()
ShowMessageFace("",0,0,2,9)
ShowMessage("\\n<Luka>Ah... That much is...!")
ShowMessageFace("mdg_fc1",0,0,2,10)
ShowMessage("\\n<Mandragora>Hoora... Do you feel like you're melting?\nIs my chest soft?")
250(bytes(0x04,0x08,0x6f,0x3a,0x0c,0x52,0x50,0x47,0x3a,0x3a,0x53,0x45,0x08,0x3a,0x0a,0x40,0x6e,0x61,0x6d,0x65,0x49,0x22,0x14,0x6d,0x6f,0x6e,0x5f,0x65,0x72,0x6f,0x5f,0x73,0x69,0x67,0x6f,0x6b,0x69,0x31,0x06,0x3a,0x06,0x45,0x54,0x3a,0x0b,0x40,0x70,0x69,0x74,0x63,0x68,0x69,0x69,0x3a,0x0c,0x40,0x76,0x6f,0x6c,0x75,0x6d,0x65,0x69,0x69))
311(0,1,1,1,26,true)
ShowMessageFace("",0,0,2,11)
ShowMessage("The heavy volume weighs on Luka's groin!\nLuka's penis gets a sweet sensation from the soft pressure!\\D")
ShowMessage("Luka takes \\V[26] damage!")
ChangeVariable(27,27,0,3,3,1,2)
If(1,27,0,0,0)
 JumpToLabel("射精1")
 0()
EndIf()
ShowMessageFace("",0,0,2,12)
ShowMessage("\\n<Luka>Fwaah... Amazing...")
ShowMessageFace("mdg_fc1",0,0,2,13)
ShowMessage("\\n<Mandragora>Fufu! You look like you're feeling good...\nBoys sure like boobs, huh...")
ShowChoices(strings("Resist her temptation","Let her continue"),1)
IfPlayerPicksChoice(0,"Resist her temptation")
 ShowMessageFace("",0,0,2,14)
 ShowMessage("Luka resists her temptation and gets away from the Mandragora!")
 RunCommonEvent(1999)
 EndEventProcessing()
 0()
IfPlayerPicksChoice(1,"なすがまま")
 ShowMessageFace("",0,0,2,15)
 ShowMessage("Luka lets her squeeze him with her boobs...")
 0()
404()
ShowMessageFace("",0,0,2,16)
ShowMessage("\\n<Luka>Ah-aaaaah...")
ShowMessageFace("mdg_fc1",0,0,2,17)
ShowMessage("\\n<Mandragora>Heehee...\nI still haven't moved, but you're already feeling that good...")
ShowMessageFace("mdg_fc1",0,0,2,18)
ShowMessage("\\n<Mandragora>Now, I'll play with you...")
250(bytes(0x04,0x08,0x6f,0x3a,0x0c,0x52,0x50,0x47,0x3a,0x3a,0x53,0x45,0x08,0x3a,0x0a,0x40,0x6e,0x61,0x6d,0x65,0x49,0x22,0x14,0x6d,0x6f,0x6e,0x5f,0x65,0x72,0x6f,0x5f,0x73,0x69,0x67,0x6f,0x6b,0x69,0x31,0x06,0x3a,0x06,0x45,0x54,0x3a,0x0b,0x40,0x70,0x69,0x74,0x63,0x68,0x69,0x69,0x3a,0x0c,0x40,0x76,0x6f,0x6c,0x75,0x6d,0x65,0x69,0x69))
311(0,1,1,1,26,true)
ShowMessageFace("",0,0,2,19)
ShowMessage("The Mandragora squishes her breasts together with both hands, sandwiching Luka's penis between them! Luka's penis is crushed from both sides by her soft flesh!\\D")
ShowMessage("Luka takes \\V[26] damage!")
ChangeVariable(27,27,0,3,3,1,2)
If(1,27,0,0,0)
 JumpToLabel("射精1")
 0()
EndIf()
250(bytes(0x04,0x08,0x6f,0x3a,0x0c,0x52,0x50,0x47,0x3a,0x3a,0x53,0x45,0x08,0x3a,0x0a,0x40,0x6e,0x61,0x6d,0x65,0x49,0x22,0x14,0x6d,0x6f,0x6e,0x5f,0x65,0x72,0x6f,0x5f,0x73,0x69,0x67,0x6f,0x6b,0x69,0x31,0x06,0x3a,0x06,0x45,0x54,0x3a,0x0b,0x40,0x70,0x69,0x74,0x63,0x68,0x69,0x69,0x3a,0x0c,0x40,0x76,0x6f,0x6c,0x75,0x6d,0x65,0x69,0x69))
311(0,1,1,1,26,true)
ShowMessageFace("",0,0,2,20)
ShowMessage("As Luka's penis is slowly teased, it becomes trapped in the Mandragora's cleavage! The pressure entices Luka's penis with an amazing pleasure!\\D")
ShowMessage("Luka takes \\V[26] damage!")
ChangeVariable(27,27,0,3,3,1,2)
If(1,27,0,0,0)
 JumpToLabel("射精1")
 0()
EndIf()
ShowMessageFace("",0,0,2,21)
ShowMessage("\\n<Luka>Aaaaaaaaah!!")
ShowMessageFace("mdg_fc1",0,0,2,22)
ShowMessage("\\n<Mandragora>Hora hora... Feels good, huh?\nHow about this?")
250(bytes(0x04,0x08,0x6f,0x3a,0x0c,0x52,0x50,0x47,0x3a,0x3a,0x53,0x45,0x08,0x3a,0x0a,0x40,0x6e,0x61,0x6d,0x65,0x49,0x22,0x14,0x6d,0x6f,0x6e,0x5f,0x65,0x72,0x6f,0x5f,0x73,0x69,0x67,0x6f,0x6b,0x69,0x31,0x06,0x3a,0x06,0x45,0x54,0x3a,0x0b,0x40,0x70,0x69,0x74,0x63,0x68,0x69,0x69,0x3a,0x0c,0x40,0x76,0x6f,0x6c,0x75,0x6d,0x65,0x69,0x69))
311(0,1,1,1,26,true)
ShowMessageFace("",0,0,2,23)
ShowMessage("The Mandragora begins to shake her boobs while Luka's penis is still tucked inside! Her plump chest's movements hit Luka's dick with waves of pleasure!\\D")
ShowMessage("Luka takes \\V[26] damage!")
ChangeVariable(27,27,0,3,3,1,2)
If(1,27,0,0,0)
 JumpToLabel("射精1")
 0()
EndIf()
ShowMessageFace("",0,0,2,24)
ShowMessage("\\n<Luka>Fwaaah!")
ShowMessageFace("mdg_fc1",0,0,2,25)
ShowMessage("\\n<Mandragora>Heehee... Looks like you can't get enough.\nDon't you feel like coming?")
250(bytes(0x04,0x08,0x6f,0x3a,0x0c,0x52,0x50,0x47,0x3a,0x3a,0x53,0x45,0x08,0x3a,0x0a,0x40,0x6e,0x61,0x6d,0x65,0x49,0x22,0x14,0x6d,0x6f,0x6e,0x5f,0x65,0x72,0x6f,0x5f,0x73,0x69,0x67,0x6f,0x6b,0x69,0x31,0x06,0x3a,0x06,0x45,0x54,0x3a,0x0b,0x40,0x70,0x69,0x74,0x63,0x68,0x69,0x69,0x3a,0x0c,0x40,0x76,0x6f,0x6c,0x75,0x6d,0x65,0x69,0x69))
311(0,1,1,1,26,true)
ShowMessageFace("",0,0,2,26)
ShowMessage("The Mandragora pressures Luka's dick while she gives him moderate thrusts! Her springy skin is tight against Luka's penis, squishing it!\\D")
ShowMessage("Luka takes \\V[26] damage!")
ChangeVariable(27,27,0,3,3,1,2)
If(1,27,0,0,0)
 JumpToLabel("射精1")
 0()
EndIf()
ShowMessageFace("",0,0,2,27)
ShowMessage("\\n<Luka>Aaaah!")
ShowMessageFace("mdg_fc1",0,0,2,28)
ShowMessage("\\n<Mandragora>Fufu! You're gonna come?\nHora hora hora... Can you endure this?")
250(bytes(0x04,0x08,0x6f,0x3a,0x0c,0x52,0x50,0x47,0x3a,0x3a,0x53,0x45,0x08,0x3a,0x0a,0x40,0x6e,0x61,0x6d,0x65,0x49,0x22,0x14,0x6d,0x6f,0x6e,0x5f,0x65,0x72,0x6f,0x5f,0x73,0x69,0x67,0x6f,0x6b,0x69,0x31,0x06,0x3a,0x06,0x45,0x54,0x3a,0x0b,0x40,0x70,0x69,0x74,0x63,0x68,0x69,0x69,0x3a,0x0c,0x40,0x76,0x6f,0x6c,0x75,0x6d,0x65,0x69,0x69))
311(0,1,1,1,26,true)
ShowMessageFace("",0,0,2,29)
ShowMessage("Moving like she's covered in oil, the Mandragora starts to rub her chest up and down Luka's cock!\\D")
ShowMessage("Luka takes \\V[26] damage!")
ChangeVariable(27,27,0,3,3,1,2)
If(1,27,0,0,0)
 JumpToLabel("射精1")
 0()
EndIf()
ShowMessageFace("",0,0,2,30)
ShowMessage("\\n<Luka>Aaah... It feels so good...")
ShowMessageFace("mdg_fc1",0,0,2,31)
ShowMessage("\\n<Mandragora>Heehee... At this rate, you'll come... Okay?")
ShowChoices(strings("Resist her temptation","Let her continue"),1)
IfPlayerPicksChoice(0,"Resist her temptation")
 ShowMessageFace("",0,0,2,32)
 ShowMessage("Luka resists her temptation and gets away from the Mandragora!")
 RunCommonEvent(1999)
 EndEventProcessing()
 0()
IfPlayerPicksChoice(1,"なすがまま")
 ShowMessageFace("",0,0,2,33)
 ShowMessage("Luka lets her continue...")
 0()
404()
ShowMessageFace("",0,0,2,34)
ShowMessage("\\n<Luka>Aaaah...")
ShowMessageFace("mdg_fc1",0,0,2,35)
ShowMessage("\\n<Mandragora>You don't seem to care.\nNow I'll send you to heaven...")
ChangeVariable(28,28,3,0,2)
250(bytes(0x04,0x08,0x6f,0x3a,0x0c,0x52,0x50,0x47,0x3a,0x3a,0x53,0x45,0x08,0x3a,0x0a,0x40,0x6e,0x61,0x6d,0x65,0x49,0x22,0x14,0x6d,0x6f,0x6e,0x5f,0x65,0x72,0x6f,0x5f,0x73,0x69,0x67,0x6f,0x6b,0x69,0x31,0x06,0x3a,0x06,0x45,0x54,0x3a,0x0b,0x40,0x70,0x69,0x74,0x63,0x68,0x69,0x69,0x3a,0x0c,0x40,0x76,0x6f,0x6c,0x75,0x6d,0x65,0x69,0x69))
311(0,1,1,1,26,true)
ShowMessageFace("",0,0,2,36)
ShowMessage("The Mandragora switches between horizontal and vertical breast movements! Luka's squeezed dick is pushed to its absolute limit!\\D")
ShowMessage("Luka takes \\V[26] damage!")
ChangeVariable(27,27,0,3,3,1,2)
If(1,27,0,0,0)
 JumpToLabel("射精1")
 0()
EndIf()
DefineLabel("射精1")
ShowMessageFace("",0,0,2,37)
ShowMessage("\\n<Luka>Haaa... I-I'm coming...")
RunCommonEvent(104)
PictureDisplay(5,"ev_mdg_ct22",0,0,0,0,100,100,255,0)
RunCommonEvent(105)
ShowMessageFace("",0,0,2,38)
ShowMessage("Luka finally climaxes into the Mandragora's soft cleavage. Semen is scattered on the Mandragora's chest and even flies onto her cheeks.")
PictureDisplay(5,"ev_mdg_ct23",0,0,0,0,100,100,255,0)
ShowMessageFace("mdg_fc1",1,0,2,39)
ShowMessage("\\n<Mandragora>You didn't last long against my chest.\nNow, you girls... Did you see how pitiful your leader looked as he came?")
RunCommonEvent(2000)
EndEventProcessing()
0()
