// EVENT 2028
Name "Seduction: Queen Harpy"

If(0,25,1)
 EndEventProcessing()
 0()
EndIf()
355("$game_troop.lose_event_id = 3028")
ChangeVariable(26,26,0,3,3,1,4)
ChangeVariable(26,26,4,0,10)
355("battler_graphic_hide")
PictureDisplay(5,"80_queenhapy_st02_2",0,0,0,0,100,100,255,0)
ShowMessageFace("",0,0,2,1)
ShowMessage("The Queen Harpy's tail feathers start to twitch!")
ShowMessage("She stops moving!")
ShowMessageFace("queenhapy_fc1",2,0,2,2)
ShowMessage("\\n<Queen Harpy>Now, go ahead and attack.\nPlease end this cursed existence...")
ChangeSwitch(98,98,0)
ChangeSwitch(96,96,0)
ShowChoices(strings("Don't attack","Attack"),1)
IfPlayerPicksChoice(0,"攻撃を控える")
 ShowMessageFace("",0,0,2,3)
 ShowMessage("But Luka doesn't attack!")
 ShowMessageFace("queenhapy_fc1",0,0,2,4)
 ShowMessage("\\n<Queen Harpy>You're quite careful... Fufu.")
 PictureClear(5)
 355("battler_graphic_show")
 ShowMessageFace("",0,0,2,5)
 ShowMessage("The Queen Harpy's tail feathers stop twitching!")
 RunCommonEvent(1999)
 EndEventProcessing()
 0()
IfPlayerPicksChoice(1,"攻撃する")
 0()
404()
ShowMessageFace("queenhapy_fc1",2,0,2,6)
ShowMessage("\\n<Queen Harpy>Fufu, caught you.\nYou'll be finished inside me!")
355("display_skill_name(\"Happiness Rondo\")")
ChangeVariable(26,26,3,0,4)
250(bytes(0x04,0x08,0x6f,0x3a,0x0c,0x52,0x50,0x47,0x3a,0x3a,0x53,0x45,0x08,0x3a,0x0a,0x40,0x6e,0x61,0x6d,0x65,0x49,0x22,0x11,0x6d,0x6f,0x6e,0x5f,0x65,0x72,0x6f,0x5f,0x70,0x79,0x75,0x32,0x06,0x3a,0x06,0x45,0x54,0x3a,0x0b,0x40,0x70,0x69,0x74,0x63,0x68,0x69,0x69,0x3a,0x0c,0x40,0x76,0x6f,0x6c,0x75,0x6d,0x65,0x69,0x69))
PictureDisplay(5,"ev_queenhapy_h1",0,0,0,0,100,100,255,0)
PictureDisplay(6,"ev_queenhapy_ct01",0,0,0,0,100,100,255,0)
311(0,1,1,1,26,true)
ShowMessageFace("",0,0,2,7)
ShowMessage("Hugging Luka, the Queen Harpy forces him inside her!")
ShowMessage("Her warm vagina envelops his penis!\\D")
ShowMessage("Luka takes \\V[26] damage!")
ChangeVariable(27,27,0,3,3,1,2)
250(bytes(0x04,0x08,0x6f,0x3a,0x0c,0x52,0x50,0x47,0x3a,0x3a,0x53,0x45,0x08,0x3a,0x0a,0x40,0x6e,0x61,0x6d,0x65,0x49,0x22,0x13,0x6d,0x6f,0x6e,0x5f,0x65,0x72,0x6f,0x5f,0x63,0x68,0x75,0x70,0x61,0x34,0x06,0x3a,0x06,0x45,0x54,0x3a,0x0b,0x40,0x70,0x69,0x74,0x63,0x68,0x69,0x69,0x3a,0x0c,0x40,0x76,0x6f,0x6c,0x75,0x6d,0x65,0x69,0x69))
311(0,1,1,1,26,true)
ShowMessageFace("",0,0,2,8)
ShowMessage("His penis is squeezed in her tight vagina!")
ShowMessage("Numerous bumps rub against his penis!\\D")
ShowMessage("Luka takes \\V[26] damage!")
ChangeVariable(27,27,0,3,3,1,2)
250(bytes(0x04,0x08,0x6f,0x3a,0x0c,0x52,0x50,0x47,0x3a,0x3a,0x53,0x45,0x08,0x3a,0x0a,0x40,0x6e,0x61,0x6d,0x65,0x49,0x22,0x13,0x6d,0x6f,0x6e,0x5f,0x65,0x72,0x6f,0x5f,0x63,0x68,0x75,0x70,0x61,0x35,0x06,0x3a,0x06,0x45,0x54,0x3a,0x0b,0x40,0x70,0x69,0x74,0x63,0x68,0x69,0x69,0x3a,0x0c,0x40,0x76,0x6f,0x6c,0x75,0x6d,0x65,0x69,0x69))
311(0,1,1,1,26,true)
ShowMessageFace("",0,0,2,9)
ShowMessage("Wetness covers his penis inside her!")
ShowMessage("Her soft flesh presses down on him!\\D")
ShowMessage("Luka takes \\V[26] damage!")
ChangeVariable(27,27,0,3,3,1,2)
355("clear_skill_name")
RunCommonEvent(104)
PictureDisplay(5,"ev_queenhapy_h2",0,0,0,0,100,100,255,0)
PictureDisplay(6,"ev_queenhapy_ct02",0,0,0,0,100,100,255,0)
RunCommonEvent(105)
ShowMessageFace("",0,0,2,10)
ShowMessage("\\n<Luka>Unnngh...!")
ShowMessageFace("",0,0,2,11)
ShowMessage("Luka's body goes numb with pleasure as he comes inside the Queen Harpy.")
ShowMessage("His penis pulses with each spurt of semen in her.")
ShowMessageFace("",0,0,2,12)
ShowMessage("Her vagina is milking me...")
ShowMessage("Every last drop of semen is squeezed out.")
ShowMessageFace("queenhapy_fc1",2,0,2,13)
ShowMessage("\\n<Queen Harpy>Fufu, instant kill.\nIf I get serious, someone like you is no match at all.")
RunCommonEvent(2000)
EndEventProcessing()
0()
