﻿// EVENT 1282
Name "Talk: Candy"

If(1,20,0,1,0)
 JumpToLabel("情報")
 0()
EndIf()
If(1,20,0,2,0)
 JumpToLabel("質問")
 0()
EndIf()
If(1,20,0,3,0)
 JumpToLabel("要求")
 0()
EndIf()
If(1,20,0,4,0)
 JumpToLabel("贈与")
 0()
EndIf()
DefineLabel("情報")
ChangeVariable(13,13,0,2,1,100)
If(1,13,0,10,2)
 ShowMessageFace("candy_fc1",1,0,2,1)
 ShowMessage("\\n<Candy>Ufu...ufufufufu...")
 EndEventProcessing()
 0()
EndIf()
If(1,13,0,20,2)
 ShowMessageFace("candy_fc1",1,0,2,2)
 ShowMessage("\\n<Candy>My stomach is empty...")
 EndEventProcessing()
 0()
EndIf()
If(1,13,0,30,2)
 ShowMessageFace("candy_fc1",1,0,2,3)
 ShowMessage("\\n<Candy>I want to eat until my tummy's full. ♪")
 EndEventProcessing()
 0()
EndIf()
If(1,13,0,40,2)
 ShowMessageFace("candy_fc1",1,0,2,4)
 ShowMessage("\\n<Candy>Cake...pudding...chocolate...parfait...")
 EndEventProcessing()
 0()
EndIf()
If(1,13,0,50,2)
 ShowMessageFace("candy_fc1",1,0,2,5)
 ShowMessage("\\n<Candy>I want to live in a country of sweets...")
 EndEventProcessing()
 0()
EndIf()
If(1,13,0,60,2)
 ShowMessageFace("candy_fc1",1,0,2,6)
 ShowMessage("\\n<Candy>Ehehe, looks delicious...")
 EndEventProcessing()
 0()
EndIf()
If(1,13,0,70,2)
 ShowMessageFace("candy_fc1",1,0,2,7)
 ShowMessage("\\n<Candy>I want to eat all kinds of things, even humans and monsters...")
 EndEventProcessing()
 0()
EndIf()
If(1,13,0,80,2)
 ShowMessageFace("candy_fc1",3,0,2,8)
 ShowMessage("\\n<Candy>Why are you hungry?\nThere are sweets over there.")
 EndEventProcessing()
 0()
EndIf()
If(1,13,0,90,2)
 ShowMessageFace("candy_fc1",3,0,2,9)
 ShowMessage("\\n<Candy>Because I ate too much candy, my body is almost entirely made of sweets.")
 EndEventProcessing()
 0()
EndIf()
If(1,13,0,100,2)
 ShowMessageFace("candy_fc1",1,0,2,10)
 ShowMessage("\\n<Candy>This hill is a nice place...\nThe dirt and plants are also tasty...")
 EndEventProcessing()
 0()
EndIf()
DefineLabel("質問")
ChangeVariable(13,13,0,2,1,50)
If(1,13,0,10,2)
 ShowMessageFace("candy_fc1",0,0,2,11)
 ShowMessage("\\n<Candy>Arere...?\nAre you related to Alice the Seventeenth?")
 ShowChoices(strings("Correct","Wrong","I don't understand"),0)
 IfPlayerPicksChoice(0,"そうだ")
  ShowMessageFace("candy_fc1",1,0,2,12)
  ShowMessage("\\n<Candy>That's right...\nYou have a tasty scent just like her...")
  355("change_friend(10)")
  0()
 IfPlayerPicksChoice(1,"違う")
  ShowMessageFace("candy_fc1",2,0,2,13)
  ShowMessage("\\n<Candy>You're not...?\nBut you smell just like her...")
  0()
 IfPlayerPicksChoice(2,"分からない")
  ShowMessageFace("candy_fc1",1,0,2,14)
  ShowMessage("\\n<Candy>My nose understands.\nYou and Alice the Seventeenth share a delicious scent...")
  0()
 404()
 EndEventProcessing()
 0()
EndIf()
If(1,13,0,20,2)
 ShowMessageFace("candy_fc1",0,0,2,15)
 ShowMessage("\\n<Candy>Do you like sweets...?")
 ShowChoices(strings("I like them","I hate them","I don't know"),0)
 IfPlayerPicksChoice(0,"好き")
  ShowMessageFace("candy_fc1",1,0,2,16)
  ShowMessage("\\n<Candy>Ehehehehe...We're the same...")
  355("change_friend(10)")
  0()
 IfPlayerPicksChoice(1,"嫌い")
  ShowMessageFace("candy_fc1",2,0,2,17)
  ShowMessage("\\n<Candy>You and I are not compatible...")
  355("change_friend(-5)")
  0()
 IfPlayerPicksChoice(2,"知らない")
  ShowMessageFace("candy_fc1",2,0,2,18)
  ShowMessage("\\n<Candy>You've never eaten sweets...?!\nI'll let you chew on my skirt a little.")
  0()
 404()
 EndEventProcessing()
 0()
EndIf()
If(1,13,0,30,2)
 ShowMessageFace("candy_fc1",0,0,2,19)
 ShowMessage("\\n<Candy>Do you know why I attacked Miss Cassandra...?")
 ShowChoices(strings("You couldn't stand her","She looked delicious","You wanted to rule the village"),0)
 IfPlayerPicksChoice(0,"気に食わなかったから")
  ShowMessageFace("candy_fc1",3,0,2,20)
  ShowMessage("\\n<Candy>I didn't particularly dislike her, but...\nMiss Cassandra looked so tasty.")
  0()
 IfPlayerPicksChoice(1,"おいしそうだったから")
  ShowMessageFace("candy_fc1",1,0,2,21)
  ShowMessage("\\n<Candy>Hehehe, she looked tasty...\nSo I attacked her...")
  355("change_friend(10)")
  0()
 IfPlayerPicksChoice(2,"村を支配したかったから")
  ShowMessageFace("candy_fc1",3,0,2,22)
  ShowMessage("\\n<Candy>I didn't care about ruling, but...\nMiss Cassandra looked so tasty.")
  0()
 404()
 EndEventProcessing()
 0()
EndIf()
If(1,13,0,40,2)
 ShowMessageFace("candy_fc1",0,0,2,23)
 ShowMessage("\\n<Candy>Do you think I'm gluttonous...?")
 ShowChoices(strings("I think so","I don't think so","I'm the gluttonous one"),0)
 IfPlayerPicksChoice(0,"思う")
  ShowMessageFace("candy_fc1",1,0,2,24)
  ShowMessage("\\n<Candy>Ehehe, you got me...")
  0()
 IfPlayerPicksChoice(1,"思わない")
  ShowMessageFace("candy_fc1",3,0,2,25)
  ShowMessage("\\n<Candy>Really...I know you're just being polite.")
  355("change_friend(10)")
  0()
 IfPlayerPicksChoice(2,"僕の方が食いしん坊だ")
  ShowMessageFace("candy_fc1",2,0,2,26)
  ShowMessage("\\n<Candy>I won't be defeated like that...!")
  0()
 404()
 EndEventProcessing()
 0()
EndIf()
If(1,13,0,50,2)
 ShowMessageFace("candy_fc1",0,0,2,27)
 ShowMessage("\\n<Candy>Of the three Monster Lords, which one is the most delicious-looking...?")
 ShowChoices(strings("Alice the 15th","Black Alice","Alice the 17th"),0)
 IfPlayerPicksChoice(0,"アリス15世")
  ShowMessageFace("candy_fc1",1,0,2,28)
  ShowMessage("\\n<Candy>She has a mature flavor, doesn't she look delicious...?")
  355("change_friend(10)")
  0()
 IfPlayerPicksChoice(1,"黒のアリス")
  ShowMessageFace("candy_fc1",2,0,2,29)
  ShowMessage("\\n<Candy>I can't eat her...\nI'd get food poisoning...")
  355("change_friend(-5)")
  0()
 IfPlayerPicksChoice(2,"アリス17世")
  ShowMessageFace("candy_fc1",1,0,2,30)
  ShowMessage("\\n<Candy>Ehehe...she looks really tasty...\nI want to eat that girl...")
  355("change_friend(10)")
  0()
 404()
 EndEventProcessing()
 0()
EndIf()
DefineLabel("要求")
ChangeVariable(13,13,0,2,1,30)
If(1,13,0,10,2)
 If(8,414)
  ShowMessageFace("candy_fc1",1,0,2,31)
  ShowMessage("\\n<Candy>I want to eat chocolate...")
  ChangeVariable(24,24,0,3,0,414,0)
  ShowMessageFace("",0,0,2,32)
  ShowMessage("Do you want to give some \\ii[414]? (Have:\\V[24])")
  ShowChoices(strings("Yes","No"),2)
  IfPlayerPicksChoice(0,"Yes")
   ShowMessageFace("candy_fc1",1,0,2,33)
   ShowMessage("\\n<Candy>*munch munch* Delicious...")
   ChangeInventory_Item(414,1,0,1)
   355("change_friend(20)")
   EndEventProcessing()
   0()
  IfPlayerPicksChoice(1,"No")
   ShowMessageFace("candy_fc1",0,0,2,34)
   ShowMessage("\\n<Candy>That's disappointing...")
   EndEventProcessing()
   0()
  404()
  0()
 Else()
  ChangeVariable(13,13,0,0,20)
  0()
 EndIf()
 0()
EndIf()
If(1,13,0,20,2)
 If(8,417)
  ShowMessageFace("candy_fc1",1,0,2,35)
  ShowMessage("\\n<Candy>I want to eat cake...")
  ChangeVariable(24,24,0,3,0,417,0)
  ShowMessageFace("",0,0,2,36)
  ShowMessage("Do you want to give some \\ii[417]? (Have:\\V[24])")
  ShowChoices(strings("Yes","No"),2)
  IfPlayerPicksChoice(0,"Yes")
   ShowMessageFace("candy_fc1",1,0,2,37)
   ShowMessage("\\n<Candy>*munch munch*... Delicious...")
   ChangeInventory_Item(417,1,0,1)
   355("change_friend(30)")
   EndEventProcessing()
   0()
  IfPlayerPicksChoice(1,"No")
   ShowMessageFace("candy_fc1",0,0,2,38)
   ShowMessage("\\n<Candy>That's disappointing...")
   EndEventProcessing()
   0()
  404()
  0()
 Else()
  ChangeVariable(13,13,0,0,30)
  0()
 EndIf()
 0()
EndIf()
If(1,13,0,30,2)
 ShowMessageFace("candy_fc1",1,0,2,39)
 ShowMessage("\\n<Candy>I want to eat money...")
 If(7,2925,0)
  ChangeVariable(24,24,0,3,7,2,0)
  ShowMessageFace("",0,0,2,40)
  ShowMessage("Do you want to give 2925G? (Have:\\V[24])")
  ShowChoices(strings("Yes","No"),2)
  IfPlayerPicksChoice(0,"Yes")
   ShowMessageFace("candy_fc1",1,0,2,41)
   ShowMessage("\\n<Candy>*munch munch*... Delicious...")
   125(1,0,2925)
   355("change_friend(25)")
   EndEventProcessing()
   0()
  IfPlayerPicksChoice(1,"No")
   ShowMessageFace("candy_fc1",0,0,2,42)
   ShowMessage("\\n<Candy>That's disappointing...")
   EndEventProcessing()
   0()
  404()
  0()
 Else()
  ShowMessageFace("candy_fc1",0,0,2,43)
  ShowMessage("\\n<Candy>Arere...You don't have any?")
  EndEventProcessing()
  0()
 EndIf()
 0()
EndIf()
DefineLabel("贈与")
ChangeVariable(13,13,0,2,1,30)
If(1,25,0,1,0)
 ChangeVariable(13,13,0,0,30)
 ChangeVariable(25,25,0,0,0)
 0()
EndIf()
If(1,25,0,2,0)
 ChangeVariable(13,13,0,2,1,20)
 ChangeVariable(25,25,0,0,0)
 0()
EndIf()
If(1,13,0,10,2)
 ShowMessageFace("candy_fc1",3,0,2,44)
 ShowMessage("\\n<Candy>I'll share this éclair with you...")
 250(bytes(0x04,0x08,0x6f,0x3a,0x0c,0x52,0x50,0x47,0x3a,0x3a,0x53,0x45,0x08,0x3a,0x0a,0x40,0x6e,0x61,0x6d,0x65,0x49,0x22,0x0a,0x49,0x74,0x65,0x6d,0x31,0x06,0x3a,0x06,0x45,0x54,0x3a,0x0b,0x40,0x70,0x69,0x74,0x63,0x68,0x69,0x69,0x3a,0x0c,0x40,0x76,0x6f,0x6c,0x75,0x6d,0x65,0x69,0x55))
 ChangeInventory_Item(421,0,0,1)
 ShowMessageFace("",0,0,2,45)
 ShowMessage("Candy gave you an \\ii[421]!")
 EndEventProcessing()
 0()
EndIf()
If(1,13,0,20,2)
 ShowMessageFace("candy_fc1",3,0,2,46)
 ShowMessage("\\n<Candy>I'll share this pudding with you...")
 250(bytes(0x04,0x08,0x6f,0x3a,0x0c,0x52,0x50,0x47,0x3a,0x3a,0x53,0x45,0x08,0x3a,0x0a,0x40,0x6e,0x61,0x6d,0x65,0x49,0x22,0x0a,0x49,0x74,0x65,0x6d,0x31,0x06,0x3a,0x06,0x45,0x54,0x3a,0x0b,0x40,0x70,0x69,0x74,0x63,0x68,0x69,0x69,0x3a,0x0c,0x40,0x76,0x6f,0x6c,0x75,0x6d,0x65,0x69,0x55))
 ChangeInventory_Item(423,0,0,1)
 ShowMessageFace("",0,0,2,47)
 ShowMessage("Candy gave you some \\ii[423]!")
 EndEventProcessing()
 0()
EndIf()
If(1,13,0,30,2)
 ShowMessageFace("candy_fc1",0,0,2,48)
 ShowMessage("\\n<Candy>I'll share this money with you...")
 250(bytes(0x04,0x08,0x6f,0x3a,0x0c,0x52,0x50,0x47,0x3a,0x3a,0x53,0x45,0x08,0x3a,0x0a,0x40,0x6e,0x61,0x6d,0x65,0x49,0x22,0x0a,0x49,0x74,0x65,0x6d,0x31,0x06,0x3a,0x06,0x45,0x54,0x3a,0x0b,0x40,0x70,0x69,0x74,0x63,0x68,0x69,0x69,0x3a,0x0c,0x40,0x76,0x6f,0x6c,0x75,0x6d,0x65,0x69,0x55))
 125(0,0,4875)
 ShowMessageFace("",0,0,2,49)
 ShowMessage("Candy gave you 4875G!")
 EndEventProcessing()
 0()
EndIf()
0()
