﻿// EVENT 4382
Name "Meia 2"

If(0,25,1)
 221()
 PictureClear(5)
 PictureClear(6)
 ShowMessageFace("",0,0,2,0)
 ShowMessage("......")
 242(2)
 Wait(120)
 241(bytes(0x04,0x08,0x6f,0x3a,0x0d,0x52,0x50,0x47,0x3a,0x3a,0x42,0x47,0x4d,0x08,0x3a,0x0a,0x40,0x6e,0x61,0x6d,0x65,0x49,0x22,0x0c,0x63,0x61,0x73,0x74,0x6c,0x65,0x36,0x06,0x3a,0x06,0x45,0x54,0x3a,0x0c,0x40,0x76,0x6f,0x6c,0x75,0x6d,0x65,0x69,0x69,0x3a,0x0b,0x40,0x70,0x69,0x74,0x63,0x68,0x69,0x69))
 EndEventProcessing()
 0()
EndIf()
PictureDisplay(5,"80_meia_st03",0,0,0,0,100,100,255,0)
ShowMessageFace("meia_fc1",2,0,2,1)
ShowMessage("\\n<Meia>Fufufu... Did you save up more again?\nWell then, come to my room...")
ShowMessageFace("",0,0,2,2)
ShowMessage("\\n<Luka>......")
ShowMessageFace("",0,0,2,3)
ShowMessage("Trying to stay out of view, I follow Meia to her room...")
221()
PictureDisplay(1,"bg195",0,0,0,0,100,100,255,0)
PictureDisplay(5,"80_meia_st02",0,0,0,0,100,100,255,0)
222()
241(bytes(0x04,0x08,0x6f,0x3a,0x0d,0x52,0x50,0x47,0x3a,0x3a,0x42,0x47,0x4d,0x08,0x3a,0x0a,0x40,0x6e,0x61,0x6d,0x65,0x49,0x22,0x09,0x65,0x72,0x6f,0x31,0x06,0x3a,0x06,0x45,0x54,0x3a,0x0c,0x40,0x76,0x6f,0x6c,0x75,0x6d,0x65,0x69,0x69,0x3a,0x0b,0x40,0x70,0x69,0x74,0x63,0x68,0x69,0x69))
ShowMessageFace("meia_fc1",1,0,2,4)
ShowMessage("\\n<Meia>I'm a little tired of using my mouth all the time. If my pussy is fine instead, would you like to try it out?")
ShowMessageFace("",0,0,2,5)
ShowMessage("\\n<Luka>I-isn't that bad...!?\nIsn't Ms. Meia married...!?")
ShowMessageFace("meia_fc1",1,0,2,6)
ShowMessage("\\n<Meia>Ah, that's right... You're an amazing Hero, aren't you? There's no way you'd be satisfied by a married woman's used pussy.")
ShowMessageFace("meia_fc1",1,0,2,7)
ShowMessage("\\n<Meia>Even so, I'm confident...\nAny man would come over and over with my pussy.")
ShowMessageFace("",0,0,2,8)
ShowMessage("\\n<Luka>......")
ShowMessageFace("",0,0,2,9)
ShowMessage("I can't help but swallow as I hesitate.\nBut she's married...")
ShowMessageFace("meia_fc1",1,0,2,10)
ShowMessage("\\n<Meia>Even my husband couldn't last ten seconds our first night. He said it was so soft, he could have melted in it...")
ShowMessageFace("meia_fc1",1,0,2,11)
ShowMessage("\\n<Meia>Even with that, you think a Hero like you wouldn't be satisfied? If you don't mind, I'd like for you to try it...")
ShowMessageFace("",0,0,2,12)
ShowMessage("\\n<Luka>Th-that's...")
ShowMessageFace("meia_fc1",1,0,2,13)
ShowMessage("\\n<Meia>Fufu, please enjoy this married woman's pussy.")
ShowMessageFace("",0,0,2,14)
ShowMessage("Meia hugs me close, and pushes her breasts into my face.\nMy face is buried among her soft boobs.")
ShowMessageFace("",0,0,2,15)
ShowMessage("\\n<Luka>Nnnmm... Ms. Meia, this is...")
ShowMessageFace("meia_fc1",1,0,2,16)
ShowMessage("\\n<Meia>Fufu, my husband loves being hugged like this. ♪")
ShowMessageFace("",0,0,2,17)
ShowMessage("Meia presses her waist against mine.\nThe tip of my penis, already rock hard, presses against her entrance.")
ShowMessageFace("meia_fc1",1,0,2,18)
ShowMessage("\\n<Meia>Here we go. ♪")
245(bytes(0x04,0x08,0x6f,0x3a,0x0d,0x52,0x50,0x47,0x3a,0x3a,0x42,0x47,0x53,0x08,0x3a,0x0a,0x40,0x6e,0x61,0x6d,0x65,0x49,0x22,0x1e,0x6d,0x6f,0x6e,0x5f,0x68,0x73,0x65,0x61,0x6e,0x30,0x32,0x5f,0x69,0x6e,0x6e,0x65,0x72,0x77,0x6f,0x72,0x6b,0x73,0x5f,0x61,0x32,0x06,0x3a,0x06,0x45,0x54,0x3a,0x0c,0x40,0x76,0x6f,0x6c,0x75,0x6d,0x65,0x69,0x55,0x3a,0x0b,0x40,0x70,0x69,0x74,0x63,0x68,0x69,0x69))
PictureDisplay(5,"ev_meia_hb1",0,0,0,0,100,100,255,0)
ShowMessageFace("",0,0,2,19)
ShowMessage("Pressing against me, Meia takes me inside her!")
ShowMessageFace("",0,0,2,20)
ShowMessage("My penis sinks deep into her warm body.\nAs if welcoming me into her, her vaginal flesh squeezes and rubs my penis as I sink inside.")
ShowMessageFace("",0,0,2,21)
ShowMessage("\\n<Luka>Ah... A-aaah!")
ShowMessageFace("",0,0,2,22)
ShowMessage("The captivating touch makes me moan right from insertion.")
ShowMessageFace("",0,0,2,23)
ShowMessage("Her soft folds cling to my penis.\nIt feels like countless tongues are licking me with each movement.")
ShowMessageFace("meia_fc1",1,0,2,24)
ShowMessage("\\n<Meia>Ufufu, already moaning?\nThe brave Hero is quite sensitive. ♪")
ShowMessageFace("",0,0,2,25)
ShowMessage("\\n<Luka>But...\nMeia's vagina feels so good...")
ShowMessageFace("meia_fc1",1,0,2,26)
ShowMessage("\\n<Meia>Fufu, I'm so glad...♪")
ShowMessageFace("",0,0,2,27)
ShowMessage("Meia holds my head tightly against her breasts.\nAt the same time, her pussy is completely accepting my penis.")
ShowMessageFace("",0,0,2,28)
ShowMessage("Her sensual touch is too much to take.\nA mermaid's incredible vagina is as amazing as rumored...")
ShowMessageFace("",0,0,2,29)
ShowMessage("\\n<Luka>Auu... I'm coming already...")
ShowMessageFace("meia_fc1",1,0,2,30)
ShowMessage("\\n<Meia>Ara? Are you already satisfied...?\nEven my husband can take more than that... Fufu.")
ShowMessageFace("",0,0,2,31)
ShowMessage("Meia caresses my head as she giggles.")
ShowMessageFace("meia_fc1",1,0,2,32)
ShowMessage("\\n<Meia>I'll make it tighter then.\nI'm sure it will make you come right away...")
ShowMessageFace("meia_fc1",1,0,2,33)
ShowMessage("\\n<Meia>Please come in this married woman's pussy. ♪")
ShowMessageFace("",0,0,2,34)
ShowMessage("\\n<Luka>Unnngh...I can't do that...")
ShowMessageFace("",0,0,2,35)
ShowMessage("The immoral thoughts overwhelm me.\nComing inside another man's wife...")
ShowMessageFace("",0,0,2,36)
ShowMessage("\\n<Luka>Ah... Ms. Meia, don't...!")
ShowMessageFace("meia_fc1",1,0,2,37)
ShowMessage("\\n<Meia>Now to tighten. ♪")
ShowMessageFace("",0,0,2,38)
ShowMessage("\\n<Luka>Noooo...Ah, aaaah...!")
ShowMessageFace("",0,0,2,39)
ShowMessage("As Meia tightens around me, it feels like I've ascended to heaven. Unable to endure it, I reach an instant climax.")
RunCommonEvent(104)
PictureDisplay(5,"ev_meia_hb2",0,0,0,0,100,100,255,0)
RunCommonEvent(105)
ShowMessageFace("",0,0,2,40)
ShowMessage("\\n<Luka>Unnngh...")
ShowMessageFace("",0,0,2,41)
ShowMessage("I come inside of the married woman.\nThe tranquil feeling after my ejaculation leaves me completely exhausted.")
ShowMessageFace("meia_fc1",1,0,2,42)
ShowMessage("\\n<Meia>Ufufu... The brave Hero's face when he comes is so cute. ♪")
ShowMessageFace("",0,0,2,43)
ShowMessage("Meia laughs as she accepts all of the semen I shoot into her. How could I have come inside a married woman...?")
ShowMessageFace("",0,0,2,44)
ShowMessage("\\n<Luka>I'm sorry, Meia... Let's stop here...")
ShowMessageFace("",0,0,2,45)
ShowMessage("After my climax, I try to pull away from Meia.\nBut she hugs me even tighter, keeping me bound.")
ShowMessageFace("meia_fc1",1,0,2,46)
ShowMessage("\\n<Meia>I haven't thanked you enough yet.")
ShowMessageFace("meia_fc1",1,0,2,47)
ShowMessage("\\n<Meia>More and more... Feel even better.\nI'll have you feel it more...")
ShowMessageFace("",0,0,2,48)
ShowMessage("\\n<Luka>Ah... Unnngh...!")
ShowMessageFace("",0,0,2,49)
ShowMessage("Meia starts to gently move her waist.\nHer wet vaginal walls rub against me, in and out, with each stroke.")
ShowMessageFace("",0,0,2,50)
ShowMessage("Every time she skillfully moves her waist, my glans is pulled and pushed in rhythm. The up and down movements bring pure bliss.")
ShowMessageFace("",0,0,2,51)
ShowMessage("\\n<Luka>Unnngh... Ms. Meia, that feels so good...")
ShowMessageFace("meia_fc1",1,0,2,52)
ShowMessage("\\n<Meia>Ufufu, this technique is my husband's favorite. ♪\nHe can't last longer than a minute when I do it.")
ShowMessageFace("meia_fc1",1,0,2,53)
ShowMessage("\\n<Meia>I wonder how long the brave Hero will last?")
ShowMessageFace("",0,0,2,54)
ShowMessage("\\n<Luka>Nnngh...")
ShowMessageFace("",0,0,2,55)
ShowMessage("Her slow-motion movements overwhelm me with pleasure.\nThe round-trip movements, rubbing my penis with every stroke...")
ShowMessageFace("",0,0,2,56)
ShowMessage("It's like tongues licking me all over.\nEvery so often she squeezes down on me during her strokes.")
ShowMessageFace("",0,0,2,57)
ShowMessage("My penis trembles in ecstasy at every sensation in her.\nAll too soon, the rising climax makes my waist numb.")
ShowMessageFace("",0,0,2,58)
ShowMessage("\\n<Luka>Unnngh... I'm going to come...")
ShowMessageFace("meia_fc1",1,0,2,59)
ShowMessage("\\n<Meia>Aha...♪ The Hero is even faster than my husband. ♪\nDon't be shy, please come as much as you can. ♪")
ShowMessageFace("",0,0,2,60)
ShowMessage("Meia smiles as she continues her movements.\nAccepting the stimulus, I entrust my body to the ecstasy.")
RunCommonEvent(104)
PictureDisplay(5,"ev_meia_hb3",0,0,0,0,100,100,255,0)
RunCommonEvent(105)
ShowMessageFace("",0,0,2,61)
ShowMessage("\\n<Luka>Hnnaaa...")
ShowMessageFace("",0,0,2,62)
ShowMessage("The immoral feeling of coming over and over inside a married woman... Clinging to Meia, I've completely entrusted myself to her care.")
ShowMessageFace("meia_fc1",1,0,2,63)
ShowMessage("\\n<Meia>Ufufu, will I give birth to the brave little Hero's baby?")
ShowMessageFace("",0,0,2,64)
ShowMessage("\\n<Luka>Eh...? N...no way...")
ShowMessageFace("meia_fc1",1,0,2,65)
ShowMessage("\\n<Meia>A technique I've never even done for my husband... Shall I show it to you...?")
ShowMessageFace("",0,0,2,66)
ShowMessage("\\n<Luka>Ah... Unnngh...!")
245(bytes(0x04,0x08,0x6f,0x3a,0x0d,0x52,0x50,0x47,0x3a,0x3a,0x42,0x47,0x53,0x08,0x3a,0x0a,0x40,0x6e,0x61,0x6d,0x65,0x49,0x22,0x1e,0x6d,0x6f,0x6e,0x5f,0x68,0x73,0x65,0x61,0x6e,0x30,0x35,0x5f,0x69,0x6e,0x6e,0x65,0x72,0x77,0x6f,0x72,0x6b,0x73,0x5f,0x61,0x35,0x06,0x3a,0x06,0x45,0x54,0x3a,0x0c,0x40,0x76,0x6f,0x6c,0x75,0x6d,0x65,0x69,0x55,0x3a,0x0b,0x40,0x70,0x69,0x74,0x63,0x68,0x69,0x69))
ShowMessageFace("",0,0,2,67)
ShowMessage("Deep inside her vagina, I feel something soft wrap around my glans. It's almost like a set of lips gently pressing against my tip.")
ShowMessageFace("",0,0,2,68)
ShowMessage("\\n<Luka>Nnngh...What...is this!?")
ShowMessageFace("meia_fc1",1,0,2,69)
ShowMessage("\\n<Meia>I took your glans into my cervix.\nIt's too early to use on my husband... But you're special.")
ShowMessageFace("",0,0,2,70)
ShowMessage("\\n<Luka>N-noooo... Hyaaa...!!")
ShowMessageFace("",0,0,2,71)
ShowMessage("Her inner mouth sucks on my tip.\nThe crazed pleasure is enough to blow away the rest of my reason.")
ShowMessageFace("",0,0,2,72)
ShowMessage("It feels as if my very soul could be sucked out by her... There's no way I could put up with something like this.")
ShowMessageFace("meia_fc1",1,0,2,73)
ShowMessage("\\n<Meia>Come right into my womb...\nWhy not try to impregnate me like this? Fufufu...♪")
ShowMessageFace("",0,0,2,74)
ShowMessage("\\n<Luka>D-don't...I can't do that...\nUnnngh...")
ShowMessageFace("",0,0,2,75)
ShowMessage("Nothing I do to try and endure it matters.\nOverwhelmed by ecstasy and the immorality of it all, I reach another powerful climax.")
RunCommonEvent(104)
PictureDisplay(5,"ev_meia_hb4",0,0,0,0,100,100,255,0)
RunCommonEvent(105)
ShowMessageFace("",0,0,2,76)
ShowMessage("\\n<Luka>Unnngh...")
ShowMessageFace("",0,0,2,77)
ShowMessage("My semen shoots out straight into Meia's womb.\nOverwhelming guilt at possibly impregnating another man's wife fills me.")
ShowMessageFace("",0,0,2,78)
ShowMessage("But mixed with the shame is the ecstasy.\nHer womb accepted all of my semen...")
246(2)
ShowMessageFace("",0,0,2,79)
ShowMessage("\\n<Luka>Ah...aaah...")
ShowMessageFace("meia_fc1",1,0,2,80)
ShowMessage("\\n<Meia>Fufu, are you satisfied...?")
ShowMessageFace("",0,0,2,81)
ShowMessage("Meia continues embracing me as I bask in my climax.\nI've entered into an unspeakable relationship with another man's wife...")
221()
PictureClear(5)
PictureClear(6)
ShowMessageFace("",0,0,2,82)
ShowMessage("......")
242(2)
Wait(120)
241(bytes(0x04,0x08,0x6f,0x3a,0x0d,0x52,0x50,0x47,0x3a,0x3a,0x42,0x47,0x4d,0x08,0x3a,0x0a,0x40,0x6e,0x61,0x6d,0x65,0x49,0x22,0x0c,0x63,0x61,0x73,0x74,0x6c,0x65,0x36,0x06,0x3a,0x06,0x45,0x54,0x3a,0x0c,0x40,0x76,0x6f,0x6c,0x75,0x6d,0x65,0x69,0x69,0x3a,0x0b,0x40,0x70,0x69,0x74,0x63,0x68,0x69,0x69))
0()
