// EVENT 4892
Name "Misstauros 2"

PictureDisplay(5,"80_m_mino_st02",0,0,0,0,100,100,0,0)
PictureMove(5,null,0,0,0,0,100,100,255,0,30,true)
ShowMessageFace("m_mino_fc1",0,0,2,1)
ShowMessage("\\n<Odette>")
ShowMessage("Oh Luka, would you please come to my room for a moment?")
ShowMessage("I cooked too much for dinner, and have some leftovers...")
ShowMessageFace("",0,0,2,2)
ShowMessage("\\n<Luka>That sounds fine...")
ShowMessageFace("m_mino_fc1",1,0,2,3)
ShowMessage("\\n<Odette>")
ShowMessage("Ufufu...")
ShowMessageFace("",0,0,2,4)
ShowMessage("Like that, I follow Odette to her room...")
241(bytes(0x04,0x08,0x6f,0x3a,0x0d,0x52,0x50,0x47,0x3a,0x3a,0x42,0x47,0x4d,0x08,0x3a,0x0a,0x40,0x6e,0x61,0x6d,0x65,0x49,0x22,0x09,0x65,0x72,0x6f,0x31,0x06,0x3a,0x06,0x45,0x54,0x3a,0x0c,0x40,0x76,0x6f,0x6c,0x75,0x6d,0x65,0x69,0x69,0x3a,0x0b,0x40,0x70,0x69,0x74,0x63,0x68,0x69,0x69))
PictureDisplay(5,"ev_m_mino_hb01",0,0,0,0,100,100,0,0)
PictureMove(5,null,0,0,0,0,100,100,255,0,30,true)
ShowMessageFace("m_mino_fc1",1,0,2,5)
ShowMessage("\\n<Odette>")
ShowMessage("Hora, how about this...?")
ShowMessageFace("",0,0,2,6)
ShowMessage("\\n<Luka>Wah! H-Hey wait a minute...")
ShowMessageFace("",0,0,2,7)
ShowMessage("Wearing a risqué swimsuit, Odette is laying on her bed, spreading open her legs.")
ShowMessage("The sudden bizarre sight leaves me stuttering.")
PictureDisplay(5,"ev_m_mino_hb02",0,0,0,0,100,100,255,0)
ShowMessageFace("m_mino_fc1",1,0,2,8)
ShowMessage("\\n<Odette>")
ShowMessage("This is so embarrassing...")
ShowMessageFace("",0,0,2,9)
ShowMessage("While saying that, Odette shows off her covered vagina.")
ShowMessage("My penis reacts on instinct...")
ShowMessageFace("m_mino_fc1",1,0,2,10)
ShowMessage("\\n<Odette>")
ShowMessage("Fufu, are you getting excited?")
ShowMessage("Then perhaps a bit more service...")
PictureDisplay(5,"ev_m_mino_hb03",0,0,0,0,100,100,255,0)
ShowMessageFace("",0,0,2,11)
ShowMessage("Saying that, Odette uses her tail to shift her swimsuit aside.")
ShowMessage("Right in front of me, her secret spot is exposed...")
ShowMessageFace("",0,0,2,12)
ShowMessage("\\n<Luka>A-Ahh...")
ShowMessageFace("",0,0,2,13)
ShowMessage("Her hole twitches, as if inviting me inside.")
ShowMessage("The walls are so pink, and she's wet and glistening...")
ShowMessageFace("",0,0,2,14)
ShowMessage("I can't take my eyes off of her display.")
ShowMessage("My penis is already completely stiff, twitching in expectation.")
ShowMessageFace("m_mino_fc1",1,0,2,15)
ShowMessage("\\n<Odette>")
ShowMessage("Hora, come inside.")
ShowMessage("Your dick is hard and excited, isn't it?")
ShowMessageFace("",0,0,2,16)
ShowMessage("While giggling, Odette invites me to her.")
ShowMessage("I timidly move closer, bringing my erect penis near her entrance.")
ShowMessageFace("",0,0,2,17)
ShowMessage("Her vaginal lips open and close, eager for me to be inside.")
ShowMessage("Full of desire, I climb on top of Odette...")
245(bytes(0x04,0x08,0x6f,0x3a,0x0d,0x52,0x50,0x47,0x3a,0x3a,0x42,0x47,0x53,0x08,0x3a,0x0a,0x40,0x6e,0x61,0x6d,0x65,0x49,0x22,0x1e,0x6d,0x6f,0x6e,0x5f,0x68,0x73,0x65,0x61,0x6e,0x30,0x36,0x5f,0x69,0x6e,0x6e,0x65,0x72,0x77,0x6f,0x72,0x6b,0x73,0x5f,0x61,0x36,0x06,0x3a,0x06,0x45,0x54,0x3a,0x0c,0x40,0x76,0x6f,0x6c,0x75,0x6d,0x65,0x69,0x55,0x3a,0x0b,0x40,0x70,0x69,0x74,0x63,0x68,0x69,0x69))
PictureDisplay(5,"ev_m_mino_hb04",0,0,0,0,100,100,255,0)
ShowMessageFace("",0,0,2,18)
ShowMessage("I push myself inside her!")
ShowMessage("Sinking in, her flesh wraps around me, squeezing me as I thrust in.")
PictureDisplay(5,"ev_m_mino_hb05",0,0,0,0,100,100,255,0)
ShowMessageFace("",0,0,2,19)
ShowMessage("\\n<Luka>Ah...Hauuu!!")
ShowMessageFace("",0,0,2,20)
ShowMessage("But that was all I could manage to do.")
ShowMessage("The moment I push myself inside, I stop moving.")
ShowMessageFace("",0,0,2,21)
ShowMessage("Her soft flesh feels too good, even just around my tip.")
ShowMessage("Any more than this, and I'd come right away...")
ShowMessageFace("",0,0,2,22)
ShowMessage("\\n<Luka>Amazing... You feel so good...")
ShowMessageFace("m_mino_fc1",1,0,2,23)
ShowMessage("\\n<Odette>")
ShowMessage("Oh my, oh my, what's wrong?")
ShowMessage("You have to push it all the way inside.")
ShowMessageFace("",0,0,2,24)
ShowMessage("Odette giggles and smiles at me.")
ShowMessage("Her wide smile just makes me go red in shyness.")
ShowMessageFace("",0,0,2,25)
ShowMessage("Feeling too good, I couldn't go all the way inside her.")
ShowMessage("No, even if I don't, I'm going to come anyway...")
ShowMessageFace("",0,0,2,26)
ShowMessage("\\n<Luka>Ahhh... I'm already going to come...")
ShowMessageFace("",0,0,2,27)
ShowMessage("Her entrance squeezes down on my tip.")
ShowMessage("My penis is twitching in pure pleasure just from this much.")
ShowMessageFace("",0,0,2,28)
ShowMessage("It's pathetic, but I can't endure this.")
ShowMessage("Going deeper is simply impossible.")
ShowMessageFace("",0,0,2,29)
ShowMessage("\\n<Luka>N-no... I'm coming!")
ShowMessageFace("",0,0,2,30)
ShowMessage("While clinging to Odette, my body starts to tremble.")
ShowMessage("I quickly surrender to that sweet feeling of release...")
RunCommonEvent(104)
PictureDisplay(5,"ev_m_mino_hb06",0,0,0,0,100,100,255,0)
RunCommonEvent(105)
ShowMessageFace("",0,0,2,31)
ShowMessage("I came all too quickly.")
ShowMessage("Just from insertion, I barely last a few seconds in her.")
ShowMessageFace("",0,0,2,32)
ShowMessage("\\n<Luka>Hauuu...")
ShowMessageFace("",0,0,2,33)
ShowMessage("Coming inside her, my overflowing semen spills out of her entrance.")
ShowMessage("Though I feel ashamed at coming so fast, it feels too good to care...")
PictureDisplay(5,"ev_m_mino_hb07",0,0,0,0,100,100,255,0)
ShowMessageFace("m_mino_fc1",1,0,2,34)
ShowMessage("\\n<Odette>")
ShowMessage("Oh my, oh my, did you already come?")
ShowMessage("You only just stuck it in, too...")
ShowMessageFace("",0,0,2,35)
ShowMessage("Her gentle voice floats down to me after my last drop is shot out.")
ShowMessage("But her words only fan the feeling of my defeat.")
ShowMessageFace("",0,0,2,36)
ShowMessage("\\n<Luka>Ah... Hauu...")
ShowMessageFace("m_mino_fc1",1,0,2,37)
ShowMessage("\\n<Odette>")
ShowMessage("I'll help you this time.")
ShowMessage("Hora, come all the way inside...")
ShowMessageFace("",0,0,2,38)
ShowMessage("Odette grabs hold of my ass cheeks.")
ShowMessage("Like that, she pulls me deeper into her...")
ShowMessageFace("",0,0,2,39)
ShowMessage("\\n<Luka>Ahhhh!!")
PictureDisplay(5,"ev_m_mino_hb08",0,0,0,0,100,100,255,0)
ShowMessageFace("",0,0,2,40)
ShowMessage("I sink into her, all the way to the base of my penis.")
ShowMessage("Her vagina swallows me all the way into her hot, wet hole.")
ShowMessageFace("",0,0,2,41)
ShowMessage("\\n<Luka>A-Amazing... Ahhh!")
ShowMessageFace("",0,0,2,42)
ShowMessage("I can feel her countless folds everywhere.")
ShowMessage("And with how tight she is... The pleasure is too intense.")
ShowMessageFace("",0,0,2,43)
ShowMessage("I'm so overwhelmed by it all, I can't put up any resistance.")
ShowMessage("Unable to even move my waist, I just moan.")
ShowMessageFace("m_mino_fc1",1,0,2,44)
ShowMessage("\\n<Odette>")
ShowMessage("Fufu, what are you doing?")
ShowMessage("After you stick your dick in, you're supposed to move.")
ShowMessageFace("m_mino_fc1",1,0,2,45)
ShowMessage("\\n<Odette>")
ShowMessage("It's selfish to only let yourself feel good.")
ShowMessage("Here, I'll show you how to shake your waist properly.")
ShowMessageFace("",0,0,2,46)
ShowMessage("\\n<Luka>W-What are you... Ahhh!")
PictureDisplay(5,"ev_m_mino_hb09",0,0,0,0,100,100,255,0)
ShowMessageFace("",0,0,2,47)
ShowMessage("Odette's fingers sink into my ass...")
ShowMessage("Firmly holding my back, she starts to move me!")
ShowMessageFace("",0,0,2,48)
ShowMessage("Pushing me away, she draws me all the way out of her.")
ShowMessage("Then pulling me back, she makes me thrust deep inside her!")
ShowMessageFace("",0,0,2,49)
ShowMessage("\\n<Luka>Ah...! Ahhh!!")
ShowMessageFace("",0,0,2,50)
ShowMessage("As my penis rubs against her all the way in and out, I scream.")
ShowMessage("Gasping and moaning, Odette brings her face closer to mine.")
PictureDisplay(5,"ev_m_mino_hb10",0,0,0,0,100,100,255,0)
ShowMessageFace("m_mino_fc1",1,0,2,51)
ShowMessage("\\n<Odette>")
ShowMessage("Ufufu, such a cute voice.")
ShowMessage("I can't take this much more, either...")
ShowMessageFace("",0,0,2,52)
ShowMessage("Her excited breath brushes against my mouth.")
ShowMessage("Odette's seductive mouth comes closer to mine...")
PictureDisplay(5,"ev_m_mino_hb11",0,0,0,0,100,100,255,0)
ShowMessageFace("",0,0,2,53)
ShowMessage("\\n<Luka>Nnnn...")
ShowMessageFace("",0,0,2,54)
ShowMessage("Her wet tongue wraps around mine, her soft lips pressing against me.")
ShowMessage("Odette's lewd mouth attacks my own.")
ShowMessageFace("",0,0,2,55)
ShowMessage("At the moment of our wet kiss...")
ShowMessage("I feel a sweet tingling run up my back.")
ShowMessageFace("",0,0,2,56)
ShowMessage("\\n<Luka>Hya... Ahhhh!")
RunCommonEvent(104)
PictureDisplay(5,"ev_m_mino_hb13",0,0,0,0,100,100,255,0)
RunCommonEvent(105)
ShowMessageFace("",0,0,2,57)
ShowMessage("I explode deep inside her.")
ShowMessage("Excited, her kiss gets even deeper as she presses against my mouth.")
ShowMessageFace("",0,0,2,58)
ShowMessage("\\n<Luka>Faaa...")
ShowMessageFace("",0,0,2,59)
ShowMessage("Every drop of my semen is squeezed out into her.")
ShowMessage("Until the very end, her deep kiss keeps me entranced...")
PictureDisplay(5,"ev_m_mino_hb14",0,0,0,0,100,100,255,0)
ShowMessageFace("m_mino_fc1",1,0,2,60)
ShowMessage("\\n<Odette>")
ShowMessage("Fufu, that seems to be the last drop.")
ShowMessageFace("",0,0,2,61)
ShowMessage("Finally parting from my mouth, Odette laughs.")
ShowMessage("Too weak to move, I entrust my body to her.")
ShowMessageFace("",0,0,2,62)
ShowMessage("\\n<Luka>Haauu...")
ShowMessageFace("m_mino_fc1",1,0,2,63)
ShowMessage("\\n<Odette>")
ShowMessage("Let's pull out your penis now... Nnn...")
ShowMessageFace("",0,0,2,64)
ShowMessage("After stroking my head, Odette pulls me out of her.")
246(2)
PictureDisplay(5,"ev_m_mino_hb15",0,0,0,0,100,100,255,0)
ShowMessageFace("",0,0,2,65)
ShowMessage("As my penis is pulled out, semen overflows from her hole.")
ShowMessage("Looking at the white milky seed run down her, she giggles.")
ShowMessageFace("m_mino_fc1",1,0,2,66)
ShowMessage("\\n<Odette>")
ShowMessage("Ufufu, so much semen everywhere...")
ShowMessage("Did it feel good for you, boy?")
ShowMessageFace("",0,0,2,67)
ShowMessage("\\n<Luka>.........")
ShowMessageFace("",0,0,2,68)
ShowMessage("I stare at my semen, dripping from her vagina.")
ShowMessage("Despite feeling ashamed of my actions, I can't shake the desire I still feel...")
221()
PictureClear(5)
PictureClear(6)
ShowMessageFace("",0,0,2,69)
ShowMessage("......")
RunCommonEvent(3998)
0()
