﻿// EVENT 1288
Name "Talk: Youki"

If(1,20,0,1,0)
 JumpToLabel("情報")
 0()
EndIf()
If(1,20,0,2,0)
 JumpToLabel("質問")
 0()
EndIf()
If(1,20,0,3,0)
 JumpToLabel("要求")
 0()
EndIf()
If(1,20,0,4,0)
 JumpToLabel("贈与")
 0()
EndIf()
DefineLabel("情報")
ChangeVariable(13,13,0,2,1,100)
If(1,13,0,10,2)
 ShowMessageFace("youki_fc1",0,0,2,1)
 ShowMessage("\\n<Youki>A young hero...I'll rape you!")
 EndEventProcessing()
 0()
EndIf()
If(1,13,0,20,2)
 ShowMessageFace("youki_fc1",0,0,2,2)
 ShowMessage("\\n<Youki>Leave your valuables and go!\n...Err, no, I'll just squeeze you out in one shot!")
 EndEventProcessing()
 0()
EndIf()
If(1,13,0,30,2)
 ShowMessageFace("youki_fc1",0,0,2,3)
 ShowMessage("\\n<Youki>Banditry is the greatest job!")
 EndEventProcessing()
 0()
EndIf()
If(1,13,0,40,2)
 ShowMessageFace("youki_fc1",0,0,2,4)
 ShowMessage("\\n<Youki>Come, I'll beat you up!")
 EndEventProcessing()
 0()
EndIf()
If(1,13,0,50,2)
 ShowMessageFace("youki_fc1",0,0,2,5)
 ShowMessage("\\n<Youki>You seem to have backbone... Fight me!")
 EndEventProcessing()
 0()
EndIf()
If(1,13,0,60,2)
 ShowMessageFace("youki_fc1",0,0,2,6)
 ShowMessage("\\n<Youki>I'll show you my true power!")
 EndEventProcessing()
 0()
EndIf()
If(1,13,0,70,2)
 ShowMessageFace("youki_fc1",0,0,2,7)
 ShowMessage("\\n<Youki>Don't say I have muscles for brains!\nI'm well aware of that!")
 EndEventProcessing()
 0()
EndIf()
If(1,13,0,80,2)
 ShowMessageFace("youki_fc1",0,0,2,8)
 ShowMessage("\\n<Youki>I can't smoke around Yamatai!")
 EndEventProcessing()
 0()
EndIf()
If(1,13,0,90,2)
 ShowMessageFace("youki_fc1",0,0,2,9)
 ShowMessage("\\n<Youki>If you don't want your penis to get crushed, then be quiet!")
 EndEventProcessing()
 0()
EndIf()
If(1,13,0,100,2)
 ShowMessageFace("youki_fc1",0,0,2,10)
 ShowMessage("\\n<Youki>My pussy is incredibly tight.\nYou wouldn't last ten seconds!")
 EndEventProcessing()
 0()
EndIf()
DefineLabel("質問")
ChangeVariable(13,13,0,2,1,50)
If(1,13,0,10,2)
 ShowMessageFace("youki_fc1",0,0,2,11)
 ShowMessage("\\n<Youki>Can you hold your liquor?")
 ShowChoices(strings("I can","I can't","Would you like to find out...?"),0)
 IfPlayerPicksChoice(0,"いける")
  ShowMessageFace("youki_fc1",0,0,2,12)
  ShowMessage("\\n<Youki>Oh! That's good!")
  355("change_friend(10)")
  0()
 IfPlayerPicksChoice(1,"苦手")
  ShowMessageFace("youki_fc1",0,0,2,13)
  ShowMessage("\\n<Youki>Well, it can't be helped with your constitution.")
  0()
 IfPlayerPicksChoice(2,"試してみるか……？")
  ShowMessageFace("youki_fc1",0,0,2,14)
  ShowMessage("\\n<Youki>That's fine, let's go!\nAfter this fight is over, the next one is a drinking match!")
  355("change_friend(10)")
  0()
 404()
 EndEventProcessing()
 0()
EndIf()
If(1,13,0,20,2)
 ShowMessageFace("youki_fc1",0,0,2,15)
 ShowMessage("\\n<Youki>Wait a minute...do you intend to exterminate me?!")
 ShowChoices(strings("I want to exterminate you","I want to talk with you","I want to have sex with you"),0)
 IfPlayerPicksChoice(0,"退治する")
  ShowMessageFace("youki_fc1",0,0,2,16)
  ShowMessage("\\n<Youki>Now that is fortitude...all right, come on!")
  355("change_friend(10)")
  0()
 IfPlayerPicksChoice(1,"話し合いをする")
  ShowMessageFace("youki_fc1",0,0,2,17)
  ShowMessage("\\n<Youki>What, that's boring...")
  355("change_friend(-5)")
  0()
 IfPlayerPicksChoice(2,"セックスする")
  ShowMessageFace("youki_fc1",1,0,2,18)
  ShowMessage("\\n<Youki>Good! I'll make you cry!")
  355("change_friend(10)")
  0()
 404()
 EndEventProcessing()
 0()
EndIf()
If(1,13,0,30,2)
 ShowMessageFace("youki_fc1",0,0,2,19)
 ShowMessage("\\n<Youki>I don't like old folktales...\nThe oni are always being exterminated.")
 ShowChoices(strings("I feel sorry for you","It's natural","It's a microcosm of society"),0)
 IfPlayerPicksChoice(0,"可哀想だ")
  ShowMessageFace("youki_fc1",0,0,2,20)
  ShowMessage("\\n<Youki>I don't need your pity!")
  355("change_friend(-5)")
  0()
 IfPlayerPicksChoice(1,"当然だ")
  ShowMessageFace("youki_fc1",0,0,2,21)
  ShowMessage("\\n<Youki>Well, it's natural that they're being exterminated. All right, I'm going to commit some evil deeds today!")
  355("change_friend(10)")
  0()
 IfPlayerPicksChoice(2,"社会の縮図だ")
  ShowMessageFace("youki_fc1",0,0,2,22)
  ShowMessage("\\n<Youki>You sound intelligent!")
  355("change_friend(10)")
  0()
 404()
 EndEventProcessing()
 0()
EndIf()
If(1,13,0,40,2)
 ShowMessageFace("youki_fc1",0,0,2,23)
 ShowMessage("\\n<Youki>The best weapon is the club of course!")
 ShowChoices(strings("It's the club","It's the sword","It's the whip"),0)
 IfPlayerPicksChoice(0,"棍棒だ")
  ShowMessageFace("youki_fc1",0,0,2,24)
  ShowMessage("\\n<Youki>Ah, you understand!\nThen I'll strike you with this club!")
  355("change_friend(10)")
  0()
 IfPlayerPicksChoice(1,"剣だ")
  ShowMessageFace("youki_fc1",0,0,2,25)
  ShowMessage("\\n<Youki>You're a believer of the sword!\nThen it's a challenge against my club!")
  0()
 IfPlayerPicksChoice(2,"鞭だ")
  ShowMessageFace("youki_fc1",0,0,2,26)
  ShowMessage("\\n<Youki>That would be your hobby, you horny brat!")
  0()
 404()
 EndEventProcessing()
 0()
EndIf()
If(1,13,0,50,2)
 ShowMessageFace("youki_fc1",0,0,2,27)
 ShowMessage("\\n<Youki>I'm muscle after all!")
 ShowChoices(strings("I'm muscle","I'm mussel","I'm musking"),0)
 IfPlayerPicksChoice(0,"筋肉だ")
  ShowMessageFace("youki_fc1",0,0,2,28)
  ShowMessage("\\n<Youki>If you know that, then I'll make yours come!")
  355("change_friend(10)")
  0()
 IfPlayerPicksChoice(1,"人肉だ")
  ShowMessageFace("youki_fc1",0,0,2,29)
  ShowMessage("\\n<Youki>You're scary!")
  0()
 IfPlayerPicksChoice(2,"大蒜だ")
  ShowMessageFace("youki_fc1",0,0,2,30)
  ShowMessage("\\n<Youki>You stink!")
  0()
 404()
 EndEventProcessing()
 0()
EndIf()
DefineLabel("要求")
ChangeVariable(13,13,0,2,1,30)
If(1,13,0,10,2)
 If(8,431)
  ShowMessageFace("youki_fc1",0,0,2,31)
  ShowMessage("\\n<Youki>Give me a drink!")
  ChangeVariable(24,24,0,3,0,431,0)
  ShowMessageFace("",0,0,2,32)
  ShowMessage("Do you want to give some \\ii[431]? (Have:\\V[24])")
  ShowChoices(strings("Yes","No"),2)
  IfPlayerPicksChoice(0,"Yes")
   ShowMessageFace("youki_fc1",0,0,2,33)
   ShowMessage("\\n<Youki>Ah! How generous!")
   ChangeInventory_Item(431,1,0,1)
   355("change_friend(20)")
   EndEventProcessing()
   0()
  IfPlayerPicksChoice(1,"No")
   ShowMessageFace("youki_fc1",0,0,2,34)
   ShowMessage("\\n<Youki>Then I'll beat you up!")
   EndEventProcessing()
   0()
  404()
  0()
 Else()
  ChangeVariable(13,13,0,0,20)
  0()
 EndIf()
 0()
EndIf()
If(1,13,0,20,2)
 If(8,361)
  ShowMessageFace("youki_fc1",0,0,2,35)
  ShowMessage("\\n<Youki>Give me a rice ball!")
  ChangeVariable(24,24,0,3,0,361,0)
  ShowMessageFace("",0,0,2,36)
  ShowMessage("Do you want to give a \\ii[361]? (Have:\\V[24])")
  ShowChoices(strings("Yes","No"),2)
  IfPlayerPicksChoice(0,"Yes")
   ShowMessageFace("youki_fc1",0,0,2,37)
   ShowMessage("\\n<Youki>Ah! How generous!")
   ChangeInventory_Item(361,1,0,1)
   355("change_friend(30)")
   EndEventProcessing()
   0()
  IfPlayerPicksChoice(1,"No")
   ShowMessageFace("youki_fc1",0,0,2,38)
   ShowMessage("\\n<Youki>Then I'll beat you up!")
   EndEventProcessing()
   0()
  404()
  0()
 Else()
  ChangeVariable(13,13,0,0,30)
  0()
 EndIf()
 0()
EndIf()
If(1,13,0,30,2)
 ShowMessageFace("youki_fc1",0,0,2,39)
 ShowMessage("\\n<Youki>Give me your money!")
 If(7,1116,0)
  ChangeVariable(24,24,0,3,7,2,0)
  ShowMessageFace("",0,0,2,40)
  ShowMessage("Do you want to give 1116G? (Remaining:\\V[24])")
  ShowChoices(strings("Yes","No"),2)
  IfPlayerPicksChoice(0,"Yes")
   ShowMessageFace("youki_fc1",0,0,2,41)
   ShowMessage("\\n<Youki>Ah! How generous!")
   125(1,0,1116)
   355("change_friend(25)")
   EndEventProcessing()
   0()
  IfPlayerPicksChoice(1,"No")
   ShowMessageFace("youki_fc1",0,0,2,42)
   ShowMessage("\\n<Youki>Then I'll beat you up!")
   EndEventProcessing()
   0()
  404()
  0()
 Else()
  ShowMessageFace("youki_fc1",0,0,2,43)
  ShowMessage("\\n<Youki>...You don't have any? Okay then!")
  EndEventProcessing()
  0()
 EndIf()
 0()
EndIf()
DefineLabel("贈与")
ChangeVariable(13,13,0,2,1,30)
If(1,25,0,1,0)
 ChangeVariable(13,13,0,0,30)
 ChangeVariable(25,25,0,0,0)
 0()
EndIf()
If(1,25,0,2,0)
 ChangeVariable(13,13,0,2,1,20)
 ChangeVariable(25,25,0,0,0)
 0()
EndIf()
If(1,13,0,10,2)
 ShowMessageFace("youki_fc1",0,0,2,44)
 ShowMessage("\\n<Youki>Take my horn with you!")
 250(bytes(0x04,0x08,0x6f,0x3a,0x0c,0x52,0x50,0x47,0x3a,0x3a,0x53,0x45,0x08,0x3a,0x0a,0x40,0x6e,0x61,0x6d,0x65,0x49,0x22,0x0a,0x49,0x74,0x65,0x6d,0x31,0x06,0x3a,0x06,0x45,0x54,0x3a,0x0b,0x40,0x70,0x69,0x74,0x63,0x68,0x69,0x69,0x3a,0x0c,0x40,0x76,0x6f,0x6c,0x75,0x6d,0x65,0x69,0x55))
 ChangeInventory_Item(215,0,0,1)
 ShowMessageFace("",0,0,2,45)
 ShowMessage("The Youki gave you an \\ii[215]!")
 EndEventProcessing()
 0()
EndIf()
If(1,13,0,20,2)
 ShowMessageFace("youki_fc1",0,0,2,46)
 ShowMessage("\\n<Youki>Take this lucky mallet with you!")
 250(bytes(0x04,0x08,0x6f,0x3a,0x0c,0x52,0x50,0x47,0x3a,0x3a,0x53,0x45,0x08,0x3a,0x0a,0x40,0x6e,0x61,0x6d,0x65,0x49,0x22,0x0a,0x49,0x74,0x65,0x6d,0x31,0x06,0x3a,0x06,0x45,0x54,0x3a,0x0b,0x40,0x70,0x69,0x74,0x63,0x68,0x69,0x69,0x3a,0x0c,0x40,0x76,0x6f,0x6c,0x75,0x6d,0x65,0x69,0x55))
 ChangeInventory_Item(18,0,0,1)
 ShowMessageFace("",0,0,2,47)
 ShowMessage("The Youki gave you a \\ii[18]!")
 EndEventProcessing()
 0()
EndIf()
If(1,13,0,30,2)
 ShowMessageFace("youki_fc1",0,0,2,48)
 ShowMessage("\\n<Youki>Take this money with you!")
 250(bytes(0x04,0x08,0x6f,0x3a,0x0c,0x52,0x50,0x47,0x3a,0x3a,0x53,0x45,0x08,0x3a,0x0a,0x40,0x6e,0x61,0x6d,0x65,0x49,0x22,0x0a,0x49,0x74,0x65,0x6d,0x31,0x06,0x3a,0x06,0x45,0x54,0x3a,0x0b,0x40,0x70,0x69,0x74,0x63,0x68,0x69,0x69,0x3a,0x0c,0x40,0x76,0x6f,0x6c,0x75,0x6d,0x65,0x69,0x55))
 125(0,0,1860)
 ShowMessageFace("",0,0,2,49)
 ShowMessage("The Youki gave you 1860G!")
 EndEventProcessing()
 0()
EndIf()
0()
