﻿// EVENT 4633
Name "Naccubus 3"

If(0,25,1)
 221()
 PictureClear(5)
 PictureClear(6)
 ShowMessageFace("",0,0,2,0)
 ShowMessage("......")
 242(2)
 Wait(120)
 241(bytes(0x04,0x08,0x6f,0x3a,0x0d,0x52,0x50,0x47,0x3a,0x3a,0x42,0x47,0x4d,0x08,0x3a,0x0a,0x40,0x6e,0x61,0x6d,0x65,0x49,0x22,0x0c,0x63,0x61,0x73,0x74,0x6c,0x65,0x36,0x06,0x3a,0x06,0x45,0x54,0x3a,0x0c,0x40,0x76,0x6f,0x6c,0x75,0x6d,0x65,0x69,0x69,0x3a,0x0b,0x40,0x70,0x69,0x74,0x63,0x68,0x69,0x69))
 EndEventProcessing()
 0()
EndIf()
PictureDisplay(5,"80_narcubus_st11",0,0,0,0,100,100,255,0)
ShowMessageFace("narcubus_fc1",0,0,2,1)
ShowMessage("\\n<Nabisu>Eh? You want to have sex with me?\nBut I'm a succubus, you know? It would drain your energy if we fully did it, you know?")
ShowMessageFace("",0,0,2,2)
ShowMessage("\\n<Luka>P-please...")
ShowMessageFace("narcubus_fc1",0,0,2,3)
ShowMessage("\\n<Nabisu>Geez, such a helpless patient.\nAll right, just for you.♪")
ShowMessageFace("",0,0,2,4)
ShowMessage("After I strip, Nabisu straddles on top of me.\nShe pulls up her skirt, and presses my erect penis to her entrance.")
ShowMessageFace("narcubus_fc1",0,0,2,5)
ShowMessage("\\n<Nabisu>Fufufu, you're already so hard.\nAll right, I'll put it in.♪")
PictureDisplay(5,"ev_narcubus_hd1",0,0,0,0,100,100,0,0)
PictureMove(5,null,0,0,0,0,100,100,255,0,30,true)
241(bytes(0x04,0x08,0x6f,0x3a,0x0d,0x52,0x50,0x47,0x3a,0x3a,0x42,0x47,0x4d,0x08,0x3a,0x0a,0x40,0x6e,0x61,0x6d,0x65,0x49,0x22,0x09,0x65,0x72,0x6f,0x31,0x06,0x3a,0x06,0x45,0x54,0x3a,0x0c,0x40,0x76,0x6f,0x6c,0x75,0x6d,0x65,0x69,0x69,0x3a,0x0b,0x40,0x70,0x69,0x74,0x63,0x68,0x69,0x69))
245(bytes(0x04,0x08,0x6f,0x3a,0x0d,0x52,0x50,0x47,0x3a,0x3a,0x42,0x47,0x53,0x08,0x3a,0x0a,0x40,0x6e,0x61,0x6d,0x65,0x49,0x22,0x1e,0x6d,0x6f,0x6e,0x5f,0x68,0x73,0x65,0x61,0x6e,0x30,0x33,0x5f,0x69,0x6e,0x6e,0x65,0x72,0x77,0x6f,0x72,0x6b,0x73,0x5f,0x61,0x33,0x06,0x3a,0x06,0x45,0x54,0x3a,0x0c,0x40,0x76,0x6f,0x6c,0x75,0x6d,0x65,0x69,0x55,0x3a,0x0b,0x40,0x70,0x69,0x74,0x63,0x68,0x69,0x69))
ShowMessageFace("",0,0,2,6)
ShowMessage("Nabisu drops her waist, and takes me inside her.\nMy tip is quickly wrapped up in her warm vagina.")
ShowMessageFace("",0,0,2,7)
ShowMessage("I feel her flesh presssing down on me from all sides in her vagina. The feeling itself is enough to overwhelm me.")
ShowMessageFace("",0,0,2,8)
ShowMessage("\\n<Luka>Ooooh...!")
ShowMessageFace("narcubus_fc1",0,0,2,9)
ShowMessage("\\n<Nabisu>Aha, already moaning. ♪\nDoes having just the tip in feel that good?")
ShowMessageFace("",0,0,2,10)
ShowMessage("Nabisu squeezes her entrance around my tip as she giggles.\nThe already-tight opening presses down hard on me.")
ShowMessageFace("",0,0,2,11)
ShowMessage("\\n<Luka>Ahhh! That feels so good...!!")
ShowMessageFace("",0,0,2,12)
ShowMessage("A unique tightness that's only at her entrance.\nIt feels like my glans is being massaged by her.")
ShowMessageFace("",0,0,2,13)
ShowMessage("Every time she squeezes, she rubs against my back muscle. Rubbing against the neck of my penis, it's all too much to take.")
ShowMessageFace("",0,0,2,14)
ShowMessage("\\n<Luka>I-I'm coming already...")
ShowMessageFace("narcubus_fc1",0,0,2,15)
ShowMessage("\\n<Nabisu>Ahaha, such a frantic look on your face.\nEveryone comes fast with this, so don't be shy.")
ShowMessageFace("",0,0,2,16)
ShowMessage("Nabis tightens her entrance again.\nHer soft flesh presses against me, filling me with that sweet tightness.")
ShowMessageFace("",0,0,2,17)
ShowMessage("Without letting up, she squeezes me again.\nIt's like an intense massage with her vaginal lips.")
ShowMessageFace("",0,0,2,18)
ShowMessage("\\n<Luka>Ah, hnnngh...!")
ShowMessageFace("narcubus_fc1",0,0,2,19)
ShowMessage("\\n<Nabisu>Does this feel nice?\nThen I'll make you come with this...♪")
ShowMessageFace("",0,0,2,20)
ShowMessage("Her contractions get even more intense.\nShe's clearly trying to force me to come.")
ShowMessageFace("",0,0,2,21)
ShowMessage("Her soft vaginal lips press against my glans.\nUnable to endure it any longer, I give myself over to the pleasure.")
ShowMessageFace("",0,0,2,22)
ShowMessage("\\n<Luka>Ah, aaaah...!!")
RunCommonEvent(104)
PictureDisplay(5,"ev_narcubus_hd2",0,0,0,0,100,100,255,0)
RunCommonEvent(105)
ShowMessageFace("",0,0,2,23)
ShowMessage("With only my tip inside her entrance, I come.\nMy semen shoots into her vagina.")
ShowMessageFace("",0,0,2,24)
ShowMessage("With my tip wrapped in her soft flesh, it feels like heaven...\nMy body shakes in bliss underneath her, the ecstasy of release filling me.")
246(2)
ShowMessageFace("narcubus_fc1",0,0,2,25)
ShowMessage("\\n<Nabisu>Good job, you came so much.\nDid it feel good...?")
ShowMessageFace("",0,0,2,26)
ShowMessage("\\n<Luka>Unnngh...")
ShowMessageFace("",0,0,2,27)
ShowMessage("Immersed in the afterglow, I'm too weak to respond.\nThe melting feeling is too much for me to even move my head to nod.")
ShowMessageFace("narcubus_fc1",0,0,2,28)
ShowMessage("\\n<Nabisu>Geez, don't let so much accumulate next time.\nOnce you save some up, I'll violate you again...♪")
ShowMessageFace("",0,0,2,29)
ShowMessage("Nabisu smiles as she looks down at me, too weak to move.")
221()
PictureClear(5)
PictureClear(6)
ShowMessageFace("",0,0,2,30)
ShowMessage("......")
242(2)
Wait(120)
241(bytes(0x04,0x08,0x6f,0x3a,0x0d,0x52,0x50,0x47,0x3a,0x3a,0x42,0x47,0x4d,0x08,0x3a,0x0a,0x40,0x6e,0x61,0x6d,0x65,0x49,0x22,0x0c,0x63,0x61,0x73,0x74,0x6c,0x65,0x36,0x06,0x3a,0x06,0x45,0x54,0x3a,0x0c,0x40,0x76,0x6f,0x6c,0x75,0x6d,0x65,0x69,0x69,0x3a,0x0b,0x40,0x70,0x69,0x74,0x63,0x68,0x69,0x69))
0()
