// EVENT 7041
Name "Buny: Talk"

If(0,25,1)
 ShowMessageFace("",0,0,2,0)
 ShowMessage("You cannot challenge this BF without copying over the pictures from the first chapter.")
 PictureClear(5)
 EndEventProcessing()
 0()
EndIf()
If(1,805,0,0,0)
 ChangeVariable(805,805,0,0,1)
 0()
EndIf()
241(bytes(0x04,0x08,0x6f,0x3a,0x0d,0x52,0x50,0x47,0x3a,0x3a,0x42,0x47,0x4d,0x08,0x3a,0x0a,0x40,0x6e,0x61,0x6d,0x65,0x49,0x22,0x09,0x65,0x72,0x6f,0x32,0x06,0x3a,0x06,0x45,0x54,0x3a,0x0c,0x40,0x76,0x6f,0x6c,0x75,0x6d,0x65,0x69,0x50,0x3a,0x0b,0x40,0x70,0x69,0x74,0x63,0x68,0x69,0x69))
PictureDisplay(5,"80_mob_bunny1_st01",0,0,0,0,100,100,0,0)
PictureMove(5,null,0,0,0,0,100,100,255,0,30,true)
If(0,2331,1)
 ShowMessageFace("mob_bunny1_fc1",0,0,2,1)
 ShowMessage("\\n<Bunny-chan>Hehehe, enjoy your time at the casino! ♪\nOr perhaps you're here to challenge me, instead?")
 0()
EndIf()
ShowMessageFace("mob_bunny1_fc1",0,0,2,2)
ShowMessage("\\n<Bunny-chan>We'll compete, not in a fight or a game of cards, but a battle fuck. If you beat me, I'll give you a fantastic accessory. ♪")
If(1,805,0,2,1)
 ShowMessageFace("mob_bunny1_fc1",0,0,2,3)
 ShowMessage("\\n<Bunny-chan>Oh, since you've already won against me, I have nothing left to give you. It'll still cost 50G if you lose, though.")
 0()
Else()
 ShowMessageFace("mob_bunny1_fc1",0,0,2,4)
 ShowMessage("\\n<Bunny-chan>If you lose, it'll cost you 50G. You'll get more than your money's worth in pleasure, though. ♪")
 0()
EndIf()
ShowMessageFace("mob_bunny1_fc1",0,0,2,5)
ShowMessage("\\n<Bunny-chan>So, how about it? I'll make you feel reeeeeeally good! ♪")
ShowChoices(strings("Battle Fuck Challenge","Reconsider"),2)
IfPlayerPicksChoice(0,"バトルファックを挑む")
 If(7,50,0)
  If(0,2331,1)
   ShowMessageFace("mob_bunny1_fc1",0,0,2,6)
   ShowMessage("\\n<Bunny-chan>Ahaha, this is going to be fun! ♪\nNot here, though. Let's go to my room. ♪")
   ShowMessageFace("",0,0,2,7)
   ShowMessage("Luka leaves his companions behind and follows Bunny-chan to her room.")
   PictureClear(5)
   281(1)
   216(1)
   TeleportPlayer(0,629,9,5,6,0)
   PictureDisplay(5,"80_mob_bunny1_st01",0,0,0,0,100,100,0,0)
   PictureMove(5,null,0,0,0,0,100,100,255,0,30,true)
   0()
  EndIf()
  RunCommonEvent(7042)
  EndEventProcessing()
  0()
 Else()
  ShowMessageFace("mob_bunny1_fc1",0,0,2,8)
  ShowMessage("\\n<Bunny-chan>Oh my, you're flat broke. Save up 50G and then come challenge me. ♪")
  If(0,2331,1)
   241(bytes(0x04,0x08,0x6f,0x3a,0x0d,0x52,0x50,0x47,0x3a,0x3a,0x42,0x47,0x4d,0x08,0x3a,0x0a,0x40,0x6e,0x61,0x6d,0x65,0x49,0x22,0x0a,0x63,0x69,0x74,0x79,0x31,0x06,0x3a,0x06,0x45,0x54,0x3a,0x0c,0x40,0x76,0x6f,0x6c,0x75,0x6d,0x65,0x69,0x69,0x3a,0x0b,0x40,0x70,0x69,0x74,0x63,0x68,0x69,0x69))
   PictureClear(5)
   0()
  EndIf()
  EndEventProcessing()
  0()
 EndIf()
 0()
IfPlayerPicksChoice(1,"やめておく")
 ShowMessageFace("mob_bunny1_fc1",0,0,2,9)
 ShowMessage("\\n<Bunny-chan>Ahaha, afraid you'll lose? I don't mind training you. ♪")
 If(0,2331,1)
  241(bytes(0x04,0x08,0x6f,0x3a,0x0d,0x52,0x50,0x47,0x3a,0x3a,0x42,0x47,0x4d,0x08,0x3a,0x0a,0x40,0x6e,0x61,0x6d,0x65,0x49,0x22,0x0a,0x63,0x69,0x74,0x79,0x31,0x06,0x3a,0x06,0x45,0x54,0x3a,0x0c,0x40,0x76,0x6f,0x6c,0x75,0x6d,0x65,0x69,0x69,0x3a,0x0b,0x40,0x70,0x69,0x74,0x63,0x68,0x69,0x69))
  PictureClear(5)
  0()
 EndIf()
 EndEventProcessing()
 0()
404()
0()
