// EVENT 4472
Name "Frederica 2"

If(0,25,1)
 221()
 PictureClear(5)
 PictureClear(6)
 ShowMessageFace("",0,0,2,0)
 ShowMessage("......")
 242(2)
 Wait(120)
 241(bytes(0x04,0x08,0x6f,0x3a,0x0d,0x52,0x50,0x47,0x3a,0x3a,0x42,0x47,0x4d,0x08,0x3a,0x0a,0x40,0x6e,0x61,0x6d,0x65,0x49,0x22,0x0c,0x63,0x61,0x73,0x74,0x6c,0x65,0x36,0x06,0x3a,0x06,0x45,0x54,0x3a,0x0c,0x40,0x76,0x6f,0x6c,0x75,0x6d,0x65,0x69,0x69,0x3a,0x0b,0x40,0x70,0x69,0x74,0x63,0x68,0x69,0x69))
 EndEventProcessing()
 0()
EndIf()
PictureDisplay(5,"80_frederika_st02",0,0,0,0,100,100,255,0)
ShowMessageFace("frederika_fc1",1,0,2,1)
ShowMessage("\\n<Frederica>I'm low on energy...\nGive me energy through sex...")
ShowMessageFace("",0,0,2,2)
ShowMessage("\\n<Luka>W-We can't do that!")
ShowMessageFace("frederika_fc1",1,0,2,3)
ShowMessage("\\n<Frederica>Then I'll go after another man...\nI require energy no matter what...")
ShowMessageFace("",0,0,2,4)
ShowMessage("\\n<Luka>Y-You can't attack a random man...\nI guess there's no helping it, then...")
ShowMessageFace("",0,0,2,5)
ShowMessage("With that, I bring Frederica to a private room.")
PictureDisplay(5,"ev_frederika_hc1",0,0,0,0,100,100,0,0)
PictureMove(5,null,0,0,0,0,100,100,255,0,30,true)
241(bytes(0x04,0x08,0x6f,0x3a,0x0d,0x52,0x50,0x47,0x3a,0x3a,0x42,0x47,0x4d,0x08,0x3a,0x0a,0x40,0x6e,0x61,0x6d,0x65,0x49,0x22,0x09,0x65,0x72,0x6f,0x31,0x06,0x3a,0x06,0x45,0x54,0x3a,0x0c,0x40,0x76,0x6f,0x6c,0x75,0x6d,0x65,0x69,0x69,0x3a,0x0b,0x40,0x70,0x69,0x74,0x63,0x68,0x69,0x69))
ShowMessageFace("frederika_fc1",1,0,2,6)
ShowMessage("\\n<Frederica>Then let's begin...")
ShowMessageFace("",0,0,2,7)
ShowMessage("Frederica bends over me.")
ShowMessage("She carefully aims, bringing the entrance of her vagina against my penis.")
ShowMessageFace("",0,0,2,8)
ShowMessage("Like that, she lowers her waist...")
245(bytes(0x04,0x08,0x6f,0x3a,0x0d,0x52,0x50,0x47,0x3a,0x3a,0x42,0x47,0x53,0x08,0x3a,0x0a,0x40,0x6e,0x61,0x6d,0x65,0x49,0x22,0x1e,0x6d,0x6f,0x6e,0x5f,0x68,0x73,0x65,0x61,0x6e,0x30,0x34,0x5f,0x69,0x6e,0x6e,0x65,0x72,0x77,0x6f,0x72,0x6b,0x73,0x5f,0x61,0x34,0x06,0x3a,0x06,0x45,0x54,0x3a,0x0c,0x40,0x76,0x6f,0x6c,0x75,0x6d,0x65,0x69,0x55,0x3a,0x0b,0x40,0x70,0x69,0x74,0x63,0x68,0x69,0x69))
ShowMessageFace("",0,0,2,9)
ShowMessage("\\n<Luka>Ah, aaaah...!")
ShowMessageFace("",0,0,2,10)
ShowMessage("My penis slips into her vagina.")
ShowMessage("It felt way better than I expected from a zombie.")
ShowMessageFace("",0,0,2,11)
ShowMessage("Filled with folds, her vagina is soft and narrow, squeezing me tightly.")
ShowMessageFace("",0,0,2,12)
ShowMessage("\\n<Luka>Nnngh...")
ShowMessageFace("",0,0,2,13)
ShowMessage("A masterpiece vagina, able to make a man come just from insertion.")
ShowMessage("My head goes rosy in bliss just from being in her.")
ShowMessageFace("frederika_fc1",1,0,2,14)
ShowMessage("\\n<Frederica>Do I feel good?\nMy pussy is my master's masterpiece...")
ShowMessageFace("",0,0,2,15)
ShowMessage("Frederica looks proud of herself.")
ShowMessage("Beaming, she tightens her vagina.")
ShowMessageFace("",0,0,2,16)
ShowMessage("\\n<Luka>Ah, coming...!\nAaah...!!")
ShowMessageFace("",0,0,2,17)
ShowMessage("The moment she tightens, the desire to come wells up in me.")
ShowMessage("Her gentle, amazing vagina forced me to ejaculate in only moments.")
RunCommonEvent(104)
PictureDisplay(5,"ev_frederika_hc2",0,0,0,0,100,100,255,0)
RunCommonEvent(105)
ShowMessageFace("",0,0,2,18)
ShowMessage("\\n<Luka>Nnngh...")
ShowMessageFace("",0,0,2,19)
ShowMessage("The quick orgasm fills me a sweet feeling of release.")
ShowMessage("I couldn't endure even ten seconds in Frederica's masterpiece vagina.")
ShowMessageFace("frederika_fc1",1,0,2,20)
ShowMessage("\\n<Frederica>Already...\nBut that's not enough...")
ShowMessageFace("frederika_fc1",1,0,2,21)
ShowMessage("\\n<Frederica>More... More semen...")
ShowMessageFace("",0,0,2,22)
ShowMessage("\\n<Luka>Aaah...!!")
ShowMessageFace("",0,0,2,23)
ShowMessage("Frederica starts to move her body up and down.")
ShowMessage("Using her long, powerful legs, the piston movement is intense.")
ShowMessageFace("",0,0,2,24)
ShowMessage("My penis is overwhelmed with ecstasy in her tight pussy.")
ShowMessage("Up and down, my glans is rubbed and massaged by her folds.")
ShowMessageFace("",0,0,2,25)
ShowMessage("\\n<Luka>Hyaaa...! Aaaaaah!!")
ShowMessageFace("",0,0,2,26)
ShowMessage("I moan in bliss at the intense movements.")
ShowMessage("Frederica's intense assault is aimed at forcing me to come right away.")
ShowMessageFace("",0,0,2,27)
ShowMessage("My penis starts to tremble in her tight vagina.")
ShowMessage("With my body shaking, I give myself over to that climax.")
ShowMessageFace("",0,0,2,28)
ShowMessage("\\n<Luka>C-coming...!\nAaaaaah!!")
RunCommonEvent(104)
PictureDisplay(5,"ev_frederika_hc3",0,0,0,0,100,100,255,0)
RunCommonEvent(105)
ShowMessageFace("",0,0,2,29)
ShowMessage("I explode inside of Frederica again.")
ShowMessage("Every time my penis pulses, she squeezes me, encouraging more.")
ShowMessageFace("",0,0,2,30)
ShowMessage("It's as if she's milking my semen out of my penis.")
ShowMessage("All the way until the end of my orgasm, her vagina squeezes and milks every drop.")
246(2)
ShowMessageFace("",0,0,2,31)
ShowMessage("\\n<Luka>Ah, unnngh...")
ShowMessageFace("frederika_fc1",1,0,2,32)
ShowMessage("\\n<Frederica>I'm filled with semen... My energy is resupplied.\nWhen I run low again, I'll squeeze more...")
ShowMessageFace("",0,0,2,33)
ShowMessage("\\n<Luka>......")
ShowMessageFace("",0,0,2,34)
ShowMessage("Sitting on top of me, Frederica looks satisfied.")
ShowMessage("Too weak to move, I can only look up at me into her smiling face.")
221()
PictureClear(5)
PictureClear(6)
ShowMessageFace("",0,0,2,35)
ShowMessage("......")
242(2)
Wait(120)
241(bytes(0x04,0x08,0x6f,0x3a,0x0d,0x52,0x50,0x47,0x3a,0x3a,0x42,0x47,0x4d,0x08,0x3a,0x0a,0x40,0x6e,0x61,0x6d,0x65,0x49,0x22,0x0c,0x63,0x61,0x73,0x74,0x6c,0x65,0x36,0x06,0x3a,0x06,0x45,0x54,0x3a,0x0c,0x40,0x76,0x6f,0x6c,0x75,0x6d,0x65,0x69,0x69,0x3a,0x0b,0x40,0x70,0x69,0x74,0x63,0x68,0x69,0x69))
0()
