﻿// EVENT 0799
Name "レアゲット"

If(1,123,0,1,0)
 RunCommonEvent(814)
 EndEventProcessing()
 0()
EndIf()
If(1,123,0,2,0)
 RunCommonEvent(817)
 EndEventProcessing()
 0()
EndIf()
If(1,123,0,3,0)
 RunCommonEvent(805)
 EndEventProcessing()
 0()
EndIf()
If(1,123,0,4,0)
 RunCommonEvent(811)
 EndEventProcessing()
 0()
EndIf()
If(1,123,0,5,0)
 RunCommonEvent(802)
 EndEventProcessing()
 0()
EndIf()
If(1,123,0,6,0)
 RunCommonEvent(808)
 EndEventProcessing()
 0()
EndIf()
If(1,123,0,7,0)
 RunCommonEvent(820)
 EndEventProcessing()
 0()
EndIf()
If(1,123,0,8,0)
 RunCommonEvent(823)
 EndEventProcessing()
 0()
EndIf()
If(1,123,0,9,0)
 JumpToLabel("ランダム")
 0()
EndIf()
DefineLabel("ランダム")
ChangeVariable(11,11,0,2,1,8)
If(1,11,0,1,0)
 RunCommonEvent(814)
 EndEventProcessing()
 0()
EndIf()
If(1,11,0,2,0)
 RunCommonEvent(817)
 EndEventProcessing()
 0()
EndIf()
If(1,11,0,3,0)
 RunCommonEvent(805)
 EndEventProcessing()
 0()
EndIf()
If(1,11,0,4,0)
 RunCommonEvent(811)
 EndEventProcessing()
 0()
EndIf()
If(1,11,0,5,0)
 RunCommonEvent(802)
 EndEventProcessing()
 0()
EndIf()
If(1,11,0,6,0)
 RunCommonEvent(808)
 EndEventProcessing()
 0()
EndIf()
If(1,11,0,7,0)
 RunCommonEvent(820)
 EndEventProcessing()
 0()
EndIf()
If(1,11,0,8,0)
 RunCommonEvent(823)
 EndEventProcessing()
 0()
EndIf()
0()
