// EVENT 4181
Name "Shesta"

If(0,25,1)
 221()
 PictureClear(5)
 PictureClear(6)
 ShowMessageFace("",0,0,2,0)
 ShowMessage("......")
 242(2)
 Wait(120)
 241(bytes(0x04,0x08,0x6f,0x3a,0x0d,0x52,0x50,0x47,0x3a,0x3a,0x42,0x47,0x4d,0x08,0x3a,0x0a,0x40,0x6e,0x61,0x6d,0x65,0x49,0x22,0x0c,0x63,0x61,0x73,0x74,0x6c,0x65,0x36,0x06,0x3a,0x06,0x45,0x54,0x3a,0x0c,0x40,0x76,0x6f,0x6c,0x75,0x6d,0x65,0x69,0x69,0x3a,0x0b,0x40,0x70,0x69,0x74,0x63,0x68,0x69,0x69))
 EndEventProcessing()
 0()
EndIf()
PictureDisplay(5,"80_syesta_st01",0,0,0,0,100,100,255,0)
ShowMessageFace("syesta_fc1",0,0,2,1)
ShowMessage("\\n<Shesta>You want to embrace me...?")
ShowMessageFace("",0,0,2,2)
ShowMessage("\\n<Luka>P-please...")
ShowMessageFace("syesta_fc1",0,0,2,3)
ShowMessage("\\n<Shesta>Then, let's mate...\nWith my insect genitalia...")
ShowMessageFace("",0,0,2,4)
ShowMessage("Shesta's feet cut through my clothes.")
ShowMessage("At the same time, she restrains my body!")
241(bytes(0x04,0x08,0x6f,0x3a,0x0d,0x52,0x50,0x47,0x3a,0x3a,0x42,0x47,0x4d,0x08,0x3a,0x0a,0x40,0x6e,0x61,0x6d,0x65,0x49,0x22,0x09,0x65,0x72,0x6f,0x31,0x06,0x3a,0x06,0x45,0x54,0x3a,0x0c,0x40,0x76,0x6f,0x6c,0x75,0x6d,0x65,0x69,0x69,0x3a,0x0b,0x40,0x70,0x69,0x74,0x63,0x68,0x69,0x69))
PictureDisplay(5,"ev_syesta_h01",0,0,0,0,100,100,0,0)
PictureMove(5,null,0,0,0,0,100,100,255,0,30,true)
ShowMessageFace("",0,0,2,5)
ShowMessage("Like that, she lifts me into the air...")
ShowMessageFace("",0,0,2,6)
ShowMessage("\\n<Luka>Insect genitalia...? Uh, wait, that's a little...")
ShowMessageFace("syesta_fc1",0,0,2,7)
ShowMessage("\\n<Shesta>That's what it means to mate with me...\nPlease, fill me...")
PictureDisplay(5,"ev_syesta_h02",0,0,0,0,100,100,255,0)
ShowMessageFace("",0,0,2,8)
ShowMessage("As she mutters to herself, she brings an insect-like organ close to me.")
ShowMessage("At the tip of it is a strange organ.")
ShowMessageFace("",0,0,2,9)
ShowMessage("It almost looks like a beak of some sort.")
ShowMessage("But I can clearly see that it opens and closes...")
ShowMessageFace("syesta_fc1",0,0,2,10)
ShowMessage("\\n<Shesta>My body is aching...\nI want... I want you...")
ShowMessageFace("",0,0,2,11)
ShowMessage("\\n<Luka>N-noooo... Aaah...")
ShowMessageFace("",0,0,2,12)
ShowMessage("That thing is certainly a sexual organ.")
ShowMessage("It slowly approaches my penis...")
PictureDisplay(5,"ev_syesta_h03",0,0,0,0,100,100,255,0)
ShowMessageFace("",0,0,2,13)
ShowMessage("And suddenly opens its mouth wide!")
ShowMessage("A strange warmth spills out from the opening.")
ShowMessageFace("syesta_fc1",0,0,2,14)
ShowMessage("\\n<Shesta>In this hole...\nI'll welcome you, and suck it all out...")
ShowMessageFace("syesta_fc1",0,0,2,15)
ShowMessage("\\n<Shesta>Stir around the penis... Mix it up... Violate it...\nViolate you with my insect hole...")
ShowMessageFace("",0,0,2,16)
ShowMessage("\\n<Luka>Hiii...! St-Stop...!!")
PictureDisplay(5,"ev_syesta_h11",0,0,0,0,100,100,255,0)
ShowMessageFace("",0,0,2,17)
ShowMessage("Her hideous hole gets closer as she whispers.")
ShowMessage("The wet entrance is just large enough to accept a penis.")
ShowMessageFace("",0,0,2,18)
ShowMessage("Mucus drips from her opening.")
ShowMessage("It slowly approaches my quivering penis...")
ShowMessageFace("syesta_fc1",0,0,2,19)
ShowMessage("\\n<Shesta>Look inside me...\nThe insect hole that's going to take you in...")
ShowMessageFace("syesta_fc1",0,0,2,20)
ShowMessage("\\n<Shesta>Suck you in... Suck you dry...\nExtract it... Devour it...")
ShowMessageFace("",0,0,2,21)
ShowMessage("\\n<Luka>N-no... Aaaah...!")
ShowMessageFace("",0,0,2,22)
ShowMessage("The horrifying insect-like hole, dripping with mucus gets closer.")
ShowMessage("The strange heat only gets hotter as it gets nearer.")
ShowMessageFace("syesta_fc1",0,0,2,23)
ShowMessage("\\n<Shesta>Connect with you... Become one...\nIf I do that, then I will...")
ShowMessageFace("",0,0,2,24)
ShowMessage("\\n<Luka>Aaaaaah!!")
PictureDisplay(5,"ev_syesta_h13",0,0,0,0,100,100,255,0)
245(bytes(0x04,0x08,0x6f,0x3a,0x0d,0x52,0x50,0x47,0x3a,0x3a,0x42,0x47,0x53,0x08,0x3a,0x0a,0x40,0x6e,0x61,0x6d,0x65,0x49,0x22,0x1a,0x6d,0x6f,0x6e,0x5f,0x68,0x73,0x65,0x61,0x6e,0x32,0x31,0x5f,0x74,0x65,0x6e,0x74,0x61,0x63,0x6c,0x65,0x32,0x06,0x3a,0x06,0x45,0x54,0x3a,0x0c,0x40,0x76,0x6f,0x6c,0x75,0x6d,0x65,0x69,0x55,0x3a,0x0b,0x40,0x70,0x69,0x74,0x63,0x68,0x69,0x69))
ShowMessageFace("",0,0,2,25)
ShowMessage("With a sticky noise, my thing sinks into the insect hole!")
ShowMessage("The strange, soft flesh attacks me instantly with a bizarre pleasure!")
ShowMessageFace("syesta_fc1",0,0,2,26)
ShowMessage("\\n<Shesta>Aaah...I feel it in me... So full...\nYou're filling me...")
ShowMessageFace("",0,0,2,27)
ShowMessage("At first, the biggest sensation was the pressure.")
ShowMessage("Squeezing me from all sides, I couldn't pull out if I wanted to.")
ShowMessageFace("",0,0,2,28)
ShowMessage("\\n<Luka>Hya... Aaaah...!")
ShowMessageFace("",0,0,2,29)
ShowMessage("Her mucus is wet to the touch.")
ShowMessage("It touches me, slimy and squirming all over.")
ShowMessageFace("",0,0,2,30)
ShowMessage("At the same time, her wriggling flesh rubs against me.")
ShowMessage("The strange, eerie sensations bring a bizarre pleasure.")
ShowMessageFace("",0,0,2,31)
ShowMessage("Stranger than anything are the tiny bumps along her walls.")
ShowMessage("The distinctive texture rubs nicely against my glans.")
ShowMessageFace("syesta_fc1",0,0,2,32)
ShowMessage("\\n<Shesta>Your penis is one with my flesh...\nWe are one...")
ShowMessageFace("",0,0,2,33)
ShowMessage("\\n<Luka>Aaaah...! No, that's not right...!")
ShowMessageFace("",0,0,2,34)
ShowMessage("Sex with a horrifying insect hole...")
ShowMessage("The immoral nature of this act leaves me stunned and reeling.")
ShowMessageFace("",0,0,2,35)
ShowMessage("She's squeezing down on me so hard, I can feel every inch of her strange flesh.")
ShowMessage("This is an organ far removed from a human's... An insect's.")
ShowMessageFace("",0,0,2,36)
ShowMessage("Even more repulsive is the fact that it feels... good.")
ShowMessage("Even though it's an insect's hole, it feels so good.")
ShowMessageFace("",0,0,2,37)
ShowMessage("\\n<Luka>T-This is... Aahh...")
ShowMessageFace("",0,0,2,38)
ShowMessage("My waist trembles.")
ShowMessage("A sweet sensation starts to rise through me.")
ShowMessageFace("syesta_fc1",0,0,2,39)
ShowMessage("\\n<Shesta>I am connected with you...\nMy body rejoices...")
ShowMessageFace("syesta_fc1",0,0,2,40)
ShowMessage("\\n<Shesta>My womanly and insect instincts are both rejoicing...\nDeeper... My insect hole wants all of you...")
ShowMessageFace("",0,0,2,41)
ShowMessage("I feel something squirming deep inside of her hole...")
ShowMessage("Something is lurking in her insectial organ, desiring my penis.")
ShowMessageFace("",0,0,2,42)
ShowMessage("Something like a whole other creature is inside of this hole.")
ShowMessage("I feel it lusting, sucking on the tip of my penis.")
ShowMessageFace("",0,0,2,43)
ShowMessage("\\n<Luka>Ah...! Wh-What is that...!\nAaaah...!!")
RunCommonEvent(104)
PictureDisplay(5,"ev_syesta_h14",0,0,0,0,100,100,255,0)
RunCommonEvent(105)
ShowMessageFace("",0,0,2,44)
ShowMessage("I reach a climax in the very next moment.")
ShowMessage("My semen pours into the hideous insect organ.")
ShowMessageFace("",0,0,2,45)
ShowMessage("Right before I came, I felt that thing suck on me.")
ShowMessage("It felt like another hole inside of her insect hole...")
ShowMessageFace("",0,0,2,46)
ShowMessage("\\n<Luka>Ah, unnngh...")
ShowMessageFace("syesta_fc1",0,0,2,47)
ShowMessage("\\n<Shesta>......")
ShowMessageFace("",0,0,2,48)
ShowMessage("Shesta stares at me during my climax with a blank look.")
ShowMessage("It's as if she's wavering between a dream and reality...")
ShowMessageFace("syesta_fc1",0,0,2,49)
ShowMessage("\\n<Shesta>Already... Did you already ejaculate?\n...Fast... Too soon...")
ShowMessageFace("",0,0,2,50)
ShowMessage("\\n<Luka>......")
ShowMessageFace("",0,0,2,51)
ShowMessage("My body trembles in fear at having come inside of an insect.")
ShowMessage("And I feel even more miserable at how quick I did it, too.")
ShowMessageFace("",0,0,2,52)
ShowMessage("Shesta stares at me as I tremble in shame.")
ShowMessageFace("syesta_fc1",0,0,2,53)
ShowMessage("\\n<Shesta>This mating...isn't enough...\nMore... More, with me...")
PictureDisplay(5,"ev_syesta_h16",0,0,0,0,100,100,255,0)
ShowMessageFace("",0,0,2,54)
ShowMessage("Shesta starts to slowly move in a piston movement.")
ShowMessage("My penis, sensitive after my climax, rubs against her flesh.")
ShowMessageFace("",0,0,2,55)
ShowMessage("\\n<Luka>Uh...Aah...")
ShowMessageFace("syesta_fc1",0,0,2,56)
ShowMessage("\\n<Shesta>...Well? Is this hole good?\nAnd deep inside of my hole... I'll swallow everything...")
ShowMessageFace("syesta_fc1",0,0,2,57)
ShowMessage("\\n<Shesta>Tighten you with my flesh...\nAnd tease you with my mucous membrane...")
ShowMessageFace("",0,0,2,58)
ShowMessage("The movement of her insect organ starts to pick up speed.")
ShowMessage("As her voice starts to get more heated, her movements get more frenzied.")
ShowMessageFace("",0,0,2,59)
ShowMessage("\\n<Luka>S-Stop... Aah!")
ShowMessageFace("syesta_fc1",0,0,2,60)
ShowMessage("\\n<Shesta>The thing to pleasure women... I'm hooked...\nRub my flesh, as a woman...")
ShowMessageFace("",0,0,2,61)
ShowMessage("The umbrella of my penis rubs and pulls against her slimy flesh.")
ShowMessage("Her unhuman-like bumps and ridges rub against me in bizarre ways.")
PictureDisplay(5,"ev_syesta_h17",0,0,0,0,100,100,255,0)
ShowMessageFace("syesta_fc1",0,0,2,62)
ShowMessage("\\n<Shesta>Ahh... More, give me more...\nFill me, satisfy me, fill me...")
ShowMessageFace("",0,0,2,63)
ShowMessage("\\n<Luka>Hyaaa...!!")
ShowMessageFace("",0,0,2,64)
ShowMessage("Her movements take on a feverish pitch.")
ShowMessage("Her insect organ moves up and down faster and faster as it assaults my penis.")
ShowMessageFace("",0,0,2,65)
ShowMessage("Just as Shesta demanded, our mating gets more intense.")
ShowMessage("Our genitals rub together like two mad lovers.")
ShowMessageFace("syesta_fc1",0,0,2,66)
ShowMessage("\\n<Shesta>Delicious... It tastes so good...\nYour penis...")
ShowMessageFace("syesta_fc1",0,0,2,67)
ShowMessage("\\n<Shesta>My body... My insect organ...\nMy human part... It's all rejoicing.")
ShowMessageFace("",0,0,2,68)
ShowMessage("\\n<Luka>D-don't...\nI'm coming again...")
ShowMessageFace("",0,0,2,69)
ShowMessage("My penis is pumped up and down in a violent piston.")
ShowMessage("My body translates everything into pure pleasure.")
ShowMessageFace("",0,0,2,70)
ShowMessage("My penis starts to go numb in pleasure.")
ShowMessage("The overly sweet feeling runs up my back as I near the edge.")
ShowMessageFace("syesta_fc1",0,0,2,71)
ShowMessage("\\n<Shesta>Give your semen...to my insect body...\nFill me...with your semen...")
ShowMessageFace("",0,0,2,72)
ShowMessage("\\n<Luka>C-coming...! Aaah...!")
ShowMessageFace("",0,0,2,73)
ShowMessage("Horror and pleasure mix together in my mind.")
ShowMessage("Unable to withstand it, I erupt inside her insectial organ.")
RunCommonEvent(104)
PictureDisplay(5,"ev_syesta_h27",0,0,0,0,100,100,255,0)
RunCommonEvent(105)
ShowMessageFace("",0,0,2,74)
ShowMessage("\\n<Luka>Hnnaaa...")
ShowMessageFace("",0,0,2,75)
ShowMessage("This horrifying insect organ, used for mating.")
ShowMessage("I came inside of it...")
ShowMessageFace("",0,0,2,76)
ShowMessage("But that didn't signal the end of this act.")
ShowMessage("Rather, Shesta just gets more and more heated...")
PictureDisplay(5,"ev_syesta_h28",0,0,0,0,100,100,255,0)
ShowMessageFace("syesta_fc1",0,0,2,77)
ShowMessage("\\n<Shesta>Not enough...\nMore, more...")
ShowMessageFace("",0,0,2,78)
ShowMessage("Legs reach out from Shesta's body.")
ShowMessage("The thin limbs start to run all over my body.")
ShowMessageFace("",0,0,2,79)
ShowMessage("Crawling around my chest, they relentlessly tickle my nipples.")
ShowMessage("The fine stimulation targets more of my erogenous zones.")
ShowMessageFace("",0,0,2,80)
ShowMessage("\\n<Luka>W-What are you...! Aaah...!")
ShowMessageFace("syesta_fc1",0,0,2,81)
ShowMessage("\\n<Shesta>More, more, more...\nGive me inside... Your semen... Sperm... Yourself...")
ShowMessageFace("",0,0,2,82)
ShowMessage("Her movements never let up.")
ShowMessage("The semen I just spurted inside of her sprays out in her violent piston movements.")
ShowMessageFace("",0,0,2,83)
ShowMessage("\\n<Luka>D-don't...! Stop moving...\nAaaaaah!!")
RunCommonEvent(104)
PictureDisplay(5,"ev_syesta_h29",0,0,0,0,100,100,255,0)
RunCommonEvent(105)
ShowMessageFace("",0,0,2,84)
ShowMessage("My male instinct surrenders to Shesta's desire.")
ShowMessage("I spurt more seed into her insect hole.")
ShowMessageFace("",0,0,2,85)
ShowMessage("How many times am I going to come in this horrifying insect organ...")
ShowMessage("Tears fall from my eyes in frustration at this forced mating.")
PictureDisplay(5,"ev_syesta_h30",0,0,0,0,100,100,255,0)
ShowMessageFace("syesta_fc1",0,0,2,86)
ShowMessage("\\n<Shesta>Why are you crying...?\nAre you not satisfied...?")
ShowMessageFace("syesta_fc1",0,0,2,87)
ShowMessage("\\n<Shesta>I'm being satisfied...\nYour seed is filling my insect hole...")
ShowMessageFace("",0,0,2,88)
ShowMessage("\\n<Luka>Ah, aaah...")
ShowMessageFace("",0,0,2,89)
ShowMessage("I shiver at Shesta's words.")
ShowMessage("My semen is inside of a bug's body.")
ShowMessageFace("",0,0,2,90)
ShowMessage("Is she absorbing it as food?")
ShowMessage("Or the worst situation... To use as fertilization.")
ShowMessageFace("syesta_fc1",0,0,2,91)
ShowMessage("\\n<Shesta>I will satisfy you...\nIf we connect like this...will you be happy...?")
ShowMessageFace("syesta_fc1",0,0,2,92)
ShowMessage("\\n<Shesta>Pour more...\nGive more of your semen to me...")
ShowMessageFace("",0,0,2,93)
ShowMessage("\\n<Luka>No more, no more please... Aah...")
ShowMessageFace("",0,0,2,94)
ShowMessage("Shesta resumes her violent movements.")
ShowMessage("Her disgusting insect organ pistons up and down with my penis inside.")
ShowMessageFace("",0,0,2,95)
ShowMessage("\\n<Luka>N-noooo... Ah... Aaah...")
RunCommonEvent(104)
PictureDisplay(5,"ev_syesta_h31",0,0,0,0,100,100,255,0)
RunCommonEvent(105)
ShowMessageFace("",0,0,2,96)
ShowMessage("As soon as her piston movement started up, I climax.")
ShowMessage("I'm unable to fight against this insect hole at all.")
ShowMessageFace("",0,0,2,97)
ShowMessage("My penis rubs against her slimy walls in the piston movement.")
ShowMessage("Like being trained, just a little stimulation was enough to make me come.")
PictureDisplay(5,"ev_syesta_h32",0,0,0,0,100,100,255,0)
ShowMessageFace("syesta_fc1",0,0,2,98)
ShowMessage("\\n<Shesta>Your semen is filling my insect body...\nI'm being filled with you...")
ShowMessageFace("syesta_fc1",0,0,2,99)
ShowMessage("\\n<Shesta>Your semen is mixing with my eggs...\nI'll become pregnant...with your child...")
ShowMessageFace("",0,0,2,100)
ShowMessage("\\n<Luka>N...no way... That can't...")
ShowMessageFace("",0,0,2,101)
ShowMessage("Impregnating this strange monster...")
ShowMessage("I'm stunned in horror.")
ShowMessageFace("syesta_fc1",0,0,2,102)
ShowMessage("\\n<Shesta>This fills me...\nMaking a child with you fills me...")
ShowMessageFace("syesta_fc1",0,0,2,103)
ShowMessage("\\n<Shesta>Are you not satisfied...?\nThen, more... Just like I was filled...")
PictureDisplay(5,"ev_syesta_h33",0,0,0,0,100,100,255,0)
ShowMessageFace("",0,0,2,104)
ShowMessage("The merciless piston restarts.")
ShowMessage("My penis trembles in pleasure at the stimulation her insect hole forces.")
ShowMessageFace("",0,0,2,105)
ShowMessage("\\n<Luka>Ah, aaah...")
ShowMessageFace("syesta_fc1",0,0,2,106)
ShowMessage("\\n<Shesta>Ejaculate... Your semen...\nSince you satisfied me... I have to satisfy you...")
ShowMessageFace("",0,0,2,107)
ShowMessage("\\n<Luka>D-don't...")
ShowMessageFace("syesta_fc1",0,0,2,108)
ShowMessage("\\n<Shesta>You're going to be a father...\nThe father of my insects...")
ShowMessageFace("syesta_fc1",0,0,2,109)
ShowMessage("\\n<Shesta>So, your semen...\nGive it all to my ovaries...")
ShowMessageFace("",0,0,2,110)
ShowMessage("\\n<Luka>Nooo! I don't want to...!!")
RunCommonEvent(104)
PictureDisplay(5,"ev_syesta_h34",0,0,0,0,100,100,255,0)
RunCommonEvent(105)
ShowMessageFace("",0,0,2,111)
ShowMessage("Despite my shouts of refusal, I climax again.")
ShowMessage("Yet again, I explode my seed inside her insect organ.")
PictureDisplay(5,"ev_syesta_h35",0,0,0,0,100,100,255,0)
ShowMessageFace("",0,0,2,112)
ShowMessage("\\n<Luka>Ah... Aaah...")
ShowMessageFace("syesta_fc1",0,0,2,113)
ShowMessage("\\n<Shesta>I'm going to be a mother...\nYou were the one who filled me...")
246(2)
PictureDisplay(5,"ev_syesta_h36",0,0,0,0,100,100,255,0)
ShowMessageFace("",0,0,2,114)
ShowMessage("With a wet noise, my penis is released from her hole.")
ShowMessage("My semen drips from the opening.")
ShowMessageFace("",0,0,2,115)
ShowMessage("Dripping from her reproductive organ...")
ShowMessage("A clear demonstration of the irreparable act I've done.")
ShowMessageFace("syesta_fc1",0,0,2,116)
ShowMessage("\\n<Shesta>But there's still time before I give birth...\nBy the time your adventure is over, you'll be a father...")
ShowMessageFace("",0,0,2,117)
ShowMessage("\\n<Luka>......")
ShowMessageFace("",0,0,2,118)
ShowMessage("I hold my head in shame at the irreparable thing I've done.")
221()
ShowMessageFace("",0,0,2,119)
ShowMessage("......")
242(2)
Wait(120)
241(bytes(0x04,0x08,0x6f,0x3a,0x0d,0x52,0x50,0x47,0x3a,0x3a,0x42,0x47,0x4d,0x08,0x3a,0x0a,0x40,0x6e,0x61,0x6d,0x65,0x49,0x22,0x0c,0x63,0x61,0x73,0x74,0x6c,0x65,0x36,0x06,0x3a,0x06,0x45,0x54,0x3a,0x0c,0x40,0x76,0x6f,0x6c,0x75,0x6d,0x65,0x69,0x69,0x3a,0x0b,0x40,0x70,0x69,0x74,0x63,0x68,0x69,0x69))
0()
