﻿// EVENT 7354
Name "Gloria: Victory"

PictureDisplay(5,"80_mob_kaizoku3_st01",0,0,0,0,100,100,255,0)
PictureClear(6)
ShowMessageFace("mob_kaizoku3_fc1",1,0,2,1)
ShowMessage("\\n<Gloria>As expected of the famous hero...\nI've been defeated.")
250(bytes(0x04,0x08,0x6f,0x3a,0x0c,0x52,0x50,0x47,0x3a,0x3a,0x53,0x45,0x08,0x3a,0x0a,0x40,0x6e,0x61,0x6d,0x65,0x49,0x22,0x0d,0x6d,0x6f,0x6e,0x5f,0x6c,0x76,0x75,0x70,0x06,0x3a,0x06,0x45,0x54,0x3a,0x0b,0x40,0x70,0x69,0x74,0x63,0x68,0x69,0x69,0x3a,0x0c,0x40,0x76,0x6f,0x6c,0x75,0x6d,0x65,0x69,0x69))
ChangeSwitch(98,98,1)
ChangeSwitch(96,96,1)
ShowMessageFace("",0,0,2,2)
ShowMessage("Luka emerged from the battle fuck victorious!")
If(1,836,0,2,1)
 ShowMessageFace("mob_kaizoku3_fc1",1,0,2,3)
 ShowMessage("\\n<Gloria>I don't have any more prizes.\nThis business isn't good enough for me to keep giving you things...")
 0()
Else()
 ShowMessageFace("mob_kaizoku3_fc1",1,0,2,4)
 ShowMessage("\\n<Gloria>Then as promised, you can have the Gloria Pirates' treasure. It's a special accessory that halves MP consumption.")
 250(bytes(0x04,0x08,0x6f,0x3a,0x0c,0x52,0x50,0x47,0x3a,0x3a,0x53,0x45,0x08,0x3a,0x0a,0x40,0x6e,0x61,0x6d,0x65,0x49,0x22,0x0a,0x49,0x74,0x65,0x6d,0x31,0x06,0x3a,0x06,0x45,0x54,0x3a,0x0b,0x40,0x70,0x69,0x74,0x63,0x68,0x69,0x69,0x3a,0x0c,0x40,0x76,0x6f,0x6c,0x75,0x6d,0x65,0x69,0x55))
 ChangeInventoryArmor(1093,0,0,1,false)
 ChangeVariable(836,836,0,0,2)
 RunCommonEvent(6999)
 0()
EndIf()
If(0,2331,1)
 If(1,1089,0,1,0)
  ChangeVariable(1089,1089,0,0,2)
  241(bytes(0x04,0x08,0x6f,0x3a,0x0d,0x52,0x50,0x47,0x3a,0x3a,0x42,0x47,0x4d,0x08,0x3a,0x0a,0x40,0x6e,0x61,0x6d,0x65,0x49,0x22,0x14,0x73,0x63,0x65,0x6e,0x65,0x5f,0x65,0x70,0x69,0x6c,0x6f,0x67,0x75,0x65,0x32,0x06,0x3a,0x06,0x45,0x54,0x3a,0x0c,0x40,0x76,0x6f,0x6c,0x75,0x6d,0x65,0x69,0x69,0x3a,0x0b,0x40,0x70,0x69,0x74,0x63,0x68,0x69,0x69))
  If(0,2148,0)
   ShowMessageFace("tatunoko_k_fc1",1,0,2,5)
   ShowMessage("\\n<Tatsuko>This is our victory!\nAs promised, we're arresting you!")
   ShowMessageFace("mob_kaizoku3_fc1",1,0,2,6)
   ShowMessage("\\n<Gloria>I lost, so it can't be helped...\nGo on, arrest me.")
   ShowMessageFace("",0,0,2,7)
   ShowMessage("Gloria was arrested by the Navy...")
   ShowMessageFace("umiusi_k_fc1",1,0,2,8)
   ShowMessage("\\n<Stacy>We've successfully carried out our mission!\nNow let's head back!")
   0()
  EndIf()
  If(0,2149,0)
   ShowMessageFace("bonny_fc1",1,0,2,9)
   ShowMessage("\\n<Bonnie>We won the challenge!")
   ShowMessageFace("mob_kaizoku3_fc1",1,0,2,10)
   ShowMessage("\\n<Gloria>Alas, I admit defeat...")
   ShowMessageFace("ashel_fc1",1,0,2,11)
   ShowMessage("\\n<Ashel>Our longtime rivalry is finally over.\nAll right, let's head back!")
   0()
  EndIf()
  ShowMessageFace("",0,0,2,12)
  ShowMessage("Thus, we had triumphed over the Gloria Pirates.\nWe boarded the MS Fish and returned to land in high spirits--")
  221()
  250(bytes(0x04,0x08,0x6f,0x3a,0x0c,0x52,0x50,0x47,0x3a,0x3a,0x53,0x45,0x08,0x3a,0x0a,0x40,0x6e,0x61,0x6d,0x65,0x49,0x22,0x0b,0x57,0x61,0x74,0x65,0x72,0x31,0x06,0x3a,0x06,0x45,0x54,0x3a,0x0b,0x40,0x70,0x69,0x74,0x63,0x68,0x69,0x69,0x3a,0x0c,0x40,0x76,0x6f,0x6c,0x75,0x6d,0x65,0x69,0x55))
  PictureClear(5)
  Wait(60)
  TeleportPlayer(0,2,335,240,4,2)
  TeleportVehicle(1,0,2,334,240)
  222()
  If(0,2148,0)
   ShowMessageFace("tatunoko_k_fc1",2,0,2,13)
   ShowMessage("\\n<Tatsuko>I was contacted by the Navy Headquarters.\nThe Gloria Pirates paid a huge sum of money and were released on bail.")
   ShowMessageFace("umiusi_k_fc1",0,0,2,14)
   ShowMessage("\\n<Stacy>It seems the MS Gloria is still in this area of the sea. We'll be surveiling it so they won't be able to cause mischief for a while.")
   0()
  EndIf()
  If(0,2149,0)
   ShowMessageFace("bonny_fc1",0,0,2,15)
   ShowMessage("\\n<Bonnie>Hey, I received a letter from the Gloria Pirates. \"If you want to have a battle fuck, you're welcome at any time.\"")
   ShowMessageFace("ashel_fc1",0,0,2,16)
   ShowMessage("\\n<Ashel>Good grief, that lot will never learn their lesson...")
   0()
  EndIf()
  If(0,6,0)
   ShowMessageFace("sonia_fc1",3,0,2,17)
   ShowMessage("\\n<Sonya>Oh, they want to battle fuck again.\nIsn't that nice Luka, you can battle fuck with them again...")
   ShowMessageFace("ruka_fc1",0,0,2,18)
   ShowMessage("\\n<Luka>............")
   0()
  EndIf()
  355("gain_medal(2108)")
  EndEventProcessing()
  0()
 Else()
  0()
 EndIf()
 0()
EndIf()
ShowMessageFace("mob_kaizoku3_fc1",1,0,2,19)
ShowMessage("\\n<Gloria>I've really taken a liking to you.\nI'm looking forward to battle fucking with you as many times as I can.")
If(0,2331,1)
 PictureClear(5)
 241(bytes(0x04,0x08,0x6f,0x3a,0x0d,0x52,0x50,0x47,0x3a,0x3a,0x42,0x47,0x4d,0x08,0x3a,0x0a,0x40,0x6e,0x61,0x6d,0x65,0x49,0x22,0x0a,0x6b,0x69,0x6b,0x69,0x34,0x06,0x3a,0x06,0x45,0x54,0x3a,0x0c,0x40,0x76,0x6f,0x6c,0x75,0x6d,0x65,0x69,0x69,0x3a,0x0b,0x40,0x70,0x69,0x74,0x63,0x68,0x69,0x69))
 0()
EndIf()
EndEventProcessing()
0()
