// EVENT 7082
Name "Elissa: Match"

ChangeSwitch(96,96,0)
ChangeSwitch(98,98,0)
ShowMessageFace("mob_elf1_fc1",0,0,2,1)
ShowMessage("\\n<Elissa>All right then, the match is on.\nBefore I lick your penis...")
250(bytes(0x04,0x08,0x6f,0x3a,0x0c,0x52,0x50,0x47,0x3a,0x3a,0x53,0x45,0x08,0x3a,0x0a,0x40,0x6e,0x61,0x6d,0x65,0x49,0x22,0x12,0x6d,0x6f,0x6e,0x5f,0x65,0x72,0x6f,0x5f,0x6b,0x6f,0x6b,0x69,0x31,0x06,0x3a,0x06,0x45,0x54,0x3a,0x0b,0x40,0x70,0x69,0x74,0x63,0x68,0x69,0x69,0x3a,0x0c,0x40,0x76,0x6f,0x6c,0x75,0x6d,0x65,0x69,0x69))
PictureDisplay(5,"80_mob_elf1_st01",0,0,-190,0,100,100,255,0)
PictureDisplay(6,"ev_mob_elf1_ct11",0,0,240,50,100,100,255,0)
ChangeVariable(11,11,0,2,27,29)
311(0,1,1,1,11,true)
ShowMessageFace("",0,0,2,2)
ShowMessage("Elissa grabs Luka's penis, and presses it against her chest!")
ShowMessage("The soft elasticity of her breasts stimulates Luka's penis!\\D")
ShowMessage("Luka takes \\V[11] damage!")
ChangeVariable(27,27,0,3,3,1,2)
If(1,27,0,0,0)
 RunCommonEvent(7085)
 EndEventProcessing()
 0()
EndIf()
ShowMessageFace("mob_elf1_fc1",0,0,2,3)
ShowMessage("\\n<Elissa>Are my tits soft?")
250(bytes(0x04,0x08,0x6f,0x3a,0x0c,0x52,0x50,0x47,0x3a,0x3a,0x53,0x45,0x08,0x3a,0x0a,0x40,0x6e,0x61,0x6d,0x65,0x49,0x22,0x12,0x6d,0x6f,0x6e,0x5f,0x65,0x72,0x6f,0x5f,0x6b,0x6f,0x6b,0x69,0x31,0x06,0x3a,0x06,0x45,0x54,0x3a,0x0b,0x40,0x70,0x69,0x74,0x63,0x68,0x69,0x69,0x3a,0x0c,0x40,0x76,0x6f,0x6c,0x75,0x6d,0x65,0x69,0x69))
ChangeVariable(11,11,0,2,27,29)
311(0,1,1,1,11,true)
ShowMessageFace("",0,0,2,4)
ShowMessage("Elissa pushes his penis against her chest!")
ShowMessage("The squishy feeling assaults Luka!\\D")
ShowMessage("Luka takes \\V[11] damage!")
ChangeVariable(27,27,0,3,3,1,2)
If(1,27,0,0,0)
 RunCommonEvent(7085)
 EndEventProcessing()
 0()
EndIf()
ShowMessageFace("mob_elf1_fc1",0,0,2,5)
ShowMessage("\\n<Elissa>Your penis seems to have perked right up.\nAll right, now to lick it...")
PictureDisplay(6,"ev_mob_elf1_h1",0,0,0,0,100,100,255,0)
250(bytes(0x04,0x08,0x6f,0x3a,0x0c,0x52,0x50,0x47,0x3a,0x3a,0x53,0x45,0x08,0x3a,0x0a,0x40,0x6e,0x61,0x6d,0x65,0x49,0x22,0x11,0x6d,0x6f,0x6e,0x5f,0x65,0x72,0x6f,0x5f,0x70,0x79,0x75,0x31,0x06,0x3a,0x06,0x45,0x54,0x3a,0x0b,0x40,0x70,0x69,0x74,0x63,0x68,0x69,0x69,0x3a,0x0c,0x40,0x76,0x6f,0x6c,0x75,0x6d,0x65,0x69,0x69))
ChangeVariable(11,11,0,2,27,29)
311(0,1,1,1,11,true)
ShowMessageFace("",0,0,2,6)
ShowMessage("Elissa slowly kisses Luka's penis!")
ShowMessage("Her soft lips clamp down on his tip!\\D")
ShowMessage("Luka takes \\V[11] damage!")
ChangeVariable(27,27,0,3,3,1,2)
If(1,27,0,0,0)
 RunCommonEvent(7086)
 EndEventProcessing()
 0()
EndIf()
ShowMessageFace("mob_elf1_fc1",0,0,2,7)
ShowMessage("\\n<Elissa>*Lick* *Kiss*")
250(bytes(0x04,0x08,0x6f,0x3a,0x0c,0x52,0x50,0x47,0x3a,0x3a,0x53,0x45,0x08,0x3a,0x0a,0x40,0x6e,0x61,0x6d,0x65,0x49,0x22,0x11,0x6d,0x6f,0x6e,0x5f,0x65,0x72,0x6f,0x5f,0x70,0x79,0x75,0x32,0x06,0x3a,0x06,0x45,0x54,0x3a,0x0b,0x40,0x70,0x69,0x74,0x63,0x68,0x69,0x69,0x3a,0x0c,0x40,0x76,0x6f,0x6c,0x75,0x6d,0x65,0x69,0x69))
ChangeVariable(11,11,0,2,27,29)
311(0,1,1,1,11,true)
ShowMessageFace("",0,0,2,8)
ShowMessage("Elissa's lips tickle Luka's penis with their soft touch!")
ShowMessage("Her tongue peeks out, gently licking his tip!\\D")
ShowMessage("Luka takes \\V[11] damage!")
ChangeVariable(27,27,0,3,3,1,2)
If(1,27,0,0,0)
 RunCommonEvent(7086)
 EndEventProcessing()
 0()
EndIf()
ShowMessageFace("mob_elf1_fc1",0,0,2,9)
ShowMessage("\\n<Elissa>Is it nice...?\n*Lick* *Lick*")
250(bytes(0x04,0x08,0x6f,0x3a,0x0c,0x52,0x50,0x47,0x3a,0x3a,0x53,0x45,0x08,0x3a,0x0a,0x40,0x6e,0x61,0x6d,0x65,0x49,0x22,0x11,0x6d,0x6f,0x6e,0x5f,0x65,0x72,0x6f,0x5f,0x70,0x79,0x75,0x32,0x06,0x3a,0x06,0x45,0x54,0x3a,0x0b,0x40,0x70,0x69,0x74,0x63,0x68,0x69,0x69,0x3a,0x0c,0x40,0x76,0x6f,0x6c,0x75,0x6d,0x65,0x69,0x69))
ChangeVariable(11,11,0,2,27,29)
311(0,1,1,1,11,true)
ShowMessageFace("",0,0,2,10)
ShowMessage("Elissa's tongue gradually increases in speed!")
ShowMessage("Her tongue crawls all around Luka's glans!\\D")
ShowMessage("Luka takes \\V[11] damage!")
ChangeVariable(27,27,0,3,3,1,2)
If(1,27,0,0,0)
 RunCommonEvent(7087)
 EndEventProcessing()
 0()
EndIf()
If(1,27,0,140,4)
 ShowMessageFace("ruka_fc1",0,0,2,11)
 ShowMessage("\\n<Luka>Ah, unnngh...")
 ShowMessageFace("mob_elf1_fc1",0,0,2,12)
 ShowMessage("\\n<Elissa>You're moaning...\nI don't think you'll last very long.")
 0()
Else()
 ShowMessageFace("mob_elf1_fc1",0,0,2,13)
 ShowMessage("\\n<Elissa>You're trying so hard... How's this...?")
 0()
EndIf()
250(bytes(0x04,0x08,0x6f,0x3a,0x0c,0x52,0x50,0x47,0x3a,0x3a,0x53,0x45,0x08,0x3a,0x0a,0x40,0x6e,0x61,0x6d,0x65,0x49,0x22,0x11,0x6d,0x6f,0x6e,0x5f,0x65,0x72,0x6f,0x5f,0x70,0x79,0x75,0x32,0x06,0x3a,0x06,0x45,0x54,0x3a,0x0b,0x40,0x70,0x69,0x74,0x63,0x68,0x69,0x69,0x3a,0x0c,0x40,0x76,0x6f,0x6c,0x75,0x6d,0x65,0x69,0x69))
ChangeVariable(11,11,0,2,27,29)
311(0,1,1,1,11,true)
ShowMessageFace("",0,0,2,14)
ShowMessage("Elissa's tongue violently licks Luka's glans!")
ShowMessage("Covered in saliva, her tongue darts all over him!\\D")
ShowMessage("Luka takes \\V[11] damage!")
ChangeVariable(27,27,0,3,3,1,2)
If(1,27,0,0,0)
 RunCommonEvent(7087)
 EndEventProcessing()
 0()
EndIf()
ShowMessageFace("mob_elf1_fc1",0,0,2,15)
ShowMessage("\\n<Elissa>Now, in my mouth...\n*Suck*")
250(bytes(0x04,0x08,0x6f,0x3a,0x0c,0x52,0x50,0x47,0x3a,0x3a,0x53,0x45,0x08,0x3a,0x0a,0x40,0x6e,0x61,0x6d,0x65,0x49,0x22,0x13,0x6d,0x6f,0x6e,0x5f,0x65,0x72,0x6f,0x5f,0x62,0x75,0x63,0x68,0x75,0x32,0x06,0x3a,0x06,0x45,0x54,0x3a,0x0b,0x40,0x70,0x69,0x74,0x63,0x68,0x69,0x69,0x3a,0x0c,0x40,0x76,0x6f,0x6c,0x75,0x6d,0x65,0x69,0x69))
ChangeVariable(11,11,0,2,27,29)
311(0,1,1,1,11,true)
ShowMessageFace("",0,0,2,16)
ShowMessage("Elissa brings the tip of Luka's penis into her mouth!")
ShowMessage("Her warm mouth clamps around his penis!\\D")
ShowMessage("Luka takes \\V[11] damage!")
ChangeVariable(27,27,0,3,3,1,2)
If(1,27,0,0,0)
 RunCommonEvent(7087)
 EndEventProcessing()
 0()
EndIf()
ShowMessageFace("mob_elf1_fc1",0,0,2,17)
ShowMessage("\\n<Elissa>Nnn... *Suck* *Lick*")
250(bytes(0x04,0x08,0x6f,0x3a,0x0c,0x52,0x50,0x47,0x3a,0x3a,0x53,0x45,0x08,0x3a,0x0a,0x40,0x6e,0x61,0x6d,0x65,0x49,0x22,0x13,0x6d,0x6f,0x6e,0x5f,0x65,0x72,0x6f,0x5f,0x62,0x75,0x63,0x68,0x75,0x33,0x06,0x3a,0x06,0x45,0x54,0x3a,0x0b,0x40,0x70,0x69,0x74,0x63,0x68,0x69,0x69,0x3a,0x0c,0x40,0x76,0x6f,0x6c,0x75,0x6d,0x65,0x69,0x69))
ChangeVariable(11,11,0,2,27,29)
311(0,1,1,1,11,true)
ShowMessageFace("",0,0,2,18)
ShowMessage("Elissa's lips rub back and forth around Luka's penis!")
ShowMessage("Their soft circle massages Luka's tip!\\D")
ShowMessage("Luka takes \\V[11] damage!")
ChangeVariable(27,27,0,3,3,1,2)
If(1,27,0,0,0)
 RunCommonEvent(7087)
 EndEventProcessing()
 0()
EndIf()
ShowMessageFace("mob_elf1_fc1",0,0,2,19)
ShowMessage("\\n<Elissa>Go ahead and come like this...\nCome inside my mouth...")
250(bytes(0x04,0x08,0x6f,0x3a,0x0c,0x52,0x50,0x47,0x3a,0x3a,0x53,0x45,0x08,0x3a,0x0a,0x40,0x6e,0x61,0x6d,0x65,0x49,0x22,0x11,0x6d,0x6f,0x6e,0x5f,0x65,0x72,0x6f,0x5f,0x70,0x79,0x75,0x32,0x06,0x3a,0x06,0x45,0x54,0x3a,0x0b,0x40,0x70,0x69,0x74,0x63,0x68,0x69,0x69,0x3a,0x0c,0x40,0x76,0x6f,0x6c,0x75,0x6d,0x65,0x69,0x69))
ChangeVariable(11,11,0,2,27,29)
311(0,1,1,1,11,true)
ShowMessageFace("",0,0,2,20)
ShowMessage("Inside her mouth, Elissa's tongue licks every inch of Luka's penis!")
ShowMessage("Licked clean all over, her tongue tangles around him!\\D")
ShowMessage("Luka takes \\V[11] damage!")
ChangeVariable(27,27,0,3,3,1,2)
If(1,27,0,0,0)
 RunCommonEvent(7087)
 EndEventProcessing()
 0()
EndIf()
ShowMessageFace("mob_elf1_fc1",0,0,2,21)
ShowMessage("\\n<Elissa>Hora, come...\n*Suck* *Lick*")
250(bytes(0x04,0x08,0x6f,0x3a,0x0c,0x52,0x50,0x47,0x3a,0x3a,0x53,0x45,0x08,0x3a,0x0a,0x40,0x6e,0x61,0x6d,0x65,0x49,0x22,0x13,0x6d,0x6f,0x6e,0x5f,0x65,0x72,0x6f,0x5f,0x62,0x75,0x63,0x68,0x75,0x33,0x06,0x3a,0x06,0x45,0x54,0x3a,0x0b,0x40,0x70,0x69,0x74,0x63,0x68,0x69,0x69,0x3a,0x0c,0x40,0x76,0x6f,0x6c,0x75,0x6d,0x65,0x69,0x69))
ChangeVariable(11,11,0,2,27,29)
311(0,1,1,1,11,true)
ShowMessageFace("",0,0,2,22)
ShowMessage("Her mouth movements pick up in speed for the last spurt!")
ShowMessage("Elissa's tongue desperately licks every inch of Luka's penis!\\D")
ShowMessage("Luka takes \\V[11] damage!")
ChangeVariable(27,27,0,3,3,1,2)
If(1,27,0,0,0)
 RunCommonEvent(7087)
 EndEventProcessing()
 0()
EndIf()
RunCommonEvent(7084)
EndEventProcessing()
0()
