// EVENT 2110
Name "Seduction: Astaroth"

If(0,25,1)
 EndEventProcessing()
 0()
EndIf()
355("$game_troop.lose_event_id = 3110")
ChangeVariable(26,26,0,3,3,1,4)
ChangeVariable(26,26,4,0,10)
ShowMessageFace("astaroth_fc1",0,0,2,1)
ShowMessage("\\n<Astaroth>Fufu, look at the backbone on this kid.\nYou're still inexperienced, but you've got a good fighting spirit.")
355("battler_graphic_hide")
PictureDisplay(5,"ev_astaroth_ha1",0,0,0,0,100,100,255,0)
ShowMessageFace("",0,0,2,2)
ShowMessage("Astaroth knocks Luka down, and pushes her back toward him!")
ShowMessageFace("astaroth_fc1",0,0,2,3)
ShowMessage("\\n<Astaroth>So... Let me give you a nice finish.\nI'll suck you with my tail...")
PictureDisplay(5,"ev_astaroth_ha2",0,0,0,0,100,100,255,0)
ShowMessageFace("",0,0,2,4)
ShowMessage("Astaroth's tail opens a mouth!")
ShowMessage("It's clearly something for insertion...")
ShowMessageFace("astaroth_fc1",1,0,2,5)
ShowMessage("\\n<Astaroth>Do you want me to suck you with my tail, and show you a piece of heaven?\nLet me give you the finest of pleasures...")
ChangeSwitch(98,98,0)
ChangeSwitch(96,96,0)
ShowChoices(strings("Ignore her","Give in to temptation"),1)
IfPlayerPicksChoice(0,"Ignore her")
 ShowMessageFace("",0,0,2,6)
 ShowMessage("Luka resists her temptation!")
 RunCommonEvent(1999)
 EndEventProcessing()
 0()
IfPlayerPicksChoice(1,"誘惑に乗る")
 0()
404()
ShowMessageFace("astaroth_fc1",1,0,2,7)
ShowMessage("\\n<Astaroth>Fufu, you fell for it...\nWell then... I'll take your energy.")
ChangeVariable(26,26,3,0,4)
250(bytes(0x04,0x08,0x6f,0x3a,0x0c,0x52,0x50,0x47,0x3a,0x3a,0x53,0x45,0x08,0x3a,0x0a,0x40,0x6e,0x61,0x6d,0x65,0x49,0x22,0x13,0x6d,0x6f,0x6e,0x5f,0x65,0x72,0x6f,0x5f,0x63,0x68,0x75,0x70,0x61,0x36,0x06,0x3a,0x06,0x45,0x54,0x3a,0x0b,0x40,0x70,0x69,0x74,0x63,0x68,0x69,0x69,0x3a,0x0c,0x40,0x76,0x6f,0x6c,0x75,0x6d,0x65,0x69,0x69))
PictureDisplay(5,"ev_astaroth_ha3",0,0,0,0,100,100,255,0)
311(0,1,1,1,26,true)
ShowMessageFace("",0,0,2,8)
ShowMessage("Astaroth's tail sucks in Luka's penis!")
ShowMessage("It starts to suck on him!\\D")
ShowMessage("Luka takes \\V[26] damage!")
ChangeVariable(27,27,0,3,3,1,2)
If(1,27,0,0,0)
 JumpToLabel("射精1")
 0()
EndIf()
ShowMessageFace("astaroth_fc1",1,0,2,9)
ShowMessage("\\n<Astaroth>A paradise of pleasure...\nImmerse yourself in it.")
250(bytes(0x04,0x08,0x6f,0x3a,0x0c,0x52,0x50,0x47,0x3a,0x3a,0x53,0x45,0x08,0x3a,0x0a,0x40,0x6e,0x61,0x6d,0x65,0x49,0x22,0x13,0x6d,0x6f,0x6e,0x5f,0x65,0x72,0x6f,0x5f,0x63,0x68,0x75,0x70,0x61,0x36,0x06,0x3a,0x06,0x45,0x54,0x3a,0x0b,0x40,0x70,0x69,0x74,0x63,0x68,0x69,0x69,0x3a,0x0c,0x40,0x76,0x6f,0x6c,0x75,0x6d,0x65,0x69,0x69))
311(0,1,1,1,26,true)
ShowMessageFace("",0,0,2,10)
ShowMessage("Astaroth's tail sucks on Luka's penis!")
ShowMessage("The sweet suction sensation runs through him!\\D")
ShowMessage("Luka takes \\V[26] damage!")
ChangeVariable(27,27,0,3,3,1,2)
If(1,27,0,0,0)
 JumpToLabel("射精1")
 0()
EndIf()
ShowMessageFace("astaroth_fc1",1,0,2,11)
ShowMessage("\\n<Astaroth>You're going to come soon, I see.\nGive me all of your semen...")
250(bytes(0x04,0x08,0x6f,0x3a,0x0c,0x52,0x50,0x47,0x3a,0x3a,0x53,0x45,0x08,0x3a,0x0a,0x40,0x6e,0x61,0x6d,0x65,0x49,0x22,0x13,0x6d,0x6f,0x6e,0x5f,0x65,0x72,0x6f,0x5f,0x63,0x68,0x75,0x70,0x61,0x36,0x06,0x3a,0x06,0x45,0x54,0x3a,0x0b,0x40,0x70,0x69,0x74,0x63,0x68,0x69,0x69,0x3a,0x0c,0x40,0x76,0x6f,0x6c,0x75,0x6d,0x65,0x69,0x69))
311(0,1,1,1,26,true)
ShowMessageFace("",0,0,2,12)
ShowMessage("Astaroth's tail sweetly sucks Luka's penis!")
ShowMessage("The vacuum-like stimulus forces him to come!\\D")
ShowMessage("Luka takes \\V[26] damage!")
ChangeVariable(27,27,0,3,3,1,2)
If(1,27,0,0,0)
 JumpToLabel("射精1")
 0()
EndIf()
DefineLabel("射精1")
ShowMessageFace("",0,0,2,13)
ShowMessage("\\n<Luka>Oh no, I'm coming... Aaah...")
RunCommonEvent(104)
PictureDisplay(5,"ev_astaroth_ha4",0,0,0,0,100,100,255,0)
RunCommonEvent(105)
ShowMessageFace("",0,0,2,14)
ShowMessage("My semen pours into Astaroth's tail.")
ShowMessage("Sucking on me so hard, there's no way I couldn't give in...")
ShowMessageFace("astaroth_fc1",1,0,2,15)
ShowMessage("\\n<Astaroth>Fufu, I'll squeeze you dry like this.\nAllow me to show you heaven until your final moments...")
RunCommonEvent(2000)
EndEventProcessing()
0()
