﻿// EVENT 3482
Name "ヴィヌム"

PictureDisplay(5,"80_vinum_st01",0,0,0,0,100,100,0,0)
PictureMove(5,null,0,0,0,0,100,100,255,0,30,true)
241(bytes(0x04,0x08,0x6f,0x3a,0x0d,0x52,0x50,0x47,0x3a,0x3a,0x42,0x47,0x4d,0x08,0x3a,0x0a,0x40,0x6e,0x61,0x6d,0x65,0x49,0x22,0x09,0x65,0x72,0x6f,0x31,0x06,0x3a,0x06,0x45,0x54,0x3a,0x0c,0x40,0x76,0x6f,0x6c,0x75,0x6d,0x65,0x69,0x69,0x3a,0x0b,0x40,0x70,0x69,0x74,0x63,0x68,0x69,0x69))
ShowMessageFace("",0,0,2,1)
ShowMessage("\\n<Luka>")
ShowMessage("あぅぅぅ……")
ShowMessageFace("vinum_fc1",0,0,2,2)
ShowMessage("\\n<Vinum>")
ShowMessage("ふむ……もう終わりか？　他愛のない……")
ShowMessage("それでは食らうとするかのう。")
ShowMessageFace("",0,0,2,3)
ShowMessage("\\n<Luka>")
ShowMessage("く、食らうって……")
ShowMessageFace("",0,0,2,4)
ShowMessage("相手はサキュバス、何をする気かは明らかだった。")
ShowMessageFace("",0,0,2,5)
ShowMessage("このまま、僕はヴィヌムに犯され――")
ShowMessage("そして、食餌として精を搾り尽くされてしまうのだ。")
ShowMessageFace("",0,0,2,6)
ShowMessage("\\n<Luka>")
ShowMessage("あぁぁ……やめて……")
ShowMessageFace("",0,0,2,7)
ShowMessage("ヴィヌムの小さな体が、僕にまたがってくる。")
ShowMessage("しかし僕は仰向けのまま、抵抗する事さえできず――")
ShowMessageFace("vinum_fc1",4,0,2,8)
ShowMessage("\\n<Vinum>")
ShowMessage("くふふっ……さて、久方ぶりの勇者の精……")
ShowMessage("とくと味わわせてもらうぞ。")
ShowMessageFace("",0,0,2,9)
ShowMessage("\\n<Luka>")
ShowMessage("あ……あぁぁぁぁっ……！")
ShowMessageFace("",0,0,2,10)
ShowMessage("そのままヴィヌムは、腰を落とし――")
245(bytes(0x04,0x08,0x6f,0x3a,0x0d,0x52,0x50,0x47,0x3a,0x3a,0x42,0x47,0x53,0x08,0x3a,0x0a,0x40,0x6e,0x61,0x6d,0x65,0x49,0x22,0x1e,0x6d,0x6f,0x6e,0x5f,0x68,0x73,0x65,0x61,0x6e,0x30,0x35,0x5f,0x69,0x6e,0x6e,0x65,0x72,0x77,0x6f,0x72,0x6b,0x73,0x5f,0x61,0x35,0x06,0x3a,0x06,0x45,0x54,0x3a,0x0c,0x40,0x76,0x6f,0x6c,0x75,0x6d,0x65,0x69,0x55,0x3a,0x0b,0x40,0x70,0x69,0x74,0x63,0x68,0x69,0x69))
PictureDisplay(5,"ev_vinum_h1",0,0,0,0,100,100,0,0)
PictureMove(5,null,0,0,0,0,100,100,255,0,30,true)
ShowMessageFace("",0,0,2,11)
ShowMessage("狭く温かな柔肉が、ペニスを包み込んでくる。")
ShowMessage("その瞬間、僕は悲鳴を上げてしまった。")
ShowMessageFace("",0,0,2,12)
ShowMessage("数え切れないほどの男を搾り殺してきた魔膣に、")
ShowMessage("僕のモノが咥え込まれてしまったのだ――")
ShowMessageFace("vinum_fc1",4,0,2,13)
ShowMessage("\\n<Vinum>")
ShowMessage("くふふっ……犯してやったぞ。")
ShowMessage("どうだ？　心地良かろう……？")
ShowMessageFace("",0,0,2,14)
ShowMessage("\\n<Luka>")
ShowMessage("あ……あぅぅぅっ……！")
ShowMessageFace("",0,0,2,15)
ShowMessage("甘くペニスを包む、柔らかな内壁。")
ShowMessage("ヴィヌムの蜜壺は狭く、みっちりと肉棒を締め付けた。")
ShowMessageFace("",0,0,2,16)
ShowMessage("同時に、膣奥で吸い付くような感触が与えられる。")
ShowMessage("その強烈な快感に、僕はぶるっと腰を震わせ――")
RunCommonEvent(104)
PictureDisplay(5,"ev_vinum_h2",0,0,0,0,100,100,255,0)
RunCommonEvent(105)
ShowMessageFace("",0,0,2,17)
ShowMessage("\\n<Luka>")
ShowMessage("はぅぅぅぅっ……")
ShowMessageFace("",0,0,2,18)
ShowMessage("次の瞬間、ペニスはドクドクと精液を放っていた。")
ShowMessage("あまりの気持ち良さに、挿入した途端イってしまったのだ――")
ShowMessageFace("vinum_fc1",4,0,2,19)
ShowMessage("\\n<Vinum>")
ShowMessage("なんじゃ……もう果てたのか。")
ShowMessage("勇者という割には、だらしない体たらくよ。")
ShowMessageFace("vinum_fc1",4,0,2,20)
ShowMessage("\\n<Vinum>")
ShowMessage("ほぉれ……もう抵抗は終わりか？")
ShowMessage("先ほどまでの力はどうした？")
ShowMessageFace("",0,0,2,21)
ShowMessage("\\n<Luka>")
ShowMessage("う、うぅぅ……")
ShowMessageFace("",0,0,2,22)
ShowMessage("腰が抜けそうな快楽を味わいながら、僕は悶えるしかなかった。")
ShowMessage("ヴィヌムの蜜壺は、ペニスを咥え込んだまま艶めかしくうねる――")
PictureDisplay(5,"ev_vinum_h3",0,0,0,0,100,100,255,0)
ShowMessageFace("vinum_fc1",4,0,2,23)
ShowMessage("\\n<Vinum>")
ShowMessage("終わりならば……このまま吸い尽くしてくれよう。")
ShowMessage("思う存分に残りの命を漏らすがよい……")
ShowMessageFace("",0,0,2,24)
ShowMessage("\\n<Luka>")
ShowMessage("だ、だめぇ……はぅぅっ！！")
ShowMessageFace("",0,0,2,25)
ShowMessage("柔肉が艶めかしくうねり、激しい刺激を与えてくる。")
ShowMessage("さらに膣壁がぎゅっと狭まり、ペニスを甘く締め付けた。")
ShowMessageFace("",0,0,2,26)
ShowMessage("強烈な快感に、僕は腰をびくびく跳ね上げる。")
ShowMessage("射精したばかりだというのに、また放出感がこみ上げ――")
ShowMessageFace("",0,0,2,27)
ShowMessage("\\n<Luka>")
ShowMessage("はぅ……あ、あぁぁっ！！")
RunCommonEvent(104)
PictureDisplay(5,"ev_vinum_h4",0,0,0,0,100,100,255,0)
RunCommonEvent(105)
ShowMessageFace("",0,0,2,28)
ShowMessage("どぷどぷどぷっ……と、精液が膣内に溢れ出ていく。")
ShowMessage("強烈な快感と共に、ペニスが射精の脈動を始めたのだ。")
ShowMessageFace("",0,0,2,29)
ShowMessage("しかも射精は延々と続き、収まる事はない。")
ShowMessage("僕は強烈な快感を味わいながら、放出感に悶え続ける――")
ShowMessageFace("vinum_fc1",0,0,2,30)
ShowMessage("\\n<Vinum>")
ShowMessage("中々良い味じゃな……")
ShowMessage("どれ、もう一口……")
ShowMessageFace("",0,0,2,31)
ShowMessage("\\n<Luka>")
ShowMessage("と、止まらない……はぅ、あぅぅっ……！")
RunCommonEvent(104)
RunCommonEvent(105)
ShowMessageFace("",0,0,2,32)
ShowMessage("ヴィヌムの膣内に、延々と吸われていく精液。")
ShowMessage("同時に、精気そのものが搾取されていく。")
ShowMessageFace("",0,0,2,33)
ShowMessage("体から力が抜け、甘い痺れが全身に広がっていった――")
ShowMessage("生命力そのものが、ヴィヌムの魔膣に貪られているのだ。")
RunCommonEvent(104)
RunCommonEvent(105)
ShowMessageFace("",0,0,2,34)
ShowMessage("\\n<Luka>")
ShowMessage("あぅ……はぅ、うぅぅっ……")
ShowMessageFace("vinum_fc1",4,0,2,35)
ShowMessage("\\n<Vinum>")
ShowMessage("くふふっ……生命が貪られているのが分かるじゃろう？")
ShowMessage("このまま、涸れ果てるまで儂に搾り尽くされるがよい。")
ShowMessageFace("",0,0,2,36)
ShowMessage("\\n<Luka>")
ShowMessage("そ、そんなぁ……あぁぁっ！")
ShowMessageFace("vinum_fc1",4,0,2,37)
ShowMessage("\\n<Vinum>")
ShowMessage("その分、極上の快楽をくれてやろう。")
ShowMessage("そら、少し強めに吸い上げるぞ……？")
PictureDisplay(5,"ev_vinum_h5",0,0,0,0,100,100,255,0)
ShowMessageFace("",0,0,2,38)
ShowMessage("\\n<Luka>")
ShowMessage("ひぁぁぁぁぁ～～！！")
RunCommonEvent(104)
RunCommonEvent(105)
ShowMessageFace("",0,0,2,39)
ShowMessage("じゅぶっ、じゅるるっ……と、魔膣がペニスを搾り上げる。")
ShowMessage("同時に、大量の精液がどっぷりと膣内に吸い上げられた。")
ShowMessageFace("",0,0,2,40)
ShowMessage("ペニスはびくびくと痙攣のような脈動を繰り返し――")
ShowMessage("そして、ヴィヌムの中に精を吐き出していく。")
ShowMessageFace("",0,0,2,41)
ShowMessage("\\n<Luka>")
ShowMessage("あぐ……あ、うぁぁぁ～～！！")
ShowMessageFace("vinum_fc1",4,0,2,42)
ShowMessage("\\n<Vinum>")
ShowMessage("力で屈服させた勇者を、見下しながら精を味わう……")
ShowMessage("やはり、こうでなくてはのう……♡")
ShowMessageFace("",0,0,2,43)
ShowMessage("どれだけ出しても射精が止まらず、肉棒の脈動は続く。")
ShowMessage("強烈な快感に悶えながら、僕は全身をびくびくと痙攣させ――")
RunCommonEvent(104)
RunCommonEvent(105)
ShowMessageFace("",0,0,2,44)
ShowMessage("生命が危ないほどの精を、魔膣に搾取されていった。")
ShowMessage("みるみるうちに、体から力が抜けていく――")
ShowMessageFace("",0,0,2,45)
ShowMessage("\\n<Luka>")
ShowMessage("あ……ひぁぁぁ～～！！")
ShowMessageFace("vinum_fc1",4,0,2,46)
ShowMessage("\\n<Vinum>")
ShowMessage("くふふっ……存分に快楽を堪能したか？")
ShowMessage("それとも……途中で壊れてしまったかのう……？")
ShowMessageFace("",0,0,2,47)
ShowMessage("\\n<Luka>")
ShowMessage("あ……あぁ……ふあぁ……")
ShowMessageFace("vinum_fc1",4,0,2,48)
ShowMessage("\\n<Vinum>")
ShowMessage("最早、心は夢の中か。")
ShowMessage("いささか物足らんが、こうなっては焦らす必要もない……")
ShowMessageFace("vinum_fc1",0,0,2,49)
ShowMessage("\\n<Vinum>")
ShowMessage("……それでは、逝け。")
RunCommonEvent(104)
RunCommonEvent(105)
ShowMessageFace("",0,0,2,50)
ShowMessage("\\n<Luka>")
ShowMessage("あ……あぐ……うぅ……")
ShowMessageFace("",0,0,2,51)
ShowMessage("体は弛緩し、指一本さえ動かせず――")
ShowMessage("快楽の中で、意識も遠ざかっていき――")
RunCommonEvent(104)
RunCommonEvent(105)
ShowMessageFace("",0,0,2,52)
ShowMessage("そして――")
RunCommonEvent(104)
RunCommonEvent(105)
PictureDisplay(5,"ev_vinum_h6",0,0,0,0,100,100,255,0)
246(2)
ShowMessageFace("",0,0,2,53)
ShowMessage("\\n<Luka>")
ShowMessage("……………………")
ShowMessageFace("",0,0,2,54)
ShowMessage("ヴィヌムの体の下で、僕は涸れ果ててしまった。")
ShowMessage("無慈悲な搾精の果てに、精を搾り尽くされてしまったのだ。")
PictureDisplay(5,"ev_vinum_h7",0,0,0,0,100,100,255,0)
ShowMessageFace("vinum_fc1",4,0,2,55)
ShowMessage("\\n<Vinum>")
ShowMessage("くふふっ……なんとも良質の精気。")
ShowMessage("永らく忘れておった満足感じゃ……♡")
ShowMessageFace("vinum_fc1",4,0,2,56)
ShowMessage("\\n<Vinum>")
ShowMessage("しかし……まだ、この世界に強者がおるのなら……")
ShowMessage("そやつらも余さず味わうのも悪くないかもしれぬな……♡")
ShowMessageFace("",0,0,2,57)
ShowMessage("屍にまたがったまま、ヴィヌムは満足そうな笑みを浮かべる。")
ShowMessage("こうして僕は、残酷な淫魔の餌食となってしまったのである――")
221()
PictureClear(5)
PictureClear(6)
246(2)
ShowMessageFace("",0,0,2,58)
ShowMessage("・・・・・・・・")
221()
242(1)
Wait(120)
ShowChoices(strings("難易度を変更する","輪廻に戻る"),2)
IfPlayerPicksChoice(0,null)
 ShowMessageFace("",0,0,2,59)
 ShowMessage("難易度を選択して下さい。")
 RunCommonEvent(110)
 0()
IfPlayerPicksChoice(1,null)
 0()
404()
RunCommonEvent(2999)
0()
