﻿// EVENT 3484
Name "リラ"

PictureDisplay(5,"80_lira_st01",0,0,0,0,100,100,0,0)
PictureMove(5,null,0,0,0,0,100,100,255,0,30,true)
241(bytes(0x04,0x08,0x6f,0x3a,0x0d,0x52,0x50,0x47,0x3a,0x3a,0x42,0x47,0x4d,0x08,0x3a,0x0a,0x40,0x6e,0x61,0x6d,0x65,0x49,0x22,0x09,0x65,0x72,0x6f,0x31,0x06,0x3a,0x06,0x45,0x54,0x3a,0x0c,0x40,0x76,0x6f,0x6c,0x75,0x6d,0x65,0x69,0x69,0x3a,0x0b,0x40,0x70,0x69,0x74,0x63,0x68,0x69,0x69))
ShowMessageFace("",0,0,2,1)
ShowMessage("\\n<Luka>")
ShowMessage("あぅぅぅ……")
ShowMessageFace("lira_fc1",0,0,2,2)
ShowMessage("\\n<Lyla>")
ShowMessage("あはっ、もう降参……？")
ShowMessage("それじゃあ、負け犬クンには罰ゲームねっ♡")
ShowMessageFace("",0,0,2,3)
ShowMessage("リラは、倒れた僕に歩み寄り――")
245(bytes(0x04,0x08,0x6f,0x3a,0x0d,0x52,0x50,0x47,0x3a,0x3a,0x42,0x47,0x53,0x08,0x3a,0x0a,0x40,0x6e,0x61,0x6d,0x65,0x49,0x22,0x17,0x6d,0x6f,0x6e,0x5f,0x68,0x73,0x65,0x61,0x6e,0x31,0x37,0x5f,0x73,0x69,0x67,0x6f,0x6b,0x69,0x06,0x3a,0x06,0x45,0x54,0x3a,0x0c,0x40,0x76,0x6f,0x6c,0x75,0x6d,0x65,0x69,0x55,0x3a,0x0b,0x40,0x70,0x69,0x74,0x63,0x68,0x69,0x69))
PictureDisplay(5,"ev_lira_h1",0,0,0,0,100,100,0,0)
PictureMove(5,null,0,0,0,0,100,100,255,0,30,true)
ShowMessageFace("",0,0,2,4)
ShowMessage("僕の股間に、大きなお尻を押しつけてきた！")
ShowMessage("柔らかな感触に、むぎゅっと圧迫されてしまう――")
ShowMessageFace("",0,0,2,5)
ShowMessage("\\n<Luka>")
ShowMessage("あぅぅぅっ……！！")
ShowMessageFace("lira_fc1",0,0,2,6)
ShowMessage("\\n<Lyla>")
ShowMessage("ちんちん、もう大きくしちゃって……")
ShowMessage("こんな風にされたかったの？　変態クン♡")
ShowMessageFace("",0,0,2,7)
ShowMessage("\\n<Luka>")
ShowMessage("そ、そんな……はぅぅっ！")
ShowMessageFace("",0,0,2,8)
ShowMessage("まるで僕を弄ぶように、リラは腰を動かしてきた。")
ShowMessage("そのお尻の下で、ペニスがむにゅむにゅと押し潰される。")
ShowMessageFace("",0,0,2,9)
ShowMessage("弾力たっぷりの、その柔らかな感触――")
ShowMessage("リラが腰を動かすたび、僕は甘い快感を味わってしまった。")
ShowMessageFace("",0,0,2,10)
ShowMessage("\\n<Luka>")
ShowMessage("あぁぁ……や、やめてぇ……！")
ShowMessageFace("",0,0,2,11)
ShowMessage("ぐにぐに、むぎゅむぎゅとペニスが柔らかく押し潰される。")
ShowMessage("その快感に、僕は腰を震わせて悶えた。")
ShowMessageFace("",0,0,2,12)
ShowMessage("時には深く押しつけ、擦り潰すように動かされ――")
ShowMessage("溢れ出した先走りが、リラのお尻を汚してしまっている。")
ShowMessageFace("lira_fc1",0,0,2,13)
ShowMessage("\\n<Lyla>")
ShowMessage("あははっ、もうイきそうなの？")
ShowMessage("それじゃあ、これでトドメ～♡")
ShowMessageFace("",0,0,2,14)
ShowMessage("\\n<Luka>")
ShowMessage("あ、あぁぁぁ～～！！")
ShowMessageFace("",0,0,2,15)
ShowMessage("リラはぐりぐりと腰を動かし、ペニスを嫐りたてる。")
ShowMessage("その重圧と柔らかさに、僕は体をぶるぶると震わせ――")
ShowMessageFace("",0,0,2,16)
ShowMessage("\\n<Luka>")
ShowMessage("出ちゃう、出ちゃうよぉ……あぁっ！")
RunCommonEvent(104)
PictureDisplay(5,"ev_lira_h2",0,0,0,0,100,100,255,0)
RunCommonEvent(105)
246(2)
ShowMessageFace("",0,0,2,17)
ShowMessage("リラのお尻の下で、ペニスがびくびく脈打ち――")
ShowMessage("そして、びゅるびゅると精液を発射してしまった。")
ShowMessageFace("lira_fc1",0,0,2,18)
ShowMessage("\\n<Lyla>")
ShowMessage("あはっ、あっけなかったね♪")
ShowMessage("こんなに簡単にイかされるなんて、恥ずかしくないのぉ？")
ShowMessageFace("",0,0,2,19)
ShowMessage("リラは射精中のペニスを虐待するように、腰を動かし続ける。")
ShowMessage("柔らかなお尻の下で、肉棒が嫐り抜かれ――")
ShowMessageFace("",0,0,2,20)
ShowMessage("\\n<Luka>")
ShowMessage("あ……はぅ、あぁぁっ……！")
ShowMessageFace("",0,0,2,21)
ShowMessage("射精が終わるまで、僕は悶絶させられたのである。")
ShowMessage("リラのお尻は、すっかり精液まみれになってしまった――")
ShowMessageFace("lira_fc1",0,0,2,22)
ShowMessage("\\n<Lyla>")
ShowMessage("これで、キミはもう私達の奴隷。")
ShowMessage("死ぬまでこき使ってあげるからね～♪")
ShowMessageFace("",0,0,2,23)
ShowMessage("\\n<Luka>")
ShowMessage("そ、そんな……")
ShowMessageFace("lira_fc1",0,0,2,24)
ShowMessage("\\n<Lyla>")
ShowMessage("でも、ちゃんとご褒美をあげるから……")
ShowMessage("ほぉら、こんな風に……♡")
ShowMessageFace("",0,0,2,25)
ShowMessage("\\n<Luka>")
ShowMessage("はぅぅぅ……")
ShowMessageFace("",0,0,2,26)
ShowMessage("ぐりぐりとペニスが刺激され、僕は悶えてしまう。")
ShowMessage("もはや完全に、快楽で手玉に取られていた。")
ShowMessageFace("",0,0,2,27)
ShowMessage("こうして僕は、ミュゼット達の奴隷にされてしまった。")
ShowMessage("快楽のご褒美と引き替えに、毎日のようにこき使われたのである――")
221()
PictureClear(5)
PictureClear(6)
246(2)
ShowMessageFace("",0,0,2,28)
ShowMessage("・・・・・・・・")
221()
242(1)
Wait(120)
ShowChoices(strings("難易度を変更する","輪廻に戻る"),2)
IfPlayerPicksChoice(0,null)
 ShowMessageFace("",0,0,2,29)
 ShowMessage("難易度を選択して下さい。")
 RunCommonEvent(110)
 0()
IfPlayerPicksChoice(1,null)
 0()
404()
RunCommonEvent(2999)
0()
