// EVENT 0036
Name "Get: Rank 4 Single Item"

ChangeVariable(11,11,0,2,1,273)
If(1,11,0,1,0)
 ChangeInventory_Item(3,0,0,1)
 ShowMessageFace("",0,0,2,1)
 ShowMessage("You obtain \\ii[3]!")
 EndEventProcessing()
 0()
EndIf()
If(1,11,0,2,0)
 ChangeInventory_Item(5,0,0,1)
 ShowMessageFace("",0,0,2,2)
 ShowMessage("You obtain \\ii[5]!")
 EndEventProcessing()
 0()
EndIf()
If(1,11,0,3,0)
 ChangeInventory_Item(12,0,0,1)
 ShowMessageFace("",0,0,2,3)
 ShowMessage("You obtain \\ii[12]!")
 EndEventProcessing()
 0()
EndIf()
If(1,11,0,4,0)
 ChangeInventory_Item(22,0,0,1)
 ShowMessageFace("",0,0,2,4)
 ShowMessage("You obtain \\ii[22]!")
 EndEventProcessing()
 0()
EndIf()
If(1,11,0,5,0)
 ChangeInventory_Item(53,0,0,1)
 ShowMessageFace("",0,0,2,5)
 ShowMessage("You obtain \\ii[53]!")
 EndEventProcessing()
 0()
EndIf()
If(1,11,0,6,0)
 ChangeInventory_Item(57,0,0,1)
 ShowMessageFace("",0,0,2,6)
 ShowMessage("You obtain \\ii[57]!")
 EndEventProcessing()
 0()
EndIf()
If(1,11,0,7,0)
 ChangeInventory_Item(61,0,0,1)
 ShowMessageFace("",0,0,2,7)
 ShowMessage("You obtain \\ii[61]!")
 EndEventProcessing()
 0()
EndIf()
If(1,11,0,8,0)
 ChangeInventory_Item(65,0,0,1)
 ShowMessageFace("",0,0,2,8)
 ShowMessage("You obtain \\ii[65]!")
 EndEventProcessing()
 0()
EndIf()
If(1,11,0,9,0)
 ChangeInventory_Item(69,0,0,1)
 ShowMessageFace("",0,0,2,9)
 ShowMessage("You obtain \\ii[69]!")
 EndEventProcessing()
 0()
EndIf()
If(1,11,0,10,0)
 ChangeInventory_Item(73,0,0,1)
 ShowMessageFace("",0,0,2,10)
 ShowMessage("You obtain \\ii[73]!")
 EndEventProcessing()
 0()
EndIf()
If(1,11,0,11,0)
 ChangeInventory_Item(77,0,0,1)
 ShowMessageFace("",0,0,2,11)
 ShowMessage("You obtain \\ii[77]!")
 EndEventProcessing()
 0()
EndIf()
If(1,11,0,12,0)
 ChangeInventory_Item(81,0,0,1)
 ShowMessageFace("",0,0,2,12)
 ShowMessage("You obtain \\ii[81]!")
 EndEventProcessing()
 0()
EndIf()
If(1,11,0,13,0)
 ChangeInventory_Item(226,0,0,1)
 ShowMessageFace("",0,0,2,13)
 ShowMessage("You obtain \\ii[226]!")
 EndEventProcessing()
 0()
EndIf()
If(1,11,0,14,0)
 ChangeInventory_Item(227,0,0,1)
 ShowMessageFace("",0,0,2,14)
 ShowMessage("You obtain \\ii[227]!")
 EndEventProcessing()
 0()
EndIf()
If(1,11,0,15,0)
 ChangeInventory_Item(228,0,0,1)
 ShowMessageFace("",0,0,2,15)
 ShowMessage("You obtain \\ii[228]!")
 EndEventProcessing()
 0()
EndIf()
If(1,11,0,16,0)
 ChangeInventory_Item(229,0,0,1)
 ShowMessageFace("",0,0,2,16)
 ShowMessage("You obtain \\ii[229]!")
 EndEventProcessing()
 0()
EndIf()
If(1,11,0,17,0)
 ChangeInventory_Item(230,0,0,1)
 ShowMessageFace("",0,0,2,17)
 ShowMessage("You obtain \\ii[230]!")
 EndEventProcessing()
 0()
EndIf()
If(1,11,0,18,0)
 ChangeInventory_Item(231,0,0,1)
 ShowMessageFace("",0,0,2,18)
 ShowMessage("You obtain \\ii[231]!")
 EndEventProcessing()
 0()
EndIf()
If(1,11,0,19,0)
 ChangeInventory_Item(232,0,0,1)
 ShowMessageFace("",0,0,2,19)
 ShowMessage("You obtain \\ii[232]!")
 EndEventProcessing()
 0()
EndIf()
If(1,11,0,20,0)
 ChangeInventory_Item(233,0,0,1)
 ShowMessageFace("",0,0,2,20)
 ShowMessage("You obtain \\ii[233]!")
 EndEventProcessing()
 0()
EndIf()
If(1,11,0,21,0)
 ChangeInventory_Item(234,0,0,1)
 ShowMessageFace("",0,0,2,21)
 ShowMessage("You obtain \\ii[234]!")
 EndEventProcessing()
 0()
EndIf()
If(1,11,0,22,0)
 ChangeInventory_Item(235,0,0,1)
 ShowMessageFace("",0,0,2,22)
 ShowMessage("You obtain \\ii[235]!")
 EndEventProcessing()
 0()
EndIf()
If(1,11,0,23,0)
 ChangeInventory_Item(236,0,0,1)
 ShowMessageFace("",0,0,2,23)
 ShowMessage("You obtain \\ii[236]!")
 EndEventProcessing()
 0()
EndIf()
If(1,11,0,24,0)
 ChangeInventory_Item(237,0,0,1)
 ShowMessageFace("",0,0,2,24)
 ShowMessage("You obtain \\ii[237]!")
 EndEventProcessing()
 0()
EndIf()
If(1,11,0,25,0)
 ChangeInventory_Item(238,0,0,1)
 ShowMessageFace("",0,0,2,25)
 ShowMessage("You obtain \\ii[238]!")
 EndEventProcessing()
 0()
EndIf()
If(1,11,0,26,0)
 ChangeInventory_Item(239,0,0,1)
 ShowMessageFace("",0,0,2,26)
 ShowMessage("You obtain \\ii[239]!")
 EndEventProcessing()
 0()
EndIf()
If(1,11,0,27,0)
 ChangeInventory_Item(240,0,0,1)
 ShowMessageFace("",0,0,2,27)
 ShowMessage("You obtain \\ii[240]!")
 EndEventProcessing()
 0()
EndIf()
If(1,11,0,28,0)
 ChangeInventory_Item(241,0,0,1)
 ShowMessageFace("",0,0,2,28)
 ShowMessage("You obtain \\ii[241]!")
 EndEventProcessing()
 0()
EndIf()
If(1,11,0,29,0)
 ChangeInventory_Item(242,0,0,1)
 ShowMessageFace("",0,0,2,29)
 ShowMessage("You obtain \\ii[242]!")
 EndEventProcessing()
 0()
EndIf()
If(1,11,0,30,0)
 ChangeInventory_Item(243,0,0,1)
 ShowMessageFace("",0,0,2,30)
 ShowMessage("You obtain \\ii[243]!")
 EndEventProcessing()
 0()
EndIf()
If(1,11,0,31,0)
 ChangeInventory_Item(362,0,0,1)
 ShowMessageFace("",0,0,2,31)
 ShowMessage("You obtain \\ii[362]!")
 EndEventProcessing()
 0()
EndIf()
If(1,11,0,32,0)
 ChangeInventory_Item(369,0,0,1)
 ShowMessageFace("",0,0,2,32)
 ShowMessage("You obtain \\ii[369]!")
 EndEventProcessing()
 0()
EndIf()
If(1,11,0,33,0)
 ChangeInventory_Item(372,0,0,1)
 ShowMessageFace("",0,0,2,33)
 ShowMessage("You obtain \\ii[372]!")
 EndEventProcessing()
 0()
EndIf()
If(1,11,0,34,0)
 ChangeInventory_Item(373,0,0,1)
 ShowMessageFace("",0,0,2,34)
 ShowMessage("You obtain \\ii[373]!")
 EndEventProcessing()
 0()
EndIf()
If(1,11,0,35,0)
 ChangeInventory_Item(377,0,0,1)
 ShowMessageFace("",0,0,2,35)
 ShowMessage("You obtain \\ii[377]!")
 EndEventProcessing()
 0()
EndIf()
If(1,11,0,36,0)
 ChangeInventory_Item(378,0,0,1)
 ShowMessageFace("",0,0,2,36)
 ShowMessage("You obtain \\ii[378]!")
 EndEventProcessing()
 0()
EndIf()
If(1,11,0,37,0)
 ChangeInventory_Item(392,0,0,1)
 ShowMessageFace("",0,0,2,37)
 ShowMessage("You obtain \\ii[392]!")
 EndEventProcessing()
 0()
EndIf()
If(1,11,0,38,0)
 ChangeInventory_Item(408,0,0,1)
 ShowMessageFace("",0,0,2,38)
 ShowMessage("You obtain \\ii[408]!")
 EndEventProcessing()
 0()
EndIf()
If(1,11,0,39,0)
 ChangeInventory_Item(409,0,0,1)
 ShowMessageFace("",0,0,2,39)
 ShowMessage("You obtain \\ii[409]!")
 EndEventProcessing()
 0()
EndIf()
If(1,11,0,40,0)
 ChangeInventory_Item(410,0,0,1)
 ShowMessageFace("",0,0,2,40)
 ShowMessage("You obtain \\ii[410]!")
 EndEventProcessing()
 0()
EndIf()
If(1,11,0,41,0)
 ChangeInventory_Item(411,0,0,1)
 ShowMessageFace("",0,0,2,41)
 ShowMessage("You obtain \\ii[411]!")
 EndEventProcessing()
 0()
EndIf()
If(1,11,0,42,0)
 ChangeInventory_Item(412,0,0,1)
 ShowMessageFace("",0,0,2,42)
 ShowMessage("You obtain \\ii[412]!")
 EndEventProcessing()
 0()
EndIf()
If(1,11,0,43,0)
 ChangeInventory_Item(413,0,0,1)
 ShowMessageFace("",0,0,2,43)
 ShowMessage("You obtain \\ii[413]!")
 EndEventProcessing()
 0()
EndIf()
If(1,11,0,44,0)
 ChangeInventory_Item(414,0,0,1)
 ShowMessageFace("",0,0,2,44)
 ShowMessage("You obtain \\ii[414]!")
 EndEventProcessing()
 0()
EndIf()
If(1,11,0,45,0)
 ChangeInventory_Item(415,0,0,1)
 ShowMessageFace("",0,0,2,45)
 ShowMessage("You obtain \\ii[415]!")
 EndEventProcessing()
 0()
EndIf()
If(1,11,0,46,0)
 ChangeInventory_Item(416,0,0,1)
 ShowMessageFace("",0,0,2,46)
 ShowMessage("You obtain \\ii[416]!")
 EndEventProcessing()
 0()
EndIf()
If(1,11,0,47,0)
 ChangeInventory_Item(417,0,0,1)
 ShowMessageFace("",0,0,2,47)
 ShowMessage("You obtain \\ii[417]!")
 EndEventProcessing()
 0()
EndIf()
If(1,11,0,48,0)
 ChangeInventory_Item(418,0,0,1)
 ShowMessageFace("",0,0,2,48)
 ShowMessage("You obtain \\ii[418]!")
 EndEventProcessing()
 0()
EndIf()
If(1,11,0,49,0)
 ChangeInventory_Item(419,0,0,1)
 ShowMessageFace("",0,0,2,49)
 ShowMessage("You obtain \\ii[419]!")
 EndEventProcessing()
 0()
EndIf()
If(1,11,0,50,0)
 ChangeInventory_Item(420,0,0,1)
 ShowMessageFace("",0,0,2,50)
 ShowMessage("You obtain \\ii[420]!")
 EndEventProcessing()
 0()
EndIf()
If(1,11,0,51,0)
 ChangeInventory_Item(421,0,0,1)
 ShowMessageFace("",0,0,2,51)
 ShowMessage("You obtain \\ii[421]!")
 EndEventProcessing()
 0()
EndIf()
If(1,11,0,52,0)
 ChangeInventory_Item(422,0,0,1)
 ShowMessageFace("",0,0,2,52)
 ShowMessage("You obtain \\ii[422]!")
 EndEventProcessing()
 0()
EndIf()
If(1,11,0,53,0)
 ChangeInventory_Item(423,0,0,1)
 ShowMessageFace("",0,0,2,53)
 ShowMessage("You obtain \\ii[423]!")
 EndEventProcessing()
 0()
EndIf()
If(1,11,0,54,0)
 ChangeInventory_Item(424,0,0,1)
 ShowMessageFace("",0,0,2,54)
 ShowMessage("You obtain \\ii[424]!")
 EndEventProcessing()
 0()
EndIf()
If(1,11,0,55,0)
 ChangeInventory_Item(425,0,0,1)
 ShowMessageFace("",0,0,2,55)
 ShowMessage("You obtain \\ii[425]!")
 EndEventProcessing()
 0()
EndIf()
If(1,11,0,56,0)
 ChangeInventory_Item(426,0,0,1)
 ShowMessageFace("",0,0,2,56)
 ShowMessage("You obtain \\ii[426]!")
 EndEventProcessing()
 0()
EndIf()
If(1,11,0,57,0)
 ChangeInventory_Item(427,0,0,1)
 ShowMessageFace("",0,0,2,57)
 ShowMessage("You obtain \\ii[427]!")
 EndEventProcessing()
 0()
EndIf()
If(1,11,0,58,0)
 ChangeInventory_Item(428,0,0,1)
 ShowMessageFace("",0,0,2,58)
 ShowMessage("You obtain \\ii[428]!")
 EndEventProcessing()
 0()
EndIf()
If(1,11,0,59,0)
 ChangeInventory_Item(429,0,0,1)
 ShowMessageFace("",0,0,2,59)
 ShowMessage("You obtain \\ii[429]!")
 EndEventProcessing()
 0()
EndIf()
If(1,11,0,60,0)
 ChangeInventory_Item(430,0,0,1)
 ShowMessageFace("",0,0,2,60)
 ShowMessage("You obtain \\ii[430]!")
 EndEventProcessing()
 0()
EndIf()
If(1,11,0,61,0)
 ChangeInventory_Item(431,0,0,1)
 ShowMessageFace("",0,0,2,61)
 ShowMessage("You obtain \\ii[431]!")
 EndEventProcessing()
 0()
EndIf()
If(1,11,0,62,0)
 ChangeInventoryArmor(1004,0,0,1,false)
 ShowMessageFace("",0,0,2,62)
 ShowMessage("You obtain \\ia[1004]!")
 EndEventProcessing()
 0()
EndIf()
If(1,11,0,63,0)
 ChangeInventoryArmor(1009,0,0,1,false)
 ShowMessageFace("",0,0,2,63)
 ShowMessage("You obtain \\ia[1009]!")
 EndEventProcessing()
 0()
EndIf()
If(1,11,0,64,0)
 ChangeInventoryArmor(1014,0,0,1,false)
 ShowMessageFace("",0,0,2,64)
 ShowMessage("You obtain \\ia[1014]!")
 EndEventProcessing()
 0()
EndIf()
If(1,11,0,65,0)
 ChangeInventoryArmor(1019,0,0,1,false)
 ShowMessageFace("",0,0,2,65)
 ShowMessage("You obtain \\ia[1019]!")
 EndEventProcessing()
 0()
EndIf()
If(1,11,0,66,0)
 ChangeInventoryArmor(1024,0,0,1,false)
 ShowMessageFace("",0,0,2,66)
 ShowMessage("You obtain \\ia[1024]!")
 EndEventProcessing()
 0()
EndIf()
If(1,11,0,67,0)
 ChangeInventoryArmor(1029,0,0,1,false)
 ShowMessageFace("",0,0,2,67)
 ShowMessage("You obtain \\ia[1029]!")
 EndEventProcessing()
 0()
EndIf()
If(1,11,0,68,0)
 ChangeInventoryArmor(1034,0,0,1,false)
 ShowMessageFace("",0,0,2,68)
 ShowMessage("You obtain \\ia[1034]!")
 EndEventProcessing()
 0()
EndIf()
If(1,11,0,69,0)
 ChangeInventoryArmor(1039,0,0,1,false)
 ShowMessageFace("",0,0,2,69)
 ShowMessage("You obtain \\ia[1039]!")
 EndEventProcessing()
 0()
EndIf()
If(1,11,0,70,0)
 ChangeInventoryArmor(1044,0,0,1,false)
 ShowMessageFace("",0,0,2,70)
 ShowMessage("You obtain \\ia[1044]!")
 EndEventProcessing()
 0()
EndIf()
If(1,11,0,71,0)
 ChangeInventoryArmor(1048,0,0,1,false)
 ShowMessageFace("",0,0,2,71)
 ShowMessage("You obtain \\ia[1048]!")
 EndEventProcessing()
 0()
EndIf()
If(1,11,0,72,0)
 ChangeInventoryArmor(1068,0,0,1,false)
 ShowMessageFace("",0,0,2,72)
 ShowMessage("You obtain \\ia[1068]!")
 EndEventProcessing()
 0()
EndIf()
If(1,11,0,73,0)
 ChangeInventoryArmor(1073,0,0,1,false)
 ShowMessageFace("",0,0,2,73)
 ShowMessage("You obtain \\ia[1073]!")
 EndEventProcessing()
 0()
EndIf()
If(1,11,0,74,0)
 ChangeInventoryArmor(1078,0,0,1,false)
 ShowMessageFace("",0,0,2,74)
 ShowMessage("You obtain \\ia[1078]!")
 EndEventProcessing()
 0()
EndIf()
If(1,11,0,75,0)
 ChangeInventoryArmor(1083,0,0,1,false)
 ShowMessageFace("",0,0,2,75)
 ShowMessage("You obtain \\ia[1083]!")
 EndEventProcessing()
 0()
EndIf()
If(1,11,0,76,0)
 ChangeInventoryArmor(1087,0,0,1,false)
 ShowMessageFace("",0,0,2,76)
 ShowMessage("You obtain \\ia[1087]!")
 EndEventProcessing()
 0()
EndIf()
If(1,11,0,77,0)
 ChangeInventoryArmor(1091,0,0,1,false)
 ShowMessageFace("",0,0,2,77)
 ShowMessage("You obtain \\ia[1091]!")
 EndEventProcessing()
 0()
EndIf()
If(1,11,0,78,0)
 ChangeInventoryArmor(1093,0,0,1,false)
 ShowMessageFace("",0,0,2,78)
 ShowMessage("You obtain \\ia[1093]!")
 EndEventProcessing()
 0()
EndIf()
If(1,11,0,79,0)
 ChangeInventoryArmor(1097,0,0,1,false)
 ShowMessageFace("",0,0,2,79)
 ShowMessage("You obtain \\ia[1097]!")
 EndEventProcessing()
 0()
EndIf()
If(1,11,0,80,0)
 ChangeInventoryArmor(1104,0,0,1,false)
 ShowMessageFace("",0,0,2,80)
 ShowMessage("You obtain \\ia[1104]!")
 EndEventProcessing()
 0()
EndIf()
If(1,11,0,81,0)
 ChangeInventoryArmor(1105,0,0,1,false)
 ShowMessageFace("",0,0,2,81)
 ShowMessage("You obtain \\ia[1105]!")
 EndEventProcessing()
 0()
EndIf()
If(1,11,0,82,0)
 ChangeInventoryArmor(1106,0,0,1,false)
 ShowMessageFace("",0,0,2,82)
 ShowMessage("You obtain \\ia[1106]!")
 EndEventProcessing()
 0()
EndIf()
If(1,11,0,83,0)
 ChangeInventoryArmor(1112,0,0,1,false)
 ShowMessageFace("",0,0,2,83)
 ShowMessage("You obtain \\ia[1112]!")
 EndEventProcessing()
 0()
EndIf()
If(1,11,0,84,0)
 ChangeInventoryArmor(1124,0,0,1,false)
 ShowMessageFace("",0,0,2,84)
 ShowMessage("You obtain \\ia[1124]!")
 EndEventProcessing()
 0()
EndIf()
If(1,11,0,85,0)
 ChangeInventoryArmor(1128,0,0,1,false)
 ShowMessageFace("",0,0,2,85)
 ShowMessage("You obtain \\ia[1128]!")
 EndEventProcessing()
 0()
EndIf()
If(1,11,0,86,0)
 ChangeInventoryArmor(1132,0,0,1,false)
 ShowMessageFace("",0,0,2,86)
 ShowMessage("You obtain \\ia[1132]!")
 EndEventProcessing()
 0()
EndIf()
If(1,11,0,87,0)
 ChangeInventoryArmor(1135,0,0,1,false)
 ShowMessageFace("",0,0,2,87)
 ShowMessage("You obtain \\ia[1135]!")
 EndEventProcessing()
 0()
EndIf()
If(1,11,0,88,0)
 ChangeInventoryArmor(1139,0,0,1,false)
 ShowMessageFace("",0,0,2,88)
 ShowMessage("You obtain \\ia[1139]!")
 EndEventProcessing()
 0()
EndIf()
If(1,11,0,89,0)
 ChangeInventoryArmor(1144,0,0,1,false)
 ShowMessageFace("",0,0,2,89)
 ShowMessage("You obtain \\ia[1144]!")
 EndEventProcessing()
 0()
EndIf()
If(1,11,0,90,0)
 ChangeInventoryArmor(1150,0,0,1,false)
 ShowMessageFace("",0,0,2,90)
 ShowMessage("You obtain \\ia[1150]!")
 EndEventProcessing()
 0()
EndIf()
If(1,11,0,91,0)
 ChangeInventoryArmor(1152,0,0,1,false)
 ShowMessageFace("",0,0,2,91)
 ShowMessage("You obtain \\ia[1152]!")
 EndEventProcessing()
 0()
EndIf()
If(1,11,0,92,0)
 ChangeInventoryArmor(1158,0,0,1,false)
 ShowMessageFace("",0,0,2,92)
 ShowMessage("You obtain \\ia[1158]!")
 EndEventProcessing()
 0()
EndIf()
If(1,11,0,93,0)
 ChangeInventoryArmor(1169,0,0,1,false)
 ShowMessageFace("",0,0,2,93)
 ShowMessage("You obtain \\ia[1169]!")
 EndEventProcessing()
 0()
EndIf()
If(1,11,0,94,0)
 ChangeInventoryArmor(1177,0,0,1,false)
 ShowMessageFace("",0,0,2,94)
 ShowMessage("You obtain \\ia[1177]!")
 EndEventProcessing()
 0()
EndIf()
If(1,11,0,95,0)
 ChangeInventoryArmor(1178,0,0,1,false)
 ShowMessageFace("",0,0,2,95)
 ShowMessage("You obtain \\ia[1178]!")
 EndEventProcessing()
 0()
EndIf()
If(1,11,0,96,0)
 ChangeInventoryArmor(1181,0,0,1,false)
 ShowMessageFace("",0,0,2,96)
 ShowMessage("You obtain \\ia[1181]!")
 EndEventProcessing()
 0()
EndIf()
If(1,11,0,97,0)
 ChangeInventoryArmor(1187,0,0,1,false)
 ShowMessageFace("",0,0,2,97)
 ShowMessage("You obtain \\ia[1187]!")
 EndEventProcessing()
 0()
EndIf()
If(1,11,0,98,0)
 ChangeInventoryArmor(1190,0,0,1,false)
 ShowMessageFace("",0,0,2,98)
 ShowMessage("You obtain \\ia[1190]!")
 EndEventProcessing()
 0()
EndIf()
If(1,11,0,99,0)
 ChangeInventoryArmor(1194,0,0,1,false)
 ShowMessageFace("",0,0,2,99)
 ShowMessage("You obtain \\ia[1194]!")
 EndEventProcessing()
 0()
EndIf()
If(1,11,0,100,0)
 ChangeInventoryArmor(1196,0,0,1,false)
 ShowMessageFace("",0,0,2,100)
 ShowMessage("You obtain \\ia[1196]!")
 EndEventProcessing()
 0()
EndIf()
If(1,11,0,101,0)
 ChangeInventoryArmor(1212,0,0,1,false)
 ShowMessageFace("",0,0,2,101)
 ShowMessage("You obtain \\ia[1212]!")
 EndEventProcessing()
 0()
EndIf()
If(1,11,0,102,0)
 ChangeInventoryArmor(1213,0,0,1,false)
 ShowMessageFace("",0,0,2,102)
 ShowMessage("You obtain \\ia[1213]!")
 EndEventProcessing()
 0()
EndIf()
If(1,11,0,103,0)
 ChangeInventoryArmor(1214,0,0,1,false)
 ShowMessageFace("",0,0,2,103)
 ShowMessage("You obtain \\ia[1214]!")
 EndEventProcessing()
 0()
EndIf()
If(1,11,0,104,0)
 ChangeInventoryArmor(1215,0,0,1,false)
 ShowMessageFace("",0,0,2,104)
 ShowMessage("You obtain \\ia[1215]!")
 EndEventProcessing()
 0()
EndIf()
If(1,11,0,105,0)
 ChangeInventoryArmor(1216,0,0,1,false)
 ShowMessageFace("",0,0,2,105)
 ShowMessage("You obtain \\ia[1216]!")
 EndEventProcessing()
 0()
EndIf()
If(1,11,0,106,0)
 ChangeInventoryArmor(1217,0,0,1,false)
 ShowMessageFace("",0,0,2,106)
 ShowMessage("You obtain \\ia[1217]!")
 EndEventProcessing()
 0()
EndIf()
If(1,11,0,107,0)
 ChangeInventoryArmor(1218,0,0,1,false)
 ShowMessageFace("",0,0,2,107)
 ShowMessage("You obtain \\ia[1218]!")
 EndEventProcessing()
 0()
EndIf()
If(1,11,0,108,0)
 ChangeInventoryArmor(1219,0,0,1,false)
 ShowMessageFace("",0,0,2,108)
 ShowMessage("You obtain \\ia[1219]!")
 EndEventProcessing()
 0()
EndIf()
If(1,11,0,109,0)
 ChangeInventoryArmor(1220,0,0,1,false)
 ShowMessageFace("",0,0,2,109)
 ShowMessage("You obtain \\ia[1220]!")
 EndEventProcessing()
 0()
EndIf()
If(1,11,0,110,0)
 ChangeInventoryArmor(1221,0,0,1,false)
 ShowMessageFace("",0,0,2,110)
 ShowMessage("You obtain \\ia[1221]!")
 EndEventProcessing()
 0()
EndIf()
If(1,11,0,111,0)
 ChangeInventoryArmor(1222,0,0,1,false)
 ShowMessageFace("",0,0,2,111)
 ShowMessage("You obtain \\ia[1222]!")
 EndEventProcessing()
 0()
EndIf()
If(1,11,0,112,0)
 ChangeInventoryArmor(1223,0,0,1,false)
 ShowMessageFace("",0,0,2,112)
 ShowMessage("You obtain \\ia[1223]!")
 EndEventProcessing()
 0()
EndIf()
If(1,11,0,113,0)
 ChangeInventoryArmor(1224,0,0,1,false)
 ShowMessageFace("",0,0,2,113)
 ShowMessage("You obtain \\ia[1224]!")
 EndEventProcessing()
 0()
EndIf()
If(1,11,0,114,0)
 ChangeInventoryArmor(1225,0,0,1,false)
 ShowMessageFace("",0,0,2,114)
 ShowMessage("You obtain \\ia[1225]!")
 EndEventProcessing()
 0()
EndIf()
If(1,11,0,115,0)
 ChangeInventoryArmor(1226,0,0,1,false)
 ShowMessageFace("",0,0,2,115)
 ShowMessage("You obtain \\ia[1226]!")
 EndEventProcessing()
 0()
EndIf()
If(1,11,0,116,0)
 ChangeInventoryArmor(1227,0,0,1,false)
 ShowMessageFace("",0,0,2,116)
 ShowMessage("You obtain \\ia[1227]!")
 EndEventProcessing()
 0()
EndIf()
If(1,11,0,117,0)
 ChangeInventoryArmor(1228,0,0,1,false)
 ShowMessageFace("",0,0,2,117)
 ShowMessage("You obtain \\ia[1228]!")
 EndEventProcessing()
 0()
EndIf()
If(1,11,0,118,0)
 ChangeInventoryArmor(1229,0,0,1,false)
 ShowMessageFace("",0,0,2,118)
 ShowMessage("You obtain \\ia[1229]!")
 EndEventProcessing()
 0()
EndIf()
If(1,11,0,119,0)
 ChangeInventoryArmor(1230,0,0,1,false)
 ShowMessageFace("",0,0,2,119)
 ShowMessage("You obtain \\ia[1230]!")
 EndEventProcessing()
 0()
EndIf()
If(1,11,0,120,0)
 ChangeInventoryArmor(1231,0,0,1,false)
 ShowMessageFace("",0,0,2,120)
 ShowMessage("You obtain \\ia[1231]!")
 EndEventProcessing()
 0()
EndIf()
If(1,11,0,121,0)
 ChangeInventoryArmor(1232,0,0,1,false)
 ShowMessageFace("",0,0,2,121)
 ShowMessage("You obtain \\ia[1232]!")
 EndEventProcessing()
 0()
EndIf()
If(1,11,0,122,0)
 ChangeInventoryArmor(1233,0,0,1,false)
 ShowMessageFace("",0,0,2,122)
 ShowMessage("You obtain \\ia[1233]!")
 EndEventProcessing()
 0()
EndIf()
If(1,11,0,123,0)
 ChangeInventoryArmor(1234,0,0,1,false)
 ShowMessageFace("",0,0,2,123)
 ShowMessage("You obtain \\ia[1234]!")
 EndEventProcessing()
 0()
EndIf()
If(1,11,0,124,0)
 ChangeInventoryArmor(1235,0,0,1,false)
 ShowMessageFace("",0,0,2,124)
 ShowMessage("You obtain \\ia[1235]!")
 EndEventProcessing()
 0()
EndIf()
If(1,11,0,125,0)
 ChangeInventoryArmor(1236,0,0,1,false)
 ShowMessageFace("",0,0,2,125)
 ShowMessage("You obtain \\ia[1236]!")
 EndEventProcessing()
 0()
EndIf()
If(1,11,0,126,0)
 ChangeInventoryArmor(1237,0,0,1,false)
 ShowMessageFace("",0,0,2,126)
 ShowMessage("You obtain \\ia[1237]!")
 EndEventProcessing()
 0()
EndIf()
If(1,11,0,127,0)
 ChangeInventoryArmor(1240,0,0,1,false)
 ShowMessageFace("",0,0,2,127)
 ShowMessage("You obtain \\ia[1240]!")
 EndEventProcessing()
 0()
EndIf()
If(1,11,0,128,0)
 ChangeInventoryArmor(1244,0,0,1,false)
 ShowMessageFace("",0,0,2,128)
 ShowMessage("You obtain \\ia[1244]!")
 EndEventProcessing()
 0()
EndIf()
If(1,11,0,129,0)
 ChangeInventoryArmor(1247,0,0,1,false)
 ShowMessageFace("",0,0,2,129)
 ShowMessage("You obtain \\ia[1247]!")
 EndEventProcessing()
 0()
EndIf()
If(1,11,0,130,0)
 ChangeInventoryArmor(1250,0,0,1,false)
 ShowMessageFace("",0,0,2,130)
 ShowMessage("You obtain \\ia[1250]!")
 EndEventProcessing()
 0()
EndIf()
If(1,11,0,131,0)
 ChangeInventoryArmor(1253,0,0,1,false)
 ShowMessageFace("",0,0,2,131)
 ShowMessage("You obtain \\ia[1253]!")
 EndEventProcessing()
 0()
EndIf()
If(1,11,0,132,0)
 ChangeInventoryArmor(1256,0,0,1,false)
 ShowMessageFace("",0,0,2,132)
 ShowMessage("You obtain \\ia[1256]!")
 EndEventProcessing()
 0()
EndIf()
If(1,11,0,133,0)
 ChangeInventoryArmor(1259,0,0,1,false)
 ShowMessageFace("",0,0,2,133)
 ShowMessage("You obtain \\ia[1259]!")
 EndEventProcessing()
 0()
EndIf()
If(1,11,0,134,0)
 ChangeInventoryArmor(1262,0,0,1,false)
 ShowMessageFace("",0,0,2,134)
 ShowMessage("You obtain \\ia[1262]!")
 EndEventProcessing()
 0()
EndIf()
If(1,11,0,135,0)
 ChangeInventoryArmor(1265,0,0,1,false)
 ShowMessageFace("",0,0,2,135)
 ShowMessage("You obtain \\ia[1265]!")
 EndEventProcessing()
 0()
EndIf()
If(1,11,0,136,0)
 ChangeInventoryArmor(1268,0,0,1,false)
 ShowMessageFace("",0,0,2,136)
 ShowMessage("You obtain \\ia[1268]!")
 EndEventProcessing()
 0()
EndIf()
If(1,11,0,137,0)
 ChangeInventoryArmor(1271,0,0,1,false)
 ShowMessageFace("",0,0,2,137)
 ShowMessage("You obtain \\ia[1271]!")
 EndEventProcessing()
 0()
EndIf()
If(1,11,0,138,0)
 ChangeInventoryArmor(1274,0,0,1,false)
 ShowMessageFace("",0,0,2,138)
 ShowMessage("You obtain \\ia[1274]!")
 EndEventProcessing()
 0()
EndIf()
If(1,11,0,139,0)
 ChangeInventoryArmor(1277,0,0,1,false)
 ShowMessageFace("",0,0,2,139)
 ShowMessage("You obtain \\ia[1277]!")
 EndEventProcessing()
 0()
EndIf()
If(1,11,0,140,0)
 ChangeInventoryArmor(1280,0,0,1,false)
 ShowMessageFace("",0,0,2,140)
 ShowMessage("You obtain \\ia[1280]!")
 EndEventProcessing()
 0()
EndIf()
If(1,11,0,141,0)
 ChangeInventoryArmor(1283,0,0,1,false)
 ShowMessageFace("",0,0,2,141)
 ShowMessage("You obtain \\ia[1283]!")
 EndEventProcessing()
 0()
EndIf()
If(1,11,0,142,0)
 ChangeInventoryArmor(1286,0,0,1,false)
 ShowMessageFace("",0,0,2,142)
 ShowMessage("You obtain \\ia[1286]!")
 EndEventProcessing()
 0()
EndIf()
If(1,11,0,143,0)
 ChangeInventoryArmor(1289,0,0,1,false)
 ShowMessageFace("",0,0,2,143)
 ShowMessage("You obtain \\ia[1289]!")
 EndEventProcessing()
 0()
EndIf()
If(1,11,0,144,0)
 ChangeInventoryArmor(1292,0,0,1,false)
 ShowMessageFace("",0,0,2,144)
 ShowMessage("You obtain \\ia[1292]!")
 EndEventProcessing()
 0()
EndIf()
If(1,11,0,145,0)
 ChangeInventoryArmor(1295,0,0,1,false)
 ShowMessageFace("",0,0,2,145)
 ShowMessage("You obtain \\ia[1295]!")
 EndEventProcessing()
 0()
EndIf()
If(1,11,0,146,0)
 ChangeInventoryArmor(1298,0,0,1,false)
 ShowMessageFace("",0,0,2,146)
 ShowMessage("You obtain \\ia[1298]!")
 EndEventProcessing()
 0()
EndIf()
If(1,11,0,147,0)
 ChangeInventoryArmor(1301,0,0,1,false)
 ShowMessageFace("",0,0,2,147)
 ShowMessage("You obtain \\ia[1301]!")
 EndEventProcessing()
 0()
EndIf()
If(1,11,0,148,0)
 ChangeInventoryArmor(1304,0,0,1,false)
 ShowMessageFace("",0,0,2,148)
 ShowMessage("You obtain \\ia[1304]!")
 EndEventProcessing()
 0()
EndIf()
If(1,11,0,149,0)
 ChangeInventoryArmor(1307,0,0,1,false)
 ShowMessageFace("",0,0,2,149)
 ShowMessage("You obtain \\ia[1307]!")
 EndEventProcessing()
 0()
EndIf()
If(1,11,0,150,0)
 ChangeInventoryArmor(1310,0,0,1,false)
 ShowMessageFace("",0,0,2,150)
 ShowMessage("You obtain \\ia[1310]!")
 EndEventProcessing()
 0()
EndIf()
If(1,11,0,151,0)
 ChangeInventoryArmor(1313,0,0,1,false)
 ShowMessageFace("",0,0,2,151)
 ShowMessage("You obtain \\ia[1313]!")
 EndEventProcessing()
 0()
EndIf()
If(1,11,0,152,0)
 ChangeInventoryArmor(1316,0,0,1,false)
 ShowMessageFace("",0,0,2,152)
 ShowMessage("You obtain \\ia[1316]!")
 EndEventProcessing()
 0()
EndIf()
If(1,11,0,153,0)
 ChangeInventoryArmor(1319,0,0,1,false)
 ShowMessageFace("",0,0,2,153)
 ShowMessage("You obtain \\ia[1319]!")
 EndEventProcessing()
 0()
EndIf()
If(1,11,0,154,0)
 ChangeInventoryArmor(1322,0,0,1,false)
 ShowMessageFace("",0,0,2,154)
 ShowMessage("You obtain \\ia[1322]!")
 EndEventProcessing()
 0()
EndIf()
If(1,11,0,155,0)
 ChangeInventoryArmor(1325,0,0,1,false)
 ShowMessageFace("",0,0,2,155)
 ShowMessage("You obtain \\ia[1325]!")
 EndEventProcessing()
 0()
EndIf()
If(1,11,0,156,0)
 ChangeInventoryArmor(1328,0,0,1,false)
 ShowMessageFace("",0,0,2,156)
 ShowMessage("You obtain \\ia[1328]!")
 EndEventProcessing()
 0()
EndIf()
If(1,11,0,157,0)
 ChangeInventoryArmor(1331,0,0,1,false)
 ShowMessageFace("",0,0,2,157)
 ShowMessage("You obtain \\ia[1331]!")
 EndEventProcessing()
 0()
EndIf()
If(1,11,0,158,0)
 ChangeInventoryArmor(1334,0,0,1,false)
 ShowMessageFace("",0,0,2,158)
 ShowMessage("You obtain \\ia[1334]!")
 EndEventProcessing()
 0()
EndIf()
If(1,11,0,159,0)
 ChangeInventoryArmor(1337,0,0,1,false)
 ShowMessageFace("",0,0,2,159)
 ShowMessage("You obtain \\ia[1337]!")
 EndEventProcessing()
 0()
EndIf()
If(1,11,0,160,0)
 ChangeInventoryArmor(1340,0,0,1,false)
 ShowMessageFace("",0,0,2,160)
 ShowMessage("You obtain \\ia[1340]!")
 EndEventProcessing()
 0()
EndIf()
If(1,11,0,161,0)
 ChangeInventoryArmor(1343,0,0,1,false)
 ShowMessageFace("",0,0,2,161)
 ShowMessage("You obtain \\ia[1343]!")
 EndEventProcessing()
 0()
EndIf()
If(1,11,0,162,0)
 ChangeInventoryArmor(1346,0,0,1,false)
 ShowMessageFace("",0,0,2,162)
 ShowMessage("You obtain \\ia[1346]!")
 EndEventProcessing()
 0()
EndIf()
If(1,11,0,163,0)
 ChangeInventoryArmor(1349,0,0,1,false)
 ShowMessageFace("",0,0,2,163)
 ShowMessage("You obtain \\ia[1349]!")
 EndEventProcessing()
 0()
EndIf()
If(1,11,0,164,0)
 ChangeInventoryArmor(1352,0,0,1,false)
 ShowMessageFace("",0,0,2,164)
 ShowMessage("You obtain \\ia[1352]!")
 EndEventProcessing()
 0()
EndIf()
If(1,11,0,165,0)
 ChangeInventoryArmor(1355,0,0,1,false)
 ShowMessageFace("",0,0,2,165)
 ShowMessage("You obtain \\ia[1355]!")
 EndEventProcessing()
 0()
EndIf()
If(1,11,0,166,0)
 ChangeInventoryArmor(1358,0,0,1,false)
 ShowMessageFace("",0,0,2,166)
 ShowMessage("You obtain \\ia[1358]!")
 EndEventProcessing()
 0()
EndIf()
If(1,11,0,167,0)
 ChangeInventoryArmor(1361,0,0,1,false)
 ShowMessageFace("",0,0,2,167)
 ShowMessage("You obtain \\ia[1361]!")
 EndEventProcessing()
 0()
EndIf()
If(1,11,0,168,0)
 ChangeInventoryArmor(1364,0,0,1,false)
 ShowMessageFace("",0,0,2,168)
 ShowMessage("You obtain \\ia[1364]!")
 EndEventProcessing()
 0()
EndIf()
If(1,11,0,169,0)
 ChangeInventoryArmor(1367,0,0,1,false)
 ShowMessageFace("",0,0,2,169)
 ShowMessage("You obtain \\ia[1367]!")
 EndEventProcessing()
 0()
EndIf()
If(1,11,0,170,0)
 ChangeInventoryArmor(1370,0,0,1,false)
 ShowMessageFace("",0,0,2,170)
 ShowMessage("You obtain \\ia[1370]!")
 EndEventProcessing()
 0()
EndIf()
If(1,11,0,171,0)
 ChangeInventoryArmor(1373,0,0,1,false)
 ShowMessageFace("",0,0,2,171)
 ShowMessage("You obtain \\ia[1373]!")
 EndEventProcessing()
 0()
EndIf()
If(1,11,0,172,0)
 ChangeInventoryArmor(1376,0,0,1,false)
 ShowMessageFace("",0,0,2,172)
 ShowMessage("You obtain \\ia[1376]!")
 EndEventProcessing()
 0()
EndIf()
If(1,11,0,173,0)
 ChangeInventoryArmor(1379,0,0,1,false)
 ShowMessageFace("",0,0,2,173)
 ShowMessage("You obtain \\ia[1379]!")
 EndEventProcessing()
 0()
EndIf()
If(1,11,0,174,0)
 ChangeInventoryArmor(1382,0,0,1,false)
 ShowMessageFace("",0,0,2,174)
 ShowMessage("You obtain \\ia[1382]!")
 EndEventProcessing()
 0()
EndIf()
If(1,11,0,175,0)
 ChangeInventoryArmor(1385,0,0,1,false)
 ShowMessageFace("",0,0,2,175)
 ShowMessage("You obtain \\ia[1385]!")
 EndEventProcessing()
 0()
EndIf()
If(1,11,0,176,0)
 ChangeInventoryArmor(1388,0,0,1,false)
 ShowMessageFace("",0,0,2,176)
 ShowMessage("You obtain \\ia[1388]!")
 EndEventProcessing()
 0()
EndIf()
If(1,11,0,177,0)
 ChangeInventoryArmor(1391,0,0,1,false)
 ShowMessageFace("",0,0,2,177)
 ShowMessage("You obtain \\ia[1391]!")
 EndEventProcessing()
 0()
EndIf()
If(1,11,0,178,0)
 ChangeInventoryArmor(1394,0,0,1,false)
 ShowMessageFace("",0,0,2,178)
 ShowMessage("You obtain \\ia[1394]!")
 EndEventProcessing()
 0()
EndIf()
If(1,11,0,179,0)
 ChangeInventoryArmor(1397,0,0,1,false)
 ShowMessageFace("",0,0,2,179)
 ShowMessage("You obtain \\ia[1397]!")
 EndEventProcessing()
 0()
EndIf()
If(1,11,0,180,0)
 ChangeInventoryArmor(1400,0,0,1,false)
 ShowMessageFace("",0,0,2,180)
 ShowMessage("You obtain \\ia[1400]!")
 EndEventProcessing()
 0()
EndIf()
If(1,11,0,181,0)
 ChangeInventoryArmor(1403,0,0,1,false)
 ShowMessageFace("",0,0,2,181)
 ShowMessage("You obtain \\ia[1403]!")
 EndEventProcessing()
 0()
EndIf()
If(1,11,0,182,0)
 ChangeInventoryArmor(1405,0,0,1,false)
 ShowMessageFace("",0,0,2,182)
 ShowMessage("You obtain \\ia[1405]!")
 EndEventProcessing()
 0()
EndIf()
If(1,11,0,183,0)
 ChangeInventoryArmor(1406,0,0,1,false)
 ShowMessageFace("",0,0,2,183)
 ShowMessage("You obtain \\ia[1406]!")
 EndEventProcessing()
 0()
EndIf()
If(1,11,0,184,0)
 ChangeInventoryArmor(1407,0,0,1,false)
 ShowMessageFace("",0,0,2,184)
 ShowMessage("You obtain \\ia[1407]!")
 EndEventProcessing()
 0()
EndIf()
If(1,11,0,185,0)
 ChangeInventoryArmor(1408,0,0,1,false)
 ShowMessageFace("",0,0,2,185)
 ShowMessage("You obtain \\ia[1408]!")
 EndEventProcessing()
 0()
EndIf()
If(1,11,0,186,0)
 ChangeInventoryArmor(1409,0,0,1,false)
 ShowMessageFace("",0,0,2,186)
 ShowMessage("You obtain \\ia[1409]!")
 EndEventProcessing()
 0()
EndIf()
If(1,11,0,187,0)
 ChangeInventoryArmor(1411,0,0,1,false)
 ShowMessageFace("",0,0,2,187)
 ShowMessage("You obtain \\ia[1411]!")
 EndEventProcessing()
 0()
EndIf()
If(1,11,0,188,0)
 ChangeInventoryArmor(1485,0,0,1,false)
 ShowMessageFace("",0,0,2,188)
 ShowMessage("You obtain \\ia[1485]!")
 EndEventProcessing()
 0()
EndIf()
If(1,11,0,189,0)
 ChangeInventoryArmor(1489,0,0,1,false)
 ShowMessageFace("",0,0,2,189)
 ShowMessage("You obtain \\ia[1489]!")
 EndEventProcessing()
 0()
EndIf()
If(1,11,0,190,0)
 ChangeInventoryArmor(1494,0,0,1,false)
 ShowMessageFace("",0,0,2,190)
 ShowMessage("You obtain \\ia[1494]!")
 EndEventProcessing()
 0()
EndIf()
If(1,11,0,191,0)
 ChangeInventoryArmor(1498,0,0,1,false)
 ShowMessageFace("",0,0,2,191)
 ShowMessage("You obtain \\ia[1498]!")
 EndEventProcessing()
 0()
EndIf()
If(1,11,0,192,0)
 ChangeInventoryArmor(1502,0,0,1,false)
 ShowMessageFace("",0,0,2,192)
 ShowMessage("You obtain \\ia[1502]!")
 EndEventProcessing()
 0()
EndIf()
If(1,11,0,193,0)
 ChangeInventoryArmor(1506,0,0,1,false)
 ShowMessageFace("",0,0,2,193)
 ShowMessage("You obtain \\ia[1506]!")
 EndEventProcessing()
 0()
EndIf()
If(1,11,0,194,0)
 ChangeInventoryArmor(1510,0,0,1,false)
 ShowMessageFace("",0,0,2,194)
 ShowMessage("You obtain \\ia[1510]!")
 EndEventProcessing()
 0()
EndIf()
If(1,11,0,195,0)
 ChangeInventoryArmor(1514,0,0,1,false)
 ShowMessageFace("",0,0,2,195)
 ShowMessage("You obtain \\ia[1514]!")
 EndEventProcessing()
 0()
EndIf()
If(1,11,0,196,0)
 ChangeInventoryArmor(1517,0,0,1,false)
 ShowMessageFace("",0,0,2,196)
 ShowMessage("You obtain \\ia[1517]!")
 EndEventProcessing()
 0()
EndIf()
If(1,11,0,197,0)
 ChangeInventoryArmor(1521,0,0,1,false)
 ShowMessageFace("",0,0,2,197)
 ShowMessage("You obtain \\ia[1521]!")
 EndEventProcessing()
 0()
EndIf()
If(1,11,0,198,0)
 ChangeInventoryArmor(1526,0,0,1,false)
 ShowMessageFace("",0,0,2,198)
 ShowMessage("You obtain \\ia[1526]!")
 EndEventProcessing()
 0()
EndIf()
If(1,11,0,199,0)
 ChangeInventoryArmor(1530,0,0,1,false)
 ShowMessageFace("",0,0,2,199)
 ShowMessage("You obtain \\ia[1530]!")
 EndEventProcessing()
 0()
EndIf()
If(1,11,0,200,0)
 ChangeInventoryArmor(1533,0,0,1,false)
 ShowMessageFace("",0,0,2,200)
 ShowMessage("You obtain \\ia[1533]!")
 EndEventProcessing()
 0()
EndIf()
If(1,11,0,201,0)
 ChangeInventoryArmor(1538,0,0,1,false)
 ShowMessageFace("",0,0,2,201)
 ShowMessage("You obtain \\ia[1538]!")
 EndEventProcessing()
 0()
EndIf()
If(1,11,0,202,0)
 ChangeInventoryArmor(1540,0,0,1,false)
 ShowMessageFace("",0,0,2,202)
 ShowMessage("You obtain \\ia[1540]!")
 EndEventProcessing()
 0()
EndIf()
If(1,11,0,203,0)
 ChangeInventoryArmor(1542,0,0,1,false)
 ShowMessageFace("",0,0,2,203)
 ShowMessage("You obtain \\ia[1542]!")
 EndEventProcessing()
 0()
EndIf()
If(1,11,0,204,0)
 ChangeInventoryArmor(1544,0,0,1,false)
 ShowMessageFace("",0,0,2,204)
 ShowMessage("You obtain \\ia[1544]!")
 EndEventProcessing()
 0()
EndIf()
If(1,11,0,205,0)
 ChangeInventoryArmor(1546,0,0,1,false)
 ShowMessageFace("",0,0,2,205)
 ShowMessage("You obtain \\ia[1546]!")
 EndEventProcessing()
 0()
EndIf()
If(1,11,0,206,0)
 ChangeInventoryArmor(1549,0,0,1,false)
 ShowMessageFace("",0,0,2,206)
 ShowMessage("You obtain \\ia[1549]!")
 EndEventProcessing()
 0()
EndIf()
If(1,11,0,207,0)
 ChangeInventoryArmor(1551,0,0,1,false)
 ShowMessageFace("",0,0,2,207)
 ShowMessage("You obtain \\ia[1551]!")
 EndEventProcessing()
 0()
EndIf()
If(1,11,0,208,0)
 ChangeInventoryArmor(1553,0,0,1,false)
 ShowMessageFace("",0,0,2,208)
 ShowMessage("You obtain \\ia[1553]!")
 EndEventProcessing()
 0()
EndIf()
If(1,11,0,209,0)
 ChangeInventoryArmor(1555,0,0,1,false)
 ShowMessageFace("",0,0,2,209)
 ShowMessage("You obtain \\ia[1555]!")
 EndEventProcessing()
 0()
EndIf()
If(1,11,0,210,0)
 ChangeInventoryArmor(1557,0,0,1,false)
 ShowMessageFace("",0,0,2,210)
 ShowMessage("You obtain \\ia[1557]!")
 EndEventProcessing()
 0()
EndIf()
If(1,11,0,211,0)
 ChangeInventoryArmor(1559,0,0,1,false)
 ShowMessageFace("",0,0,2,211)
 ShowMessage("You obtain \\ia[1559]!")
 EndEventProcessing()
 0()
EndIf()
If(1,11,0,212,0)
 ChangeInventoryArmor(1561,0,0,1,false)
 ShowMessageFace("",0,0,2,212)
 ShowMessage("You obtain \\ia[1561]!")
 EndEventProcessing()
 0()
EndIf()
If(1,11,0,213,0)
 ChangeInventoryArmor(1563,0,0,1,false)
 ShowMessageFace("",0,0,2,213)
 ShowMessage("You obtain \\ia[1563]!")
 EndEventProcessing()
 0()
EndIf()
If(1,11,0,214,0)
 ChangeInventoryArmor(1565,0,0,1,false)
 ShowMessageFace("",0,0,2,214)
 ShowMessage("You obtain \\ia[1565]!")
 EndEventProcessing()
 0()
EndIf()
If(1,11,0,215,0)
 ChangeInventoryArmor(1567,0,0,1,false)
 ShowMessageFace("",0,0,2,215)
 ShowMessage("You obtain \\ia[1567]!")
 EndEventProcessing()
 0()
EndIf()
If(1,11,0,216,0)
 ChangeInventoryArmor(1569,0,0,1,false)
 ShowMessageFace("",0,0,2,216)
 ShowMessage("You obtain \\ia[1569]!")
 EndEventProcessing()
 0()
EndIf()
If(1,11,0,217,0)
 ChangeInventoryArmor(1571,0,0,1,false)
 ShowMessageFace("",0,0,2,217)
 ShowMessage("You obtain \\ia[1571]!")
 EndEventProcessing()
 0()
EndIf()
If(1,11,0,218,0)
 ChangeInventoryArmor(1573,0,0,1,false)
 ShowMessageFace("",0,0,2,218)
 ShowMessage("You obtain \\ia[1573]!")
 EndEventProcessing()
 0()
EndIf()
If(1,11,0,219,0)
 ChangeInventoryArmor(1575,0,0,1,false)
 ShowMessageFace("",0,0,2,219)
 ShowMessage("You obtain \\ia[1575]!")
 EndEventProcessing()
 0()
EndIf()
If(1,11,0,220,0)
 ChangeInventoryArmor(1577,0,0,1,false)
 ShowMessageFace("",0,0,2,220)
 ShowMessage("You obtain \\ia[1577]!")
 EndEventProcessing()
 0()
EndIf()
If(1,11,0,221,0)
 ChangeInventoryArmor(1579,0,0,1,false)
 ShowMessageFace("",0,0,2,221)
 ShowMessage("You obtain \\ia[1579]!")
 EndEventProcessing()
 0()
EndIf()
If(1,11,0,222,0)
 ChangeInventoryArmor(1581,0,0,1,false)
 ShowMessageFace("",0,0,2,222)
 ShowMessage("You obtain \\ia[1581]!")
 EndEventProcessing()
 0()
EndIf()
If(1,11,0,223,0)
 ChangeInventoryArmor(1583,0,0,1,false)
 ShowMessageFace("",0,0,2,223)
 ShowMessage("You obtain \\ia[1583]!")
 EndEventProcessing()
 0()
EndIf()
If(1,11,0,224,0)
 ChangeInventoryArmor(1585,0,0,1,false)
 ShowMessageFace("",0,0,2,224)
 ShowMessage("You obtain \\ia[1585]!")
 EndEventProcessing()
 0()
EndIf()
If(1,11,0,225,0)
 ChangeInventoryArmor(1587,0,0,1,false)
 ShowMessageFace("",0,0,2,225)
 ShowMessage("You obtain \\ia[1587]!")
 EndEventProcessing()
 0()
EndIf()
If(1,11,0,226,0)
 ChangeInventoryArmor(1589,0,0,1,false)
 ShowMessageFace("",0,0,2,226)
 ShowMessage("You obtain \\ia[1589]!")
 EndEventProcessing()
 0()
EndIf()
If(1,11,0,227,0)
 ChangeInventoryArmor(1590,0,0,1,false)
 ShowMessageFace("",0,0,2,227)
 ShowMessage("You obtain \\ia[1590]!")
 EndEventProcessing()
 0()
EndIf()
If(1,11,0,228,0)
 ChangeInventoryArmor(1592,0,0,1,false)
 ShowMessageFace("",0,0,2,228)
 ShowMessage("You obtain \\ia[1592]!")
 EndEventProcessing()
 0()
EndIf()
If(1,11,0,229,0)
 ChangeInventoryArmor(1593,0,0,1,false)
 ShowMessageFace("",0,0,2,229)
 ShowMessage("You obtain \\ia[1593]!")
 EndEventProcessing()
 0()
EndIf()
If(1,11,0,230,0)
 ChangeInventoryArmor(1594,0,0,1,false)
 ShowMessageFace("",0,0,2,230)
 ShowMessage("You obtain \\ia[1594]!")
 EndEventProcessing()
 0()
EndIf()
If(1,11,0,231,0)
 ChangeInventoryArmor(1595,0,0,1,false)
 ShowMessageFace("",0,0,2,231)
 ShowMessage("You obtain \\ia[1595]!")
 EndEventProcessing()
 0()
EndIf()
If(1,11,0,232,0)
 ChangeInventoryArmor(1596,0,0,1,false)
 ShowMessageFace("",0,0,2,232)
 ShowMessage("You obtain \\ia[1596]!")
 EndEventProcessing()
 0()
EndIf()
If(1,11,0,233,0)
 ChangeInventoryArmor(1597,0,0,1,false)
 ShowMessageFace("",0,0,2,233)
 ShowMessage("You obtain \\ia[1597]!")
 EndEventProcessing()
 0()
EndIf()
If(1,11,0,234,0)
 ChangeInventoryArmor(1598,0,0,1,false)
 ShowMessageFace("",0,0,2,234)
 ShowMessage("You obtain \\ia[1598]!")
 EndEventProcessing()
 0()
EndIf()
If(1,11,0,235,0)
 ChangeInventoryArmor(1599,0,0,1,false)
 ShowMessageFace("",0,0,2,235)
 ShowMessage("You obtain \\ia[1599]!")
 EndEventProcessing()
 0()
EndIf()
If(1,11,0,236,0)
 ChangeInventoryArmor(1600,0,0,1,false)
 ShowMessageFace("",0,0,2,236)
 ShowMessage("You obtain \\ia[1600]!")
 EndEventProcessing()
 0()
EndIf()
If(1,11,0,237,0)
 ChangeInventoryArmor(1601,0,0,1,false)
 ShowMessageFace("",0,0,2,237)
 ShowMessage("You obtain \\ia[1601]!")
 EndEventProcessing()
 0()
EndIf()
If(1,11,0,238,0)
 ChangeInventoryArmor(1602,0,0,1,false)
 ShowMessageFace("",0,0,2,238)
 ShowMessage("You obtain \\ia[1602]!")
 EndEventProcessing()
 0()
EndIf()
If(1,11,0,239,0)
 ChangeInventoryArmor(1603,0,0,1,false)
 ShowMessageFace("",0,0,2,239)
 ShowMessage("You obtain \\ia[1603]!")
 EndEventProcessing()
 0()
EndIf()
If(1,11,0,240,0)
 ChangeInventoryArmor(1604,0,0,1,false)
 ShowMessageFace("",0,0,2,240)
 ShowMessage("You obtain \\ia[1604]!")
 EndEventProcessing()
 0()
EndIf()
If(1,11,0,241,0)
 ChangeInventoryArmor(1605,0,0,1,false)
 ShowMessageFace("",0,0,2,241)
 ShowMessage("You obtain \\ia[1605]!")
 EndEventProcessing()
 0()
EndIf()
If(1,11,0,242,0)
 ChangeInventoryArmor(1606,0,0,1,false)
 ShowMessageFace("",0,0,2,242)
 ShowMessage("You obtain \\ia[1606]!")
 EndEventProcessing()
 0()
EndIf()
If(1,11,0,243,0)
 ChangeInventoryArmor(1607,0,0,1,false)
 ShowMessageFace("",0,0,2,243)
 ShowMessage("You obtain \\ia[1607]!")
 EndEventProcessing()
 0()
EndIf()
If(1,11,0,244,0)
 ChangeInventoryArmor(1608,0,0,1,false)
 ShowMessageFace("",0,0,2,244)
 ShowMessage("You obtain \\ia[1608]!")
 EndEventProcessing()
 0()
EndIf()
If(1,11,0,245,0)
 ChangeInventoryArmor(1609,0,0,1,false)
 ShowMessageFace("",0,0,2,245)
 ShowMessage("You obtain \\ia[1609]!")
 EndEventProcessing()
 0()
EndIf()
If(1,11,0,246,0)
 ChangeInventoryArmor(1610,0,0,1,false)
 ShowMessageFace("",0,0,2,246)
 ShowMessage("You obtain \\ia[1610]!")
 EndEventProcessing()
 0()
EndIf()
If(1,11,0,247,0)
 ChangeInventoryArmor(1611,0,0,1,false)
 ShowMessageFace("",0,0,2,247)
 ShowMessage("You obtain \\ia[1611]!")
 EndEventProcessing()
 0()
EndIf()
If(1,11,0,248,0)
 ChangeInventoryArmor(1612,0,0,1,false)
 ShowMessageFace("",0,0,2,248)
 ShowMessage("You obtain \\ia[1612]!")
 EndEventProcessing()
 0()
EndIf()
If(1,11,0,249,0)
 ChangeInventoryArmor(1613,0,0,1,false)
 ShowMessageFace("",0,0,2,249)
 ShowMessage("You obtain \\ia[1613]!")
 EndEventProcessing()
 0()
EndIf()
If(1,11,0,250,0)
 ChangeInventoryArmor(1614,0,0,1,false)
 ShowMessageFace("",0,0,2,250)
 ShowMessage("You obtain \\ia[1614]!")
 EndEventProcessing()
 0()
EndIf()
If(1,11,0,251,0)
 ChangeInventoryArmor(1615,0,0,1,false)
 ShowMessageFace("",0,0,2,251)
 ShowMessage("You obtain \\ia[1615]!")
 EndEventProcessing()
 0()
EndIf()
If(1,11,0,252,0)
 ChangeInventoryArmor(1616,0,0,1,false)
 ShowMessageFace("",0,0,2,252)
 ShowMessage("You obtain \\ia[1616]!")
 EndEventProcessing()
 0()
EndIf()
If(1,11,0,253,0)
 ChangeInventoryArmor(1617,0,0,1,false)
 ShowMessageFace("",0,0,2,253)
 ShowMessage("You obtain \\ia[1617]!")
 EndEventProcessing()
 0()
EndIf()
If(1,11,0,254,0)
 ChangeInventoryArmor(1618,0,0,1,false)
 ShowMessageFace("",0,0,2,254)
 ShowMessage("You obtain \\ia[1618]!")
 EndEventProcessing()
 0()
EndIf()
If(1,11,0,255,0)
 ChangeInventoryArmor(1619,0,0,1,false)
 ShowMessageFace("",0,0,2,255)
 ShowMessage("You obtain \\ia[1619]!")
 EndEventProcessing()
 0()
EndIf()
If(1,11,0,256,0)
 ChangeInventoryArmor(1620,0,0,1,false)
 ShowMessageFace("",0,0,2,256)
 ShowMessage("You obtain \\ia[1620]!")
 EndEventProcessing()
 0()
EndIf()
If(1,11,0,257,0)
 ChangeInventoryArmor(1621,0,0,1,false)
 ShowMessageFace("",0,0,2,257)
 ShowMessage("You obtain \\ia[1621]!")
 EndEventProcessing()
 0()
EndIf()
If(1,11,0,258,0)
 ChangeInventoryArmor(1622,0,0,1,false)
 ShowMessageFace("",0,0,2,258)
 ShowMessage("You obtain \\ia[1622]!")
 EndEventProcessing()
 0()
EndIf()
If(1,11,0,259,0)
 ChangeInventoryArmor(1623,0,0,1,false)
 ShowMessageFace("",0,0,2,259)
 ShowMessage("You obtain \\ia[1623]!")
 EndEventProcessing()
 0()
EndIf()
If(1,11,0,260,0)
 ChangeInventoryArmor(1624,0,0,1,false)
 ShowMessageFace("",0,0,2,260)
 ShowMessage("You obtain \\ia[1624]!")
 EndEventProcessing()
 0()
EndIf()
If(1,11,0,261,0)
 ChangeInventoryArmor(1625,0,0,1,false)
 ShowMessageFace("",0,0,2,261)
 ShowMessage("You obtain \\ia[1625]!")
 EndEventProcessing()
 0()
EndIf()
If(1,11,0,262,0)
 ChangeInventoryArmor(1626,0,0,1,false)
 ShowMessageFace("",0,0,2,262)
 ShowMessage("You obtain \\ia[1626]!")
 EndEventProcessing()
 0()
EndIf()
If(1,11,0,263,0)
 ChangeInventoryArmor(1627,0,0,1,false)
 ShowMessageFace("",0,0,2,263)
 ShowMessage("You obtain \\ia[1627]!")
 EndEventProcessing()
 0()
EndIf()
If(1,11,0,264,0)
 ChangeInventoryArmor(1708,0,0,1,false)
 ShowMessageFace("",0,0,2,264)
 ShowMessage("You obtain \\ia[1708]!")
 EndEventProcessing()
 0()
EndIf()
If(1,11,0,265,0)
 ChangeInventoryArmor(1710,0,0,1,false)
 ShowMessageFace("",0,0,2,265)
 ShowMessage("You obtain \\ia[1710]!")
 EndEventProcessing()
 0()
EndIf()
If(1,11,0,266,0)
 ChangeInventoryArmor(1712,0,0,1,false)
 ShowMessageFace("",0,0,2,266)
 ShowMessage("You obtain \\ia[1712]!")
 EndEventProcessing()
 0()
EndIf()
If(1,11,0,267,0)
 ChangeInventoryArmor(1714,0,0,1,false)
 ShowMessageFace("",0,0,2,267)
 ShowMessage("You obtain \\ia[1714]!")
 EndEventProcessing()
 0()
EndIf()
If(1,11,0,268,0)
 ChangeInventoryArmor(1716,0,0,1,false)
 ShowMessageFace("",0,0,2,268)
 ShowMessage("You obtain \\ia[1716]!")
 EndEventProcessing()
 0()
EndIf()
If(1,11,0,269,0)
 ChangeInventoryArmor(1718,0,0,1,false)
 ShowMessageFace("",0,0,2,269)
 ShowMessage("You obtain \\ia[1718]!")
 EndEventProcessing()
 0()
EndIf()
If(1,11,0,270,0)
 ChangeInventoryArmor(1720,0,0,1,false)
 ShowMessageFace("",0,0,2,270)
 ShowMessage("You obtain \\ia[1720]!")
 EndEventProcessing()
 0()
EndIf()
If(1,11,0,271,0)
 ChangeInventoryArmor(1722,0,0,1,false)
 ShowMessageFace("",0,0,2,271)
 ShowMessage("You obtain \\ia[1722]!")
 EndEventProcessing()
 0()
EndIf()
If(1,11,0,272,0)
 ChangeInventoryArmor(1724,0,0,1,false)
 ShowMessageFace("",0,0,2,272)
 ShowMessage("You obtain \\ia[1724]!")
 EndEventProcessing()
 0()
EndIf()
If(1,11,0,273,0)
 ChangeInventoryArmor(1726,0,0,1,false)
 ShowMessageFace("",0,0,2,273)
 ShowMessage("You obtain \\ia[1726]!")
 EndEventProcessing()
 0()
EndIf()
0()
