﻿// EVENT 4843
Name "Frog Girl 3"

PictureDisplay(7,"80_kaeru_st01",0,0,0,0,100,100,0,0)
PictureDisplay(6,"80_kaeru_st11",0,0,-170,0,100,100,0,0)
PictureDisplay(5,"80_kaeru_st21",0,0,250,0,100,100,0,0)
PictureMove(7,null,0,0,0,0,100,100,255,0,30,false)
PictureMove(6,null,0,0,-170,0,100,100,255,0,30,false)
PictureMove(5,null,0,0,250,0,100,100,255,0,30,true)
ShowMessageFace("kaeru_fc1",1,0,2,1)
ShowMessage("\\n<Keroron>Eh? You want us to make you feel good...!?")
ShowMessageFace("",0,0,2,2)
ShowMessage("\\n<Luka>Y-yes please...")
ShowMessageFace("kaeru_fc2",1,0,2,3)
ShowMessage("\\n<Kururu>Fufu, let's feast on his children...")
241(bytes(0x04,0x08,0x6f,0x3a,0x0d,0x52,0x50,0x47,0x3a,0x3a,0x42,0x47,0x4d,0x08,0x3a,0x0a,0x40,0x6e,0x61,0x6d,0x65,0x49,0x22,0x09,0x65,0x72,0x6f,0x31,0x06,0x3a,0x06,0x45,0x54,0x3a,0x0c,0x40,0x76,0x6f,0x6c,0x75,0x6d,0x65,0x69,0x69,0x3a,0x0b,0x40,0x70,0x69,0x74,0x63,0x68,0x69,0x69))
PictureClear(6)
PictureClear(7)
PictureDisplay(5,"ev_kaeru_hb0",0,0,0,0,100,100,255,0)
ShowMessageFace("",0,0,2,4)
ShowMessage("Expecting pleasure, my body relaxes and all of a sudden the Frog Girls cling to me!")
ShowMessageFace("kaeru_fc1",1,0,2,5)
ShowMessage("\\n<Keroron>Now, let's mate. ♪")
ShowMessageFace("kaeru_fc2",1,0,2,6)
ShowMessage("\\n<Kururu>We've been waiting for this for a while, hehe.")
ShowMessageFace("",0,0,2,7)
ShowMessage("The two Frog Girls sandwich me between them, rubbing their slimy skin directly on my own.")
ShowMessageFace("",0,0,2,8)
ShowMessage("That strange feeling alone causes me to gasp out loud.")
ShowMessageFace("",0,0,2,9)
ShowMessage("\\n<Luka>Unnngh...!")
ShowMessageFace("kaeru_fc1",1,0,2,10)
ShowMessage("\\n<Keroron>Hahaha, something like this was enough to make you moan like that?")
ShowMessageFace("kaeru_fc2",1,0,2,11)
ShowMessage("\\n<Kururu>Our slimy skin feels good on the outside, but it feels incredible inside...")
ShowMessageFace("",0,0,2,12)
ShowMessage("The Frog Girl clinging to my front parts her legs, revealing something that looks similar to a human female's vagina.")
ShowMessageFace("",0,0,2,13)
ShowMessage("But the texture is completely different... Drips of mucus are coming out of the opening, and the pink inside looks puffy and moist.")
ShowMessageFace("",0,0,2,14)
ShowMessage("Just the thought of being inserted into that dripping hole causes a shiver to run through my body.")
ShowMessageFace("",0,0,2,15)
ShowMessage("\\n<Luka>S-Stop...")
ShowMessageFace("kaeru_fc1",1,0,2,16)
ShowMessage("\\n<Keroron>You can't say \"No\" before we've even done anything. It feels really good in here, so you won't be able to say \"No\" for long. ♪")
ShowMessageFace("kaeru_fc2",1,0,2,17)
ShowMessage("\\n<Kururu>Mating with the both of us will be like you're in heaven.")
ShowMessageFace("",0,0,2,18)
ShowMessage("\\n<Luka>Unnngh...")
250(bytes(0x04,0x08,0x6f,0x3a,0x0c,0x52,0x50,0x47,0x3a,0x3a,0x53,0x45,0x08,0x3a,0x0a,0x40,0x6e,0x61,0x6d,0x65,0x49,0x22,0x11,0x6d,0x6f,0x6e,0x5f,0x65,0x72,0x6f,0x5f,0x70,0x79,0x75,0x31,0x06,0x3a,0x06,0x45,0x54,0x3a,0x0b,0x40,0x70,0x69,0x74,0x63,0x68,0x69,0x69,0x3a,0x0c,0x40,0x76,0x6f,0x6c,0x75,0x6d,0x65,0x69,0x69))
ShowMessageFace("",0,0,2,19)
ShowMessage("She spreads her legs open wider, and positions the tip of my penis right next to her opening.")
ShowMessageFace("",0,0,2,20)
ShowMessage("A small drip of her mucus comes out of her pink hole, and it slowly runs down my erect penis.")
245(bytes(0x04,0x08,0x6f,0x3a,0x0d,0x52,0x50,0x47,0x3a,0x3a,0x42,0x47,0x53,0x08,0x3a,0x0a,0x40,0x6e,0x61,0x6d,0x65,0x49,0x22,0x1e,0x6d,0x6f,0x6e,0x5f,0x68,0x73,0x65,0x61,0x6e,0x30,0x34,0x5f,0x69,0x6e,0x6e,0x65,0x72,0x77,0x6f,0x72,0x6b,0x73,0x5f,0x61,0x34,0x06,0x3a,0x06,0x45,0x54,0x3a,0x0c,0x40,0x76,0x6f,0x6c,0x75,0x6d,0x65,0x69,0x55,0x3a,0x0b,0x40,0x70,0x69,0x74,0x63,0x68,0x69,0x69))
PictureDisplay(5,"ev_kaeru_hb1",0,0,0,0,100,100,255,0)
ShowMessageFace("",0,0,2,21)
ShowMessage("The Frog Girl slowly forces me all the way inside her, with her puffy mucus covered vaginal walls rubbing against me the entire length in.")
ShowMessageFace("",0,0,2,22)
ShowMessage("\\n<Luka>Ah...")
ShowMessageFace("kaeru_fc1",1,0,2,23)
ShowMessage("\\n<Keroron>All right, you're all the way in. ♪\nWell? It's heavenly inside, isn't it?")
ShowMessageFace("",0,0,2,24)
ShowMessage("The giggling Frog Girl stares right into my face, loose and slack-jawed at the stimulation she's forcing on me.")
ShowMessageFace("",0,0,2,25)
ShowMessage("As she said, it feels better than anything I've ever felt before... Soft, slimy, and warm... As if I could melt inside of her.")
ShowMessageFace("",0,0,2,26)
ShowMessage("Her walls are puffy, and seemingly mold to my form, gently pushing and embracing my penis.")
ShowMessageFace("",0,0,2,27)
ShowMessage("In addition, the slimy secretions inside of her form a lubricant that makes me slip in and out of her quickly, rubbing against all of her folds and interior bumps with no friction.")
ShowMessageFace("",0,0,2,28)
ShowMessage("It's as if her vaginal wall itself is made of slime, making me see a bit of heaven as it wraps around my penis.")
ShowMessageFace("",0,0,2,29)
ShowMessage("Just the act of being inside of her is draining me of any remaining power...")
ShowMessageFace("",0,0,2,30)
ShowMessage("\\n<Luka>Nnngh...\nI...it feels amazing...")
ShowMessageFace("kaeru_fc1",1,0,2,31)
ShowMessage("\\n<Keroron>Don't you love being inside, all the way in?\nSo enjoy it, and mate with us forever. ♪")
ShowMessageFace("",0,0,2,32)
ShowMessage("\\n<Luka>M...mate...?")
ShowMessageFace("",0,0,2,33)
ShowMessage("Right before almost losing myself in the pleasure, that word triggers a final warning in my brain.")
ShowMessageFace("",0,0,2,34)
ShowMessage("\\n<Luka>Th...that... No...I can't do that...")
ShowMessageFace("kaeru_fc1",1,0,2,35)
ShowMessage("\\n<Keroron>Eh? You don't want to mate?\nEven though it feels so nice inside? ♪")
ShowMessageFace("",0,0,2,36)
ShowMessage("To emphasize her point, the Frog Girl hugs me a little tighter, and quickly squeezes around my penis.")
ShowMessageFace("",0,0,2,37)
ShowMessage("I jump back at the sudden stimulation, almost forced to an instant orgasm.")
ShowMessageFace("",0,0,2,38)
ShowMessage("\\n<Luka>Ahhh... N...no...")
ShowMessageFace("",0,0,2,39)
ShowMessage("But still, I bite my lip and hold on.\nIn response to my feeble protests, the Frog Girls giggle and ridicule me.")
ShowMessageFace("kaeru_fc2",1,0,2,40)
ShowMessage("\\n<Kururu>It's pointless to resist at this point.\nJust surrender, and give yourself to us...")
ShowMessageFace("",0,0,2,41)
ShowMessage("The Frog Girl clinging to my back taunts me with a smile.\nShe rubs her slimy body against me, as if impatient for her turn.")
ShowMessageFace("",0,0,2,42)
ShowMessage("With the two Frog Girls on both sides of me, it feels as though my body itself doesn't even belong to me.")
ShowMessageFace("kaeru_fc1",1,0,2,43)
ShowMessage("\\n<Keroron>Here, I'll do this to make it even better.\nThere's no reason at all to resist this pleasure. ♪")
ShowMessageFace("",0,0,2,44)
ShowMessage("The Frog Girl raping me starts to move her waist up and down. Up and down, her powerful legs and waist usually used for jumping are being used to quickly snap up and down in a piston movement.")
ShowMessageFace("",0,0,2,45)
ShowMessage("The mucus inside of her serves as a powerful lubricant, enabling her to move faster than friction would seemingly allow.")
ShowMessageFace("",0,0,2,46)
ShowMessage("\\n<Luka>Ah, ahhhhh...\nS...stop... I'm going to come...")
ShowMessageFace("kaeru_fc1",1,0,2,47)
ShowMessage("\\n<Keroron>Here, here! ♪\nI can already feel a little leaking! ♪")
ShowMessageFace("kaeru_fc2",1,0,2,48)
ShowMessage("\\n<Kururu>Stop trying to hold out, just enjoy mating with us.")
ShowMessageFace("",0,0,2,49)
ShowMessage("The Frog Girls giggle at my pained face.\nBrought to my limit, I can't hold on any longer.")
ShowMessageFace("",0,0,2,50)
ShowMessage("Unable to endure it any longer, I feel my body breaking down all of my mental barriers and attempts at holding in my orgasm.")
ShowMessageFace("",0,0,2,51)
ShowMessage("\\n<Luka>Ah, aaah...")
ShowMessageFace("",0,0,2,52)
ShowMessage("The last of my resistance crumbles as I give myself to the Frog Girl's amazing pussy.")
RunCommonEvent(104)
PictureDisplay(5,"ev_kaeru_hb2",0,0,0,0,100,100,255,0)
RunCommonEvent(105)
ShowMessageFace("",0,0,2,53)
ShowMessage("My penis twitches inside her soft interior, as I release my semen inside her. With a smile on her face, the Frog Girl stares into my eyes as I ejaculate inside her.")
ShowMessageFace("kaeru_fc1",1,0,2,54)
ShowMessage("\\n<Keroron>Ahaha, you came. ♪\nYou let out so much, too. ♪")
PictureDisplay(5,"ev_kaeru_hb3",0,0,0,0,100,100,255,0)
ShowMessageFace("",0,0,2,55)
ShowMessage("The Frog Girl's long tongue shoots out and forces itself into my mouth, quickly darting around inside.")
ShowMessageFace("kaeru_fc2",1,0,2,56)
ShowMessage("\\n<Kururu>I think I'll rape your mouth for a while too...")
ShowMessageFace("",0,0,2,57)
ShowMessage("The Frog Girl clinging to my back also extends her tongue, forcing it into my mouth.")
ShowMessageFace("",0,0,2,58)
ShowMessage("Her slimy tongue darts around inside my mouth, as the Frog Girl in front of me doesn't let me pull out of her vagina.")
ShowMessageFace("",0,0,2,59)
ShowMessage("\\n<Luka>Nnnn... Nnngg...")
ShowMessageFace("kaeru_fc1",1,0,2,60)
ShowMessage("\\n<Keroron>Ehehe, I'll make you feel even better. ♪")
245(bytes(0x04,0x08,0x6f,0x3a,0x0d,0x52,0x50,0x47,0x3a,0x3a,0x42,0x47,0x53,0x08,0x3a,0x0a,0x40,0x6e,0x61,0x6d,0x65,0x49,0x22,0x1e,0x6d,0x6f,0x6e,0x5f,0x68,0x73,0x65,0x61,0x6e,0x30,0x38,0x5f,0x69,0x6e,0x6e,0x65,0x72,0x77,0x6f,0x72,0x6b,0x73,0x5f,0x61,0x38,0x06,0x3a,0x06,0x45,0x54,0x3a,0x0c,0x40,0x76,0x6f,0x6c,0x75,0x6d,0x65,0x69,0x55,0x3a,0x0b,0x40,0x70,0x69,0x74,0x63,0x68,0x69,0x69))
ShowMessageFace("",0,0,2,61)
ShowMessage("While the Frog Girl behind me uses her tongue to rape my mouth, the one in front of me starts to slowly move her waist again.")
ShowMessageFace("",0,0,2,62)
ShowMessage("She slightly changes the angle, causing the tip of my penis to rub against her puffy walls with every movement.")
ShowMessageFace("",0,0,2,63)
ShowMessage("The soft texture of her slimy walls makes me moan in pleasure.")
ShowMessageFace("",0,0,2,64)
ShowMessage("\\n<Luka>Nnnnn...")
ShowMessageFace("",0,0,2,65)
ShowMessage("It truly is like being in heaven...\nSandwiched and toyed with by the Frog Girls, I can't do anything but be embraced by the pleasure...")
ShowMessageFace("kaeru_fc2",1,0,2,66)
ShowMessage("\\n<Kururu>Hehe... He isn't resisting at all any more.")
ShowMessageFace("kaeru_fc1",1,0,2,67)
ShowMessage("\\n<Keroron>Giving in after just this little... How pathetic. ♪")
ShowMessageFace("",0,0,2,68)
ShowMessage("The Frog Girl raping me moves in a slow circle, giving a constant flow of pleasure as I rub against her slimy walls.")
ShowMessageFace("",0,0,2,69)
ShowMessage("\\n<Luka>Ahhh... This is...incredible...\nAh, aaaaaah!!")
RunCommonEvent(104)
PictureDisplay(5,"ev_kaeru_hb4",0,0,0,0,100,100,255,0)
RunCommonEvent(105)
ShowMessageFace("",0,0,2,70)
ShowMessage("Having already given in to the pleasure, I don't even attempt to hold back.")
ShowMessageFace("",0,0,2,71)
ShowMessage("\\n<Luka>Ahhh...")
ShowMessageFace("",0,0,2,72)
ShowMessage("Completely exhausted, I've given myself to the Frog Girls.\nAll I want is to feel more of this ecstasy...")
ShowMessageFace("kaeru_fc1",1,0,2,73)
ShowMessage("\\n<Keroron>Ahaha, he completely gave in. ♪")
ShowMessageFace("kaeru_fc2",1,0,2,74)
ShowMessage("\\n<Kururu>We'll keep you as our pet breeding slave.")
ShowMessageFace("",0,0,2,75)
ShowMessage("The Frog Girls giggle as they casually tell me my fate.\nBut at this point, I'm not even paying attention to their words... I just want to feel more pleasure.")
ShowMessageFace("",0,0,2,76)
ShowMessage("\\n<Luka>Ahhh... This is amazing...\nAaaahhh...")
RunCommonEvent(104)
RunCommonEvent(105)
ShowMessageFace("",0,0,2,77)
ShowMessage("My only answer to them is my repeated orgasms.")
ShowMessageFace("kaeru_fc1",1,0,2,78)
ShowMessage("\\n<Keroron>Ah, you already came again! Good boy. ♪\nYou can mate with us as much as you want. ♪")
ShowMessageFace("kaeru_fc2",1,0,2,79)
ShowMessage("\\n<Kururu>We'll be able to give birth to a lot of healthy babies. It looks like our family will be secure for a long time...")
ShowMessageFace("",0,0,2,80)
ShowMessage("\\n<Luka>Ahhh...")
RunCommonEvent(104)
RunCommonEvent(105)
ShowMessageFace("",0,0,2,81)
ShowMessage("The Frog Girls continue to ridicule me as I slowly start to faint. Drained in both body and spirit, I pass out.")
221()
PictureClear(5)
PictureClear(6)
246(2)
ShowMessageFace("",0,0,2,82)
ShowMessage("......")
RunCommonEvent(3998)
0()
