﻿// EVENT 0098
Name "Skill: Play 581-590"

ChangeVariable(11,11,0,2,1,5)
If(1,100,0,581,0)
 If(1,11,0,1,0)
  ShowMessageFace("mob_kizoku_fc1",1,0,2,1)
  ShowMessage("\\n<Ophelia>Now, bow before me!")
  ShowMessageFace("",0,0,2,2)
  ShowMessage("Ophelia made a bold declaration!\n...But no one was listening to her.")
  EndEventProcessing()
  0()
 EndIf()
 If(1,11,0,2,0)
  ShowMessageFace("mob_kizoku_fc1",1,0,2,3)
  ShowMessage("\\n<Ophelia>In deference to my honor, I demand you cease this conflict...")
  ShowMessageFace("",0,0,2,4)
  ShowMessage("Ophelia tries to stop the fight!\nBut no one is listening...")
  EndEventProcessing()
  0()
 EndIf()
 If(1,11,0,3,0)
  ShowMessageFace("mob_kizoku_fc1",1,0,2,5)
  ShowMessage("\\n<Ophelia>It is natural for those of nobility to have experience in this...")
  355("interrupt_skill(3305)")
  EndEventProcessing()
  0()
 EndIf()
 If(1,11,0,4,0)
  ShowMessageFace("mob_kizoku_fc1",0,0,2,6)
  ShowMessage("\\n<Ophelia>Yes, this should fill your stomach.")
  ShowMessageFace("",0,0,2,7)
  ShowMessage("Ophelia presents a gift!")
  250(bytes(0x04,0x08,0x6f,0x3a,0x0c,0x52,0x50,0x47,0x3a,0x3a,0x53,0x45,0x08,0x3a,0x0a,0x40,0x6e,0x61,0x6d,0x65,0x49,0x22,0x0a,0x49,0x74,0x65,0x6d,0x31,0x06,0x3a,0x06,0x45,0x54,0x3a,0x0b,0x40,0x70,0x69,0x74,0x63,0x68,0x69,0x69,0x3a,0x0c,0x40,0x76,0x6f,0x6c,0x75,0x6d,0x65,0x69,0x55))
  ChangeInventory_Item(367,0,0,1)
  ShowMessageFace("",0,0,2,8)
  ShowMessage("You obtain some \\ii[367]!")
  EndEventProcessing()
  0()
 EndIf()
 If(1,11,0,5,0)
  ShowMessageFace("mob_kizoku_fc1",7,0,2,9)
  ShowMessage("\\n<Ophelia>Even I can do housework just as well as...\nKyah, there's green steam coming out of the pot!")
  355("interrupt_skill(3304)")
  EndEventProcessing()
  0()
 EndIf()
 0()
EndIf()
If(1,100,0,582,0)
 If(1,11,0,1,0)
  ShowMessageFace("mob_douguya_fc1",0,0,2,10)
  ShowMessage("\\n<Aurora>Congratulations, Happy Birthday!")
  ShowMessageFace("",0,0,2,11)
  ShowMessage("Aurora popped a party cracker!\n...But no one paid any attention.")
  EndEventProcessing()
  0()
 EndIf()
 If(1,11,0,2,0)
  ShowMessageFace("mob_douguya_fc1",0,0,2,12)
  ShowMessage("\\n<Aurora>Did I lock the door of the shop properly...?")
  ShowMessageFace("",0,0,2,13)
  ShowMessage("Aurora is staring blankly...")
  EndEventProcessing()
  0()
 EndIf()
 If(1,11,0,3,0)
  ShowMessageFace("mob_douguya_fc1",0,0,2,14)
  ShowMessage("\\n<Aurora>If I mix the secret medicine like this... Uuu!")
  313(0,582,0,11)
  ShowMessageFace("",0,0,2,15)
  ShowMessage("Aurora fell asleep...")
  EndEventProcessing()
  0()
 EndIf()
 If(1,11,0,4,0)
  ShowMessageFace("mob_douguya_fc1",0,0,2,16)
  ShowMessage("\\n<Aurora>Aren't you getting hungry?\nI've prepared a meal...")
  ShowMessageFace("",0,0,2,17)
  ShowMessage("Aurora presents a gift!")
  250(bytes(0x04,0x08,0x6f,0x3a,0x0c,0x52,0x50,0x47,0x3a,0x3a,0x53,0x45,0x08,0x3a,0x0a,0x40,0x6e,0x61,0x6d,0x65,0x49,0x22,0x0a,0x49,0x74,0x65,0x6d,0x31,0x06,0x3a,0x06,0x45,0x54,0x3a,0x0b,0x40,0x70,0x69,0x74,0x63,0x68,0x69,0x69,0x3a,0x0c,0x40,0x76,0x6f,0x6c,0x75,0x6d,0x65,0x69,0x55))
  ChangeInventory_Item(376,0,0,1)
  ShowMessageFace("",0,0,2,18)
  ShowMessage("You obtain a \\ii[376]!")
  EndEventProcessing()
  0()
 EndIf()
 If(1,11,0,5,0)
  ShowMessageFace("mob_douguya_fc1",0,0,2,19)
  ShowMessage("\\n<Aurora>If I mix the secret medicine like this...")
  355("interrupt_skill(3304)")
  EndEventProcessing()
  0()
 EndIf()
 0()
EndIf()
If(1,100,0,583,0)
 If(1,11,0,1,0)
  ShowMessageFace("mob_kaizoku1_fc1",1,0,2,20)
  ShowMessage("\\n<Ariadne>...*stare*!")
  ShowMessageFace("",0,0,2,21)
  ShowMessage("Ariadne makes a sidelong glance...\nHowever, it appeared to be more like a glare!")
  EndEventProcessing()
  0()
 EndIf()
 If(1,11,0,2,0)
  ShowMessageFace("mob_kaizoku1_fc1",0,0,2,22)
  ShowMessage("\\n<Ariadne>*rustling*...Yeah, this is delicious!")
  ShowMessageFace("",0,0,2,23)
  ShowMessage("Ariadne is eating some food she stole...")
  EndEventProcessing()
  0()
 EndIf()
 If(1,11,0,3,0)
  ShowMessageFace("mob_kaizoku1_fc1",0,0,2,24)
  ShowMessage("\\n<Ariadne>Fighting spirit charge!")
  355("interrupt_skill(3294)")
  EndEventProcessing()
  0()
 EndIf()
 If(1,11,0,4,0)
  ShowMessageFace("mob_kaizoku1_fc1",0,0,2,25)
  ShowMessage("\\n<Ariadne>Hehe, this is today's harvest!")
  ShowMessageFace("",0,0,2,26)
  ShowMessage("Ariadne presents a gift!")
  250(bytes(0x04,0x08,0x6f,0x3a,0x0c,0x52,0x50,0x47,0x3a,0x3a,0x53,0x45,0x08,0x3a,0x0a,0x40,0x6e,0x61,0x6d,0x65,0x49,0x22,0x0a,0x49,0x74,0x65,0x6d,0x31,0x06,0x3a,0x06,0x45,0x54,0x3a,0x0b,0x40,0x70,0x69,0x74,0x63,0x68,0x69,0x69,0x3a,0x0c,0x40,0x76,0x6f,0x6c,0x75,0x6d,0x65,0x69,0x55))
  ChangeInventory_Item(450,0,0,1)
  ShowMessageFace("",0,0,2,27)
  ShowMessage("You obtain a \\ii[450]!")
  EndEventProcessing()
  0()
 EndIf()
 If(1,11,0,5,0)
  ShowMessageFace("mob_kaizoku1_fc1",0,0,2,28)
  ShowMessage("\\n<Ariadne>Sorasoraaa!")
  355("interrupt_skill(3292)")
  EndEventProcessing()
  0()
 EndIf()
 0()
EndIf()
If(1,100,0,584,0)
 If(1,11,0,1,0)
  ShowMessageFace("mob_kaizoku2_fc1",0,0,2,29)
  ShowMessage("\\n<Cresta>Aren't my goggles great?")
  ShowMessageFace("",0,0,2,30)
  ShowMessage("Cresta is boasting about her goggles!\n...But nobody is listening to her...")
  EndEventProcessing()
  0()
 EndIf()
 If(1,11,0,2,0)
  ShowMessageFace("mob_kaizoku2_fc1",0,0,2,31)
  ShowMessage("\\n<Cresta>Art is an explosion!")
  ShowMessageFace("",0,0,2,32)
  ShowMessage("Cresta is doodling on the ground...")
  EndEventProcessing()
  0()
 EndIf()
 If(1,11,0,3,0)
  ShowMessageFace("mob_kaizoku2_fc1",0,0,2,33)
  ShowMessage("\\n<Cresta>All right, let's go!")
  355("interrupt_skill(3294)")
  EndEventProcessing()
  0()
 EndIf()
 If(1,11,0,4,0)
  ShowMessageFace("mob_kaizoku2_fc1",0,0,2,34)
  ShowMessage("\\n<Cresta>This is a present. ♪")
  ShowMessageFace("",0,0,2,35)
  ShowMessage("Cresta presents a gift!")
  250(bytes(0x04,0x08,0x6f,0x3a,0x0c,0x52,0x50,0x47,0x3a,0x3a,0x53,0x45,0x08,0x3a,0x0a,0x40,0x6e,0x61,0x6d,0x65,0x49,0x22,0x0a,0x49,0x74,0x65,0x6d,0x31,0x06,0x3a,0x06,0x45,0x54,0x3a,0x0b,0x40,0x70,0x69,0x74,0x63,0x68,0x69,0x69,0x3a,0x0c,0x40,0x76,0x6f,0x6c,0x75,0x6d,0x65,0x69,0x55))
  ChangeInventory_Item(417,0,0,1)
  ShowMessageFace("",0,0,2,36)
  ShowMessage("You obtain some \\ii[417]!")
  EndEventProcessing()
  0()
 EndIf()
 If(1,11,0,5,0)
  ShowMessageFace("mob_kaizoku2_fc1",0,0,2,37)
  ShowMessage("\\n<Cresta>Yayayaaa!")
  355("interrupt_skill(3311)")
  EndEventProcessing()
  0()
 EndIf()
 0()
EndIf()
If(1,100,0,585,0)
 If(1,11,0,1,0)
  ShowMessageFace("mob_kaizoku3_fc1",0,0,2,38)
  ShowMessage("\\n<Gloria>Wehehehehe...")
  ShowMessageFace("",0,0,2,39)
  ShowMessage("Gloria is drinking alcohol...")
  EndEventProcessing()
  0()
 EndIf()
 If(1,11,0,2,0)
  ShowMessageFace("mob_kaizoku3_fc1",0,0,2,40)
  ShowMessage("\\n<Gloria>Hoooo...")
  ShowMessageFace("",0,0,2,41)
  ShowMessage("Gloria is staring blankly...")
  EndEventProcessing()
  0()
 EndIf()
 If(1,11,0,3,0)
  ShowMessageFace("mob_kaizoku3_fc1",0,0,2,42)
  ShowMessage("\\n<Gloria>Glug glug glug...ZZZ...")
  313(0,585,0,11)
  ShowMessageFace("",0,0,2,43)
  ShowMessage("Gloria fell asleep...")
  EndEventProcessing()
  0()
 EndIf()
 If(1,11,0,4,0)
  ShowMessageFace("mob_kaizoku3_fc1",1,0,2,44)
  ShowMessage("\\n<Gloria>Here, don't you drink it!")
  ShowMessageFace("",0,0,2,45)
  ShowMessage("Gloria presents a gift!")
  250(bytes(0x04,0x08,0x6f,0x3a,0x0c,0x52,0x50,0x47,0x3a,0x3a,0x53,0x45,0x08,0x3a,0x0a,0x40,0x6e,0x61,0x6d,0x65,0x49,0x22,0x0a,0x49,0x74,0x65,0x6d,0x31,0x06,0x3a,0x06,0x45,0x54,0x3a,0x0b,0x40,0x70,0x69,0x74,0x63,0x68,0x69,0x69,0x3a,0x0c,0x40,0x76,0x6f,0x6c,0x75,0x6d,0x65,0x69,0x55))
  ChangeInventory_Item(431,0,0,1)
  ShowMessageFace("",0,0,2,46)
  ShowMessage("You obtain some \\ii[431]!")
  EndEventProcessing()
  0()
 EndIf()
 If(1,11,0,5,0)
  ShowMessageFace("mob_kaizoku3_fc1",1,0,2,47)
  ShowMessage("\\n<Gloria>Hehehe, let's have a little mischief...")
  355("interrupt_skill(3295)")
  EndEventProcessing()
  0()
 EndIf()
 0()
EndIf()
If(1,100,0,586,0)
 If(1,11,0,1,0)
  ShowMessageFace("mob_ninzya1_fc1",0,0,2,48)
  ShowMessage("\\n<Shoki>For the sake of my comrades, I have to leave a mark...")
  ShowMessageFace("",0,0,2,49)
  ShowMessage("Shoki is doodling on the ground...")
  EndEventProcessing()
  0()
 EndIf()
 If(1,11,0,2,0)
  ShowMessageFace("mob_ninzya1_fc1",0,0,2,50)
  ShowMessage("\\n<Shoki>Kill...")
  ShowMessageFace("",0,0,2,51)
  ShowMessage("Shoki makes a sidelong glance...\nHowever, it appeared to be more like a glare!")
  EndEventProcessing()
  0()
 EndIf()
 If(1,11,0,3,0)
  ShowMessageFace("mob_ninzya1_fc1",0,0,2,52)
  ShowMessage("\\n<Shoki>This is the Ninja Art-Feigned Sleep Technique!")
  313(0,586,0,11)
  ShowMessageFace("",0,0,2,53)
  ShowMessage("Shoki fell asleep...")
  EndEventProcessing()
  0()
 EndIf()
 If(1,11,0,4,0)
  ShowMessageFace("mob_ninzya1_fc1",0,0,2,54)
  ShowMessage("\\n<Shoki>These refreshments will fill your stomach...")
  ShowMessageFace("",0,0,2,55)
  ShowMessage("Shoki presents a gift!")
  250(bytes(0x04,0x08,0x6f,0x3a,0x0c,0x52,0x50,0x47,0x3a,0x3a,0x53,0x45,0x08,0x3a,0x0a,0x40,0x6e,0x61,0x6d,0x65,0x49,0x22,0x0a,0x49,0x74,0x65,0x6d,0x31,0x06,0x3a,0x06,0x45,0x54,0x3a,0x0b,0x40,0x70,0x69,0x74,0x63,0x68,0x69,0x69,0x3a,0x0c,0x40,0x76,0x6f,0x6c,0x75,0x6d,0x65,0x69,0x55))
  ChangeInventory_Item(383,0,0,1)
  ShowMessageFace("",0,0,2,56)
  ShowMessage("You obtain a \\ii[383]!")
  EndEventProcessing()
  0()
 EndIf()
 If(1,11,0,5,0)
  ShowMessageFace("mob_ninzya1_fc1",0,0,2,57)
  ShowMessage("\\n<Shoki>Seiii!!")
  355("interrupt_skill(3292)")
  EndEventProcessing()
  0()
 EndIf()
 0()
EndIf()
0()
