// EVENT 3025
Name "Sparrow Girl"

If(0,25,1)
 JumpToLabel("反省会")
 0()
EndIf()
PictureDisplay(5,"80_suzume_st01",0,0,0,0,100,100,0,0)
PictureMove(5,null,0,0,0,0,100,100,255,0,30,true)
241(bytes(0x04,0x08,0x6f,0x3a,0x0d,0x52,0x50,0x47,0x3a,0x3a,0x42,0x47,0x4d,0x08,0x3a,0x0a,0x40,0x6e,0x61,0x6d,0x65,0x49,0x22,0x09,0x65,0x72,0x6f,0x31,0x06,0x3a,0x06,0x45,0x54,0x3a,0x0c,0x40,0x76,0x6f,0x6c,0x75,0x6d,0x65,0x69,0x69,0x3a,0x0b,0x40,0x70,0x69,0x74,0x63,0x68,0x69,0x69))
ShowMessageFace("",0,0,2,1)
ShowMessage("\\n<Luka>Urhg...")
ShowMessageFace("suzume_fc1",0,0,2,2)
ShowMessage("\\n<Sparrow Girl>I...I won!\nA failure like me actually managed to win...")
ShowMessageFace("suzume_fc1",0,0,2,3)
ShowMessage("\\n<Sparrow Girl>This is a super rare chance, right?\nI can mate now, right...?")
ShowMessageFace("",0,0,2,4)
ShowMessage("\\n<Luka>N...no way... Don't...")
PictureDisplay(5,"ev_suzume_h4",0,0,0,0,100,100,0,0)
PictureMove(5,null,0,0,0,0,100,100,255,0,30,true)
ShowMessageFace("",0,0,2,5)
ShowMessage("The Sparrow Girl forcibly removes my clothes.")
ShowMessage("Giddy, she strips and straddles on top of me.")
ShowMessageFace("suzume_fc1",0,0,2,6)
ShowMessage("\\n<Sparrow Girl>Your dick is already big...\nThat means we can mate now, right...?")
ShowMessageFace("suzume_fc1",2,0,2,7)
ShowMessage("\\n<Sparrow Girl>......")
ShowMessageFace("",0,0,2,8)
ShowMessage("The Sparrow Girl looks down at me silently.")
ShowMessageFace("suzume_fc1",2,0,2,9)
ShowMessage("\\n<Sparrow Girl>...Let me practice first.\nI'm not any good at this, after all...")
ShowMessageFace("",0,0,2,10)
ShowMessage("The Sparrow Girl starts to rock her waist.")
ShowMessage("Without being inserted in her, her thighs press against me as she rocks back and forth.")
ShowMessageFace("",0,0,2,11)
ShowMessage("\\n<Luka>Q-Quit that... Unngh...")
ShowMessageFace("",0,0,2,12)
ShowMessage("The soft pressure of her thighs...")
ShowMessage("And the slight brush of her belly as she moves...")
ShowMessageFace("",0,0,2,13)
ShowMessage("The gentle pleasure tickles my senses.")
ShowMessage("I start to tremble from the soft sensations.")
ShowMessageFace("suzume_fc1",0,0,2,14)
ShowMessage("\\n<Sparrow Girl>Unnf, unnf... Is that how I'm supposed to do it?\nIf it's inside of me, I wonder if that is able to make it come...?")
ShowMessageFace("",0,0,2,15)
ShowMessage("\\n<Luka>Ah, aaah...")
ShowMessageFace("",0,0,2,16)
ShowMessage("A sudden numbness runs up my spine.")
ShowMessage("I can't hold my desire to release back any longer.")
ShowMessageFace("",0,0,2,17)
ShowMessage("\\n<Luka>Ah...Noooo...!")
ShowMessageFace("suzume_fc1",2,0,2,18)
ShowMessage("\\n<Sparrow Girl>...Eh?")
RunCommonEvent(104)
PictureDisplay(5,"ev_suzume_h5",0,0,0,0,100,100,255,0)
RunCommonEvent(105)
ShowMessageFace("",0,0,2,19)
ShowMessage("My semen shoots up into the air.")
ShowMessage("My penis pulses as more and more leaks out.")
PictureMove(5,null,0,0,0,0,100,100,255,0,30,true)
ShowMessageFace("",0,0,2,20)
ShowMessage("The Sparrow Girl's belly and breasts are covered in my white shame.")
ShowMessage("Coming on accident, I feel too pathetic to speak.")
ShowMessageFace("suzume_fc1",0,0,2,21)
ShowMessage("\\n<Sparrow Girl>He came... But I didn't put it in yet...\nWhat a simple orgasm...")
ShowMessageFace("suzume_fc1",0,0,2,22)
ShowMessage("\\n<Sparrow Girl>If he's like that, then even I...")
ShowMessageFace("",0,0,2,23)
ShowMessage("The nervous expression fades from her face.")
ShowMessage("A grin slowly spreads across her face as she starts to feel superior.")
ShowMessageFace("suzume_fc1",0,0,2,24)
ShowMessage("\\n<Sparrow Girl>Ok, I'll rape you now.\nGive me lots of seed. Fufu...")
ShowMessageFace("",0,0,2,25)
ShowMessage("\\n<Luka>N...no way... Aaaah...!")
ShowMessageFace("",0,0,2,26)
ShowMessage("The Sparrow Girl's legs grab hold of my wrists.")
ShowMessage("Pressing my tip against her entrance, she slowly forces me inside.")
245(bytes(0x04,0x08,0x6f,0x3a,0x0d,0x52,0x50,0x47,0x3a,0x3a,0x42,0x47,0x53,0x08,0x3a,0x0a,0x40,0x6e,0x61,0x6d,0x65,0x49,0x22,0x1e,0x6d,0x6f,0x6e,0x5f,0x68,0x73,0x65,0x61,0x6e,0x30,0x31,0x5f,0x69,0x6e,0x6e,0x65,0x72,0x77,0x6f,0x72,0x6b,0x73,0x5f,0x61,0x31,0x06,0x3a,0x06,0x45,0x54,0x3a,0x0c,0x40,0x76,0x6f,0x6c,0x75,0x6d,0x65,0x69,0x55,0x3a,0x0b,0x40,0x70,0x69,0x74,0x63,0x68,0x69,0x69))
PictureDisplay(5,"ev_suzume_h7",0,0,0,0,100,100,255,0)
ShowMessageFace("",0,0,2,27)
ShowMessage("\\n<Luka>Unnngh...!")
ShowMessageFace("suzume_fc1",0,0,2,28)
ShowMessage("\\n<Sparrow Girl>Aha, I put his penis in...\nMy pussy is actually raping someone...♪")
ShowMessageFace("",0,0,2,29)
ShowMessage("Her tight insides press down around me.")
ShowMessage("I'm barely fitting in her hot vagina.")
ShowMessageFace("",0,0,2,30)
ShowMessage("\\n<Luka>Ah... Aaaah...!")
ShowMessageFace("",0,0,2,31)
ShowMessage("The Sparrow Girl slowly lowers herself, forcing me deeper and deeper.")
ShowMessage("Until finally, my penis is all the way in.")
ShowMessageFace("",0,0,2,32)
ShowMessage("\\n<Luka>Ooooh...!")
ShowMessageFace("",0,0,2,33)
ShowMessage("Deep inside her, I feel tiny little bumps against my tip.")
ShowMessage("It's as if they're specially massaging my tip.")
ShowMessageFace("",0,0,2,34)
ShowMessage("My penis twitches in delight at the sensation.")
ShowMessage("An organ designed to force males to come without fail...")
ShowMessageFace("suzume_fc1",0,0,2,35)
ShowMessage("\\n<Sparrow Girl>It's all the way in...\nYou understand, right? I'm raping you right now.")
ShowMessageFace("suzume_fc1",0,0,2,36)
ShowMessage("\\n<Sparrow Girl>Mating with me... Making a child.\nIf you ejaculate in me, we can have a baby...♪")
ShowMessageFace("",0,0,2,37)
ShowMessage("\\n<Luka>I can't do that...")
ShowMessageFace("",0,0,2,38)
ShowMessage("She giggles as I try to refuse her.")
ShowMessageFace("suzume_fc1",0,0,2,39)
ShowMessage("\\n<Sparrow Girl>You say that, but can you endure it...?\nDidn't you just come from almost nothing earlier...")
ShowMessageFace("",0,0,2,40)
ShowMessage("\\n<Luka>Urhg...")
ShowMessageFace("suzume_fc1",0,0,2,41)
ShowMessage("\\n<Sparrow Girl>I'll tighten it inside.\nI wonder if even that is enough for you...?")
ShowMessageFace("",0,0,2,42)
ShowMessage("Her vagina starts to squeeze down on me.")
ShowMessage("Her already tight insides gets even more unbearable.")
ShowMessageFace("",0,0,2,43)
ShowMessage("Deep inside her, the little protrusions press down at the same time, rubbing the tip of my penis.")
ShowMessageFace("",0,0,2,44)
ShowMessage("\\n<Luka>N-noooo... Aaaah...!")
ShowMessageFace("suzume_fc1",0,0,2,45)
ShowMessage("\\n<Sparrow Girl>Arere? You're already moaning like that...?")
ShowMessageFace("",0,0,2,46)
ShowMessage("In the intense tight pleasure, I'm already at my limit...")
RunCommonEvent(104)
PictureDisplay(5,"ev_suzume_h8",0,0,0,0,100,100,255,0)
RunCommonEvent(105)
ShowMessageFace("",0,0,2,47)
ShowMessage("\\n<Luka>Nnngh...")
ShowMessageFace("",0,0,2,48)
ShowMessage("I tragically let loose in her vagina.")
ShowMessage("My semen shoots out, covering all the way to those little bumps.")
ShowMessageFace("suzume_fc1",0,0,2,49)
ShowMessage("\\n<Sparrow Girl>Ahaha, I didn't even need to move my waist...\nDo you know what you just did? You gave me your seed...")
ShowMessageFace("",0,0,2,50)
ShowMessage("\\n<Luka>......")
ShowMessageFace("",0,0,2,51)
ShowMessage("The pleasure was too much, and I gave in...")
ShowMessage("It's a mistake I can never take back.")
ShowMessageFace("suzume_fc1",0,0,2,52)
ShowMessage("\\n<Sparrow Girl>But I want more semen.\nI'll actually move this time, so give me even more...!")
ShowMessageFace("",0,0,2,53)
ShowMessage("\\n<Luka>Wa-Wait, stop... Aaahh!...!!")
ShowMessageFace("",0,0,2,54)
ShowMessage("The Sparrow Girl starts to furiously thrust back and forth.")
ShowMessage("Giving in to her instinct, the stimulation is unbearable.")
ShowMessageFace("",0,0,2,55)
ShowMessage("Her tight walls squeeze me with every thrust.")
ShowMessage("The incredible stimulation drives me mad with pleasure.")
ShowMessageFace("",0,0,2,56)
ShowMessage("\\n<Luka>Aaah...T-Too intense...!")
ShowMessageFace("suzume_fc1",0,0,2,57)
ShowMessage("\\n<Sparrow Girl>Hora, hora...!\nHurry up and come a lot...!")
ShowMessageFace("suzume_fc1",0,0,2,58)
ShowMessage("\\n<Sparrow Girl>I want a baby...\nSo give me all of your seed...!")
ShowMessageFace("",0,0,2,59)
ShowMessage("\\n<Luka>Hyaaaa!!")
ShowMessageFace("",0,0,2,60)
ShowMessage("Completely given in to her instinct, she's just seeking my seed.")
ShowMessage("Disregarding all else, she only wants me to impregnate her.")
ShowMessageFace("suzume_fc1",0,0,2,61)
ShowMessage("\\n<Sparrow Girl>Are you going to come? You're about to blow, right?\nShoot it out deep in my pussy...!")
ShowMessageFace("",0,0,2,62)
ShowMessage("\\n<Luka>Unnngh... Aaaah...!!")
RunCommonEvent(104)
PictureDisplay(5,"ev_suzume_h9",0,0,0,0,100,100,255,0)
RunCommonEvent(105)
ShowMessageFace("",0,0,2,63)
ShowMessage("It's like soaring through heaven...")
ShowMessage("I pour my hot seed deep into her.")
ShowMessageFace("",0,0,2,64)
ShowMessage("She squeezes and contracts her vagina as I come inside.")
ShowMessage("Every last drop is squeezed out into her...")
246(2)
ShowMessageFace("",0,0,2,65)
ShowMessage("\\n<Luka>Nnngh...")
ShowMessageFace("suzume_fc1",0,0,2,66)
ShowMessage("\\n<Sparrow Girl>Fufu, fertilization has begun.\nNow I can have a baby...♪")
ShowMessageFace("",0,0,2,67)
ShowMessage("She lovingly strokes her stomach as she giggles to herself.")
ShowMessage("I've implanted life into her womb...")
ShowMessageFace("suzume_fc1",0,0,2,68)
ShowMessage("\\n<Sparrow Girl>You're a Papa now.\nLet's raise our children together from now on. ♪")
ShowMessageFace("",0,0,2,69)
ShowMessage("\\n<Luka>......")
ShowMessageFace("",0,0,2,70)
ShowMessage("Too weak, I can't do anything to deny the Sparrow Girl.")
ShowMessage("There's no resisting any longer...")
221()
PictureClear(5)
ShowMessageFace("",0,0,2,71)
ShowMessage("After that, she birthed our child.")
ShowMessage("I had a family, and lived a peaceful life.")
DefineLabel("反省会")
ShowMessageFace("",0,0,2,72)
ShowMessage("......")
221()
242(1)
Wait(120)
355("memory_interruption")
ShowMessageFace("",0,0,2,73)
ShowMessage("You hear Ilias' voice calling out to you...")
ShowMessage("Receive her evaluation?")
ShowChoices(strings("Receive evaluation","Change difficulty","Reincarnate"),3)
IfPlayerPicksChoice(0,null)
 241(bytes(0x04,0x08,0x6f,0x3a,0x0d,0x52,0x50,0x47,0x3a,0x3a,0x42,0x47,0x4d,0x08,0x3a,0x0a,0x40,0x6e,0x61,0x6d,0x65,0x49,0x22,0x0a,0x69,0x72,0x69,0x61,0x73,0x06,0x3a,0x06,0x45,0x54,0x3a,0x0c,0x40,0x76,0x6f,0x6c,0x75,0x6d,0x65,0x69,0x5f,0x3a,0x0b,0x40,0x70,0x69,0x74,0x63,0x68,0x69,0x6e))
 PictureDisplay(1,"bg001",0,0,0,0,100,100,255,0)
 222()
 PictureDisplay(5,"80_iriasu_st04",0,0,0,0,100,100,0,0)
 PictureMove(5,null,0,0,0,0,100,100,255,0,30,true)
 ShowMessageFace("iriasu_fc1",3,0,2,74)
 ShowMessage("\\n<Ilias>You lost to a Sparrow Girl...\nWhat are you, a power line to perch on?")
 PictureDisplay(5,"80_iriasu_st05",0,0,0,0,100,100,255,0)
 ShowMessageFace("iriasu_fc1",4,0,2,75)
 ShowMessage("\\n<Ilias>Oops... I guess you wouldn't know what that is.\nWell, then a roof.")
 PictureDisplay(5,"80_iriasu_st01",0,0,0,0,100,100,255,0)
 ShowMessageFace("iriasu_fc1",0,0,2,76)
 ShowMessage("\\n<Ilias>The Sparrow Girl is a very weak monster.\nThere's nothing particularly dangerous about her.")
 ShowMessageFace("iriasu_fc1",0,0,2,77)
 ShowMessage("\\n<Ilias>However, her avoidance is rather high.\nA high accuracy bow, or magic would be advisable.")
 PictureDisplay(5,"80_iriasu_st02",0,0,0,0,100,100,255,0)
 ShowMessageFace("iriasu_fc1",1,0,2,78)
 ShowMessage("\\n<Ilias>Now go, oh brave Luka.\nSparrows are harmful animals who eat crops, so make them extinct.")
 242(1)
 221()
 PictureClear(5)
 PictureClear(1)
 Wait(60)
 0()
IfPlayerPicksChoice(1,null)
 ShowMessageFace("",0,0,2,79)
 ShowMessage("Please choose a difficulty level.")
 RunCommonEvent(110)
 0()
IfPlayerPicksChoice(2,null)
 0()
404()
RunCommonEvent(3000)
0()
