﻿// EVENT 0141
Name "錬金素材自動ゲット"

ChangeVariable(11,11,0,2,1,50)
If(1,11,0,40,2)
 ChangeInventory_Item(110,0,0,1)
 ShowMessageFace("",0,0,2,1)
 ShowMessage("You obtain \\ii[110]!")
 EndEventProcessing()
 0()
EndIf()
If(1,11,0,49,2)
 ChangeInventory_Item(111,0,0,1)
 ShowMessageFace("",0,0,2,2)
 ShowMessage("You obtain \\ii[111]!")
 EndEventProcessing()
 0()
EndIf()
If(1,11,0,50,0)
 If(0,41,0)
  ChangeInventory_Item(112,0,0,1)
  ShowMessageFace("",0,0,2,3)
  ShowMessage("You obtain \\ii[112]!")
  EndEventProcessing()
  0()
 EndIf()
 0()
EndIf()
0()
