﻿// EVENT 1224
Name "Talk: Zion"

If(1,20,0,1,0)
 JumpToLabel("情報")
 0()
EndIf()
If(1,20,0,2,0)
 JumpToLabel("質問")
 0()
EndIf()
If(1,20,0,3,0)
 JumpToLabel("要求")
 0()
EndIf()
If(1,20,0,4,0)
 JumpToLabel("贈与")
 0()
EndIf()
DefineLabel("情報")
ChangeVariable(13,13,0,2,1,100)
If(1,13,0,10,2)
 ShowMessageFace("shion_fc1",0,0,2,1)
 ShowMessage("\\n<Zion>Ahaha, I'll kill you!")
 EndEventProcessing()
 0()
EndIf()
If(1,13,0,20,2)
 ShowMessageFace("shion_fc1",0,0,2,2)
 ShowMessage("\\n<Zion>Hora, I'll blow you away!")
 EndEventProcessing()
 0()
EndIf()
If(1,13,0,30,2)
 ShowMessageFace("shion_fc1",0,0,2,3)
 ShowMessage("\\n<Zion>I'll crush you, ahaha!")
 EndEventProcessing()
 0()
EndIf()
If(1,13,0,40,2)
 ShowMessageFace("shion_fc1",0,0,2,4)
 ShowMessage("\\n<Zion>I'll crush anyone who gets in my way!")
 EndEventProcessing()
 0()
EndIf()
If(1,13,0,50,2)
 ShowMessageFace("shion_fc1",0,0,2,5)
 ShowMessage("\\n<Zion>I'd like to take a good rest after this rampage...")
 EndEventProcessing()
 0()
EndIf()
If(1,13,0,60,2)
 ShowMessageFace("shion_fc1",2,0,2,6)
 ShowMessage("\\n<Zion>That succubus Morrigan...\nI will absolutely kill her!")
 EndEventProcessing()
 0()
EndIf()
If(1,13,0,70,2)
 ShowMessageFace("shion_fc1",0,0,2,7)
 ShowMessage("\\n<Zion>Gnosis is too strict sometimes...\nIf she acted less serious, we could probably open new paths!")
 EndEventProcessing()
 0()
EndIf()
If(1,13,0,80,2)
 ShowMessageFace("shion_fc1",0,0,2,8)
 ShowMessage("\\n<Zion>I am an instrument of violence.\nBurdensome work is handled by Eden and Gnosis!")
 EndEventProcessing()
 0()
EndIf()
If(1,13,0,90,2)
 ShowMessageFace("shion_fc1",0,0,2,9)
 ShowMessage("\\n<Zion>I'll grant you your last rites!")
 EndEventProcessing()
 0()
EndIf()
If(1,13,0,100,2)
 ShowMessageFace("shion_fc1",0,0,2,10)
 ShowMessage("\\n<Zion>Flash fire!\nShatter to pieces!")
 EndEventProcessing()
 0()
EndIf()
DefineLabel("質問")
ChangeVariable(13,13,0,2,1,50)
If(1,13,0,10,2)
 ShowMessageFace("shion_fc1",0,0,2,11)
 ShowMessage("\\n<Zion>I can wring your semen dry right now, if you desire!")
 ShowChoices(strings("I refuse!","Please do","It doesn't matter"),0)
 IfPlayerPicksChoice(0,"断る！")
  ShowMessageFace("shion_fc1",0,0,2,12)
  ShowMessage("\\n<Zion>I wonder how long you can say that...?")
  0()
 IfPlayerPicksChoice(1,"お願いします")
  ShowMessageFace("shion_fc1",1,0,2,13)
  ShowMessage("\\n<Zion>Ahaha, are you serious...?\nThen I'll be sure to please you to the fullest!")
  355("change_friend(10)")
  0()
 IfPlayerPicksChoice(2,"どうでもいい")
  ShowMessageFace("shion_fc1",0,0,2,14)
  ShowMessage("\\n<Zion>All villains will be eradicated!")
  0()
 404()
 EndEventProcessing()
 0()
EndIf()
If(1,13,0,20,2)
 ShowMessageFace("shion_fc1",0,0,2,15)
 ShowMessage("\\n<Zion>Sowing beans will raise your spirits!\nThose who share this sentiment shall be bound for Heaven!")
 ShowChoices(strings("Sowing beans is fun","It's not very fun","I strike the beans"),0)
 IfPlayerPicksChoice(0,"豆撒きは楽しい")
  ShowMessageFace("shion_fc1",3,0,2,16)
  ShowMessage("\\n<Zion>That's right, you understand!")
  355("change_friend(10)")
  0()
 IfPlayerPicksChoice(1,"あまり楽しくない")
  ShowMessageFace("shion_fc1",2,0,2,17)
  ShowMessage("\\n<Zion>You do not understand!")
  355("change_friend(-5)")
  0()
 IfPlayerPicksChoice(2,"豆をぶつけてやる")
  ShowMessageFace("shion_fc1",2,0,2,18)
  ShowMessage("\\n<Zion>It is I who shall strike you!")
  355("change_friend(-5)")
  0()
 404()
 EndEventProcessing()
 0()
EndIf()
If(1,13,0,30,2)
 ShowMessageFace("shion_fc1",0,0,2,19)
 ShowMessage("\\n<Zion>Do you want a world that receives the protection of the Goddess? Or do you prefer a world of kill or be killed?")
 ShowChoices(strings("A world that receives the Goddess' protection","A world of kill or be killed","A world I control"),0)
 IfPlayerPicksChoice(0,"神の加護を受けた世界")
  ShowMessageFace("shion_fc1",0,0,2,20)
  ShowMessage("\\n<Zion>That's right...\nIt is a pity I cannot go there!")
  0()
 IfPlayerPicksChoice(1,"殺るか殺られるかの世界")
  ShowMessageFace("shion_fc1",2,0,2,21)
  ShowMessage("\\n<Zion>Then I'll kill you here!")
  355("change_friend(-5)")
  0()
 IfPlayerPicksChoice(2,"僕が支配する世界")
  ShowMessageFace("shion_fc1",2,0,2,22)
  ShowMessage("\\n<Zion>There can be no such world!\nEnjoy your dream in Hell!")
  355("change_friend(-5)")
  0()
 404()
 EndEventProcessing()
 0()
EndIf()
If(1,13,0,40,2)
 ShowMessageFace("shion_fc1",0,0,2,23)
 ShowMessage("\\n<Zion>I painted the image on this flag.\nIsn't it good?!")
 ShowChoices(strings("It looks genuine","It's more strange than genuine","It is an explosion of art"),0)
 IfPlayerPicksChoice(0,"本物みたいだ")
  ShowMessageFace("shion_fc1",2,0,2,24)
  ShowMessage("\\n<Zion>Are you joking with me?!\nIlias does not bear such a simple visage!")
  355("change_friend(-5)")
  0()
 IfPlayerPicksChoice(1,"本物より変")
  ShowMessageFace("shion_fc1",3,0,2,25)
  ShowMessage("\\n<Zion>That's right, it is just a sketch of mine.\nThe true Ilias is beautiful beyond comprehension!")
  355("change_friend(10)")
  0()
 IfPlayerPicksChoice(2,"芸術は爆発だ")
  ShowMessageFace("shion_fc1",2,0,2,26)
  ShowMessage("\\n<Zion>I do not know what that means, but you must explode!")
  0()
 404()
 EndEventProcessing()
 0()
EndIf()
If(1,13,0,50,2)
 ShowMessageFace("shion_fc1",0,0,2,27)
 ShowMessage("\\n<Zion>You've met Gnosis before.\nDon't you think I understand the situation better than she does?")
 ShowChoices(strings("I agree","I don't think so","You both do"),0)
 IfPlayerPicksChoice(0,"そう思う")
  ShowMessageFace("shion_fc1",3,0,2,28)
  ShowMessage("\\n<Zion>Haha, that's right!\nYou know what I'm talking about!")
  355("change_friend(10)")
  0()
 IfPlayerPicksChoice(1,"そう思わない")
  ShowMessageFace("shion_fc1",2,0,2,29)
  ShowMessage("\\n<Zion>You lack good judgment!\nNow, disappear already!")
  355("change_friend(-5)")
  0()
 IfPlayerPicksChoice(2,"どっちも同じくらい")
  ShowMessageFace("shion_fc1",2,0,2,30)
  ShowMessage("\\n<Zion>Answer me properly!\nYou're even more sloppy than I am!")
  355("change_friend(-5)")
  0()
 404()
 EndEventProcessing()
 0()
EndIf()
DefineLabel("要求")
ChangeVariable(13,13,0,2,1,30)
If(1,13,0,10,2)
 If(8,346)
  ShowMessageFace("shion_fc1",0,0,2,31)
  ShowMessage("\\n<Zion>Give me an anpan!")
  ChangeVariable(24,24,0,3,0,346,0)
  ShowMessageFace("",0,0,2,32)
  ShowMessage("Do you want to give an \\ii[346]? (Have:\\V[24])")
  ShowChoices(strings("Yes","No"),2)
  IfPlayerPicksChoice(0,"Yes")
   ShowMessageFace("shion_fc1",3,0,2,33)
   ShowMessage("\\n<Zion>You are a good man!")
   ChangeInventory_Item(346,1,0,1)
   355("change_friend(20)")
   EndEventProcessing()
   0()
  IfPlayerPicksChoice(1,"No")
   ShowMessageFace("shion_fc1",4,0,2,34)
   ShowMessage("\\n<Zion>I wanted that...")
   EndEventProcessing()
   0()
  404()
  0()
 Else()
  ChangeVariable(13,13,0,0,20)
  0()
 EndIf()
 0()
EndIf()
If(1,13,0,20,2)
 If(8,7)
  ShowMessageFace("shion_fc1",0,0,2,35)
  ShowMessage("\\n<Zion>Boost drinks.\nThey're delicious, aren't they?")
  ChangeVariable(24,24,0,3,0,7,0)
  ShowMessageFace("",0,0,2,36)
  ShowMessage("Do you want to give a \\ii[7]? (Have:\\V[24])")
  ShowChoices(strings("Yes","No"),2)
  IfPlayerPicksChoice(0,"Yes")
   ShowMessageFace("shion_fc1",3,0,2,37)
   ShowMessage("\\n<Zion>You are a good man!")
   ChangeInventory_Item(7,1,0,1)
   355("change_friend(30)")
   EndEventProcessing()
   0()
  IfPlayerPicksChoice(1,"No")
   ShowMessageFace("shion_fc1",4,0,2,38)
   ShowMessage("\\n<Zion>I wanted that...")
   EndEventProcessing()
   0()
  404()
  0()
 Else()
  ChangeVariable(13,13,0,0,30)
  0()
 EndIf()
 0()
EndIf()
If(1,13,0,30,2)
 ShowMessageFace("shion_fc1",0,0,2,39)
 ShowMessage("\\n<Zion>Give me money!")
 If(7,444,0)
  ChangeVariable(24,24,0,3,7,2,0)
  ShowMessageFace("",0,0,2,40)
  ShowMessage("Do you want to give 444G? (Remaining:\\V[24])")
  ShowChoices(strings("Yes","No"),2)
  IfPlayerPicksChoice(0,"Yes")
   ShowMessageFace("shion_fc1",3,0,2,41)
   ShowMessage("\\n<Zion>You are a good man!")
   125(1,0,444)
   355("change_friend(25)")
   EndEventProcessing()
   0()
  IfPlayerPicksChoice(1,"No")
   ShowMessageFace("shion_fc1",4,0,2,42)
   ShowMessage("\\n<Zion>I wanted that...")
   EndEventProcessing()
   0()
  404()
  0()
 Else()
  ShowMessageFace("shion_fc1",4,0,2,43)
  ShowMessage("\\n<Zion>...You don't have it.")
  EndEventProcessing()
  0()
 EndIf()
 0()
EndIf()
DefineLabel("贈与")
ChangeVariable(13,13,0,2,1,30)
If(1,25,0,1,0)
 ChangeVariable(13,13,0,0,30)
 ChangeVariable(25,25,0,0,0)
 0()
EndIf()
If(1,25,0,2,0)
 ChangeVariable(13,13,0,2,1,20)
 ChangeVariable(25,25,0,0,0)
 0()
EndIf()
If(1,13,0,10,2)
 ShowMessageFace("shion_fc1",0,0,2,44)
 ShowMessage("\\n<Zion>I'll grant you my feathers!")
 250(bytes(0x04,0x08,0x6f,0x3a,0x0c,0x52,0x50,0x47,0x3a,0x3a,0x53,0x45,0x08,0x3a,0x0a,0x40,0x6e,0x61,0x6d,0x65,0x49,0x22,0x0a,0x49,0x74,0x65,0x6d,0x31,0x06,0x3a,0x06,0x45,0x54,0x3a,0x0b,0x40,0x70,0x69,0x74,0x63,0x68,0x69,0x69,0x3a,0x0c,0x40,0x76,0x6f,0x6c,0x75,0x6d,0x65,0x69,0x55))
 ChangeInventory_Item(241,0,0,1)
 ShowMessageFace("",0,0,2,45)
 ShowMessage("Zion gave you an \\ii[241]!")
 EndEventProcessing()
 0()
EndIf()
If(1,13,0,20,2)
 ShowMessageFace("shion_fc1",0,0,2,46)
 ShowMessage("\\n<Zion>Here, I'll give you this special medicine!")
 250(bytes(0x04,0x08,0x6f,0x3a,0x0c,0x52,0x50,0x47,0x3a,0x3a,0x53,0x45,0x08,0x3a,0x0a,0x40,0x6e,0x61,0x6d,0x65,0x49,0x22,0x0a,0x49,0x74,0x65,0x6d,0x31,0x06,0x3a,0x06,0x45,0x54,0x3a,0x0b,0x40,0x70,0x69,0x74,0x63,0x68,0x69,0x69,0x3a,0x0c,0x40,0x76,0x6f,0x6c,0x75,0x6d,0x65,0x69,0x55))
 ChangeInventory_Item(4,0,0,1)
 ShowMessageFace("",0,0,2,47)
 ShowMessage("Zion gave you a \\ii[4]!")
 EndEventProcessing()
 0()
EndIf()
If(1,13,0,30,2)
 ShowMessageFace("shion_fc1",0,0,2,48)
 ShowMessage("\\n<Zion>Here, I will bless you with money!")
 250(bytes(0x04,0x08,0x6f,0x3a,0x0c,0x52,0x50,0x47,0x3a,0x3a,0x53,0x45,0x08,0x3a,0x0a,0x40,0x6e,0x61,0x6d,0x65,0x49,0x22,0x0a,0x49,0x74,0x65,0x6d,0x31,0x06,0x3a,0x06,0x45,0x54,0x3a,0x0b,0x40,0x70,0x69,0x74,0x63,0x68,0x69,0x69,0x3a,0x0c,0x40,0x76,0x6f,0x6c,0x75,0x6d,0x65,0x69,0x55))
 125(0,0,740)
 ShowMessageFace("",0,0,2,49)
 ShowMessage("Zion gave you 740G!")
 EndEventProcessing()
 0()
EndIf()
0()
