// EVENT 5669
Name "Titania 4"

PictureDisplay(5,"80_cirqueb_st11",0,0,0,0,100,100,255,0)
ShowMessageFace("cirqueb_fc2",0,0,2,1)
ShowMessage("\\n<Titania>")
ShowMessage("You want me to pull a prank on your penis...?")
ShowMessageFace("",0,0,2,2)
ShowMessage("\\n<Luka>Y-Yes... Please...")
ShowMessageFace("cirqueb_fc2",0,0,2,3)
ShowMessage("\\n<Titania>")
ShowMessage("Okay, I'll play with you~♪")
ShowMessageFace("",0,0,2,4)
ShowMessage("I follow Titania to her room...")
221()
PictureDisplay(1,"bg195",0,0,0,0,100,100,255,0)
PictureDisplay(5,"ev_cirque_hb01",0,0,0,0,100,100,255,0)
222()
241(bytes(0x04,0x08,0x6f,0x3a,0x0d,0x52,0x50,0x47,0x3a,0x3a,0x42,0x47,0x4d,0x08,0x3a,0x0a,0x40,0x6e,0x61,0x6d,0x65,0x49,0x22,0x09,0x65,0x72,0x6f,0x31,0x06,0x3a,0x06,0x45,0x54,0x3a,0x0c,0x40,0x76,0x6f,0x6c,0x75,0x6d,0x65,0x69,0x69,0x3a,0x0b,0x40,0x70,0x69,0x74,0x63,0x68,0x69,0x69))
ShowMessageFace("",0,0,2,5)
ShowMessage("Titania sits on top of my penis with her tiny body.")
ShowMessage("Sitting down, she presses her tiny body into me as hard as she can.")
ShowMessageFace("",0,0,2,6)
ShowMessage("It feels good as her small, soft butt squeezes me.")
ShowMessage("How is this tiny fairy planning on playing with me...?")
ShowMessageFace("cirqueb_fc2",0,0,2,7)
ShowMessage("\\n<Titania>")
ShowMessage("Ehehe...")
ShowMessage("How should I play with you today, Mr. Penis~?")
245(bytes(0x04,0x08,0x6f,0x3a,0x0d,0x52,0x50,0x47,0x3a,0x3a,0x42,0x47,0x53,0x08,0x3a,0x0a,0x40,0x6e,0x61,0x6d,0x65,0x49,0x22,0x17,0x6d,0x6f,0x6e,0x5f,0x68,0x73,0x65,0x61,0x6e,0x31,0x37,0x5f,0x73,0x69,0x67,0x6f,0x6b,0x69,0x06,0x3a,0x06,0x45,0x54,0x3a,0x0c,0x40,0x76,0x6f,0x6c,0x75,0x6d,0x65,0x69,0x55,0x3a,0x0b,0x40,0x70,0x69,0x74,0x63,0x68,0x69,0x69))
PictureDisplay(5,"ev_cirque_hb09",0,0,0,0,100,100,255,0)
ShowMessageFace("",0,0,2,8)
ShowMessage("Titania tightly hugs my penis!")
ShowMessage("Her tiny body presses tight against me.")
ShowMessageFace("",0,0,2,9)
ShowMessage("\\n<Luka>Hauuu! W-What are...")
ShowMessageFace("cirqueb_fc2",0,0,2,10)
ShowMessage("\\n<Titania>")
ShowMessage("Ehehe, I'll give your penis a hug. ♪")
ShowMessage("Squeeze~~~♪")
ShowMessageFace("",0,0,2,11)
ShowMessage("\\n<Luka>Hauu... Ahhh!")
ShowMessageFace("",0,0,2,12)
ShowMessage("My body quivers in pleasure as Titania tightly hugs my penis.")
PictureDisplay(5,"ev_cirque_hb10",0,0,0,0,100,100,255,0)
ShowMessageFace("cirqueb_fc2",0,0,2,13)
ShowMessage("\\n<Titania>")
ShowMessage("*Kiss* ♪")
ShowMessageFace("",0,0,2,14)
ShowMessage("At the same time, Titania kisses my tip.")
ShowMessage("Her tiny tongue runs all over my glans as she presses her body against my shaft.")
ShowMessageFace("",0,0,2,15)
ShowMessage("Using her hands, she starts to rub under the neck of my penis.")
ShowMessage("Titania is using every part of her body to play with me...")
ShowMessageFace("",0,0,2,16)
ShowMessage("\\n<Luka>This... A-Ahhh...!")
ShowMessageFace("",0,0,2,17)
ShowMessage("Having a small fairy play with me like this feels so good.")
ShowMessage("Sighing in ecstasy, I entrust myself to Titania.")
ShowMessageFace("",0,0,2,18)
ShowMessage("I feel a climax rising through my body as she toys with me.")
ShowMessage("A sweet numbness fills me as I embrace the pleasure.")
ShowMessageFace("",0,0,2,19)
ShowMessage("\\n<Luka>Ah... Hauuu!!")
RunCommonEvent(104)
PictureDisplay(5,"ev_cirque_hb11",0,0,0,0,100,100,255,0)
RunCommonEvent(105)
ShowMessageFace("",0,0,2,20)
ShowMessage("Moaning in ecstasy, I reach a high.")
ShowMessage("My body trembles as I come, overwhelmed by the pleasure.")
ShowMessageFace("",0,0,2,21)
ShowMessage("Titania hugs my pulsing penis tight.")
ShowMessage("Spurting semen into the air, it falls back down on her body.")
ShowMessageFace("",0,0,2,22)
ShowMessage("By the time my ejaculation was over, her tiny body was totally covered.")
246(2)
PictureDisplay(5,"ev_cirque_hb12",0,0,0,0,100,100,255,0)
ShowMessageFace("",0,0,2,23)
ShowMessage("\\n<Luka>Hauu...")
ShowMessageFace("cirqueb_fc2",0,0,2,24)
ShowMessage("\\n<Titania>")
ShowMessage("Ahaha... I'm covered in your semen. ♪")
ShowMessage("I can't believe you came so much. ♪")
ShowMessageFace("",0,0,2,25)
ShowMessage("She's covered in my white semen.")
ShowMessage("I feel ashamed at myself as I stare at her drenched body.")
ShowMessageFace("cirqueb_fc2",0,0,2,26)
ShowMessage("\\n<Titania>")
ShowMessage("Did it feel good, having your penis treated as a toy?")
ShowMessage("I'll play with it again next time, too. ♪")
ShowMessageFace("",0,0,2,27)
ShowMessage("\\n<Luka>.........")
ShowMessageFace("",0,0,2,28)
ShowMessage("Titania giggles as she shows off the semen I shot out.")
ShowMessage("The immoral feeling of what I just did mixes with the ecstasy...")
221()
PictureClear(5)
PictureClear(6)
ShowMessageFace("",0,0,2,29)
ShowMessage("......")
RunCommonEvent(3998)
0()
