﻿// EVENT 7284
Name "Augusta: Victory"

PictureDisplay(5,"80_mob_heisi_st01",0,0,0,0,100,100,255,0)
PictureClear(6)
ShowMessageFace("mob_heisi_fc1",1,0,2,1)
ShowMessage("\\n<Augusta>I'm already out of time...\nIt's my loss!")
250(bytes(0x04,0x08,0x6f,0x3a,0x0c,0x52,0x50,0x47,0x3a,0x3a,0x53,0x45,0x08,0x3a,0x0a,0x40,0x6e,0x61,0x6d,0x65,0x49,0x22,0x0d,0x6d,0x6f,0x6e,0x5f,0x6c,0x76,0x75,0x70,0x06,0x3a,0x06,0x45,0x54,0x3a,0x0b,0x40,0x70,0x69,0x74,0x63,0x68,0x69,0x69,0x3a,0x0c,0x40,0x76,0x6f,0x6c,0x75,0x6d,0x65,0x69,0x69))
ChangeSwitch(98,98,1)
ChangeSwitch(96,96,1)
ShowMessageFace("",0,0,2,2)
ShowMessage("Luka emerged from the battle fuck victorious!")
If(1,829,0,2,1)
 ShowMessageFace("mob_heisi_fc1",0,0,2,3)
 ShowMessage("\\n<Augusta>I'm sorry, but I don't have any more prizes.\nA soldier like myself is unable to frequently prepare high-quality items...")
 0()
Else()
 ShowMessageFace("mob_heisi_fc1",0,0,2,4)
 ShowMessage("\\n<Augusta>Please accept this prize.\nWith this accessory, anyone will be able to equip a shield!")
 250(bytes(0x04,0x08,0x6f,0x3a,0x0c,0x52,0x50,0x47,0x3a,0x3a,0x53,0x45,0x08,0x3a,0x0a,0x40,0x6e,0x61,0x6d,0x65,0x49,0x22,0x0a,0x49,0x74,0x65,0x6d,0x31,0x06,0x3a,0x06,0x45,0x54,0x3a,0x0b,0x40,0x70,0x69,0x74,0x63,0x68,0x69,0x69,0x3a,0x0c,0x40,0x76,0x6f,0x6c,0x75,0x6d,0x65,0x69,0x55))
 ChangeInventoryArmor(1627,0,0,1,false)
 ChangeVariable(829,829,0,0,2)
 RunCommonEvent(6999)
 0()
EndIf()
ShowMessageFace("mob_heisi_fc1",0,0,2,5)
ShowMessage("\\n<Augusta>It's regrettable, but I hope we can have a rematch! I'd be delighted if you could play with me again!")
If(0,2331,1)
 PictureClear(5)
 281(1)
 TeleportPlayer(0,37,30,53,2,0)
 216(0)
 0()
EndIf()
EndEventProcessing()
0()
