﻿// EVENT 1312
Name "Talk: Dryad"

If(1,20,0,1,0)
 JumpToLabel("情報")
 0()
EndIf()
If(1,20,0,2,0)
 JumpToLabel("質問")
 0()
EndIf()
If(1,20,0,3,0)
 JumpToLabel("要求")
 0()
EndIf()
If(1,20,0,4,0)
 JumpToLabel("贈与")
 0()
EndIf()
DefineLabel("情報")
ChangeVariable(13,13,0,2,1,100)
If(1,13,0,10,2)
 ShowMessageFace("dryad_fc1",0,0,2,1)
 ShowMessage("\\n<Dryad>I love relaxing within the World Tree...♪")
 EndEventProcessing()
 0()
EndIf()
If(1,13,0,20,2)
 ShowMessageFace("dryad_fc1",2,0,2,2)
 ShowMessage("\\n<Dryad>Why do we not get along with humans...?")
 EndEventProcessing()
 0()
EndIf()
If(1,13,0,30,2)
 ShowMessageFace("dryad_fc1",2,0,2,3)
 ShowMessage("\\n<Dryad>For some reason, the soil hasn't been very tasty lately... Why's that?")
 EndEventProcessing()
 0()
EndIf()
If(1,13,0,40,2)
 ShowMessageFace("dryad_fc1",0,0,2,4)
 ShowMessage("\\n<Dryad>I'll squeeze out your semen for nourishment. ♪")
 EndEventProcessing()
 0()
EndIf()
If(1,13,0,50,2)
 ShowMessageFace("dryad_fc1",0,0,2,5)
 ShowMessage("\\n<Dryad>The Queen is a kind lady. ♪")
 EndEventProcessing()
 0()
EndIf()
If(1,13,0,60,2)
 ShowMessageFace("dryad_fc1",0,0,2,6)
 ShowMessage("\\n<Dryad>I want to bathe in the sun...\nI want to feel warm...")
 EndEventProcessing()
 0()
EndIf()
If(1,13,0,70,2)
 ShowMessageFace("dryad_fc1",0,0,2,7)
 ShowMessage("\\n<Dryad>Dryads are sturdier and tougher than alraunes. Our magical powers are weaker, though...")
 EndEventProcessing()
 0()
EndIf()
If(1,13,0,80,2)
 ShowMessageFace("dryad_fc1",0,0,2,8)
 ShowMessage("\\n<Dryad>Please don't cut down too many trees.\nThe destruction of nature is sad...")
 EndEventProcessing()
 0()
EndIf()
If(1,13,0,90,2)
 ShowMessageFace("dryad_fc1",0,0,2,9)
 ShowMessage("\\n<Dryad>I need to trim my branches when they've grown too much...")
 EndEventProcessing()
 0()
EndIf()
If(1,13,0,100,2)
 ShowMessageFace("dryad_fc1",0,0,2,10)
 ShowMessage("\\n<Dryad>The sun's light can reach into the inside the World Tree. So among other things, we can photosynthesize as much as we like. ♪")
 EndEventProcessing()
 0()
EndIf()
DefineLabel("質問")
ChangeVariable(13,13,0,2,1,50)
If(1,13,0,10,2)
 ShowMessageFace("dryad_fc1",0,0,2,11)
 ShowMessage("\\n<Dryad>Are you a lover of flowers...?")
 ShowChoices(strings("I love flowers","I cut them all down","I want to be a flower"),0)
 IfPlayerPicksChoice(0,"草花は大好き")
  ShowMessageFace("dryad_fc1",1,0,2,12)
  ShowMessage("\\n<Dryad>That makes me very happy. ♪")
  355("change_friend(10)")
  0()
 IfPlayerPicksChoice(1,"全て伐採してやる")
  ShowMessageFace("dryad_fc1",2,0,2,13)
  ShowMessage("\\n<Dryad>You're a scary human...")
  355("change_friend(-5)")
  0()
 IfPlayerPicksChoice(2,"僕は草花になりたい")
  ShowMessageFace("dryad_fc1",1,0,2,14)
  ShowMessage("\\n<Dryad>Well then, shall I take you inside of me?\nThen it's settled. ♪")
  355("change_friend(10)")
  0()
 404()
 EndEventProcessing()
 0()
EndIf()
If(1,13,0,20,2)
 ShowMessageFace("dryad_fc1",2,0,2,15)
 ShowMessage("\\n<Dryad>Somehow, I feel like I'm being brainwashed...\nIs it just my imagination?")
 ShowChoices(strings("It's not your imagination","It's just your imagination","I'm also feeling a brainwashing signal"),0)
 IfPlayerPicksChoice(0,"気のせいじゃない")
  ShowMessageFace("dryad_fc1",1,0,2,16)
  ShowMessage("\\n<Dryad>You're right, thank you for telling me!")
  355("change_friend(10)")
  0()
 IfPlayerPicksChoice(1,"気のせいだ")
  ShowMessageFace("dryad_fc1",0,0,2,17)
  ShowMessage("\\n<Dryad>Is that so... Well, I'm okay either way.")
  0()
 IfPlayerPicksChoice(2,"僕も洗脳電波を感じる")
  ShowMessageFace("dryad_fc1",0,0,2,18)
  ShowMessage("\\n<Dryad>I think you might be very ill...\nShould I give you some herbs to calm your mind?")
  0()
 404()
 EndEventProcessing()
 0()
EndIf()
If(1,13,0,30,2)
 ShowMessageFace("dryad_fc1",0,0,2,19)
 ShowMessage("\\n<Dryad>The plant tribe or the insect tribe, which side do you support...?")
 ShowChoices(strings("Plant tribe","Insect tribe","They should reconcile"),0)
 IfPlayerPicksChoice(0,"植物族")
  ShowMessageFace("dryad_fc1",1,0,2,20)
  ShowMessage("\\n<Dryad>Wow, that makes me happy. ♪")
  355("change_friend(10)")
  0()
 IfPlayerPicksChoice(1,"昆虫族")
  ShowMessageFace("dryad_fc1",2,0,2,21)
  ShowMessage("\\n<Dryad>In that case, you are my enemy too...")
  355("change_friend(-5)")
  0()
 IfPlayerPicksChoice(2,"和解するべき")
  ShowMessageFace("dryad_fc1",2,0,2,22)
  ShowMessage("\\n<Dryad>That isn't possible...")
  355("change_friend(-5)")
  0()
 404()
 EndEventProcessing()
 0()
EndIf()
If(1,13,0,40,2)
 ShowMessageFace("dryad_fc1",0,0,2,23)
 ShowMessage("\\n<Dryad>Do you like the sun...?")
 ShowChoices(strings("I like it","I hate it","I am the sun"),0)
 IfPlayerPicksChoice(0,"好き")
  ShowMessageFace("dryad_fc1",0,0,2,24)
  ShowMessage("\\n<Dryad>I love the sun too. ♪")
  355("change_friend(10)")
  0()
 IfPlayerPicksChoice(1,"嫌い")
  ShowMessageFace("dryad_fc1",2,0,2,25)
  ShowMessage("\\n<Dryad>That's right...humans get sunburned.")
  0()
 IfPlayerPicksChoice(2,"僕が太陽だ")
  ShowMessageFace("dryad_fc1",2,0,2,26)
  ShowMessage("\\n<Dryad>............")
  355("change_friend(-5)")
  0()
 404()
 EndEventProcessing()
 0()
EndIf()
If(1,13,0,50,2)
 ShowMessageFace("dryad_fc1",0,0,2,27)
 ShowMessage("\\n<Dryad>The World Tree is a really nice place.\nWouldn't you also like to live in a place like this...?")
 ShowChoices(strings("I want to live here","I don't want to live here","I already live here"),0)
 IfPlayerPicksChoice(0,"暮らしたい")
  ShowMessageFace("dryad_fc1",0,0,2,28)
  ShowMessage("\\n<Dryad>Then let's live here. ♪")
  355("change_friend(10)")
  0()
 IfPlayerPicksChoice(1,"暮らしたくない")
  ShowMessageFace("dryad_fc1",2,0,2,29)
  ShowMessage("\\n<Dryad>Is that so... I'm sorry.")
  0()
 IfPlayerPicksChoice(2,"すでに暮らしている")
  ShowMessageFace("dryad_fc1",3,0,2,30)
  ShowMessage("\\n<Dryad>Is that so?\nBut I haven't seen you before...")
  0()
 404()
 EndEventProcessing()
 0()
EndIf()
DefineLabel("要求")
ChangeVariable(13,13,0,2,1,30)
If(1,13,0,10,2)
 If(8,301)
  ShowMessageFace("dryad_fc1",0,0,2,31)
  ShowMessage("\\n<Dryad>I would like to eat an apple...")
  ChangeVariable(24,24,0,3,0,301,0)
  ShowMessageFace("",0,0,2,32)
  ShowMessage("Do you want to give an \\ii[301]? (Have:\\V[24])")
  ShowChoices(strings("Yes","No"),2)
  IfPlayerPicksChoice(0,"Yes")
   ShowMessageFace("dryad_fc1",1,0,2,33)
   ShowMessage("\\n<Dryad>Wow, it's okay if I can have it...?")
   ChangeInventory_Item(301,1,0,1)
   355("change_friend(20)")
   EndEventProcessing()
   0()
  IfPlayerPicksChoice(1,"No")
   ShowMessageFace("dryad_fc1",2,0,2,34)
   ShowMessage("\\n<Dryad>I thought you'd give it to me, but...now I'm sad.")
   EndEventProcessing()
   0()
  404()
  0()
 Else()
  ChangeVariable(13,13,0,0,20)
  0()
 EndIf()
 0()
EndIf()
If(1,13,0,20,2)
 If(8,305)
  ShowMessageFace("dryad_fc1",0,0,2,35)
  ShowMessage("\\n<Dryad>I would like to eat a banana...")
  ChangeVariable(24,24,0,3,0,305,0)
  ShowMessageFace("",0,0,2,36)
  ShowMessage("Do you want to give a \\ii[305]? (Have:\\V[24])")
  ShowChoices(strings("Yes","No"),2)
  IfPlayerPicksChoice(0,"Yes")
   ShowMessageFace("dryad_fc1",1,0,2,37)
   ShowMessage("\\n<Dryad>Wow, it's okay if I can have it...?")
   ChangeInventory_Item(305,1,0,1)
   355("change_friend(30)")
   EndEventProcessing()
   0()
  IfPlayerPicksChoice(1,"No")
   ShowMessageFace("dryad_fc1",2,0,2,38)
   ShowMessage("\\n<Dryad>I thought you'd give it to me, but...now I'm sad.")
   EndEventProcessing()
   0()
  404()
  0()
 Else()
  ChangeVariable(13,13,0,0,30)
  0()
 EndIf()
 0()
EndIf()
If(1,13,0,30,2)
 ShowMessageFace("dryad_fc1",0,0,2,39)
 ShowMessage("\\n<Dryad>I would like some money...")
 If(7,975,0)
  ChangeVariable(24,24,0,3,7,2,0)
  ShowMessageFace("",0,0,2,40)
  ShowMessage("Do you want to give 975G? (Have:\\V[24])")
  ShowChoices(strings("Yes","No"),2)
  IfPlayerPicksChoice(0,"Yes")
   ShowMessageFace("dryad_fc1",1,0,2,41)
   ShowMessage("\\n<Dryad>Wow, it's okay if I can have it...?")
   125(1,0,975)
   355("change_friend(25)")
   EndEventProcessing()
   0()
  IfPlayerPicksChoice(1,"No")
   ShowMessageFace("dryad_fc1",2,0,2,42)
   ShowMessage("\\n<Dryad>I thought you'd give it to me, but...now I'm sad.")
   EndEventProcessing()
   0()
  404()
  0()
 Else()
  ShowMessageFace("dryad_fc1",3,0,2,43)
  ShowMessage("\\n<Dryad>...Oh, you were a poor man...")
  EndEventProcessing()
  0()
 EndIf()
 0()
EndIf()
DefineLabel("贈与")
ChangeVariable(13,13,0,2,1,30)
If(1,25,0,1,0)
 ChangeVariable(13,13,0,0,30)
 ChangeVariable(25,25,0,0,0)
 0()
EndIf()
If(1,25,0,2,0)
 ChangeVariable(13,13,0,2,1,20)
 ChangeVariable(25,25,0,0,0)
 0()
EndIf()
If(1,13,0,10,2)
 ShowMessageFace("dryad_fc1",0,0,2,44)
 ShowMessage("\\n<Dryad>I'll give you some medicine...")
 250(bytes(0x04,0x08,0x6f,0x3a,0x0c,0x52,0x50,0x47,0x3a,0x3a,0x53,0x45,0x08,0x3a,0x0a,0x40,0x6e,0x61,0x6d,0x65,0x49,0x22,0x0a,0x49,0x74,0x65,0x6d,0x31,0x06,0x3a,0x06,0x45,0x54,0x3a,0x0b,0x40,0x70,0x69,0x74,0x63,0x68,0x69,0x69,0x3a,0x0c,0x40,0x76,0x6f,0x6c,0x75,0x6d,0x65,0x69,0x55))
 ChangeInventory_Item(22,0,0,1)
 ShowMessageFace("",0,0,2,45)
 ShowMessage("The Dryad gave you a \\ii[22]!")
 EndEventProcessing()
 0()
EndIf()
If(1,13,0,20,2)
 ShowMessageFace("dryad_fc1",0,0,2,46)
 ShowMessage("\\n<Dryad>I'll give you one of my petals...")
 250(bytes(0x04,0x08,0x6f,0x3a,0x0c,0x52,0x50,0x47,0x3a,0x3a,0x53,0x45,0x08,0x3a,0x0a,0x40,0x6e,0x61,0x6d,0x65,0x49,0x22,0x0a,0x49,0x74,0x65,0x6d,0x31,0x06,0x3a,0x06,0x45,0x54,0x3a,0x0b,0x40,0x70,0x69,0x74,0x63,0x68,0x69,0x69,0x3a,0x0c,0x40,0x76,0x6f,0x6c,0x75,0x6d,0x65,0x69,0x55))
 ChangeInventory_Item(232,0,0,1)
 ShowMessageFace("",0,0,2,47)
 ShowMessage("The Dryad gave you an \\ii[232]!")
 EndEventProcessing()
 0()
EndIf()
If(1,13,0,30,2)
 ShowMessageFace("dryad_fc1",0,0,2,48)
 ShowMessage("\\n<Dryad>I'll give you some money...")
 250(bytes(0x04,0x08,0x6f,0x3a,0x0c,0x52,0x50,0x47,0x3a,0x3a,0x53,0x45,0x08,0x3a,0x0a,0x40,0x6e,0x61,0x6d,0x65,0x49,0x22,0x0a,0x49,0x74,0x65,0x6d,0x31,0x06,0x3a,0x06,0x45,0x54,0x3a,0x0b,0x40,0x70,0x69,0x74,0x63,0x68,0x69,0x69,0x3a,0x0c,0x40,0x76,0x6f,0x6c,0x75,0x6d,0x65,0x69,0x55))
 125(0,0,1625)
 ShowMessageFace("",0,0,2,49)
 ShowMessage("The Dryad gave you 1625G!")
 EndEventProcessing()
 0()
EndIf()
0()
