// EVENT 3339
Name "Wyvern"

PictureDisplay(5,"80_wyvern_st02",0,0,0,0,100,100,0,0)
PictureMove(5,null,0,0,0,0,100,100,255,0,30,true)
241(bytes(0x04,0x08,0x6f,0x3a,0x0d,0x52,0x50,0x47,0x3a,0x3a,0x42,0x47,0x4d,0x08,0x3a,0x0a,0x40,0x6e,0x61,0x6d,0x65,0x49,0x22,0x09,0x65,0x72,0x6f,0x31,0x06,0x3a,0x06,0x45,0x54,0x3a,0x0c,0x40,0x76,0x6f,0x6c,0x75,0x6d,0x65,0x69,0x69,0x3a,0x0b,0x40,0x70,0x69,0x74,0x63,0x68,0x69,0x69))
ShowMessageFace("",0,0,2,1)
ShowMessage("\\n<Luka>")
ShowMessage("Auuu...")
ShowMessageFace("",0,0,2,2)
ShowMessage("The Wyvern swoops down and grabs hold of me.")
ShowMessageFace("",0,0,2,3)
ShowMessage("\\n<Luka>")
ShowMessage("Ugh, what...?")
ShowMessageFace("",0,0,2,4)
ShowMessage("With no energy left to resist, the Wyvern yanks me off the ground flying high up with me...")
ShowMessageFace("wyvern_fc1",1,0,2,5)
ShowMessage("\\n<Wyvern>")
ShowMessage("Now to rape you... You should feel honored at having the privilege to mate with a dragon-type monster such as myself.")
ShowMessageFace("",0,0,2,6)
ShowMessage("I can see a dripping vagina on the Wyvern's crotch, her opening contracting like a gaping mouth.")
245(bytes(0x04,0x08,0x6f,0x3a,0x0d,0x52,0x50,0x47,0x3a,0x3a,0x42,0x47,0x53,0x08,0x3a,0x0a,0x40,0x6e,0x61,0x6d,0x65,0x49,0x22,0x1e,0x6d,0x6f,0x6e,0x5f,0x68,0x73,0x65,0x61,0x6e,0x30,0x32,0x5f,0x69,0x6e,0x6e,0x65,0x72,0x77,0x6f,0x72,0x6b,0x73,0x5f,0x61,0x32,0x06,0x3a,0x06,0x45,0x54,0x3a,0x0c,0x40,0x76,0x6f,0x6c,0x75,0x6d,0x65,0x69,0x55,0x3a,0x0b,0x40,0x70,0x69,0x74,0x63,0x68,0x69,0x69))
PictureDisplay(6,"ev_wyvern_ct01",0,0,0,0,100,100,255,0)
ShowMessageFace("",0,0,2,7)
ShowMessage("She moves me closer to her, slowly forcing me into her vagina. Like that, she forces me all the way inside her...")
ShowMessageFace("",0,0,2,8)
ShowMessage("\\n<Luka>")
ShowMessage("Ah, aaaaaah...!")
ShowMessageFace("",0,0,2,9)
ShowMessage("As her hot vagina wraps tighter all around me, I sigh and move closer to her.")
ShowMessageFace("",0,0,2,10)
ShowMessage("The overwhelming pleasure weakens me.")
ShowMessageFace("",0,0,2,11)
ShowMessage("Far from fighting against her, I'm actually bringing myself closer to her.")
ShowMessageFace("wyvern_fc1",1,0,2,12)
ShowMessage("\\n<Wyvern>")
ShowMessage("Fufu... No man can withstand my embrace for longer than a minute. You'll be finished inside me too!")
ShowMessageFace("",0,0,2,13)
ShowMessage("\\n<Luka>")
ShowMessage("Aaaaaah...!!")
ShowMessageFace("",0,0,2,14)
ShowMessage("Her soft flesh squeezes around me and twitches, sending shocks of pleasure through me with every movement.")
ShowMessageFace("",0,0,2,15)
ShowMessage("The warmth inside her makes it feel like my penis is going to melt...")
ShowMessageFace("",0,0,2,16)
ShowMessage("As she's keeping me inside her vagina, I have no choice but to take the pleasure.")
ShowMessageFace("",0,0,2,17)
ShowMessage("\\n<Luka>")
ShowMessage("Auuu... It's so warm...")
ShowMessageFace("",0,0,2,18)
ShowMessage("I want to give myself over to this warmth... That ruinous desire starts to take over my mind.")
ShowMessageFace("",0,0,2,19)
ShowMessage("The sweet tightening and warmth around my penis quickly pushes me to my limits.")
ShowMessageFace("",0,0,2,20)
ShowMessage("Just from helplessly clinging to her and being stuck inside her, I start to feel my lower body tingle as an ejaculation is about to explode out of me.")
ShowMessageFace("wyvern_fc1",1,0,2,21)
ShowMessage("\\n<Wyvern>")
ShowMessage("I can feel your penis twitching inside me... Are you already about to give me your seed?")
ShowMessageFace("",0,0,2,22)
ShowMessage("The Wyvern looks down at me and smiles as she soars through the sky. At the same time, she clamps her hot vagina down even tighter around me.")
ShowMessageFace("wyvern_fc1",1,0,2,23)
ShowMessage("\\n<Wyvern>")
ShowMessage("Go on, let it out... Pour all your seed into my womb...!")
ShowMessageFace("",0,0,2,24)
ShowMessage("\\n<Luka>")
ShowMessage("Ah, aaaaaah...!")
ShowMessageFace("",0,0,2,25)
ShowMessage("She squeezes me as she asks for it. Unable to endure it, my body happily obliges...")
RunCommonEvent(104)
PictureDisplay(6,"ev_wyvern_ct02",0,0,0,0,100,100,255,0)
RunCommonEvent(105)
ShowMessageFace("",0,0,2,26)
ShowMessage("My semen pours right into her hot vagina. As each twitch shoots out more, the sense of blissful release gets even more intense.")
ShowMessageFace("wyvern_fc1",1,0,2,27)
ShowMessage("\\n<Wyvern>")
ShowMessage("Ahahaha, you really did come! Out of all the men I've raped so far, you are by far the most pathetic...!")
245(bytes(0x04,0x08,0x6f,0x3a,0x0d,0x52,0x50,0x47,0x3a,0x3a,0x42,0x47,0x53,0x08,0x3a,0x0a,0x40,0x6e,0x61,0x6d,0x65,0x49,0x22,0x1e,0x6d,0x6f,0x6e,0x5f,0x68,0x73,0x65,0x61,0x6e,0x30,0x35,0x5f,0x69,0x6e,0x6e,0x65,0x72,0x77,0x6f,0x72,0x6b,0x73,0x5f,0x61,0x35,0x06,0x3a,0x06,0x45,0x54,0x3a,0x0c,0x40,0x76,0x6f,0x6c,0x75,0x6d,0x65,0x69,0x55,0x3a,0x0b,0x40,0x70,0x69,0x74,0x63,0x68,0x69,0x69))
ShowMessageFace("",0,0,2,28)
ShowMessage("As the Wyvern laughs at me, she starts to shake her hips back and forth. Awkwardly hanging in the air, I'm bounced around all over the place as she forces me in and out of her.")
ShowMessageFace("",0,0,2,29)
ShowMessage("At the same time, she clamps down tightly around me, making the friction create even more unbearable warmth...")
ShowMessageFace("",0,0,2,30)
ShowMessage("\\n<Luka>")
ShowMessage("Hauu... Aaaaaah...!!")
ShowMessageFace("wyvern_fc1",1,0,2,31)
ShowMessage("\\n<Wyvern>")
ShowMessage("Fufu... Mating with a dragon feels good, doesn't it?")
ShowMessageFace("wyvern_fc1",1,0,2,32)
ShowMessage("\\n<Wyvern>")
ShowMessage("A man like you could never hope to fight against a dragon when she decides to rape you.")
ShowMessageFace("",0,0,2,33)
ShowMessage("\\n<Luka>")
ShowMessage("Auu... That feels good...")
ShowMessageFace("",0,0,2,34)
ShowMessage("Each flap of her wings bounces me around, making my penis bounce in and out of her in awkward, almost random thrusts.")
ShowMessageFace("",0,0,2,35)
ShowMessage("Every time I'm forced all the way in her, she clamps down around the tip of my penis, almost as if trying to hold onto me as I bounce back out.")
ShowMessageFace("",0,0,2,36)
ShowMessage("The random stimulation destroys any attempt I could have had at enduring it.")
ShowMessageFace("",0,0,2,37)
ShowMessage("With the fall certain to kill me if I struggle, I'm unable to do anything but allow her to rape me however she wants...")
ShowMessageFace("wyvern_fc1",1,0,2,38)
ShowMessage("\\n<Wyvern>")
ShowMessage("Hoora, it's almost time for the finish... Here, let's make you come inside me again...")
ShowMessageFace("",0,0,2,39)
ShowMessage("With a quick flap of her wings, she forces me all the way inside her. Clamping down around my tip, she forces me over the edge in one swift movement...")
ShowMessageFace("",0,0,2,40)
ShowMessage("\\n<Luka>")
ShowMessage("Ah, aaaaaaaah!!")
RunCommonEvent(104)
PictureDisplay(6,"ev_wyvern_ct03",0,0,0,0,100,100,255,0)
RunCommonEvent(105)
ShowMessageFace("",0,0,2,41)
ShowMessage("I explode inside of her again, shaking in pleasure from the orgasm...")
ShowMessageFace("wyvern_fc1",1,0,2,42)
ShowMessage("\\n<Wyvern>")
ShowMessage("Hoora, I'll make you come inside me even more. I want every drop out of you!")
ShowMessageFace("",0,0,2,43)
ShowMessage("\\n<Luka>")
ShowMessage("Ah, aaaaaaah!!")
RunCommonEvent(104)
RunCommonEvent(105)
ShowMessageFace("",0,0,2,44)
ShowMessage("Forced in and out of her tight vagina, I'm forced to orgasm after orgasm...")
RunCommonEvent(104)
RunCommonEvent(105)
ShowMessageFace("",0,0,2,45)
ShowMessage("Given no time to rest, she never stop raping me even as we fly through the sky...")
RunCommonEvent(104)
RunCommonEvent(105)
ShowMessageFace("",0,0,2,46)
ShowMessage("I'm forced to consecutive orgasms, almost one after the other.")
ShowMessageFace("",0,0,2,47)
ShowMessage("I relax in her embrace, far too weak to cling onto her anymore.")
ShowMessageFace("",0,0,2,48)
ShowMessage("\\n<Luka>")
ShowMessage("Auu... Stop it already... I'm going to die...")
ShowMessageFace("wyvern_fc1",1,0,2,49)
ShowMessage("\\n<Wyvern>")
ShowMessage("Didn't I say I would get every drop out of you? I'll force you to keep coming in me, even if it kills you...")
ShowMessageFace("",0,0,2,50)
ShowMessage("\\n<Luka>")
ShowMessage("Ah, aaaaaaah!!")
ShowMessageFace("",0,0,2,51)
ShowMessage("I scream in terror and pleasure as she clamps down around me at the same time she speaks...")
RunCommonEvent(104)
PictureDisplay(6,"ev_wyvern_ct04",0,0,0,0,100,100,255,0)
RunCommonEvent(105)
ShowMessageFace("",0,0,2,52)
ShowMessage("Over and over, I'm forced to come inside her...")
ShowMessageFace("",0,0,2,53)
ShowMessage("As I fly through the air in her embrace, she just keeps on raping me.")
ShowMessageFace("",0,0,2,54)
ShowMessage("\\n<Luka>")
ShowMessage("Aaah... Aaaah...")
ShowMessageFace("wyvern_fc1",1,0,2,55)
ShowMessage("\\n<Wyvern>")
ShowMessage("Hoora, more....")
RunCommonEvent(104)
RunCommonEvent(105)
ShowMessageFace("",0,0,2,56)
ShowMessage("No matter how weak I get, she keeps on raping me.")
ShowMessageFace("",0,0,2,57)
ShowMessage("My eyes slowly begin to close in exhaustion... My only view is of her cold gaze...")
RunCommonEvent(104)
RunCommonEvent(105)
ShowMessageFace("",0,0,2,58)
ShowMessage("\\n<Luka>")
ShowMessage("ah...ah...")
ShowMessageFace("",0,0,2,59)
ShowMessage("My consciousness starts to fade as the last of my semen trickles out into her...")
221()
PictureClear(5)
PictureClear(6)
246(2)
ShowMessageFace("wyvern_fc1",1,0,2,60)
ShowMessage("\\n<Wyvern>")
ShowMessage("...Out of energy? What an amazing way to die, fufu...")
ShowMessageFace("",0,0,2,61)
ShowMessage("The Wyvern lets go of the boy's corpse, letting his shriveled penis finally break from her.")
ShowMessageFace("",0,0,2,62)
ShowMessage("With no more use for him, she lets his lifeless body fall to the ground below...")
ShowMessageFace("",0,0,2,63)
ShowMessage("......")
221()
242(1)
Wait(120)
355("memory_interruption")
ShowMessageFace("",0,0,2,64)
ShowMessage("You hear Ilias' voice calling out to you...")
ShowMessage("Receive her evaluation?")
ShowChoices(strings("Receive evaluation","Change difficulty","Reincarnate"),3)
IfPlayerPicksChoice(0,"Receive Evaluation")
 241(bytes(0x04,0x08,0x6f,0x3a,0x0d,0x52,0x50,0x47,0x3a,0x3a,0x42,0x47,0x4d,0x08,0x3a,0x0a,0x40,0x6e,0x61,0x6d,0x65,0x49,0x22,0x0a,0x69,0x72,0x69,0x61,0x73,0x06,0x3a,0x06,0x45,0x54,0x3a,0x0c,0x40,0x76,0x6f,0x6c,0x75,0x6d,0x65,0x69,0x5f,0x3a,0x0b,0x40,0x70,0x69,0x74,0x63,0x68,0x69,0x6e))
 PictureDisplay(1,"bg001",0,0,0,0,100,100,255,0)
 222()
 PictureDisplay(5,"80_iriasu_st04",0,0,0,0,100,100,0,0)
 PictureMove(5,null,0,0,0,0,100,100,255,0,30,true)
 ShowMessageFace("iriasu_fc1",3,0,2,65)
 ShowMessage("\\n<Ilias>")
 ShowMessage("Raped while flying in the air... That's certainly a new one.")
 ShowMessage("Were you able to enjoy entering that exclusive club?")
 ShowMessageFace("iriasu_fc1",3,0,2,66)
 ShowMessage("\\n<Ilias>")
 ShowMessage("...Oh brother.")
 PictureDisplay(5,"80_iriasu_st01",0,0,0,0,100,100,255,0)
 ShowMessageFace("iriasu_fc1",0,0,2,67)
 ShowMessage("\\n<Ilias>")
 ShowMessage("The Wyvern is a flying Dragon.")
 ShowMessage("On top of powerful Physical attacks, she can also use Fire and Wind elemental skills.")
 ShowMessageFace("iriasu_fc1",0,0,2,68)
 ShowMessage("\\n<Ilias>")
 ShowMessage("Her resistance to the elements and status ailments is relatively high.")
 ShowMessage("Her evasion is also very high, she is a very annoying enemy.")
 PictureDisplay(5,"80_iriasu_st02",0,0,0,0,100,100,255,0)
 ShowMessageFace("iriasu_fc1",1,0,2,69)
 ShowMessage("\\n<Ilias>")
 ShowMessage("Now go, oh Brave Luka.")
 ShowMessage("After you had enough sky and sea sex, return back to land sex.")
 242(1)
 221()
 PictureClear(5)
 PictureClear(1)
 Wait(60)
 0()
IfPlayerPicksChoice(1,"Change difficulty")
 ShowMessageFace("",0,0,2,70)
 ShowMessage("Please choose a difficulty level.")
 RunCommonEvent(110)
 0()
IfPlayerPicksChoice(2,"Reincarnate")
 0()
404()
RunCommonEvent(3000)
0()
