// EVENT 0324
Name "Canaan Sisters Recruitment"

PictureDisplay(5,"80_dorothy_st03",0,0,0,0,100,100,255,0)
ShowMessageFace("dorothy_fc1",2,0,2,1)
ShowMessage("\\n<Dorothy>The war is over, which puts us mercenaries out of a job.")
PictureDisplay(5,"80_dorothy_st03",0,0,-150,0,100,100,255,0)
PictureDisplay(6,"80_rafi_st03",0,0,150,0,100,100,255,0)
ShowMessageFace("rafi_fc1",2,0,2,2)
ShowMessage("\\n<Raffia>I'm hungry...")
PictureClear(6)
PictureDisplay(5,"80_dina_st01",0,0,0,0,100,100,255,0)
If(0,2155,0)
 JumpToLabel("値切り")
 0()
EndIf()
ShowMessageFace("dina_fc1",0,0,2,3)
ShowMessage("\\n<Deana>Hey hero, how about hiring us? You can get all three of us for one low price of 10,000G.")
ShowMessageFace("",0,0,2,4)
ShowMessage("Hire the Canaan Sisters for 10,000G?\\$")
ShowChoices(strings("Hire the sisters","Refuse to pay"),2)
IfPlayerPicksChoice(0,"仲間にする")
 If(7,10000,0)
  125(1,0,10000)
  RunCommonEvent(327)
  EndEventProcessing()
  0()
 Else()
  ShowMessageFace("dina_fc1",2,0,2,5)
  ShowMessage("\\n<Deana>Actually, it doesn't look like you have enough money...")
  PictureClear(5)
  EndEventProcessing()
  0()
 EndIf()
 0()
IfPlayerPicksChoice(1,"仲間にしない")
 ShowMessageFace("dina_fc1",0,0,2,6)
 ShowMessage("\\n<Deana>...Wait, there's more!\nAct now, and we'll throw in a small medal!")
 ShowMessageFace("",0,0,2,7)
 ShowMessage("They've thrown a small medal in with the deal.")
 ShowMessage("Hire the Canaan Sisters for 10,000G?\\$")
 ShowChoices(strings("Hire the sisters","Refuse to pay"),2)
 IfPlayerPicksChoice(0,"仲間にする")
  If(7,10000,0)
   125(1,0,10000)
   RunCommonEvent(327)
   250(bytes(0x04,0x08,0x6f,0x3a,0x0c,0x52,0x50,0x47,0x3a,0x3a,0x53,0x45,0x08,0x3a,0x0a,0x40,0x6e,0x61,0x6d,0x65,0x49,0x22,0x0a,0x49,0x74,0x65,0x6d,0x31,0x06,0x3a,0x06,0x45,0x54,0x3a,0x0b,0x40,0x70,0x69,0x74,0x63,0x68,0x69,0x69,0x3a,0x0c,0x40,0x76,0x6f,0x6c,0x75,0x6d,0x65,0x69,0x55))
   ChangeInventory_Item(32,0,0,1)
   EndEventProcessing()
   0()
  Else()
   ShowMessageFace("dina_fc1",2,0,2,8)
   ShowMessage("\\n<Deana>Actually, it doesn't look like you have enough money...")
   PictureClear(5)
   EndEventProcessing()
   0()
  EndIf()
  0()
 IfPlayerPicksChoice(1,"仲間にしない")
  DefineLabel("値切り")
  PictureDisplay(5,"80_dina_st03",0,0,0,0,100,100,255,0)
  ShowMessageFace("dina_fc1",2,0,2,9)
  ShowMessage("\\n<Deana>It's your lucky day! 5,000G for the three of us and the small medal. What a bargain!")
  ShowChoices(strings("Hire the sisters","Refuse to pay"),2)
  IfPlayerPicksChoice(0,"仲間にする")
   If(7,5000,0)
    355("gain_medal(2111)")
    125(1,0,5000)
    RunCommonEvent(327)
    250(bytes(0x04,0x08,0x6f,0x3a,0x0c,0x52,0x50,0x47,0x3a,0x3a,0x53,0x45,0x08,0x3a,0x0a,0x40,0x6e,0x61,0x6d,0x65,0x49,0x22,0x0a,0x49,0x74,0x65,0x6d,0x31,0x06,0x3a,0x06,0x45,0x54,0x3a,0x0b,0x40,0x70,0x69,0x74,0x63,0x68,0x69,0x69,0x3a,0x0c,0x40,0x76,0x6f,0x6c,0x75,0x6d,0x65,0x69,0x55))
    ChangeInventory_Item(32,0,0,1)
    EndEventProcessing()
    0()
   Else()
    ShowMessageFace("dina_fc1",2,0,2,10)
    ShowMessage("\\n<Deana>Actually, it doesn't look like you have enough money...")
    PictureClear(5)
    EndEventProcessing()
    0()
   EndIf()
   0()
  IfPlayerPicksChoice(1,"仲間にしない")
   ShowMessageFace("dina_fc1",2,0,2,11)
   ShowMessage("\\n<Deana>Are you trying to ruin us!?\nWe can't go any lower...")
   ChangeSwitch(2155,2155,0)
   PictureClear(5)
   EndEventProcessing()
   0()
  404()
  0()
 404()
 0()
404()
0()
