﻿
DisplayName "Snow Shrine"



EVENT   1
 PAGE   1
  250(bytes(0x04,0x08,0x6f,0x3a,0x0c,0x52,0x50,0x47,0x3a,0x3a,0x53,0x45,0x08,0x3a,0x0a,0x40,0x6e,0x61,0x6d,0x65,0x49,0x22,0x09,0x4d,0x6f,0x76,0x65,0x06,0x3a,0x06,0x45,0x54,0x3a,0x0b,0x40,0x70,0x69,0x74,0x63,0x68,0x69,0x69,0x3a,0x0c,0x40,0x76,0x6f,0x6c,0x75,0x6d,0x65,0x69,0x55))
  TeleportPlayer(0,2,115,174,2,0)
  0()



EVENT   2
 PAGE   1
  250(bytes(0x04,0x08,0x6f,0x3a,0x0c,0x52,0x50,0x47,0x3a,0x3a,0x53,0x45,0x08,0x3a,0x0a,0x40,0x6e,0x61,0x6d,0x65,0x49,0x22,0x09,0x4d,0x6f,0x76,0x65,0x06,0x3a,0x06,0x45,0x54,0x3a,0x0b,0x40,0x70,0x69,0x74,0x63,0x68,0x69,0x69,0x3a,0x0c,0x40,0x76,0x6f,0x6c,0x75,0x6d,0x65,0x69,0x55))
  TeleportPlayer(0,2,115,174,2,0)
  0()



EVENT   3
 PAGE   1
  ChangeSwitch(31,31,1)
  ChangeSwitch(100,100,0)
  250(bytes(0x04,0x08,0x6f,0x3a,0x0c,0x52,0x50,0x47,0x3a,0x3a,0x53,0x45,0x08,0x3a,0x0a,0x40,0x6e,0x61,0x6d,0x65,0x49,0x22,0x09,0x4d,0x6f,0x76,0x65,0x06,0x3a,0x06,0x45,0x54,0x3a,0x0b,0x40,0x70,0x69,0x74,0x63,0x68,0x69,0x69,0x3a,0x0c,0x40,0x76,0x6f,0x6c,0x75,0x6d,0x65,0x69,0x55))
  TeleportPlayer(0,216,16,28,0,0)
  0()



EVENT   4
 PAGE   1
  250(bytes(0x04,0x08,0x6f,0x3a,0x0c,0x52,0x50,0x47,0x3a,0x3a,0x53,0x45,0x08,0x3a,0x0a,0x40,0x6e,0x61,0x6d,0x65,0x49,0x22,0x0a,0x43,0x68,0x65,0x73,0x74,0x06,0x3a,0x06,0x45,0x54,0x3a,0x0b,0x40,0x70,0x69,0x74,0x63,0x68,0x69,0x69,0x3a,0x0c,0x40,0x76,0x6f,0x6c,0x75,0x6d,0x65,0x69,0x55))
  205(0,bytes(0x04,0x08,0x6f,0x3a,0x13,0x52,0x50,0x47,0x3a,0x3a,0x4d,0x6f,0x76,0x65,0x52,0x6f,0x75,0x74,0x65,0x09,0x3a,0x0c,0x40,0x72,0x65,0x70,0x65,0x61,0x74,0x46,0x3a,0x0f,0x40,0x73,0x6b,0x69,0x70,0x70,0x61,0x62,0x6c,0x65,0x46,0x3a,0x0a,0x40,0x77,0x61,0x69,0x74,0x54,0x3a,0x0a,0x40,0x6c,0x69,0x73,0x74,0x5b,0x0b,0x6f,0x3a,0x15,0x52,0x50,0x47,0x3a,0x3a,0x4d,0x6f,0x76,0x65,0x43,0x6f,0x6d,0x6d,0x61,0x6e,0x64,0x07,0x3a,0x0a,0x40,0x63,0x6f,0x64,0x65,0x69,0x29,0x3a,0x10,0x40,0x70,0x61,0x72,0x61,0x6d,0x65,0x74,0x65,0x72,0x73,0x5b,0x00,0x6f,0x3b,0x0a,0x07,0x3b,0x0b,0x69,0x16,0x3b,0x0c,0x5b,0x00,0x6f,0x3b,0x0a,0x07,0x3b,0x0b,0x69,0x14,0x3b,0x0c,0x5b,0x06,0x69,0x08,0x6f,0x3b,0x0a,0x07,0x3b,0x0b,0x69,0x17,0x3b,0x0c,0x5b,0x00,0x6f,0x3b,0x0a,0x07,0x3b,0x0b,0x69,0x14,0x3b,0x0c,0x5b,0x06,0x69,0x08,0x6f,0x3b,0x0a,0x07,0x3b,0x0b,0x69,0x00,0x3b,0x0c,0x5b,0x00))
  ChangeSelfSwitch("A",0)
  ChangeInventory_Item(77,0,0,1)
  0()
 PAGE   2
  // condition: self-switch A is ON
  0()



EVENT   5
 PAGE   1
  250(bytes(0x04,0x08,0x6f,0x3a,0x0c,0x52,0x50,0x47,0x3a,0x3a,0x53,0x45,0x08,0x3a,0x0a,0x40,0x6e,0x61,0x6d,0x65,0x49,0x22,0x0a,0x43,0x68,0x65,0x73,0x74,0x06,0x3a,0x06,0x45,0x54,0x3a,0x0b,0x40,0x70,0x69,0x74,0x63,0x68,0x69,0x69,0x3a,0x0c,0x40,0x76,0x6f,0x6c,0x75,0x6d,0x65,0x69,0x55))
  205(0,bytes(0x04,0x08,0x6f,0x3a,0x13,0x52,0x50,0x47,0x3a,0x3a,0x4d,0x6f,0x76,0x65,0x52,0x6f,0x75,0x74,0x65,0x09,0x3a,0x0c,0x40,0x72,0x65,0x70,0x65,0x61,0x74,0x46,0x3a,0x0f,0x40,0x73,0x6b,0x69,0x70,0x70,0x61,0x62,0x6c,0x65,0x46,0x3a,0x0a,0x40,0x77,0x61,0x69,0x74,0x54,0x3a,0x0a,0x40,0x6c,0x69,0x73,0x74,0x5b,0x0b,0x6f,0x3a,0x15,0x52,0x50,0x47,0x3a,0x3a,0x4d,0x6f,0x76,0x65,0x43,0x6f,0x6d,0x6d,0x61,0x6e,0x64,0x07,0x3a,0x0a,0x40,0x63,0x6f,0x64,0x65,0x69,0x29,0x3a,0x10,0x40,0x70,0x61,0x72,0x61,0x6d,0x65,0x74,0x65,0x72,0x73,0x5b,0x00,0x6f,0x3b,0x0a,0x07,0x3b,0x0b,0x69,0x16,0x3b,0x0c,0x5b,0x00,0x6f,0x3b,0x0a,0x07,0x3b,0x0b,0x69,0x14,0x3b,0x0c,0x5b,0x06,0x69,0x08,0x6f,0x3b,0x0a,0x07,0x3b,0x0b,0x69,0x17,0x3b,0x0c,0x5b,0x00,0x6f,0x3b,0x0a,0x07,0x3b,0x0b,0x69,0x14,0x3b,0x0c,0x5b,0x06,0x69,0x08,0x6f,0x3b,0x0a,0x07,0x3b,0x0b,0x69,0x00,0x3b,0x0c,0x5b,0x00))
  ChangeSelfSwitch("A",0)
  ChangeInventory_Item(241,0,0,1)
  0()
 PAGE   2
  // condition: self-switch A is ON
  0()



EVENT   6
 PAGE   1
  250(bytes(0x04,0x08,0x6f,0x3a,0x0c,0x52,0x50,0x47,0x3a,0x3a,0x53,0x45,0x08,0x3a,0x0a,0x40,0x6e,0x61,0x6d,0x65,0x49,0x22,0x0a,0x43,0x68,0x65,0x73,0x74,0x06,0x3a,0x06,0x45,0x54,0x3a,0x0b,0x40,0x70,0x69,0x74,0x63,0x68,0x69,0x69,0x3a,0x0c,0x40,0x76,0x6f,0x6c,0x75,0x6d,0x65,0x69,0x55))
  205(0,bytes(0x04,0x08,0x6f,0x3a,0x13,0x52,0x50,0x47,0x3a,0x3a,0x4d,0x6f,0x76,0x65,0x52,0x6f,0x75,0x74,0x65,0x09,0x3a,0x0c,0x40,0x72,0x65,0x70,0x65,0x61,0x74,0x46,0x3a,0x0f,0x40,0x73,0x6b,0x69,0x70,0x70,0x61,0x62,0x6c,0x65,0x46,0x3a,0x0a,0x40,0x77,0x61,0x69,0x74,0x54,0x3a,0x0a,0x40,0x6c,0x69,0x73,0x74,0x5b,0x0b,0x6f,0x3a,0x15,0x52,0x50,0x47,0x3a,0x3a,0x4d,0x6f,0x76,0x65,0x43,0x6f,0x6d,0x6d,0x61,0x6e,0x64,0x07,0x3a,0x0a,0x40,0x63,0x6f,0x64,0x65,0x69,0x29,0x3a,0x10,0x40,0x70,0x61,0x72,0x61,0x6d,0x65,0x74,0x65,0x72,0x73,0x5b,0x00,0x6f,0x3b,0x0a,0x07,0x3b,0x0b,0x69,0x16,0x3b,0x0c,0x5b,0x00,0x6f,0x3b,0x0a,0x07,0x3b,0x0b,0x69,0x14,0x3b,0x0c,0x5b,0x06,0x69,0x08,0x6f,0x3b,0x0a,0x07,0x3b,0x0b,0x69,0x17,0x3b,0x0c,0x5b,0x00,0x6f,0x3b,0x0a,0x07,0x3b,0x0b,0x69,0x14,0x3b,0x0c,0x5b,0x06,0x69,0x08,0x6f,0x3b,0x0a,0x07,0x3b,0x0b,0x69,0x00,0x3b,0x0c,0x5b,0x00))
  ChangeSelfSwitch("A",0)
  ChangeInventory_Item(32,0,0,1)
  0()
 PAGE   2
  // condition: self-switch A is ON
  0()



EVENT   7
 PAGE   1
  ChangeSelfSwitch("A",0)
  If(0,4,0)
   ShowMessageFace("alice_fc5",0,0,2,1)
   ShowMessage("\\n<Alice>What the hell is this place...?\nI think we should find out more from the nearby town, first.")
   0()
  EndIf()
  If(0,5,0)
   ShowMessageFace("iriasu_fc4",2,0,2,2)
   ShowMessage("\\n<Ilias>What is this place...?\nDon't you think we should find out more from the nearby town, first?")
   0()
  EndIf()
  0()
 PAGE   2
  // condition: self-switch A is ON
  0()
 PAGE   3
  // condition: variable 1076 >= 4
  ChangeSelfSwitch("B",0)
  If(0,4,0)
   ShowMessageFace("alice_fc5",0,0,2,1)
   ShowMessage("\\n<Alice>This is the snow shrine, huh...?\nIt definitely seems like a place where holy energy would gather easily.")
   ShowMessageFace("alice_fc5",0,0,2,2)
   ShowMessage("\\n<Alice>It seems it spreads further underground than I had initially expected, too. We should stay focused, and treat this place like any other dungeon.")
   0()
  EndIf()
  If(0,5,0)
   ShowMessageFace("iriasu_fc4",2,0,2,3)
   ShowMessage("\\n<Ilias>Is this the snow shrine...?\nIt does indeed appear to be a place where holy energy would gather easily.")
   ShowMessageFace("iriasu_fc4",2,0,2,4)
   ShowMessage("\\n<Ilias>It seems to spread further underground than I had initially imagined, too. Let us remain focused, and treat this place like any other dungeon.")
   0()
  EndIf()
  If(4,538,0)
   ShowMessageFace("heinrich_fc1",7,0,2,5)
   ShowMessage("\\n<Heinrich>I sense many hostile angels in the area.\nThey'll likely attack us on sight.")
   0()
  EndIf()
  If(4,45,0)
   ShowMessageFace("alicetromeria_fc1",4,0,2,6)
   ShowMessage("\\n<Alicetroemeria>Ufufu, there are lots of angels...\nThis is my first time playing with so many.")
   0()
  EndIf()
  ShowMessageFace("ruka_fc1",0,0,2,7)
  ShowMessage("\\n<Luka>We can't let our guard down...\nAll right, let's go meet with the head angel!")
  0()
 PAGE   4
  // condition: self-switch B is ON
  0()



EVENT   8
 PAGE   1
  // condition: variable 1215 >= 3
  0()
 PAGE   2
  // condition: variable 1215 >= 4
  0()



EVENT   9
 PAGE   1
  // condition: variable 1215 >= 3
  RunCommonEvent(528)
  0()
 PAGE   2
  // condition: variable 1215 >= 4
  0()



EVENT   10
 PAGE   1
  // condition: variable 1215 >= 3
  RunCommonEvent(528)
  0()
 PAGE   2
  // condition: variable 1215 >= 4
  0()



EVENT   11
 PAGE   1
  // condition: variable 1215 >= 3
  RunCommonEvent(528)
  0()
 PAGE   2
  // condition: variable 1215 >= 4
  0()



EVENT   12
 PAGE   1
  // condition: variable 1215 >= 3
  RunCommonEvent(528)
  0()
 PAGE   2
  // condition: variable 1215 >= 4
  0()



EVENT   13
 PAGE   1
  // condition: variable 1215 >= 3
  RunCommonEvent(528)
  0()
 PAGE   2
  // condition: variable 1215 >= 4
  0()



EVENT   14
 PAGE   1
  // condition: variable 1215 >= 3
  RunCommonEvent(528)
  0()
 PAGE   2
  // condition: variable 1215 >= 4
  0()



EVENT   15
 PAGE   1
  // condition: switch 31 is ON
  0()



EVENT   16
 PAGE   1
  // condition: variable 1215 >= 3
  0()
 PAGE   2
  // condition: variable 1215 >= 4
  0()



EVENT   17
 PAGE   1
  // condition: variable 1215 >= 3
  217()
  241(bytes(0x04,0x08,0x6f,0x3a,0x0d,0x52,0x50,0x47,0x3a,0x3a,0x42,0x47,0x4d,0x08,0x3a,0x0a,0x40,0x6e,0x61,0x6d,0x65,0x49,0x22,0x0a,0x6b,0x69,0x6b,0x69,0x32,0x06,0x3a,0x06,0x45,0x54,0x3a,0x0c,0x40,0x76,0x6f,0x6c,0x75,0x6d,0x65,0x69,0x69,0x3a,0x0b,0x40,0x70,0x69,0x74,0x63,0x68,0x69,0x69))
  ShowMessageFace("ruka_fc1",0,0,2,1)
  ShowMessage("\\n<Luka>")
  ShowMessage("なにか、異様な気配がするな……")
  If(0,4,0)
   ShowMessageFace("alice_fc6",0,0,2,2)
   ShowMessage("\\n<Alice>")
   ShowMessage("ミュゼット達の罠か……？")
   ShowMessage("いや、それとは違うような――")
   0()
  EndIf()
  If(0,5,0)
   ShowMessageFace("iriasu_fc4",7,0,2,3)
   ShowMessage("\\n<Ilias>")
   ShowMessage("ミュゼット達の罠……")
   ShowMessage("いや、それとも違うような――")
   0()
  EndIf()
  Wait(60)
  212(18,542,false)
  ShowSpeechBalloon(-1,1,false)
  205(-1,bytes(0x04,0x08,0x6f,0x3a,0x13,0x52,0x50,0x47,0x3a,0x3a,0x4d,0x6f,0x76,0x65,0x52,0x6f,0x75,0x74,0x65,0x09,0x3a,0x0c,0x40,0x72,0x65,0x70,0x65,0x61,0x74,0x46,0x3a,0x0f,0x40,0x73,0x6b,0x69,0x70,0x70,0x61,0x62,0x6c,0x65,0x46,0x3a,0x0a,0x40,0x77,0x61,0x69,0x74,0x54,0x3a,0x0a,0x40,0x6c,0x69,0x73,0x74,0x5b,0x07,0x6f,0x3a,0x15,0x52,0x50,0x47,0x3a,0x3a,0x4d,0x6f,0x76,0x65,0x43,0x6f,0x6d,0x6d,0x61,0x6e,0x64,0x07,0x3a,0x0a,0x40,0x63,0x6f,0x64,0x65,0x69,0x18,0x3a,0x10,0x40,0x70,0x61,0x72,0x61,0x6d,0x65,0x74,0x65,0x72,0x73,0x5b,0x00,0x6f,0x3b,0x0a,0x07,0x3b,0x0b,0x69,0x00,0x3b,0x0c,0x5b,0x00))
  Wait(60)
  ChangeSwitch(33,33,0)
  Wait(60)
  TeleportEvent(19,0,43,15,2)
  ChangeSwitch(32,32,0)
  205(19,bytes(0x04,0x08,0x6f,0x3a,0x13,0x52,0x50,0x47,0x3a,0x3a,0x4d,0x6f,0x76,0x65,0x52,0x6f,0x75,0x74,0x65,0x09,0x3a,0x0c,0x40,0x72,0x65,0x70,0x65,0x61,0x74,0x46,0x3a,0x0f,0x40,0x73,0x6b,0x69,0x70,0x70,0x61,0x62,0x6c,0x65,0x46,0x3a,0x0a,0x40,0x77,0x61,0x69,0x74,0x46,0x3a,0x0a,0x40,0x6c,0x69,0x73,0x74,0x5b,0x0a,0x6f,0x3a,0x15,0x52,0x50,0x47,0x3a,0x3a,0x4d,0x6f,0x76,0x65,0x43,0x6f,0x6d,0x6d,0x61,0x6e,0x64,0x07,0x3a,0x0a,0x40,0x63,0x6f,0x64,0x65,0x69,0x09,0x3a,0x10,0x40,0x70,0x61,0x72,0x61,0x6d,0x65,0x74,0x65,0x72,0x73,0x5b,0x00,0x6f,0x3b,0x0a,0x07,0x3b,0x0b,0x69,0x09,0x3b,0x0c,0x5b,0x00,0x6f,0x3b,0x0a,0x07,0x3b,0x0b,0x69,0x09,0x3b,0x0c,0x5b,0x00,0x6f,0x3b,0x0a,0x07,0x3b,0x0b,0x69,0x2c,0x3b,0x0c,0x5b,0x00,0x6f,0x3b,0x0a,0x07,0x3b,0x0b,0x69,0x00,0x3b,0x0c,0x5b,0x00))
  ShowMessageFace("stein_fc2",2,0,2,4)
  ShowMessage("\\n<Promestein>")
  ShowMessage("うわー！！")
  If(0,4,0)
   ShowMessageFace("alice_fc5",6,0,2,5)
   ShowMessage("\\n<Alice>")
   ShowMessage("プ、プロメスティンー！！")
   0()
  EndIf()
  If(0,5,0)
   ShowMessageFace("iriasu_fc4",5,0,2,6)
   ShowMessage("\\n<Ilias>")
   ShowMessage("プ、プロメスティン！？")
   0()
  EndIf()
  ShowMessageFace("ruka_fc1",0,0,2,7)
  ShowMessage("\\n<Luka>")
  ShowMessage("こ、これは……異空間へのゲート！？")
  If(0,4,0)
   ShowMessageFace("alice_fc6",0,0,2,8)
   ShowMessage("\\n<Alice>")
   ShowMessage("いったい、なぜここに……？")
   ShowMessage("しかも、プロメスティンだけを――")
   0()
  EndIf()
  If(0,5,0)
   ShowMessageFace("iriasu_fc4",5,0,2,9)
   ShowMessage("\\n<Ilias>")
   ShowMessage("いったい、なぜここに……？")
   ShowMessage("しかも、プロメスティンだけを――")
   0()
  EndIf()
  Wait(30)
  205(19,bytes(0x04,0x08,0x6f,0x3a,0x13,0x52,0x50,0x47,0x3a,0x3a,0x4d,0x6f,0x76,0x65,0x52,0x6f,0x75,0x74,0x65,0x09,0x3a,0x0c,0x40,0x72,0x65,0x70,0x65,0x61,0x74,0x46,0x3a,0x0f,0x40,0x73,0x6b,0x69,0x70,0x70,0x61,0x62,0x6c,0x65,0x46,0x3a,0x0a,0x40,0x77,0x61,0x69,0x74,0x46,0x3a,0x0a,0x40,0x6c,0x69,0x73,0x74,0x5b,0x08,0x6f,0x3a,0x15,0x52,0x50,0x47,0x3a,0x3a,0x4d,0x6f,0x76,0x65,0x43,0x6f,0x6d,0x6d,0x61,0x6e,0x64,0x07,0x3a,0x0a,0x40,0x63,0x6f,0x64,0x65,0x69,0x2d,0x3a,0x10,0x40,0x70,0x61,0x72,0x61,0x6d,0x65,0x74,0x65,0x72,0x73,0x5b,0x00,0x6f,0x3b,0x0a,0x07,0x3b,0x0b,0x69,0x13,0x3b,0x0c,0x5b,0x07,0x69,0x00,0x69,0x07,0x6f,0x3b,0x0a,0x07,0x3b,0x0b,0x69,0x00,0x3b,0x0c,0x5b,0x00))
  ShowSpeechBalloon(-1,1,false)
  ShowMessageFace("stein_fc2",2,0,2,10)
  ShowMessage("\\n<Promestein>")
  ShowMessage("うわー！！")
  Wait(30)
  212(18,542,false)
  Wait(60)
  ChangeSwitch(33,33,1)
  Wait(60)
  If(0,4,0)
   ShowMessageFace("alice_fc5",6,0,2,11)
   ShowMessage("\\n<Alice>")
   ShowMessage("な、なんだ……！？")
   ShowMessage("いったい、どうなっている！？")
   0()
  EndIf()
  If(0,5,0)
   ShowMessageFace("iriasu_fc4",5,0,2,12)
   ShowMessage("\\n<Ilias>")
   ShowMessage("な、なんです……！？")
   ShowMessage("いったい、どうなっているのです！？")
   0()
  EndIf()
  241(bytes(0x04,0x08,0x6f,0x3a,0x0d,0x52,0x50,0x47,0x3a,0x3a,0x42,0x47,0x4d,0x08,0x3a,0x0a,0x40,0x6e,0x61,0x6d,0x65,0x49,0x22,0x10,0x73,0x63,0x65,0x6e,0x65,0x5f,0x63,0x6f,0x6d,0x69,0x32,0x06,0x3a,0x06,0x45,0x54,0x3a,0x0c,0x40,0x76,0x6f,0x6c,0x75,0x6d,0x65,0x69,0x69,0x3a,0x0b,0x40,0x70,0x69,0x74,0x63,0x68,0x69,0x69))
  ShowMessageFace("stein_fc2",1,0,2,13)
  ShowMessage("\\n<Promestein>")
  ShowMessage("ずいぶんお待たせしましたね。")
  ShowMessage("なんとか戻ってきました……")
  ShowMessageFace("stein_fc2",2,0,2,14)
  ShowMessage("\\n<Promestein>")
  ShowMessage("……って、あれ？")
  ShowMessage("ひょっとして、まったく時間が経っていません？")
  If(0,4,0)
   ShowMessageFace("alice_fc5",2,0,2,15)
   ShowMessage("\\n<Alice>")
   ShowMessage("よく分からんが……")
   ShowMessage("消えてから出て来るまで、数秒程度だったぞ。")
   0()
  EndIf()
  If(0,5,0)
   ShowMessageFace("iriasu_fc4",2,0,2,16)
   ShowMessage("\\n<Ilias>")
   ShowMessage("よく分かりませんが……")
   ShowMessage("消えてから出て来るまで、数秒程度でしたよ。")
   0()
  EndIf()
  ShowMessageFace("stein_fc2",0,0,2,17)
  ShowMessage("\\n<Promestein>")
  ShowMessage("なるほど……あちらの世界とは時間の進みが違うんですね。")
  ShowMessage("いや、異世界の時間経過はこちらでノーカウントかも……")
  If(0,4,0)
   ShowMessageFace("alice_fc5",2,0,2,18)
   ShowMessage("\\n<Alice>")
   ShowMessage("いったい、何があった？")
   ShowMessage("しばらく異世界で過ごしていたというのか？")
   0()
  EndIf()
  If(0,5,0)
   ShowMessageFace("iriasu_fc4",7,0,2,19)
   ShowMessage("\\n<Ilias>")
   ShowMessage("いったい、何があったのです？")
   ShowMessage("しばらく異世界で過ごしていたというのですか？")
   0()
  EndIf()
  ShowMessageFace("stein_fc2",1,0,2,20)
  ShowMessage("\\n<Promestein>")
  ShowMessage("……………………")
  ShowMessageFace("byakunen_fc1",2,0,2,21)
  ShowMessage("\\n<Hakunen>")
  ShowMessage("……ど、どうしたのですか？")
  ShowMessageFace("",0,0,2,22)
  ShowMessage("プロメスティンは、白念達の方を笑いながら眺めている……")
  ShowMessageFace("sonia_fc2",2,0,2,23)
  ShowMessage("\\n<Sonya>")
  ShowMessage("プロメスティンらしからぬ、温かい視線……")
  ShowMessage("いったい何があったの？")
  ShowMessageFace("stein_fc2",1,0,2,24)
  ShowMessage("\\n<Promestein>")
  ShowMessage("……ヒミツです。")
  ShowMessage("それを知ることで、歴史の流れが変わると困りますから。")
  ShowMessageFace("",0,0,2,25)
  ShowMessage("プロメスティンは、何があったのか語ろうとしない。")
  ShowMessage("どうやら、異世界で冒険をしてきたようだが――")
  ShowMessageFace("byakunen_fc3",0,0,2,26)
  ShowMessage("\\n<Hakunen>")
  ShowMessage("……おや？")
  ShowMessage("プロメスティンさんが持っている、それは――")
  ShowMessageFace("magatu_fc1",2,0,2,27)
  ShowMessage("\\n<Magatsu>")
  ShowMessage("まほろばのお守りではないか。")
  ShowMessage("ひょっとして、儂等の世界に行ったのか？")
  ShowMessageFace("stein_fc2",1,0,2,28)
  ShowMessage("\\n<Promestein>")
  ShowMessage("……うふふ。おみやげです。")
  250(bytes(0x04,0x08,0x6f,0x3a,0x0c,0x52,0x50,0x47,0x3a,0x3a,0x53,0x45,0x08,0x3a,0x0a,0x40,0x6e,0x61,0x6d,0x65,0x49,0x22,0x0a,0x49,0x74,0x65,0x6d,0x31,0x06,0x3a,0x06,0x45,0x54,0x3a,0x0b,0x40,0x70,0x69,0x74,0x63,0x68,0x69,0x69,0x3a,0x0c,0x40,0x76,0x6f,0x6c,0x75,0x6d,0x65,0x69,0x55))
  ShowMessageFace("",0,0,2,29)
  ShowMessage("\\I[2630]まほろばのお守り を手に入れた！")
  ShowMessage("\\I[2630]まほろばのお守り はプロメスティンが装備している！")
  355("force_change_equip(41,5,2,381)")
  Wait(30)
  ShowMessageFace("stein_fc2",1,0,2,30)
  ShowMessage("\\n<Promestein>")
  ShowMessage("さあ、それでは冒険の旅を続けましょう！")
  ShowMessageFace("ruka_fc1",0,0,2,31)
  ShowMessage("\\n<Luka>")
  ShowMessage("そ、そうだね……")
  205(19,bytes(0x04,0x08,0x6f,0x3a,0x13,0x52,0x50,0x47,0x3a,0x3a,0x4d,0x6f,0x76,0x65,0x52,0x6f,0x75,0x74,0x65,0x09,0x3a,0x0c,0x40,0x72,0x65,0x70,0x65,0x61,0x74,0x46,0x3a,0x0f,0x40,0x73,0x6b,0x69,0x70,0x70,0x61,0x62,0x6c,0x65,0x46,0x3a,0x0a,0x40,0x77,0x61,0x69,0x74,0x54,0x3a,0x0a,0x40,0x6c,0x69,0x73,0x74,0x5b,0x07,0x6f,0x3a,0x15,0x52,0x50,0x47,0x3a,0x3a,0x4d,0x6f,0x76,0x65,0x43,0x6f,0x6d,0x6d,0x61,0x6e,0x64,0x07,0x3a,0x0a,0x40,0x63,0x6f,0x64,0x65,0x69,0x06,0x3a,0x10,0x40,0x70,0x61,0x72,0x61,0x6d,0x65,0x74,0x65,0x72,0x73,0x5b,0x00,0x6f,0x3b,0x0a,0x07,0x3b,0x0b,0x69,0x00,0x3b,0x0c,0x5b,0x00))
  ChangeSwitch(32,32,1)
  ShowMessageFace("",0,0,2,32)
  ShowMessage("おそらく、まほろば世界に行ってきたプロメスティン。")
  ShowMessage("何があったのかは、知る由がないが――")
  ShowMessageFace("",0,0,2,33)
  ShowMessage("ともかく、冒険の旅を続けよう。")
  ShowMessage("ここに潜んでいるミュゼット達を探し出すのだ！")
  ChangeSwitch(2961,2961,0)
  205(-1,bytes(0x04,0x08,0x6f,0x3a,0x13,0x52,0x50,0x47,0x3a,0x3a,0x4d,0x6f,0x76,0x65,0x52,0x6f,0x75,0x74,0x65,0x09,0x3a,0x0c,0x40,0x72,0x65,0x70,0x65,0x61,0x74,0x46,0x3a,0x0f,0x40,0x73,0x6b,0x69,0x70,0x70,0x61,0x62,0x6c,0x65,0x46,0x3a,0x0a,0x40,0x77,0x61,0x69,0x74,0x54,0x3a,0x0a,0x40,0x6c,0x69,0x73,0x74,0x5b,0x07,0x6f,0x3a,0x15,0x52,0x50,0x47,0x3a,0x3a,0x4d,0x6f,0x76,0x65,0x43,0x6f,0x6d,0x6d,0x61,0x6e,0x64,0x07,0x3a,0x0a,0x40,0x63,0x6f,0x64,0x65,0x69,0x15,0x3a,0x10,0x40,0x70,0x61,0x72,0x61,0x6d,0x65,0x74,0x65,0x72,0x73,0x5b,0x00,0x6f,0x3b,0x0a,0x07,0x3b,0x0b,0x69,0x00,0x3b,0x0c,0x5b,0x00))
  250(bytes(0x04,0x08,0x6f,0x3a,0x0c,0x52,0x50,0x47,0x3a,0x3a,0x53,0x45,0x08,0x3a,0x0a,0x40,0x6e,0x61,0x6d,0x65,0x49,0x22,0x0a,0x6f,0x68,0x75,0x64,0x61,0x06,0x3a,0x06,0x45,0x54,0x3a,0x0b,0x40,0x70,0x69,0x74,0x63,0x68,0x69,0x69,0x3a,0x0c,0x40,0x76,0x6f,0x6c,0x75,0x6d,0x65,0x69,0x69))
  241(bytes(0x04,0x08,0x6f,0x3a,0x0d,0x52,0x50,0x47,0x3a,0x3a,0x42,0x47,0x4d,0x08,0x3a,0x0a,0x40,0x6e,0x61,0x6d,0x65,0x49,0x22,0x0e,0x64,0x61,0x69,0x6d,0x65,0x69,0x6b,0x61,0x69,0x06,0x3a,0x06,0x45,0x54,0x3a,0x0c,0x40,0x76,0x6f,0x6c,0x75,0x6d,0x65,0x69,0x69,0x3a,0x0b,0x40,0x70,0x69,0x74,0x63,0x68,0x69,0x69))
  PictureDisplay(5,"iv_ohuda",0,0,0,0,100,100,0,0)
  PictureMove(5,null,0,0,0,0,100,100,255,0,30,true)
  Wait(120)
  ShowMessageFace("",0,2,2,34)
  ShowMessage("")
  PictureClear(5)
  241(bytes(0x04,0x08,0x6f,0x3a,0x0d,0x52,0x50,0x47,0x3a,0x3a,0x42,0x47,0x4d,0x08,0x3a,0x0a,0x40,0x6e,0x61,0x6d,0x65,0x49,0x22,0x12,0x64,0x75,0x6e,0x67,0x65,0x6f,0x6e,0x5f,0x73,0x69,0x6e,0x70,0x69,0x06,0x3a,0x06,0x45,0x54,0x3a,0x0c,0x40,0x76,0x6f,0x6c,0x75,0x6d,0x65,0x69,0x69,0x3a,0x0b,0x40,0x70,0x69,0x74,0x63,0x68,0x69,0x69))
  0()
 PAGE   2
  // condition: switch 2961 is ON
  0()



EVENT   18
 PAGE   1
  // condition: switch 33 is ON
  0()



EVENT   19
 PAGE   1
  // condition: switch 32 is ON
  0()
