﻿


EVENT   1
 PAGE   1
  281(1)
  250(bytes(0x04,0x08,0x6f,0x3a,0x0c,0x52,0x50,0x47,0x3a,0x3a,0x53,0x45,0x08,0x3a,0x0a,0x40,0x6e,0x61,0x6d,0x65,0x49,0x22,0x09,0x4d,0x6f,0x76,0x65,0x06,0x3a,0x06,0x45,0x54,0x3a,0x0b,0x40,0x70,0x69,0x74,0x63,0x68,0x69,0x69,0x3a,0x0c,0x40,0x76,0x6f,0x6c,0x75,0x6d,0x65,0x69,0x55))
  TeleportPlayer(0,49,10,14,0,0)
  0()



EVENT   2
 PAGE   1
  281(1)
  250(bytes(0x04,0x08,0x6f,0x3a,0x0c,0x52,0x50,0x47,0x3a,0x3a,0x53,0x45,0x08,0x3a,0x0a,0x40,0x6e,0x61,0x6d,0x65,0x49,0x22,0x09,0x4d,0x6f,0x76,0x65,0x06,0x3a,0x06,0x45,0x54,0x3a,0x0b,0x40,0x70,0x69,0x74,0x63,0x68,0x69,0x69,0x3a,0x0c,0x40,0x76,0x6f,0x6c,0x75,0x6d,0x65,0x69,0x55))
  TeleportPlayer(0,49,28,17,0,0)
  0()



EVENT   3
 PAGE   1
  281(1)
  250(bytes(0x04,0x08,0x6f,0x3a,0x0c,0x52,0x50,0x47,0x3a,0x3a,0x53,0x45,0x08,0x3a,0x0a,0x40,0x6e,0x61,0x6d,0x65,0x49,0x22,0x09,0x4d,0x6f,0x76,0x65,0x06,0x3a,0x06,0x45,0x54,0x3a,0x0b,0x40,0x70,0x69,0x74,0x63,0x68,0x69,0x69,0x3a,0x0c,0x40,0x76,0x6f,0x6c,0x75,0x6d,0x65,0x69,0x55))
  TeleportPlayer(0,49,40,19,0,0)
  0()



EVENT   4
 PAGE   1
  281(1)
  250(bytes(0x04,0x08,0x6f,0x3a,0x0c,0x52,0x50,0x47,0x3a,0x3a,0x53,0x45,0x08,0x3a,0x0a,0x40,0x6e,0x61,0x6d,0x65,0x49,0x22,0x09,0x4d,0x6f,0x76,0x65,0x06,0x3a,0x06,0x45,0x54,0x3a,0x0b,0x40,0x70,0x69,0x74,0x63,0x68,0x69,0x69,0x3a,0x0c,0x40,0x76,0x6f,0x6c,0x75,0x6d,0x65,0x69,0x55))
  TeleportPlayer(0,49,12,28,0,0)
  0()



EVENT   5
 PAGE   1
  250(bytes(0x04,0x08,0x6f,0x3a,0x0c,0x52,0x50,0x47,0x3a,0x3a,0x53,0x45,0x08,0x3a,0x0a,0x40,0x6e,0x61,0x6d,0x65,0x49,0x22,0x09,0x4d,0x6f,0x76,0x65,0x06,0x3a,0x06,0x45,0x54,0x3a,0x0b,0x40,0x70,0x69,0x74,0x63,0x68,0x69,0x69,0x3a,0x0c,0x40,0x76,0x6f,0x6c,0x75,0x6d,0x65,0x69,0x55))
  TeleportPlayer(0,50,69,30,0,0)
  0()



EVENT   6
 PAGE   1
  250(bytes(0x04,0x08,0x6f,0x3a,0x0c,0x52,0x50,0x47,0x3a,0x3a,0x53,0x45,0x08,0x3a,0x0a,0x40,0x6e,0x61,0x6d,0x65,0x49,0x22,0x09,0x4d,0x6f,0x76,0x65,0x06,0x3a,0x06,0x45,0x54,0x3a,0x0b,0x40,0x70,0x69,0x74,0x63,0x68,0x69,0x69,0x3a,0x0c,0x40,0x76,0x6f,0x6c,0x75,0x6d,0x65,0x69,0x55))
  TeleportPlayer(0,50,70,30,0,0)
  0()



EVENT   7
 PAGE   1
  250(bytes(0x04,0x08,0x6f,0x3a,0x0c,0x52,0x50,0x47,0x3a,0x3a,0x53,0x45,0x08,0x3a,0x0a,0x40,0x6e,0x61,0x6d,0x65,0x49,0x22,0x09,0x4d,0x6f,0x76,0x65,0x06,0x3a,0x06,0x45,0x54,0x3a,0x0b,0x40,0x70,0x69,0x74,0x63,0x68,0x69,0x69,0x3a,0x0c,0x40,0x76,0x6f,0x6c,0x75,0x6d,0x65,0x69,0x55))
  TeleportPlayer(0,50,42,29,0,0)
  0()



EVENT   8
 PAGE   1
  250(bytes(0x04,0x08,0x6f,0x3a,0x0c,0x52,0x50,0x47,0x3a,0x3a,0x53,0x45,0x08,0x3a,0x0a,0x40,0x6e,0x61,0x6d,0x65,0x49,0x22,0x09,0x4d,0x6f,0x76,0x65,0x06,0x3a,0x06,0x45,0x54,0x3a,0x0b,0x40,0x70,0x69,0x74,0x63,0x68,0x69,0x69,0x3a,0x0c,0x40,0x76,0x6f,0x6c,0x75,0x6d,0x65,0x69,0x55))
  TeleportPlayer(0,50,43,29,0,0)
  0()



EVENT   9
 PAGE   1
  281(1)
  250(bytes(0x04,0x08,0x6f,0x3a,0x0c,0x52,0x50,0x47,0x3a,0x3a,0x53,0x45,0x08,0x3a,0x0a,0x40,0x6e,0x61,0x6d,0x65,0x49,0x22,0x09,0x4d,0x6f,0x76,0x65,0x06,0x3a,0x06,0x45,0x54,0x3a,0x0b,0x40,0x70,0x69,0x74,0x63,0x68,0x69,0x69,0x3a,0x0c,0x40,0x76,0x6f,0x6c,0x75,0x6d,0x65,0x69,0x55))
  TeleportPlayer(0,49,37,32,0,0)
  0()



EVENT   10
 PAGE   1
  281(1)
  250(bytes(0x04,0x08,0x6f,0x3a,0x0c,0x52,0x50,0x47,0x3a,0x3a,0x53,0x45,0x08,0x3a,0x0a,0x40,0x6e,0x61,0x6d,0x65,0x49,0x22,0x09,0x4d,0x6f,0x76,0x65,0x06,0x3a,0x06,0x45,0x54,0x3a,0x0b,0x40,0x70,0x69,0x74,0x63,0x68,0x69,0x69,0x3a,0x0c,0x40,0x76,0x6f,0x6c,0x75,0x6d,0x65,0x69,0x55))
  TeleportPlayer(0,49,35,46,0,0)
  0()



EVENT   11
 PAGE   1
  If(1,1063,0,12,2)
   ShowMessageFace("",0,0,2,1)
   ShowMessage("\\n<Item Merchant>Items...\nI want to send them all to my queen...")
   0()
  EndIf()
  If(1,1063,0,13,1)
   ShowMessageFace("",0,0,2,2)
   ShowMessage("\\n<Item Merchant>I seemed to be doing business as usual even without my reason. I was even keeping tabs in my account book...")
   0()
  EndIf()
  Shop(0,2,0,0,false)
  605(0,7,0,0)
  605(0,11,0,0)
  605(0,13,0,0)
  605(0,14,0,0)
  605(0,15,0,0)
  605(0,16,0,0)
  605(0,17,0,0)
  605(0,18,0,0)
  605(0,19,0,0)
  605(0,20,0,0)
  605(0,23,0,0)
  605(0,35,0,0)
  0()



EVENT   12
 PAGE   1
  If(1,1063,0,5,0)
   ShowMessageFace("",0,0,2,1)
   ShowMessage("\\n<Proprietor>Oooh...\nW-welcome... Would you like to order...?")
   ShowChoices(strings("Order liquor","Order a roast chicken","Never mind"),3)
   IfPlayerPicksChoice(0,null)
    Shop(0,428,0,0,false)
    605(0,429,0,0)
    605(0,431,0,0)
    0()
   IfPlayerPicksChoice(1,null)
    ShowMessageFace("",0,0,2,2)
    ShowMessage("\\n<Proprietor>Sir, this is a bar. We do not serve chicken...")
    ShowMessageFace("",0,0,2,3)
    ShowMessage("\\n<Proprietor>You'll have to go up to the second floor. They've prepared an extra large roast chicken for you there...")
    If(4,53,0)
     ShowMessageFace("slime_fc1",0,0,2,4)
     ShowMessage("\\n<Lime>Woo hoo! Extra large roast chicken!")
     ShowMessageFace("sonia_fc2",2,0,2,5)
     ShowMessage("\\n<Sonya>Lime... There's no chicken.")
     0()
    EndIf()
    ChangeVariable(1063,1063,0,0,6)
    EndEventProcessing()
    0()
   IfPlayerPicksChoice(2,null)
    EndEventProcessing()
    0()
   404()
   0()
  EndIf()
  If(1,1063,0,6,0)
   ShowMessageFace("",0,0,2,6)
   ShowMessage("\\n<Proprietor>Hurry to the second floor. They've prepared an extra large roast chicken for you there.")
   ShowMessageFace("",0,0,2,7)
   ShowMessage("\\n<Proprietor>Oooh... I was trained to resist compulsion... but I can't hold on to my sanity much longer...")
   EndEventProcessing()
   0()
  EndIf()
  If(1,1063,0,7,1)
   If(1,1063,0,12,2)
    ShowMessageFace("",0,0,2,8)
    ShowMessage("\\n<Proprietor>My queeeeen... Aha, ahaaha...")
    If(0,4,0)
     ShowMessageFace("alice_fc5",0,0,2,9)
     ShowMessage("\\n<Alice>Up until we arrived, he held onto his sanity with an iron will. We have to make sure this strategy succeeds.")
     0()
    EndIf()
    If(0,5,0)
     ShowMessageFace("iriasu_fc4",2,0,2,10)
     ShowMessage("\\n<Ilias>Up until we arrived, he held onto his sanity with an iron will... We must certainly repay his dedication.")
     0()
    EndIf()
    EndEventProcessing()
    0()
   EndIf()
   0()
  EndIf()
  If(1,1063,0,13,1)
   ShowMessageFace("",0,0,2,11)
   ShowMessage("\\n<Proprietor>Welcome. May I take your order?")
   ShowChoices(strings("Order liquor","Order a roast chicken","Never mind"),3)
   IfPlayerPicksChoice(0,null)
    Shop(0,428,0,0,false)
    605(0,429,0,0)
    605(0,431,0,0)
    0()
   IfPlayerPicksChoice(1,null)
    ShowMessageFace("",0,0,2,12)
    ShowMessage("\\n<Proprietor>Sir, this is a bar. We do not serve chicken...")
    ShowMessageFace("",0,0,2,13)
    ShowMessage("\\n<Proprietor>With that said, please give my best regards to the Don.")
    355("actor_label_jump")
    EndEventProcessing()
    DefineLabel("520")
    ShowMessageFace("lazarus3_fc1",0,0,2,14)
    ShowMessage("\\n<Lazarus>Thanks. I'll be counting on you again if something new comes up.")
    ShowMessageFace("",0,0,2,15)
    ShowMessage("\\n<Proprietor>Of course... leave it to me.")
    EndEventProcessing()
    DefineLabel("522")
    ShowMessageFace("merlin_fc1",0,0,2,16)
    ShowMessage("\\n<Merlin>Excellent work. I look forward to working with you again.")
    ShowMessageFace("",0,0,2,17)
    ShowMessage("\\n<Proprietor>Of course... leave it to me.")
    EndEventProcessing()
    0()
   IfPlayerPicksChoice(2,null)
    EndEventProcessing()
    0()
   404()
   0()
  EndIf()
  0()



EVENT   13
 PAGE   1
  If(1,1063,0,12,2)
   ShowMessageFace("",0,0,2,1)
   ShowMessage("\\n<Accessory Vendor>A-a-accessories...\nAhaha, ahaha accessories...")
   0()
  EndIf()
  If(1,1063,0,13,1)
   ShowMessageFace("",0,0,2,2)
   ShowMessage("\\n<Accessory Vendor>Get your accessories in order while you have the chance.\nIf you're worried about a zombie's biting attack, protect yourself with this Zombie Check.")
   0()
  EndIf()
  Shop(2,1458,0,0,false)
  605(2,1461,0,0)
  605(2,1464,0,0)
  605(2,1467,0,0)
  605(2,1572,0,0)
  605(2,1574,0,0)
  605(2,1576,0,0)
  605(2,1578,0,0)
  0()



EVENT   14
 PAGE   1
  If(1,1078,0,0,0)
   PictureDisplay(5,"80_mob_marin_st01",0,0,0,0,100,100,0,0)
   PictureMove(5,null,0,0,0,0,100,100,255,0,30,true)
   ShowMessageFace("mob_mahousyouzyo_fc1",0,0,2,1)
   ShowMessage("\\n<Magical Mari-chan>I'm Magical☆Mari-chan.\nI'm a magical girl! ♪")
   ShowMessageFace("mob_mahousyouzyo_fc1",0,0,2,2)
   ShowMessage("\\n<Magical Mari-chan>Hey, do you wanna be a magical girl, too?")
   ShowChoices(strings("Sure","No way"),2)
   IfPlayerPicksChoice(0,null)
    ShowMessageFace("mob_mahousyouzyo_fc1",0,0,2,3)
    ShowMessage("\\n<Magical Mari-chan>Well... It isn't time for the ceremony just yet.\nPlease be patient a little while longer.  ☆")
    If(4,53,0)
     ShowMessageFace("slime_fc1",0,0,2,4)
     ShowMessage("\\n<Lime>We'll be back!")
     0()
    EndIf()
    PictureClear(5)
    EndEventProcessing()
    0()
   IfPlayerPicksChoice(1,null)
    ShowMessageFace("mob_mahousyouzyo_fc1",0,0,2,5)
    ShowMessage("\\n<Magical Mari-chan>That's a shame...")
    PictureClear(5)
    EndEventProcessing()
    0()
   404()
   0()
  EndIf()
  If(1,1078,0,1,0)
   PictureDisplay(5,"80_mob_marin_st01",0,0,0,0,100,100,0,0)
   PictureMove(5,null,0,0,0,0,100,100,255,0,30,true)
   ShowMessageFace("mob_mahousyouzyo_fc1",0,0,2,6)
   ShowMessage("\\n<Magical Mari-chan>I'm Magical☆Mari-chan.")
   ShowMessage("I'm a magical girl! ♪")
   ShowMessageFace("mob_mahousyouzyo_fc1",0,0,2,7)
   ShowMessage("\\n<Magical Mari-chan>Hey, do you wanna be a magical girl, too?")
   ShowMessage("Now's your big chance! The other candidates are already on site!")
   If(0,4,0)
    ShowMessageFace("alice_fc6",1,0,2,8)
    ShowMessage("\\n<Alice>You can't deceive us with your cheery attitude!\nWe know that the power of magical girls and a witch's grudge are one and the same!")
    0()
   EndIf()
   If(0,5,0)
    ShowMessageFace("iriasu_fc4",7,0,2,9)
    ShowMessage("\\n<Ilias>You can't deceive us with your cheery attitude!\nWe know that the power of magical girls leads to the grudges of witches!")
    0()
   EndIf()
   If(4,167,0)
    ShowMessageFace("lusia_fc1",2,0,2,10)
    ShowMessage("\\n<Lucia>This is an extremely dangerous form of magic...\nAs a practitioner of magic myself, I cannot let it be used.")
    0()
   EndIf()
   ShowMessageFace("ruka_fc1",0,0,2,11)
   ShowMessage("\\n<Luka>We're here to stop your dangerous ritual!")
   241(bytes(0x04,0x08,0x6f,0x3a,0x0d,0x52,0x50,0x47,0x3a,0x3a,0x42,0x47,0x4d,0x08,0x3a,0x0a,0x40,0x6e,0x61,0x6d,0x65,0x49,0x22,0x0a,0x6b,0x69,0x6b,0x69,0x32,0x06,0x3a,0x06,0x45,0x54,0x3a,0x0c,0x40,0x76,0x6f,0x6c,0x75,0x6d,0x65,0x69,0x69,0x3a,0x0b,0x40,0x70,0x69,0x74,0x63,0x68,0x69,0x69))
   ShowMessageFace("mob_mahousyouzyo_fc1",0,0,2,12)
   ShowMessage("\\n<Magical Mari-chan>But the magical☆power (grudges) has already built up... If we don't perform the ceremony soon, the power will violently erupt.")
   If(0,4,0)
    ShowMessageFace("alice_fc6",0,0,2,13)
    ShowMessage("\\n<Alice>Mmmmn... So we're too late?\nIf a new magical girl isn't chosen, then the grudges won't have anywhere to go...")
    ShowMessageFace("alice_fc5",2,0,2,14)
    ShowMessage("\\n<Alice>If that happens, the grudges will wreak disasters on a wide scale. So our only option is to select a magical girl to direct all the grudges.")
    0()
   EndIf()
   If(0,5,0)
    ShowMessageFace("iriasu_fc4",2,0,2,15)
    ShowMessage("\\n<Ilias>So that many grudges have already coalesced?\nThen if a new magical girl isn't chosen, the grudges won't have a focal point.")
    ShowMessageFace("iriasu_fc4",2,0,2,16)
    ShowMessage("\\n<Ilias>If that happens, the grudges will cause great calamity. Our only option is to select a magical girl to direct all the grudges.")
    0()
   EndIf()
   If(0,6,0)
    ShowMessageFace("sonia_fc2",5,0,2,17)
    ShowMessage("\\n<Sonya>You mean the power of all the grudges will be forced onto the new magical girl!? Encouraging girls with optimism while treating them like that is horrible!")
    0()
   Else()
    ShowMessageFace("ruka_fc1",0,0,2,18)
    ShowMessage("\\n<Luka>You mean the power of all the grudges will be forced onto the new magical girl!? Encouraging girls with optimism while treating them like that is horrible!")
    0()
   EndIf()
   If(4,226,0)
    ShowMessageFace("sirohebisama_fc1",0,0,2,19)
    ShowMessage("\\n<Shirohebi>Very troubling, indeed...")
    0()
   EndIf()
   ShowMessageFace("mob_mahousyouzyo_fc1",0,0,2,20)
   ShowMessage("\\n<Magical Mari-chan>Such fantastic power always comes with a price.\nMagical girls just have to live with the grudges. ♪")
   ShowMessageFace("mob_mahousyouzyo_fc1",0,0,2,21)
   ShowMessage("\\n<Magical Mari-chan>...That's what I wanted to tell the last person who was selected.")
   If(0,4,0)
    ShowMessageFace("alice_fc5",2,0,2,22)
    ShowMessage("\\n<Alice>...Fine, we'll participate in the selection test.\nOne of us will become a magical girl.")
    0()
   EndIf()
   If(0,5,0)
    ShowMessageFace("iriasu_fc4",7,0,2,23)
    ShowMessage("\\n<Ilias>...Fine, we'll participate in the selection test.\nOne of us shall become a magical girl.")
    0()
   EndIf()
   If(0,6,0)
    ShowMessageFace("sonia_fc2",2,0,2,24)
    ShowMessage("\\n<Sonya>Is that really a good idea?")
    0()
   Else()
    ShowMessageFace("ruka_fc1",0,0,2,25)
    ShowMessage("\\n<Luka>Is that really a good idea?")
    0()
   EndIf()
   If(0,4,0)
    ShowMessageFace("alice_fc5",0,0,2,26)
    ShowMessage("\\n<Alice>It's better than letting the grudges scatter or letting them fall into the hands of someone evil. At least we can put them to use somehow.")
    0()
   EndIf()
   If(0,5,0)
    ShowMessageFace("iriasu_fc4",7,0,2,27)
    ShowMessage("\\n<Ilias>It's better than letting the grudges scatter or letting them fall into the hands of someone evil. At least we can put them to use somehow.")
    0()
   EndIf()
   If(4,167,0)
    ShowMessageFace("lusia_fc1",2,0,2,28)
    ShowMessage("\\n<Lucia>I agree. Great power must be managed properly.")
    0()
   EndIf()
   If(4,163,0)
    ShowMessageFace("lily_fc1",3,0,2,29)
    ShowMessage("\\n<Lily>Fufu, this has taken an interesting turn...")
    0()
   EndIf()
   ShowMessageFace("mob_mahousyouzyo_fc1",0,0,2,30)
   ShowMessage("\\n<Magical Mari-chan>All right, we have a new entry then!\nRegistration time is now over, so let the selection ceremony begin! ♪")
   ShowMessageFace("ruka_fc1",0,0,2,31)
   ShowMessage("\\n<Luka>So what do we need to do for the ceremony...?")
   ShowMessageFace("mob_mahousyouzyo_fc1",0,0,2,32)
   ShowMessage("\\n<Magical Mari-chan>All magical girl candidates are to proceed to the toxic swamp to the east.")
   ShowMessageFace("mob_mahousyouzyo_fc1",0,0,2,33)
   ShowMessage("\\n<Magical Mari-chan>Once there, it's an all-out battle royale!\nLast girl standing wins! ♪")
   If(0,6,0)
    ShowMessageFace("sonia_fc3",2,0,2,34)
    ShowMessage("\\n<Sonya>It's a physical contest!?")
    0()
   Else()
    ShowMessageFace("ruka_fc1",0,0,2,35)
    ShowMessage("\\n<Luka>Eh? A battle royale!?")
    0()
   EndIf()
   If(4,218,0)
    ShowMessageFace("nyumaou_fc1",0,0,2,36)
    ShowMessage("\\n<Cow Demon Queen>Heh, I like it simple!")
    0()
   EndIf()
   ShowMessageFace("mob_mahousyouzyo_fc1",0,0,2,37)
   ShowMessage("\\n<Magical Mari-chan>Hurry to the toxic swamp! Hurry! ♪\nThe other candidates are already there. Everyone there is your enemy, so you have to outlast them all.")
   PictureClear(5)
   If(0,4,0)
    ShowMessageFace("alice_fc5",2,0,2,38)
    ShowMessage("\\n<Alice>Okay, let's go.\nMagical girl power will be ours!")
    0()
   EndIf()
   If(0,5,0)
    ShowMessageFace("iriasu_fc4",7,0,2,39)
    ShowMessage("\\n<Ilias>All right, let's go.\nMagical girl power shall be ours!")
    0()
   EndIf()
   If(4,288,0)
    ShowMessageFace("d_succubus_fc1",0,0,2,40)
    ShowMessage("\\n<Natasha>Being a magical girl sounds nice.")
    0()
   EndIf()
   ShowMessageFace("",0,0,2,41)
   ShowMessage("Thus, we end up joining the magical girl selection ceremony. Let's hurry to the toxic swamp to the east!")
   241(bytes(0x04,0x08,0x6f,0x3a,0x0d,0x52,0x50,0x47,0x3a,0x3a,0x42,0x47,0x4d,0x08,0x3a,0x0a,0x40,0x6e,0x61,0x6d,0x65,0x49,0x22,0x0a,0x63,0x69,0x74,0x79,0x31,0x06,0x3a,0x06,0x45,0x54,0x3a,0x0c,0x40,0x76,0x6f,0x6c,0x75,0x6d,0x65,0x69,0x69,0x3a,0x0b,0x40,0x70,0x69,0x74,0x63,0x68,0x69,0x69))
   ChangeVariable(1078,1078,0,0,2)
   EndEventProcessing()
   0()
  EndIf()
  If(1,1078,0,2,1)
   If(1,1078,0,4,2)
    PictureDisplay(5,"80_mob_marin_st01",0,0,0,0,100,100,0,0)
    PictureMove(5,null,0,0,0,0,100,100,255,0,30,true)
    ShowMessageFace("mob_mahousyouzyo_fc1",0,0,2,42)
    ShowMessage("\\n<Magical Mari-chan>Hurry to the toxic swamp! Hurry! ♪\nThe other candidates are already there. Everyone there is your enemy, so you have to outlast them all.")
    PictureClear(5)
    EndEventProcessing()
    0()
   EndIf()
   0()
  EndIf()
  If(1,1078,0,5,1)
   If(1,828,0,2,1)
    If(0,1577,1)
     ShowMessageFace("mob_mahousyouzyo_fc1",0,0,2,43)
     ShowMessage("\\n<Magical Mari-chan>Hey, how about taking me along with you?\nI need to spread magical☆power all over the world. ♪")
     ShowChoices(strings("Invite her to the party","Decline for now"),0)
     IfPlayerPicksChoice(0,null)
      ShowMessageFace("mob_mahousyouzyo_fc2",0,0,2,44)
      ShowMessage("\\n<Magical Mari-chan>Yippee! ♪")
      PictureClear(5)
      205(0,bytes(0x04,0x08,0x6f,0x3a,0x13,0x52,0x50,0x47,0x3a,0x3a,0x4d,0x6f,0x76,0x65,0x52,0x6f,0x75,0x74,0x65,0x09,0x3a,0x0c,0x40,0x72,0x65,0x70,0x65,0x61,0x74,0x46,0x3a,0x0f,0x40,0x73,0x6b,0x69,0x70,0x70,0x61,0x62,0x6c,0x65,0x46,0x3a,0x0a,0x40,0x77,0x61,0x69,0x74,0x54,0x3a,0x0a,0x40,0x6c,0x69,0x73,0x74,0x5b,0x09,0x6f,0x3a,0x15,0x52,0x50,0x47,0x3a,0x3a,0x4d,0x6f,0x76,0x65,0x43,0x6f,0x6d,0x6d,0x61,0x6e,0x64,0x07,0x3a,0x0a,0x40,0x63,0x6f,0x64,0x65,0x69,0x2a,0x3a,0x10,0x40,0x70,0x61,0x72,0x61,0x6d,0x65,0x74,0x65,0x72,0x73,0x5b,0x00,0x6f,0x3b,0x0a,0x07,0x3b,0x0b,0x69,0x0f,0x3b,0x0c,0x5b,0x00,0x6f,0x3b,0x0a,0x07,0x3b,0x0b,0x69,0x2c,0x3b,0x0c,0x5b,0x00,0x6f,0x3b,0x0a,0x07,0x3b,0x0b,0x69,0x00,0x3b,0x0c,0x5b,0x00))
      355("add_actor_ex(577)")
      249(bytes(0x04,0x08,0x6f,0x3a,0x0c,0x52,0x50,0x47,0x3a,0x3a,0x4d,0x45,0x08,0x3a,0x0a,0x40,0x6e,0x61,0x6d,0x65,0x49,0x22,0x0c,0x66,0x61,0x6e,0x66,0x61,0x6c,0x65,0x06,0x3a,0x06,0x45,0x54,0x3a,0x0b,0x40,0x70,0x69,0x74,0x63,0x68,0x69,0x69,0x3a,0x0c,0x40,0x76,0x6f,0x6c,0x75,0x6d,0x65,0x69,0x69))
      ShowMessageFace("",0,0,2,45)
      ShowMessage("Magical Mari-chan has joined the party!")
      Wait(60)
      EndEventProcessing()
      0()
     IfPlayerPicksChoice(1,null)
      ShowMessageFace("mob_mahousyouzyo_fc1",0,0,2,46)
      ShowMessage("\\n<Magical Mari-chan>Curse you.")
      0()
     404()
     0()
    EndIf()
    0()
   EndIf()
   RunCommonEvent(7271)
   0()
  EndIf()
  0()
 PAGE   2
  // condition: variable 1078 >= 5
  // condition: party contains actor #577
  0()



EVENT   15
 PAGE   1
  If(1,1063,0,5,2)
   ShowMessageFace("",0,0,2,1)
   ShowMessage("\\n<Proprietor>P-please stay on the first floor...")
   205(-1,bytes(0x04,0x08,0x6f,0x3a,0x13,0x52,0x50,0x47,0x3a,0x3a,0x4d,0x6f,0x76,0x65,0x52,0x6f,0x75,0x74,0x65,0x09,0x3a,0x0c,0x40,0x72,0x65,0x70,0x65,0x61,0x74,0x46,0x3a,0x0f,0x40,0x73,0x6b,0x69,0x70,0x70,0x61,0x62,0x6c,0x65,0x46,0x3a,0x0a,0x40,0x77,0x61,0x69,0x74,0x54,0x3a,0x0a,0x40,0x6c,0x69,0x73,0x74,0x5b,0x07,0x6f,0x3a,0x15,0x52,0x50,0x47,0x3a,0x3a,0x4d,0x6f,0x76,0x65,0x43,0x6f,0x6d,0x6d,0x61,0x6e,0x64,0x07,0x3a,0x0a,0x40,0x63,0x6f,0x64,0x65,0x69,0x06,0x3a,0x10,0x40,0x70,0x61,0x72,0x61,0x6d,0x65,0x74,0x65,0x72,0x73,0x5b,0x00,0x6f,0x3b,0x0a,0x07,0x3b,0x0b,0x69,0x00,0x3b,0x0c,0x5b,0x00))
   If(0,4,0)
    ShowMessageFace("alice_fc5",0,0,2,2)
    ShowMessage("\\n<Alice>Don't forget the signal we're supposed to give him. We need to order a roast chicken first.")
    0()
   EndIf()
   If(0,5,0)
    ShowMessageFace("iriasu_fc4",2,0,2,3)
    ShowMessage("\\n<Ilias>Did you forget the signal? Order a roast chicken from him first...")
    0()
   EndIf()
   EndEventProcessing()
   0()
  EndIf()
  If(1,1063,0,6,0)
   If(0,6,0)
    ShowMessageFace("sonia_fc1",0,0,2,4)
    ShowMessage("\\n<Sonya>I can't stop wondering what this spy is like. When I think of spies, I think of suspicious, shady characters.")
    0()
   Else()
    ShowMessageFace("ruka_fc1",0,0,2,5)
    ShowMessage("\\n<Luka>I wonder what this covert operative is like...\nSomeone spy-ish?")
    0()
   EndIf()
   If(0,4,0)
    ShowMessageFace("alice_fc5",0,0,2,6)
    ShowMessage("\\n<Alice>You idiot. Do you honestly expect a spy to look like a spy? He'll obviously be someone who looks ordinary enough to blend in.")
    0()
   EndIf()
   If(0,5,0)
    ShowMessageFace("iriasu_fc4",2,0,2,7)
    ShowMessage("\\n<Ilias>There's no way a spy is going to look like a spy. He'll be an ordinary common-looking person.")
    0()
   EndIf()
   If(0,6,0)
    ShowMessageFace("sonia_fc2",2,0,2,8)
    ShowMessage("\\n<Sonya>Yeah, I know.\nThere's no way he'll look suspicious at all...")
    0()
   Else()
    ShowMessageFace("ruka_fc1",0,0,2,9)
    ShowMessage("\\n<Luka>Yeah, you're right.\nHe definitely won't look suspicious...")
    0()
   EndIf()
   250(bytes(0x04,0x08,0x6f,0x3a,0x0c,0x52,0x50,0x47,0x3a,0x3a,0x53,0x45,0x08,0x3a,0x0a,0x40,0x6e,0x61,0x6d,0x65,0x49,0x22,0x09,0x4d,0x6f,0x76,0x65,0x06,0x3a,0x06,0x45,0x54,0x3a,0x0b,0x40,0x70,0x69,0x74,0x63,0x68,0x69,0x69,0x3a,0x0c,0x40,0x76,0x6f,0x6c,0x75,0x6d,0x65,0x69,0x55))
   TeleportPlayer(0,50,40,57,8,0)
   205(-1,bytes(0x04,0x08,0x6f,0x3a,0x13,0x52,0x50,0x47,0x3a,0x3a,0x4d,0x6f,0x76,0x65,0x52,0x6f,0x75,0x74,0x65,0x09,0x3a,0x0c,0x40,0x72,0x65,0x70,0x65,0x61,0x74,0x46,0x3a,0x0f,0x40,0x73,0x6b,0x69,0x70,0x70,0x61,0x62,0x6c,0x65,0x46,0x3a,0x0a,0x40,0x77,0x61,0x69,0x74,0x54,0x3a,0x0a,0x40,0x6c,0x69,0x73,0x74,0x5b,0x08,0x6f,0x3a,0x15,0x52,0x50,0x47,0x3a,0x3a,0x4d,0x6f,0x76,0x65,0x43,0x6f,0x6d,0x6d,0x61,0x6e,0x64,0x07,0x3a,0x0a,0x40,0x63,0x6f,0x64,0x65,0x69,0x09,0x3a,0x10,0x40,0x70,0x61,0x72,0x61,0x6d,0x65,0x74,0x65,0x72,0x73,0x5b,0x00,0x6f,0x3b,0x0a,0x07,0x3b,0x0b,0x69,0x08,0x3b,0x0c,0x5b,0x00,0x6f,0x3b,0x0a,0x07,0x3b,0x0b,0x69,0x00,0x3b,0x0c,0x5b,0x00))
   PictureDisplay(5,"80_nero_st02b",0,0,0,0,100,100,0,0)
   PictureMove(5,null,0,0,0,0,100,100,255,0,60,true)
   241(bytes(0x04,0x08,0x6f,0x3a,0x0d,0x52,0x50,0x47,0x3a,0x3a,0x42,0x47,0x4d,0x08,0x3a,0x0a,0x40,0x6e,0x61,0x6d,0x65,0x49,0x22,0x10,0x73,0x63,0x65,0x6e,0x65,0x5f,0x63,0x6f,0x6d,0x69,0x32,0x06,0x3a,0x06,0x45,0x54,0x3a,0x0c,0x40,0x76,0x6f,0x6c,0x75,0x6d,0x65,0x69,0x69,0x3a,0x0b,0x40,0x70,0x69,0x74,0x63,0x68,0x69,0x69))
   ShowMessageFace("nero_fc1",1,0,2,10)
   ShowMessage("\\n<Nero>I'm the spy. It's me.")
   If(0,6,0)
    ShowMessageFace("sonia_fc3",2,0,2,11)
    ShowMessage("\\n<Sonya>He's SUPER suspicious!")
    0()
   Else()
    ShowMessageFace("ruka_fc1",0,0,2,12)
    ShowMessage("\\n<Luka>He's super suspicious!")
    0()
   EndIf()
   221()
   PictureClear(5)
   TeleportPlayer(0,50,46,57,6,0)
   205(20,bytes(0x04,0x08,0x6f,0x3a,0x13,0x52,0x50,0x47,0x3a,0x3a,0x4d,0x6f,0x76,0x65,0x52,0x6f,0x75,0x74,0x65,0x09,0x3a,0x0c,0x40,0x72,0x65,0x70,0x65,0x61,0x74,0x46,0x3a,0x0f,0x40,0x73,0x6b,0x69,0x70,0x70,0x61,0x62,0x6c,0x65,0x46,0x3a,0x0a,0x40,0x77,0x61,0x69,0x74,0x46,0x3a,0x0a,0x40,0x6c,0x69,0x73,0x74,0x5b,0x07,0x6f,0x3a,0x15,0x52,0x50,0x47,0x3a,0x3a,0x4d,0x6f,0x76,0x65,0x43,0x6f,0x6d,0x6d,0x61,0x6e,0x64,0x07,0x3a,0x0a,0x40,0x63,0x6f,0x64,0x65,0x69,0x15,0x3a,0x10,0x40,0x70,0x61,0x72,0x61,0x6d,0x65,0x74,0x65,0x72,0x73,0x5b,0x00,0x6f,0x3b,0x0a,0x07,0x3b,0x0b,0x69,0x00,0x3b,0x0c,0x5b,0x00))
   Wait(60)
   222()
   If(0,4,0)
    ShowMessageFace("alice_fc5",2,0,2,13)
    ShowMessage("\\n<Alice>...What's the meaning of this?\nYou aren't actually Grand Noah's spy, are you?")
    0()
   EndIf()
   If(0,5,0)
    ShowMessageFace("iriasu_fc4",2,0,2,14)
    ShowMessage("\\n<Ilias>...What on earth is going on here?\nYou're really Grand Noah's spy?")
    0()
   EndIf()
   PictureDisplay(5,"80_nero_st01b",0,0,0,0,100,100,0,0)
   PictureMove(5,null,0,0,0,0,100,100,255,0,30,true)
   ShowMessageFace("nero_fc1",2,0,2,15)
   ShowMessage("\\n<Nero>No, as a matter of fact, I'm not.\nHowever, out of a sense of duty and kindness, I ended up as his substitute.")
   ShowMessageFace("nero_fc1",0,0,2,16)
   ShowMessage("\\n<Nero>The original spy is that man over there dressed as a merchant, but, well... things happened.")
   PictureClear(5)
   ShowMessageFace("",0,0,2,17)
   ShowMessage("The merchant-looking man is standing with a vacant, doll-like expression on his face. He also has a talisman stuck to his forehead...")
   If(0,4,0)
    ShowMessageFace("alice_fc5",0,0,2,18)
    ShowMessage("\\n<Alice>That's a Taoist talisman...\nIs that yours? Why?")
    0()
   EndIf()
   If(0,5,0)
    ShowMessageFace("iriasu_fc4",2,0,2,19)
    ShowMessage("\\n<Ilias>That is a Taoist talisman...\nDid you put that on him?")
    0()
   EndIf()
   PictureDisplay(5,"80_nero_st03b",0,0,0,0,100,100,0,0)
   PictureMove(5,null,0,0,0,0,100,100,255,0,30,true)
   ShowMessageFace("nero_fc1",2,0,2,20)
   ShowMessage("\\n<Nero>Well... I tried to ask him what was going on here, but he confused me for somebody suspicious and seemed like he was about to cause a scene, so...")
   If(0,4,0)
    ShowMessageFace("alice_fc5",3,0,2,21)
    ShowMessage("\\n<Alice>So you stuck a talisman on him to force him to stay quiet? He'll probably be a vegetable for days...")
    0()
   EndIf()
   If(0,5,0)
    ShowMessageFace("iriasu_fc4",2,0,2,22)
    ShowMessage("\\n<Ilias>So you stuck a talisman on him to forcibly shut him up? He could remain like that for days...")
    0()
   EndIf()
   241(bytes(0x04,0x08,0x6f,0x3a,0x0d,0x52,0x50,0x47,0x3a,0x3a,0x42,0x47,0x4d,0x08,0x3a,0x0a,0x40,0x6e,0x61,0x6d,0x65,0x49,0x22,0x16,0x64,0x75,0x6e,0x67,0x65,0x6f,0x6e,0x5f,0x63,0x6f,0x6c,0x6f,0x73,0x73,0x65,0x75,0x6d,0x06,0x3a,0x06,0x45,0x54,0x3a,0x0c,0x40,0x76,0x6f,0x6c,0x75,0x6d,0x65,0x69,0x69,0x3a,0x0b,0x40,0x70,0x69,0x74,0x63,0x68,0x69,0x69))
   PictureDisplay(5,"80_nero_st01b",0,0,0,0,100,100,255,0)
   ShowMessageFace("nero_fc1",0,0,2,23)
   ShowMessage("\\n<Nero>Thus, I'm here to convey the message he spilled to me. I gather that you're headed to Grangold...")
   ShowMessageFace("nero_fc1",0,0,2,24)
   ShowMessage("\\n<Nero>There's a place called the March Hills northeast of here that you have to pass through to get to Grangold.")
   If(0,4,0)
    ShowMessageFace("alice_fc5",0,0,2,25)
    ShowMessage("\\n<Alice>March Hills? I've heard the terrain there is difficult. If we can cross them, at least Grangold isn't far from there.")
    0()
   EndIf()
   If(0,5,0)
    ShowMessageFace("iriasu_fc4",2,0,2,26)
    ShowMessage("\\n<Ilias>March Hills? The terrain there is quite harsh. If we can cross them, Grangold won't be far, at least.")
    0()
   EndIf()
   ShowMessageFace("nero_fc1",0,0,2,27)
   ShowMessage("\\n<Nero>I hear they have golems stationed in their army. They're being used to ward off foreign invaders. Golems, as I'm sure you're aware, are artificial giants given life through magic.")
   ShowMessageFace("nero_fc1",0,0,2,28)
   ShowMessage("\\n<Nero>In order to deal with the golems, Grand Noah has sent additional support. You are supposed to meet up with this person in the giant toxic swamp to the east.")
   If(0,4,0)
    ShowMessageFace("alice_fc5",0,0,2,29)
    ShowMessage("\\n<Alice>More help? Some kind of anti-golem specialist, I guess? It would be great if they could help us get across the March Hills.")
    0()
   EndIf()
   If(0,5,0)
    ShowMessageFace("iriasu_fc4",2,0,2,30)
    ShowMessage("\\n<Ilias>An anti-golem specialist, I assume?\nIt would be wonderful if they could help us get across the March Hills.")
    0()
   EndIf()
   ShowMessageFace("nero_fc1",0,0,2,31)
   ShowMessage("\\n<Nero>Right. Once you cross the March Hills, Grangold Palace is nearby. Once you arrive, you're to meet with a new operative.")
   If(0,4,0)
    ShowMessageFace("alice_fc5",0,0,2,32)
    ShowMessage("\\n<Alice>Hmm, all right. Let's go over this once more. First, we head northeast and meet with our support in the giant toxic swamp.")
    ShowMessageFace("alice_fc5",0,0,2,33)
    ShowMessage("\\n<Alice>With their help, we pass through the nearby March Hills, then head to Grangold Palace.")
    0()
   EndIf()
   If(0,5,0)
    ShowMessageFace("iriasu_fc4",0,0,2,34)
    ShowMessage("\\n<Ilias>Understood. Let's confirm the plan. First, we head northeast and meet with our support in the giant toxic swamp.")
    ShowMessageFace("iriasu_fc4",0,0,2,35)
    ShowMessage("\\n<Ilias>With their help, we pass through the nearby March Hills, then head to Grangold Palace.")
    0()
   EndIf()
   ShowMessageFace("nero_fc1",0,0,2,36)
   ShowMessage("\\n<Nero>That's the end of the message I heard from the spy. I've also prepared a special gift for you, by the way...")
   250(bytes(0x04,0x08,0x6f,0x3a,0x0c,0x52,0x50,0x47,0x3a,0x3a,0x53,0x45,0x08,0x3a,0x0a,0x40,0x6e,0x61,0x6d,0x65,0x49,0x22,0x0a,0x49,0x74,0x65,0x6d,0x31,0x06,0x3a,0x06,0x45,0x54,0x3a,0x0b,0x40,0x70,0x69,0x74,0x63,0x68,0x69,0x69,0x3a,0x0c,0x40,0x76,0x6f,0x6c,0x75,0x6d,0x65,0x69,0x55))
   ChangeInventory_Item(533,0,0,1)
   ChangeSwitch(100,100,1)
   If(0,6,0)
    ShowMessageFace("sonia_fc3",2,0,2,37)
    ShowMessage("\\n<Sonya>That's a super weird name for a charm!")
    0()
   Else()
    ShowMessageFace("ruka_fc1",0,0,2,38)
    ShowMessage("\\n<Luka>That's a weird name for a charm!")
    0()
   EndIf()
   PictureDisplay(5,"80_nero_st02b",0,0,0,0,100,100,255,0)
   ShowMessageFace("nero_fc1",1,0,2,39)
   ShowMessage("\\n<Nero>Pretty cool though, right?\nYou can nullify the seal on teleportation magic with it in your possession.")
   ShowMessageFace("nero_fc1",1,0,2,40)
   ShowMessage("\\n<Nero>You haven't been able to use teleportation magic or the pocket castle around here, right? With the seal nullified, you can use those normally.")
   If(0,4,0)
    ShowMessageFace("alice_fc5",0,0,2,41)
    ShowMessage("\\n<Alice>This sounds like an incredibly valuable item. Why on earth are you helping our journey?")
    0()
   EndIf()
   If(0,5,0)
    ShowMessageFace("iriasu_fc4",2,0,2,42)
    ShowMessage("\\n<Ilias>This sounds like quite a valuable item. Why are you helping our journey?")
    0()
   EndIf()
   ShowMessageFace("nero_fc1",1,0,2,43)
   ShowMessage("\\n<Nero>Oh, I'm just trying to be friendly. Don't worry about it.")
   If(0,4,0)
    ShowMessageFace("alice_fc5",0,0,2,44)
    ShowMessage("\\n<Alice>You messed up the spy, and you suck at lying...")
    PictureDisplay(5,"80_nero_st03b",0,0,0,0,100,100,255,0)
    ShowMessageFace("nero_fc1",2,0,2,45)
    ShowMessage("\\n<Nero>S-sorry...")
    0()
   EndIf()
   If(0,5,0)
    ShowMessageFace("iriasu_fc4",2,0,2,46)
    ShowMessage("\\n<Ilias>You caused unnecessary trouble for the spy, and you're also a terrible liar...")
    PictureDisplay(5,"80_nero_st03b",0,0,0,0,100,100,255,0)
    ShowMessageFace("nero_fc1",2,0,2,47)
    ShowMessage("\\n<Nero>My deepest apologies...")
    0()
   EndIf()
   PictureClear(5)
   ShowMessageFace("",0,0,2,48)
   ShowMessage("At any rate, we received the message the spy was supposed to give us. Next, we need to go to the giant toxic swamp to the northeast and meet up with another helper.")
   ChangeVariable(1002,1002,0,0,29)
   ChangeVariable(1063,1063,0,0,7)
   241(bytes(0x04,0x08,0x6f,0x3a,0x0d,0x52,0x50,0x47,0x3a,0x3a,0x42,0x47,0x4d,0x08,0x3a,0x0a,0x40,0x6e,0x61,0x6d,0x65,0x49,0x22,0x0a,0x6d,0x75,0x72,0x61,0x33,0x06,0x3a,0x06,0x45,0x54,0x3a,0x0c,0x40,0x76,0x6f,0x6c,0x75,0x6d,0x65,0x69,0x69,0x3a,0x0b,0x40,0x70,0x69,0x74,0x63,0x68,0x69,0x69))
   EndEventProcessing()
   0()
  EndIf()
  If(1,1063,0,7,1)
   250(bytes(0x04,0x08,0x6f,0x3a,0x0c,0x52,0x50,0x47,0x3a,0x3a,0x53,0x45,0x08,0x3a,0x0a,0x40,0x6e,0x61,0x6d,0x65,0x49,0x22,0x09,0x4d,0x6f,0x76,0x65,0x06,0x3a,0x06,0x45,0x54,0x3a,0x0b,0x40,0x70,0x69,0x74,0x63,0x68,0x69,0x69,0x3a,0x0c,0x40,0x76,0x6f,0x6c,0x75,0x6d,0x65,0x69,0x55))
   TeleportPlayer(0,50,40,57,0,0)
   0()
  EndIf()
  0()



EVENT   16
 PAGE   1
  If(1,1063,0,12,2)
   ShowMessageFace("",0,0,2,1)
   ShowMessage("\\n<Smith>My queeeen, ahhhhh...")
   ShowMessageFace("",0,0,2,2)
   ShowMessage("The blacksmith is immersed in ecstasy...\nHe doesn't appear to be in a state that he can do smithing at all.")
   EndEventProcessing()
   0()
  EndIf()
  If(1,1063,0,13,1)
   ShowMessageFace("",0,0,2,3)
   ShowMessage("\\n<Smith>Damn it, I was thoroughly brainwashed...\nI'm third-rate as a blacksmith!")
   ShowMessageFace("",0,0,2,4)
   ShowMessage("\\n<Smith>Nwaaaaaaaaaah!!\nI must temper my mind and spirit!!")
   EndEventProcessing()
   0()
  EndIf()
  0()



EVENT   17
 PAGE   1
  250(bytes(0x04,0x08,0x6f,0x3a,0x0c,0x52,0x50,0x47,0x3a,0x3a,0x53,0x45,0x08,0x3a,0x0a,0x40,0x6e,0x61,0x6d,0x65,0x49,0x22,0x09,0x4d,0x6f,0x76,0x65,0x06,0x3a,0x06,0x45,0x54,0x3a,0x0b,0x40,0x70,0x69,0x74,0x63,0x68,0x69,0x69,0x3a,0x0c,0x40,0x76,0x6f,0x6c,0x75,0x6d,0x65,0x69,0x55))
  TeleportPlayer(0,50,27,12,0,0)
  0()



EVENT   18
 PAGE   1
  If(1,1063,0,12,2)
   ShowMessageFace("",0,0,2,1)
   ShowMessage("\\n<Innkeeper>I wonder if the queen will come to stay...")
   ShowMessage("It's only 10G...\\$")
   ShowChoices(strings("Yes","No"),2)
   IfPlayerPicksChoice(0,null)
    If(7,10,0)
     125(1,0,10)
     221()
     249(bytes(0x04,0x08,0x6f,0x3a,0x0c,0x52,0x50,0x47,0x3a,0x3a,0x4d,0x45,0x08,0x3a,0x0a,0x40,0x6e,0x61,0x6d,0x65,0x49,0x22,0x08,0x49,0x6e,0x6e,0x06,0x3a,0x06,0x45,0x54,0x3a,0x0b,0x40,0x70,0x69,0x74,0x63,0x68,0x69,0x69,0x3a,0x0c,0x40,0x76,0x6f,0x6c,0x75,0x6d,0x65,0x69,0x69))
     Wait(150)
     314(0,0)
     222()
     0()
    Else()
     ShowMessageFace("",0,0,2,2)
     ShowMessage("\\n<Old Woman>If you were the queen, you'd have lots of money...")
     0()
    EndIf()
    0()
   IfPlayerPicksChoice(1,null)
    0()
   404()
   EndEventProcessing()
   0()
  EndIf()
  If(1,1063,0,13,1)
   ShowMessageFace("",0,0,2,3)
   ShowMessage("\\n<Innkeeper>Welcome!\n10G gets you a bed and dinner!\\$")
   ShowChoices(strings("Yes","No"),2)
   IfPlayerPicksChoice(0,null)
    If(7,10,0)
     125(1,0,10)
     221()
     249(bytes(0x04,0x08,0x6f,0x3a,0x0c,0x52,0x50,0x47,0x3a,0x3a,0x4d,0x45,0x08,0x3a,0x0a,0x40,0x6e,0x61,0x6d,0x65,0x49,0x22,0x08,0x49,0x6e,0x6e,0x06,0x3a,0x06,0x45,0x54,0x3a,0x0b,0x40,0x70,0x69,0x74,0x63,0x68,0x69,0x69,0x3a,0x0c,0x40,0x76,0x6f,0x6c,0x75,0x6d,0x65,0x69,0x69))
     Wait(150)
     314(0,0)
     222()
     0()
    Else()
     ShowMessageFace("",0,0,2,4)
     ShowMessage("\\n<Innkeeper>Oh, you don't have enough money.")
     0()
    EndIf()
    0()
   IfPlayerPicksChoice(1,null)
    0()
   404()
   EndEventProcessing()
   0()
  EndIf()
  0()



EVENT   19
 PAGE   1
  ChangeSelfSwitch("A",0)
  If(0,4,0)
   ShowMessageFace("alice_fc5",0,0,2,1)
   ShowMessage("\\n<Alice>In order to meet with the spy, order a roast chicken from the proprietor of this establishment. He should then let us go up to the second floor.")
   ShowMessageFace("alice_fc5",3,0,2,2)
   ShowMessage("\\n<Alice>Assuming the bartender is still sane, that is...")
   0()
  EndIf()
  If(0,5,0)
   ShowMessageFace("iriasu_fc4",0,0,2,3)
   ShowMessage("\\n<Ilias>In order to meet with the spy, order a roast chicken from the proprietor of this establishment. He should then let us go up to the second floor.")
   ShowMessageFace("iriasu_fc4",2,0,2,4)
   ShowMessage("\\n<Ilias>Assuming the bartender remains sane, that is...")
   0()
  EndIf()
  0()
 PAGE   2
  // condition: self-switch A is ON
  0()



EVENT   20
 PAGE   1
  0()
 PAGE   2
  // condition: variable 1063 >= 7
  PictureDisplay(5,"80_nero_st01b",0,0,0,0,100,100,0,0)
  PictureMove(5,null,0,0,0,0,100,100,255,0,30,true)
  ShowMessageFace("nero_fc1",0,0,2,1)
  ShowMessage("\\n<Nero>Are you sure you remember the next steps of your operation?")
  If(0,4,0)
   ShowMessageFace("alice_fc5",0,0,2,2)
   ShowMessage("\\n<Alice>First, we head northeast and meet with our support in the giant toxic swamp.")
   ShowMessageFace("alice_fc5",0,0,2,3)
   ShowMessage("\\n<Alice>With their help, we pass through the nearby March Hills, then head to Grangold Palace. Is that right?")
   0()
  EndIf()
  If(0,5,0)
   ShowMessageFace("iriasu_fc4",0,0,2,4)
   ShowMessage("\\n<Ilias>First, we head northeast and meet with our support in the giant toxic swamp.")
   ShowMessageFace("iriasu_fc4",0,0,2,5)
   ShowMessage("\\n<Ilias>With their help, we pass through the nearby March Hills, then head to Grangold Palace. Correct?")
   0()
  EndIf()
  ShowMessageFace("nero_fc1",0,0,2,6)
  ShowMessage("\\n<Nero>Yes, exactly right.\nBy all means, do not go to Grangold unprepared...")
  If(0,4,0)
   ShowMessageFace("alice_fc5",0,0,2,7)
   ShowMessage("\\n<Alice>The lewd air hanging over this town is the work of the queen everyone's talking about. They're referring to the Queen Ant, right?")
   0()
  EndIf()
  If(0,5,0)
   ShowMessageFace("iriasu_fc4",2,0,2,8)
   ShowMessage("\\n<Ilias>The lewd air hanging over this town is the work of the queen everyone's talking about. They refer to the Queen Ant, do they not?")
   0()
  EndIf()
  ShowMessageFace("nero_fc1",0,0,2,9)
  ShowMessage("\\n<Nero>......")
  If(0,4,0)
   ShowMessageFace("alice_fc5",2,0,2,10)
   ShowMessage("\\n<Alice>Not going to give us any important information?")
   0()
  EndIf()
  If(0,5,0)
   ShowMessageFace("iriasu_fc4",2,0,2,11)
   ShowMessage("\\n<Ilias>Always so tight-lipped when we ask you questions...")
   0()
  EndIf()
  PictureClear(5)
  EndEventProcessing()
  0()
 PAGE   3
  // condition: variable 1063 >= 8
  0()



EVENT   21
 PAGE   1
  If(1,1063,0,7,2)
   ShowMessageFace("",0,0,2,1)
   ShowMessage("\\n<Spy Merchant>I am... a spy...\nThe message I have to deliver...")
   ShowMessageFace("",0,0,2,2)
   ShowMessage("The man with a talisman stuck to his forehead is muttering in delirium...")
   ShowMessageFace("nero_fc1",0,0,2,3)
   ShowMessage("\\n<Nero>This is my fault, so I can't just leave him here. Don't worry, I'll watch over him until he regains his sanity.")
   EndEventProcessing()
   0()
  EndIf()
  If(1,1063,0,8,1)
   ShowMessageFace("",0,0,2,4)
   ShowMessage("\\n<Spy Merchant>Oh, you look familiar...\nHmmm, I feel like we've met somewhere before...")
   EndEventProcessing()
   0()
  EndIf()
  0()



EVENT   22
 PAGE   1
  If(1,1063,0,12,2)
   ShowMessageFace("",0,0,2,1)
   ShowMessage("\\n<Middle-aged Man>It gets slightly better when I go indoors, but...\nAhh, my queen...")
   EndEventProcessing()
   0()
  EndIf()
  If(1,1063,0,13,1)
   ShowMessageFace("",0,0,2,2)
   ShowMessage("\\n<Middle-aged Man>This town has a tradition of witches.\n...That's not to say it's a dreadful thing.")
   ShowMessageFace("",0,0,2,3)
   ShowMessage("\\n<Middle-aged Man>When miraculous powers chooses to reside within a young girl, they become a magical girl. Even now, there is a magical girl living in this town.")
   EndEventProcessing()
   0()
  EndIf()
  0()



EVENT   23
 PAGE   1
  If(1,1063,0,12,2)
   ShowMessageFace("",0,0,2,1)
   ShowMessage("\\n<Middle-aged Woman>As my queen says...\nMake meals every day... Eat, sleep...")
   If(0,4,0)
    ShowMessageFace("alice_fc5",0,0,2,2)
    ShowMessage("\\n<Alice>Even though she's suffering some powerful brainwashing... She appears to be receiving instructions to live her daily life as usual.")
    0()
   EndIf()
   If(0,5,0)
    ShowMessageFace("iriasu_fc4",2,0,2,3)
    ShowMessage("\\n<Ilias>Even though she's suffering some powerful brainwashing... She appears to be receiving instructions to live her daily life as usual.")
    0()
   EndIf()
   EndEventProcessing()
   0()
  EndIf()
  If(1,1063,0,13,1)
   ShowMessageFace("",0,0,2,4)
   ShowMessage("\\n<Middle-aged Woman>All the girls who grow up in this town adore magical girls... Even I was like that.")
   EndEventProcessing()
   0()
  EndIf()
  0()



EVENT   24
 PAGE   1
  If(1,1063,0,12,2)
   ShowMessageFace("",0,0,2,1)
   ShowMessage("\\n<Traveling Warrior>My queen... For my queen...")
   EndEventProcessing()
   0()
  EndIf()
  If(1,1063,0,13,1)
   ShowMessageFace("",0,0,2,2)
   ShowMessage("\\n<Traveling Warrior>The blacksmith was so shaken from the brainwashing incident that he won't smith anymore. I have no choice but to head up to Grangold...")
   EndEventProcessing()
   0()
  EndIf()
  0()



EVENT   25
 PAGE   1
  If(1,1063,0,12,2)
   ShowMessageFace("",0,0,2,1)
   ShowMessage("\\n<Youth>Ahh, my queeeeen...")
   EndEventProcessing()
   0()
  EndIf()
  If(1,1063,0,13,1)
   ShowMessageFace("",0,0,2,2)
   ShowMessage("\\n<Youth>For the time being, I'm converting half of my property into precious metals. Between the great war and the Monster Lord's declaration, this world is going through rough times.")
   EndEventProcessing()
   0()
  EndIf()
  0()



EVENT   26
 PAGE   1
  If(1,1063,0,12,2)
   ShowMessageFace("",0,0,2,1)
   ShowMessage("\\n<Man>Not even the finest liquor can match the charm of my queen...")
   EndEventProcessing()
   0()
  EndIf()
  If(1,1063,0,13,1)
   ShowMessageFace("",0,0,2,2)
   ShowMessage("\\n<Man>I'd been coming to this bar the whole time my reason was lost... Even though I was barely aware of anything, I was actually carrying out my daily life just like normal.")
   EndEventProcessing()
   0()
  EndIf()
  0()



EVENT   27
 PAGE   1
  If(1,1063,0,12,2)
   ShowMessageFace("",0,0,2,1)
   ShowMessage("\\n<Rowdy Man>I'd die for my queen...\nMy queen could even kill me...")
   EndEventProcessing()
   0()
  EndIf()
  If(1,1063,0,13,1)
   ShowMessageFace("",0,0,2,2)
   ShowMessage("\\n<Rowdy Man>I've heard a rumor that the proprietor here is a trusted friend of Don Father.")
   ShowMessageFace("",0,0,2,3)
   ShowMessage("\\n<Soldier>No, that rumor is totally false...")
   EndEventProcessing()
   0()
  EndIf()
  0()



EVENT   28
 PAGE   1
  If(1,1063,0,12,2)
   ShowMessageFace("",0,0,2,1)
   ShowMessage("\\n<Soldier>Hauuu... Ah, ah, my queeeeen...")
   EndEventProcessing()
   0()
  EndIf()
  If(1,1063,0,13,1)
   ShowMessageFace("",0,0,2,2)
   ShowMessage("\\n<Soldier>The true identity of the queen turned out to be a powerful kitsune. She must be ridiculously powerful to have made all of Grangold her own.")
   355("actor_label_jump")
   EndEventProcessing()
   DefineLabel("102")
   ShowMessageFace("youko_fc1",2,0,2,3)
   ShowMessage("\\n<Kitsu>Kwon kwon... I'm a good kitsune.")
   EndEventProcessing()
   DefineLabel("103")
   ShowMessageFace("kamuro_fc1",2,0,2,4)
   ShowMessage("\\n<Kamuro>This might cause the reputation of the kitsune race to decline...")
   EndEventProcessing()
   0()
  EndIf()
  0()



EVENT   29
 PAGE   1
  If(1,1063,0,12,2)
   ShowMessageFace("",0,0,2,1)
   ShowMessage("\\n<Middle-aged Man>Ahiiiii...\nUwah, ah...ahhh...")
   EndEventProcessing()
   0()
  EndIf()
  If(1,1063,0,13,1)
   ShowMessageFace("",0,0,2,2)
   ShowMessage("\\n<Middle-aged Man>Hero Luka... I wonder what kind of guy he is.\nAccording to the rumors, he's the same person who won the championship at this year's Queen's Cup.")
   EndEventProcessing()
   0()
  EndIf()
  0()



EVENT   30
 PAGE   1
  If(1,1063,0,12,2)
   ShowMessageFace("",0,0,2,1)
   ShowMessage("\\n<Man>The vast coast along the cape to the northeast...\nAccording to legend, there's a path leading to an undersea templeeee...")
   ShowMessageFace("",0,0,2,2)
   ShowMessage("\\n<Man>Ooooooorrrr soooooooo Iiiii heeeeeaar...")
   EndEventProcessing()
   0()
  EndIf()
  If(1,1063,0,13,1)
   ShowMessageFace("",0,0,2,3)
   ShowMessage("\\n<Man>Go east from the great toxic swamp, and you will arrive at Gold Coast. If you hold up the Orb of Guidance at the waters edge where a strange light is shining...")
   ShowMessageFace("",0,0,2,4)
   ShowMessage("\\n<Man>They say that you will be invited into an undersea temple. I've heard that there are two undersea temples: one in the south and  this one in the north.")
   ShowMessageFace("",0,0,2,5)
   ShowMessage("\\n<Man>However, the Orb of Guidance is quite a valuable item. A high-ranking mermaid is said to be carrying it...")
   If(1,1068,0,2,2)
    If(8,514)
     ShowMessageFace("ruka_fc1",0,0,2,6)
     ShowMessage("\\n<Luka>Orb of Guidance...\nI received that from the mermaid at Port Natalia.")
     If(0,4,0)
      ShowMessageFace("alice_fc5",0,0,2,7)
      ShowMessage("\\n<Alice>If that's the case, then we can go to the undersea temple at Gold Coast. If we have time to spare, how about we go there?")
      0()
     EndIf()
     If(0,5,0)
      ShowMessageFace("iriasu_fc4",0,0,2,8)
      ShowMessage("\\n<Ilias>If that's the case, then we can go to the undersea temple at Gold Coast. If we have time to spare, how about we raid it?")
      0()
     EndIf()
     0()
    EndIf()
    0()
   EndIf()
   EndEventProcessing()
   0()
  EndIf()
  0()



EVENT   31
 PAGE   1
  If(1,1063,0,12,2)
   ShowMessageFace("",0,0,2,1)
   ShowMessage("\\n<Young Woman>My queen, how beautiful...")
   EndEventProcessing()
   0()
  EndIf()
  If(1,1063,0,13,1)
   ShowMessageFace("",0,0,2,2)
   ShowMessage("\\n<Young Woman>Hero Luka... Isn't that name rather cute for a muscular middle-aged man? If the hero were a cute young boy like you, I'd be a fan.")
   If(0,6,0)
    ShowMessageFace("sonia_fc1",5,0,2,3)
    ShowMessage("\\n<Sonya>Let's get away from here!")
    0()
   EndIf()
   EndEventProcessing()
   0()
  EndIf()
  0()



EVENT   32
 PAGE   1
  If(1,1063,0,12,2)
   ShowMessageFace("",0,0,2,1)
   ShowMessage("\\n<Soldier>Ahhh... My queeeen...\nI will always be by your side...")
   EndEventProcessing()
   0()
  EndIf()
  If(1,1063,0,13,1)
   ShowMessageFace("",0,0,2,2)
   ShowMessage("\\n<Soldier>First a Kitsune Queen, now the Monster Lord?\nAre we living in the end times?")
   EndEventProcessing()
   0()
  EndIf()
  0()



EVENT   33
 PAGE   1
  If(1,1063,0,12,2)
   ShowMessageFace("",0,0,2,1)
   ShowMessage("\\n<Traveling Warrior>Ahhh... My queen's voice...")
   EndEventProcessing()
   0()
  EndIf()
  If(1,1063,0,13,1)
   ShowMessageFace("",0,0,2,2)
   ShowMessage("\\n<Traveling Warrior>The items required for changing into advanced jobs are extremely rare. It's rumored that the kings of each nation possess one, but they won't give them out so easily...")
   EndEventProcessing()
   0()
  EndIf()
  0()



EVENT   34
 PAGE   1
  If(1,1063,0,12,2)
   ShowMessageFace("",0,0,2,1)
   ShowMessage("\\n<Swordsman>My queen... Uuu, my mind...\nI have to leave this place... Ah, my queen...")
   EndEventProcessing()
   0()
  EndIf()
  If(1,1063,0,13,1)
   ShowMessageFace("",0,0,2,2)
   ShowMessage("\\n<Swordsman>Oh, I've failed to become a hero.\nI thought I could exterminate the wicked queen without hesitation, but...")
   EndEventProcessing()
   0()
  EndIf()
  0()



EVENT   35
 PAGE   1
  If(1,1063,0,12,2)
   ShowMessageFace("",0,0,2,1)
   ShowMessage("\\n<Traveling Merchant>The queen...\nI want to meet the queen...")
   EndEventProcessing()
   0()
  EndIf()
  If(1,1063,0,13,1)
   ShowMessageFace("",0,0,2,2)
   ShowMessage("\\n<Traveling Merchant>I was heading to central Gold to do some peddling, but... I've heard some unsettling rumors about Succubus Village and Lady's Village.")
   EndEventProcessing()
   0()
  EndIf()
  0()



EVENT   36
 PAGE   1
  If(1,1063,0,12,2)
   ShowMessageFace("",0,0,2,1)
   ShowMessage("\\n<Mage>The lewd air is so thick, I can't hold onto my sanity outside... Even when indoors, it's best to protect yourself with magical power.")
   ShowMessageFace("",0,0,2,2)
   ShowMessage("\\n<Mage>What the hell is happening here...?\nUgh... If I lose focus, I'll go insane...")
   EndEventProcessing()
   0()
  EndIf()
  If(1,1063,0,13,1)
   ShowMessageFace("",0,0,2,3)
   ShowMessage("\\n<Mage>This was a truly awful experience...\nI wanted to leave this town as soon as possible, but my partner is still only half-sane.")
   ShowMessageFace("",0,0,2,4)
   ShowMessage("\\n<Mage>It seems that his head was sunny, and his mental fortitude was even weaker than the local children. Did I pick the wrong partner...?")
   EndEventProcessing()
   0()
  EndIf()
  0()



EVENT   37
 PAGE   1
  If(1,1063,0,12,2)
   ShowMessageFace("",0,0,2,1)
   ShowMessage("\\n<Soldier>Ahaa... My queen, my queen, my queeeen...")
   EndEventProcessing()
   0()
  EndIf()
  If(1,1063,0,13,1)
   ShowMessageFace("",0,0,2,2)
   ShowMessage("\\n<Soldier>My queen, ah my queen, my queen...")
   EndEventProcessing()
   0()
  EndIf()
  0()



EVENT   38
 PAGE   1
  If(1,1063,0,12,2)
   ShowMessageFace("usagi_fc1",2,0,2,1)
   ShowMessage("\\n<Rabbit Girl>The humans in this town appear to be in terrible shape... Even monsters like me don't want to stay in this lewd air for too long...")
   EndEventProcessing()
   0()
  EndIf()
  If(1,1063,0,13,1)
   ShowMessageFace("usagi_fc1",0,0,2,2)
   ShowMessage("\\n<Rabbit Girl>It's good that the lewd air was cleared away. That was your doing, wasn't it?")
   355("actor_label_jump")
   EndEventProcessing()
   DefineLabel("202")
   ShowMessageFace("bonny_fc1",1,0,2,3)
   ShowMessage("\\n<Bonnie>We helped, of course!\nBe sure to remember the name of the Fishy Pirates!")
   EndEventProcessing()
   DefineLabel("203")
   ShowMessageFace("tatunoko_k_fc1",1,0,2,4)
   ShowMessage("\\n<Tatsuko>Hero Luka's success was thanks to the Navy's efforts!")
   EndEventProcessing()
   0()
  EndIf()
  0()



EVENT   39
 PAGE   1
  If(1,1063,0,12,2)
   ShowMessageFace("",0,0,2,1)
   ShowMessage("\\n<Young Boy>Fwaaaaah...")
   EndEventProcessing()
   0()
  EndIf()
  If(1,1063,0,13,1)
   If(1,1078,0,4,2)
    ShowMessageFace("",0,0,2,2)
    ShowMessage("\\n<Young Boy>I heard this from Magical☆Mari-chan.\nA magical girl battle royale will be starting in the great toxic swamp to the east soon.")
    ShowMessageFace("",0,0,2,3)
    ShowMessage("\\n<Young Boy>But I can't participate because I'm a boy...\nI wish I had been born a girl.")
    EndEventProcessing()
    0()
   EndIf()
   If(1,1078,0,5,1)
    ShowMessageFace("",0,0,2,4)
    ShowMessage("\\n<Young Boy>I heard this from Magical☆Mari-chan.\nA new magical girl has been selected.")
    ShowMessageFace("",0,0,2,5)
    ShowMessage("\\n<Young Boy>But she didn't tell me what kind of person she was.\nShe must've been a very cute girl, right?")
    EndEventProcessing()
    0()
   EndIf()
   0()
  EndIf()
  0()



EVENT   40
 PAGE   1
  // condition: switch 31 is ON
  0()



EVENT   41
 PAGE   1
  250(bytes(0x04,0x08,0x6f,0x3a,0x0c,0x52,0x50,0x47,0x3a,0x3a,0x53,0x45,0x08,0x3a,0x0a,0x40,0x6e,0x61,0x6d,0x65,0x49,0x22,0x0a,0x49,0x74,0x65,0x6d,0x31,0x06,0x3a,0x06,0x45,0x54,0x3a,0x0b,0x40,0x70,0x69,0x74,0x63,0x68,0x69,0x69,0x3a,0x0c,0x40,0x76,0x6f,0x6c,0x75,0x6d,0x65,0x69,0x55))
  ChangeSelfSwitch("A",0)
  ChangeInventory_Item(32,0,0,1)
  0()
 PAGE   2
  // condition: self-switch A is ON
  0()



EVENT   42
 PAGE   1
  250(bytes(0x04,0x08,0x6f,0x3a,0x0c,0x52,0x50,0x47,0x3a,0x3a,0x53,0x45,0x08,0x3a,0x0a,0x40,0x6e,0x61,0x6d,0x65,0x49,0x22,0x0a,0x49,0x74,0x65,0x6d,0x31,0x06,0x3a,0x06,0x45,0x54,0x3a,0x0b,0x40,0x70,0x69,0x74,0x63,0x68,0x69,0x69,0x3a,0x0c,0x40,0x76,0x6f,0x6c,0x75,0x6d,0x65,0x69,0x55))
  ChangeSelfSwitch("A",0)
  ChangeInventory_Item(27,0,0,1)
  0()
 PAGE   2
  // condition: self-switch A is ON
  0()



EVENT   43
 PAGE   1
  250(bytes(0x04,0x08,0x6f,0x3a,0x0c,0x52,0x50,0x47,0x3a,0x3a,0x53,0x45,0x08,0x3a,0x0a,0x40,0x6e,0x61,0x6d,0x65,0x49,0x22,0x0a,0x49,0x74,0x65,0x6d,0x31,0x06,0x3a,0x06,0x45,0x54,0x3a,0x0b,0x40,0x70,0x69,0x74,0x63,0x68,0x69,0x69,0x3a,0x0c,0x40,0x76,0x6f,0x6c,0x75,0x6d,0x65,0x69,0x55))
  ChangeSelfSwitch("A",0)
  ChangeInventory_Item(430,0,0,1)
  0()
 PAGE   2
  // condition: self-switch A is ON
  0()



EVENT   44
 PAGE   1
  250(bytes(0x04,0x08,0x6f,0x3a,0x0c,0x52,0x50,0x47,0x3a,0x3a,0x53,0x45,0x08,0x3a,0x0a,0x40,0x6e,0x61,0x6d,0x65,0x49,0x22,0x0a,0x49,0x74,0x65,0x6d,0x31,0x06,0x3a,0x06,0x45,0x54,0x3a,0x0b,0x40,0x70,0x69,0x74,0x63,0x68,0x69,0x69,0x3a,0x0c,0x40,0x76,0x6f,0x6c,0x75,0x6d,0x65,0x69,0x55))
  ChangeSelfSwitch("A",0)
  ChangeInventory_Item(23,0,0,1)
  0()
 PAGE   2
  // condition: self-switch A is ON
  0()



EVENT   45
 PAGE   1
  250(bytes(0x04,0x08,0x6f,0x3a,0x0c,0x52,0x50,0x47,0x3a,0x3a,0x53,0x45,0x08,0x3a,0x0a,0x40,0x6e,0x61,0x6d,0x65,0x49,0x22,0x0a,0x49,0x74,0x65,0x6d,0x31,0x06,0x3a,0x06,0x45,0x54,0x3a,0x0b,0x40,0x70,0x69,0x74,0x63,0x68,0x69,0x69,0x3a,0x0c,0x40,0x76,0x6f,0x6c,0x75,0x6d,0x65,0x69,0x55))
  ChangeSelfSwitch("A",0)
  ChangeInventory_Item(2,0,0,1)
  0()
 PAGE   2
  // condition: self-switch A is ON
  0()



EVENT   46
 PAGE   1
  250(bytes(0x04,0x08,0x6f,0x3a,0x0c,0x52,0x50,0x47,0x3a,0x3a,0x53,0x45,0x08,0x3a,0x0a,0x40,0x6e,0x61,0x6d,0x65,0x49,0x22,0x0a,0x49,0x74,0x65,0x6d,0x31,0x06,0x3a,0x06,0x45,0x54,0x3a,0x0b,0x40,0x70,0x69,0x74,0x63,0x68,0x69,0x69,0x3a,0x0c,0x40,0x76,0x6f,0x6c,0x75,0x6d,0x65,0x69,0x55))
  ChangeSelfSwitch("A",0)
  ChangeInventory_Item(208,0,0,1)
  0()
 PAGE   2
  // condition: self-switch A is ON
  0()



EVENT   47
 PAGE   1
  250(bytes(0x04,0x08,0x6f,0x3a,0x0c,0x52,0x50,0x47,0x3a,0x3a,0x53,0x45,0x08,0x3a,0x0a,0x40,0x6e,0x61,0x6d,0x65,0x49,0x22,0x0a,0x49,0x74,0x65,0x6d,0x31,0x06,0x3a,0x06,0x45,0x54,0x3a,0x0b,0x40,0x70,0x69,0x74,0x63,0x68,0x69,0x69,0x3a,0x0c,0x40,0x76,0x6f,0x6c,0x75,0x6d,0x65,0x69,0x55))
  ChangeSelfSwitch("A",0)
  ChangeInventory_Item(15,0,0,1)
  0()
 PAGE   2
  // condition: self-switch A is ON
  0()



EVENT   48
 PAGE   1
  250(bytes(0x04,0x08,0x6f,0x3a,0x0c,0x52,0x50,0x47,0x3a,0x3a,0x53,0x45,0x08,0x3a,0x0a,0x40,0x6e,0x61,0x6d,0x65,0x49,0x22,0x0a,0x49,0x74,0x65,0x6d,0x31,0x06,0x3a,0x06,0x45,0x54,0x3a,0x0b,0x40,0x70,0x69,0x74,0x63,0x68,0x69,0x69,0x3a,0x0c,0x40,0x76,0x6f,0x6c,0x75,0x6d,0x65,0x69,0x55))
  ChangeSelfSwitch("A",0)
  ChangeInventory_Item(25,0,0,1)
  0()
 PAGE   2
  // condition: self-switch A is ON
  0()



EVENT   49
 PAGE   1
  241(bytes(0x04,0x08,0x6f,0x3a,0x0d,0x52,0x50,0x47,0x3a,0x3a,0x42,0x47,0x4d,0x08,0x3a,0x0a,0x40,0x6e,0x61,0x6d,0x65,0x49,0x22,0x0a,0x6d,0x75,0x72,0x61,0x33,0x06,0x3a,0x06,0x45,0x54,0x3a,0x0c,0x40,0x76,0x6f,0x6c,0x75,0x6d,0x65,0x69,0x69,0x3a,0x0b,0x40,0x70,0x69,0x74,0x63,0x68,0x69,0x69))
  TemporaryRemoveEvent()
  0()
 PAGE   2
  // condition: variable 1063 >= 13
  0()