﻿
DisplayName "Izumo Village"



EVENT   2
 PAGE   1
  281(1)
  250(bytes(0x04,0x08,0x6f,0x3a,0x0c,0x52,0x50,0x47,0x3a,0x3a,0x53,0x45,0x08,0x3a,0x0a,0x40,0x6e,0x61,0x6d,0x65,0x49,0x22,0x09,0x4d,0x6f,0x76,0x65,0x06,0x3a,0x06,0x45,0x54,0x3a,0x0b,0x40,0x70,0x69,0x74,0x63,0x68,0x69,0x69,0x3a,0x0c,0x40,0x76,0x6f,0x6c,0x75,0x6d,0x65,0x69,0x55))
  TeleportPlayer(0,870,26,15,0,0)
  0()



EVENT   1
 PAGE   1
  281(1)
  250(bytes(0x04,0x08,0x6f,0x3a,0x0c,0x52,0x50,0x47,0x3a,0x3a,0x53,0x45,0x08,0x3a,0x0a,0x40,0x6e,0x61,0x6d,0x65,0x49,0x22,0x09,0x4d,0x6f,0x76,0x65,0x06,0x3a,0x06,0x45,0x54,0x3a,0x0b,0x40,0x70,0x69,0x74,0x63,0x68,0x69,0x69,0x3a,0x0c,0x40,0x76,0x6f,0x6c,0x75,0x6d,0x65,0x69,0x55))
  TeleportPlayer(0,870,10,39,0,0)
  0()



EVENT   5
 PAGE   1
  281(1)
  250(bytes(0x04,0x08,0x6f,0x3a,0x0c,0x52,0x50,0x47,0x3a,0x3a,0x53,0x45,0x08,0x3a,0x0a,0x40,0x6e,0x61,0x6d,0x65,0x49,0x22,0x09,0x4d,0x6f,0x76,0x65,0x06,0x3a,0x06,0x45,0x54,0x3a,0x0b,0x40,0x70,0x69,0x74,0x63,0x68,0x69,0x69,0x3a,0x0c,0x40,0x76,0x6f,0x6c,0x75,0x6d,0x65,0x69,0x55))
  TeleportPlayer(0,870,43,39,0,0)
  0()



EVENT   3
 PAGE   1
  281(1)
  250(bytes(0x04,0x08,0x6f,0x3a,0x0c,0x52,0x50,0x47,0x3a,0x3a,0x53,0x45,0x08,0x3a,0x0a,0x40,0x6e,0x61,0x6d,0x65,0x49,0x22,0x09,0x4d,0x6f,0x76,0x65,0x06,0x3a,0x06,0x45,0x54,0x3a,0x0b,0x40,0x70,0x69,0x74,0x63,0x68,0x69,0x69,0x3a,0x0c,0x40,0x76,0x6f,0x6c,0x75,0x6d,0x65,0x69,0x55))
  TeleportPlayer(0,870,13,60,0,0)
  0()



EVENT   4
 PAGE   1
  281(1)
  250(bytes(0x04,0x08,0x6f,0x3a,0x0c,0x52,0x50,0x47,0x3a,0x3a,0x53,0x45,0x08,0x3a,0x0a,0x40,0x6e,0x61,0x6d,0x65,0x49,0x22,0x09,0x4d,0x6f,0x76,0x65,0x06,0x3a,0x06,0x45,0x54,0x3a,0x0b,0x40,0x70,0x69,0x74,0x63,0x68,0x69,0x69,0x3a,0x0c,0x40,0x76,0x6f,0x6c,0x75,0x6d,0x65,0x69,0x55))
  TeleportPlayer(0,870,39,60,0,0)
  0()



EVENT   6
 PAGE   1
  If(1,1204,0,3,0)
   ShowMessageFace("daimeikai_fc1",0,0,2,1)
   ShowMessage("\\n<Daimyokai>")
   ShowMessage("おいおい、どこに行くんだ？")
   ShowMessage("情報がないから、行き先も決まっちゃいないぜ。")
   ShowMessageFace("rovissa_fc1",0,0,2,2)
   ShowMessage("\\n<Rovissa>")
   ShowMessage("そう言えば、宿屋の前に兵士がいなかった？")
   ShowMessage("この村の人じゃないと思うけど、気になるわね……")
   205(-1,bytes(0x04,0x08,0x6f,0x3a,0x13,0x52,0x50,0x47,0x3a,0x3a,0x4d,0x6f,0x76,0x65,0x52,0x6f,0x75,0x74,0x65,0x09,0x3a,0x0c,0x40,0x72,0x65,0x70,0x65,0x61,0x74,0x46,0x3a,0x0f,0x40,0x73,0x6b,0x69,0x70,0x70,0x61,0x62,0x6c,0x65,0x46,0x3a,0x0a,0x40,0x77,0x61,0x69,0x74,0x54,0x3a,0x0a,0x40,0x6c,0x69,0x73,0x74,0x5b,0x07,0x6f,0x3a,0x15,0x52,0x50,0x47,0x3a,0x3a,0x4d,0x6f,0x76,0x65,0x43,0x6f,0x6d,0x6d,0x61,0x6e,0x64,0x07,0x3a,0x0a,0x40,0x63,0x6f,0x64,0x65,0x69,0x09,0x3a,0x10,0x40,0x70,0x61,0x72,0x61,0x6d,0x65,0x74,0x65,0x72,0x73,0x5b,0x00,0x6f,0x3b,0x0a,0x07,0x3b,0x0b,0x69,0x00,0x3b,0x0c,0x5b,0x00))
   EndEventProcessing()
   0()
  EndIf()
  250(bytes(0x04,0x08,0x6f,0x3a,0x0c,0x52,0x50,0x47,0x3a,0x3a,0x53,0x45,0x08,0x3a,0x0a,0x40,0x6e,0x61,0x6d,0x65,0x49,0x22,0x09,0x4d,0x6f,0x76,0x65,0x06,0x3a,0x06,0x45,0x54,0x3a,0x0b,0x40,0x70,0x69,0x74,0x63,0x68,0x69,0x69,0x3a,0x0c,0x40,0x76,0x6f,0x6c,0x75,0x6d,0x65,0x69,0x55))
  TeleportPlayer(0,920,231,57,2,0)
  0()



EVENT   22
 PAGE   1
  ShowMessageFace("",0,0,2,1)
  ShowMessage("\\n<夢魔>")
  ShowMessage("う……うぅっ……")
  ShowMessageFace("daimeikai_fc1",0,0,2,2)
  ShowMessage("\\n<Daimyokai>")
  ShowMessage("俺様の封印は、一級品だからな。")
  ShowMessage("しばらくの間、魔力は使えないはずだぜ。")
  ShowMessageFace("rovissa_fc1",0,0,2,3)
  ShowMessage("\\n<Rovissa>")
  ShowMessage("近くの村に連絡したし、すぐ助けは来るはずよ。")
  ShowMessage("これだけの女性を保護するのは、きっと大変よね……")
  ShowMessageFace("",0,0,2,4)
  ShowMessage("こんな結果に終わったのは、大いに責任を感じる。")
  ShowMessage("これ以上犠牲を出さないためにも、エストを止めなければ――")
  EndEventProcessing()
  0()



EVENT   23
 PAGE   1
  If(1,1204,0,3,0)
   ShowMessageFace("",0,0,2,1)
   ShowMessage("\\n<兵士>")
   ShowMessage("私は、グランドノアからの使者……")
   ShowMessage("いや、もはや亡命者でしょう。")
   ShowMessageFace("",0,0,2,2)
   ShowMessage("\\n<兵士>")
   ShowMessage("我が国は、羽根の生えた妖魔に乗っ取られました。")
   ShowMessage("廷臣や兵士の多くも、すでに洗脳されています。")
   ShowMessageFace("",0,0,2,3)
   ShowMessage("\\n<兵士>")
   ShowMessage("あの妖魔は、異世界からやってきたという噂も……")
   ShowMessage("どうか、この話を多くの人にお伝え下さい。")
   ShowMessageFace("rovissa_fc1",0,0,2,4)
   ShowMessage("\\n<Rovissa>")
   ShowMessage("異世界から来た妖魔に、国が乗っ取られた……？")
   ShowMessageFace("daimeikai_fc1",0,0,2,5)
   ShowMessage("\\n<Daimyokai>")
   ShowMessage("グランドノアってのは、確か……")
   ShowMessage("この地域から遠くない大国だったな。")
   ShowMessageFace("daimeikai_fc1",0,0,2,6)
   ShowMessage("\\n<Daimyokai>")
   ShowMessage("よし、さっそく行ってみようぜ！")
   ShowMessage("そのエストか、同盟者の仕業だろうしな！")
   ShowMessageFace("rovissa_fc1",0,0,2,7)
   ShowMessage("\\n<Rovissa>")
   ShowMessage("でも、先に他の勇者達を捜した方が良くない？")
   ShowMessage("ラルス以外に、六人いるんだよね。")
   ShowMessageFace("daimeikai_fc1",1,0,2,8)
   ShowMessage("\\n<Daimyokai>")
   ShowMessage("顔も名前も、特徴さえ分からない……")
   ShowMessage("そんな六人を、どうやって捜すんだ？")
   ShowMessageFace("lars_fc01",0,0,2,9)
   ShowMessage("\\n<Lars>")
   ShowMessage("……………………")
   ShowMessageFace("",0,0,2,10)
   ShowMessage("確かに、非常に難しい。")
   ShowMessage("敵も目を光らせている以上、大々的に名乗る事も出来ないのだ。")
   ShowMessageFace("daimeikai_fc1",0,0,2,11)
   ShowMessage("\\n<Daimyokai>")
   ShowMessage("他の六人も、勇者ってほどだから多少は頭も回るはずだ。")
   ShowMessage("まずは用心深く、情報収集でもしてるだろ。")
   ShowMessageFace("daimeikai_fc1",0,0,2,12)
   ShowMessage("\\n<Daimyokai>")
   ShowMessage("異世界の妖魔が、グランドノアを乗っ取った――")
   ShowMessage("そんな噂は、他の勇者どもも耳にするはずだ。")
   ShowMessageFace("daimeikai_fc1",0,0,2,13)
   ShowMessage("\\n<Daimyokai>")
   ShowMessage("きっと、グランドノアに集ってくるぜ……")
   ShowMessage("その、勇者って連中がな！")
   ShowMessageFace("rovissa_fc1",0,0,2,14)
   ShowMessage("\\n<Rovissa>")
   ShowMessage("なるほど……確かに、一理あるよね。")
   ShowMessage("ラルス、グランドノアに行ってみる？")
   ShowMessageFace("lars_fc01",0,0,2,15)
   ShowMessage("\\n<Lars>")
   ShowMessage("……………………")
   ShowMessageFace("",0,0,2,16)
   ShowMessage("ラルスは静かに頷いた。")
   ShowMessage("是非もない、今は行くしかないだろう。")
   ShowMessageFace("daimeikai_fc1",0,0,2,17)
   ShowMessage("\\n<Daimyokai>")
   ShowMessage("この辺の地図は、ちゃんと頭に入ってる。")
   ShowMessage("グランドノアに行くには、長い洞窟を越えなきゃな。")
   ShowMessageFace("daimeikai_fc1",0,0,2,18)
   ShowMessage("\\n<Daimyokai>")
   ShowMessage("この村の南に、洞窟がある。")
   ShowMessage("そこを抜けて、西に進めばグランドノアだ。")
   ShowMessageFace("rovissa_fc1",0,0,2,19)
   ShowMessage("\\n<Rovissa>")
   ShowMessage("洞窟かぁ……長い旅路になりそうね。")
   ShowMessageFace("",0,0,2,20)
   ShowMessage("そういうわけで、次の目的地は定まった。")
   ShowMessage("グランドノア――妖魔に乗っ取られたという大国だ。")
   ShowMessageFace("",0,0,2,21)
   ShowMessage("そこではきっと、熾烈な戦いが待っているだろう。")
   ShowMessage("そして、他の勇者達もいるかもしれない――")
   ChangeVariable(1204,1204,0,0,4)
   EndEventProcessing()
   0()
  EndIf()
  If(1,1204,0,4,1)
   ShowMessageFace("",0,0,2,22)
   ShowMessage("\\n<兵士>")
   ShowMessage("我が国は、羽根の生えた妖魔に乗っ取られました。")
   ShowMessage("廷臣や兵士の多くも、すでに洗脳されています。")
   ShowMessageFace("",0,0,2,23)
   ShowMessage("\\n<兵士>")
   ShowMessage("あの妖魔は、異世界からやってきたという噂も……")
   ShowMessage("どうか、この話を多くの人にお伝え下さい。")
   EndEventProcessing()
   0()
  EndIf()
  0()



EVENT   7
 PAGE   1
  If(1,1204,0,3,0)
   ShowMessageFace("daimeikai_fc1",0,0,2,1)
   ShowMessage("\\n<Daimyokai>")
   ShowMessage("おいおい、どこに行くんだ？")
   ShowMessage("情報がないから、行き先も決まっちゃいないぜ。")
   ShowMessageFace("rovissa_fc1",0,0,2,2)
   ShowMessage("\\n<Rovissa>")
   ShowMessage("そう言えば、宿屋の前に兵士がいなかった？")
   ShowMessage("この村の人じゃないと思うけど、気になるわね……")
   205(-1,bytes(0x04,0x08,0x6f,0x3a,0x13,0x52,0x50,0x47,0x3a,0x3a,0x4d,0x6f,0x76,0x65,0x52,0x6f,0x75,0x74,0x65,0x09,0x3a,0x0c,0x40,0x72,0x65,0x70,0x65,0x61,0x74,0x46,0x3a,0x0f,0x40,0x73,0x6b,0x69,0x70,0x70,0x61,0x62,0x6c,0x65,0x46,0x3a,0x0a,0x40,0x77,0x61,0x69,0x74,0x54,0x3a,0x0a,0x40,0x6c,0x69,0x73,0x74,0x5b,0x07,0x6f,0x3a,0x15,0x52,0x50,0x47,0x3a,0x3a,0x4d,0x6f,0x76,0x65,0x43,0x6f,0x6d,0x6d,0x61,0x6e,0x64,0x07,0x3a,0x0a,0x40,0x63,0x6f,0x64,0x65,0x69,0x09,0x3a,0x10,0x40,0x70,0x61,0x72,0x61,0x6d,0x65,0x74,0x65,0x72,0x73,0x5b,0x00,0x6f,0x3b,0x0a,0x07,0x3b,0x0b,0x69,0x00,0x3b,0x0c,0x5b,0x00))
   EndEventProcessing()
   0()
  EndIf()
  250(bytes(0x04,0x08,0x6f,0x3a,0x0c,0x52,0x50,0x47,0x3a,0x3a,0x53,0x45,0x08,0x3a,0x0a,0x40,0x6e,0x61,0x6d,0x65,0x49,0x22,0x09,0x4d,0x6f,0x76,0x65,0x06,0x3a,0x06,0x45,0x54,0x3a,0x0b,0x40,0x70,0x69,0x74,0x63,0x68,0x69,0x69,0x3a,0x0c,0x40,0x76,0x6f,0x6c,0x75,0x6d,0x65,0x69,0x55))
  TeleportPlayer(0,920,231,57,2,0)
  0()



EVENT   8
 PAGE   1
  If(1,1204,0,3,0)
   ShowMessageFace("daimeikai_fc1",0,0,2,1)
   ShowMessage("\\n<Daimyokai>")
   ShowMessage("おいおい、どこに行くんだ？")
   ShowMessage("情報がないから、行き先も決まっちゃいないぜ。")
   ShowMessageFace("rovissa_fc1",0,0,2,2)
   ShowMessage("\\n<Rovissa>")
   ShowMessage("そう言えば、宿屋の前に兵士がいなかった？")
   ShowMessage("この村の人じゃないと思うけど、気になるわね……")
   205(-1,bytes(0x04,0x08,0x6f,0x3a,0x13,0x52,0x50,0x47,0x3a,0x3a,0x4d,0x6f,0x76,0x65,0x52,0x6f,0x75,0x74,0x65,0x09,0x3a,0x0c,0x40,0x72,0x65,0x70,0x65,0x61,0x74,0x46,0x3a,0x0f,0x40,0x73,0x6b,0x69,0x70,0x70,0x61,0x62,0x6c,0x65,0x46,0x3a,0x0a,0x40,0x77,0x61,0x69,0x74,0x54,0x3a,0x0a,0x40,0x6c,0x69,0x73,0x74,0x5b,0x07,0x6f,0x3a,0x15,0x52,0x50,0x47,0x3a,0x3a,0x4d,0x6f,0x76,0x65,0x43,0x6f,0x6d,0x6d,0x61,0x6e,0x64,0x07,0x3a,0x0a,0x40,0x63,0x6f,0x64,0x65,0x69,0x09,0x3a,0x10,0x40,0x70,0x61,0x72,0x61,0x6d,0x65,0x74,0x65,0x72,0x73,0x5b,0x00,0x6f,0x3b,0x0a,0x07,0x3b,0x0b,0x69,0x00,0x3b,0x0c,0x5b,0x00))
   EndEventProcessing()
   0()
  EndIf()
  250(bytes(0x04,0x08,0x6f,0x3a,0x0c,0x52,0x50,0x47,0x3a,0x3a,0x53,0x45,0x08,0x3a,0x0a,0x40,0x6e,0x61,0x6d,0x65,0x49,0x22,0x09,0x4d,0x6f,0x76,0x65,0x06,0x3a,0x06,0x45,0x54,0x3a,0x0b,0x40,0x70,0x69,0x74,0x63,0x68,0x69,0x69,0x3a,0x0c,0x40,0x76,0x6f,0x6c,0x75,0x6d,0x65,0x69,0x55))
  TeleportPlayer(0,920,231,57,2,0)
  0()



EVENT   9
 PAGE   1
  If(1,1204,0,3,0)
   ShowMessageFace("daimeikai_fc1",0,0,2,1)
   ShowMessage("\\n<Daimyokai>")
   ShowMessage("おいおい、どこに行くんだ？")
   ShowMessage("情報がないから、行き先も決まっちゃいないぜ。")
   ShowMessageFace("rovissa_fc1",0,0,2,2)
   ShowMessage("\\n<Rovissa>")
   ShowMessage("そう言えば、宿屋の前に兵士がいなかった？")
   ShowMessage("この村の人じゃないと思うけど、気になるわね……")
   205(-1,bytes(0x04,0x08,0x6f,0x3a,0x13,0x52,0x50,0x47,0x3a,0x3a,0x4d,0x6f,0x76,0x65,0x52,0x6f,0x75,0x74,0x65,0x09,0x3a,0x0c,0x40,0x72,0x65,0x70,0x65,0x61,0x74,0x46,0x3a,0x0f,0x40,0x73,0x6b,0x69,0x70,0x70,0x61,0x62,0x6c,0x65,0x46,0x3a,0x0a,0x40,0x77,0x61,0x69,0x74,0x54,0x3a,0x0a,0x40,0x6c,0x69,0x73,0x74,0x5b,0x07,0x6f,0x3a,0x15,0x52,0x50,0x47,0x3a,0x3a,0x4d,0x6f,0x76,0x65,0x43,0x6f,0x6d,0x6d,0x61,0x6e,0x64,0x07,0x3a,0x0a,0x40,0x63,0x6f,0x64,0x65,0x69,0x09,0x3a,0x10,0x40,0x70,0x61,0x72,0x61,0x6d,0x65,0x74,0x65,0x72,0x73,0x5b,0x00,0x6f,0x3b,0x0a,0x07,0x3b,0x0b,0x69,0x00,0x3b,0x0c,0x5b,0x00))
   EndEventProcessing()
   0()
  EndIf()
  250(bytes(0x04,0x08,0x6f,0x3a,0x0c,0x52,0x50,0x47,0x3a,0x3a,0x53,0x45,0x08,0x3a,0x0a,0x40,0x6e,0x61,0x6d,0x65,0x49,0x22,0x09,0x4d,0x6f,0x76,0x65,0x06,0x3a,0x06,0x45,0x54,0x3a,0x0b,0x40,0x70,0x69,0x74,0x63,0x68,0x69,0x69,0x3a,0x0c,0x40,0x76,0x6f,0x6c,0x75,0x6d,0x65,0x69,0x55))
  TeleportPlayer(0,920,231,57,2,0)
  0()



EVENT   10
 PAGE   1
  If(1,1204,0,3,0)
   ShowMessageFace("daimeikai_fc1",0,0,2,1)
   ShowMessage("\\n<Daimyokai>")
   ShowMessage("おいおい、どこに行くんだ？")
   ShowMessage("情報がないから、行き先も決まっちゃいないぜ。")
   ShowMessageFace("rovissa_fc1",0,0,2,2)
   ShowMessage("\\n<Rovissa>")
   ShowMessage("そう言えば、宿屋の前に兵士がいなかった？")
   ShowMessage("この村の人じゃないと思うけど、気になるわね……")
   205(-1,bytes(0x04,0x08,0x6f,0x3a,0x13,0x52,0x50,0x47,0x3a,0x3a,0x4d,0x6f,0x76,0x65,0x52,0x6f,0x75,0x74,0x65,0x09,0x3a,0x0c,0x40,0x72,0x65,0x70,0x65,0x61,0x74,0x46,0x3a,0x0f,0x40,0x73,0x6b,0x69,0x70,0x70,0x61,0x62,0x6c,0x65,0x46,0x3a,0x0a,0x40,0x77,0x61,0x69,0x74,0x54,0x3a,0x0a,0x40,0x6c,0x69,0x73,0x74,0x5b,0x07,0x6f,0x3a,0x15,0x52,0x50,0x47,0x3a,0x3a,0x4d,0x6f,0x76,0x65,0x43,0x6f,0x6d,0x6d,0x61,0x6e,0x64,0x07,0x3a,0x0a,0x40,0x63,0x6f,0x64,0x65,0x69,0x09,0x3a,0x10,0x40,0x70,0x61,0x72,0x61,0x6d,0x65,0x74,0x65,0x72,0x73,0x5b,0x00,0x6f,0x3b,0x0a,0x07,0x3b,0x0b,0x69,0x00,0x3b,0x0c,0x5b,0x00))
   EndEventProcessing()
   0()
  EndIf()
  250(bytes(0x04,0x08,0x6f,0x3a,0x0c,0x52,0x50,0x47,0x3a,0x3a,0x53,0x45,0x08,0x3a,0x0a,0x40,0x6e,0x61,0x6d,0x65,0x49,0x22,0x09,0x4d,0x6f,0x76,0x65,0x06,0x3a,0x06,0x45,0x54,0x3a,0x0b,0x40,0x70,0x69,0x74,0x63,0x68,0x69,0x69,0x3a,0x0c,0x40,0x76,0x6f,0x6c,0x75,0x6d,0x65,0x69,0x55))
  TeleportPlayer(0,920,231,57,2,0)
  0()



EVENT   11
 PAGE   1
  If(1,1204,0,3,0)
   ShowMessageFace("daimeikai_fc1",0,0,2,1)
   ShowMessage("\\n<Daimyokai>")
   ShowMessage("おいおい、どこに行くんだ？")
   ShowMessage("情報がないから、行き先も決まっちゃいないぜ。")
   ShowMessageFace("rovissa_fc1",0,0,2,2)
   ShowMessage("\\n<Rovissa>")
   ShowMessage("そう言えば、宿屋の前に兵士がいなかった？")
   ShowMessage("この村の人じゃないと思うけど、気になるわね……")
   205(-1,bytes(0x04,0x08,0x6f,0x3a,0x13,0x52,0x50,0x47,0x3a,0x3a,0x4d,0x6f,0x76,0x65,0x52,0x6f,0x75,0x74,0x65,0x09,0x3a,0x0c,0x40,0x72,0x65,0x70,0x65,0x61,0x74,0x46,0x3a,0x0f,0x40,0x73,0x6b,0x69,0x70,0x70,0x61,0x62,0x6c,0x65,0x46,0x3a,0x0a,0x40,0x77,0x61,0x69,0x74,0x54,0x3a,0x0a,0x40,0x6c,0x69,0x73,0x74,0x5b,0x07,0x6f,0x3a,0x15,0x52,0x50,0x47,0x3a,0x3a,0x4d,0x6f,0x76,0x65,0x43,0x6f,0x6d,0x6d,0x61,0x6e,0x64,0x07,0x3a,0x0a,0x40,0x63,0x6f,0x64,0x65,0x69,0x07,0x3a,0x10,0x40,0x70,0x61,0x72,0x61,0x6d,0x65,0x74,0x65,0x72,0x73,0x5b,0x00,0x6f,0x3b,0x0a,0x07,0x3b,0x0b,0x69,0x00,0x3b,0x0c,0x5b,0x00))
   EndEventProcessing()
   0()
  EndIf()
  250(bytes(0x04,0x08,0x6f,0x3a,0x0c,0x52,0x50,0x47,0x3a,0x3a,0x53,0x45,0x08,0x3a,0x0a,0x40,0x6e,0x61,0x6d,0x65,0x49,0x22,0x09,0x4d,0x6f,0x76,0x65,0x06,0x3a,0x06,0x45,0x54,0x3a,0x0b,0x40,0x70,0x69,0x74,0x63,0x68,0x69,0x69,0x3a,0x0c,0x40,0x76,0x6f,0x6c,0x75,0x6d,0x65,0x69,0x55))
  TeleportPlayer(0,920,231,57,2,0)
  0()



EVENT   12
 PAGE   1
  If(1,1204,0,3,0)
   ShowMessageFace("daimeikai_fc1",0,0,2,1)
   ShowMessage("\\n<Daimyokai>")
   ShowMessage("おいおい、どこに行くんだ？")
   ShowMessage("情報がないから、行き先も決まっちゃいないぜ。")
   ShowMessageFace("rovissa_fc1",0,0,2,2)
   ShowMessage("\\n<Rovissa>")
   ShowMessage("そう言えば、宿屋の前に兵士がいなかった？")
   ShowMessage("この村の人じゃないと思うけど、気になるわね……")
   205(-1,bytes(0x04,0x08,0x6f,0x3a,0x13,0x52,0x50,0x47,0x3a,0x3a,0x4d,0x6f,0x76,0x65,0x52,0x6f,0x75,0x74,0x65,0x09,0x3a,0x0c,0x40,0x72,0x65,0x70,0x65,0x61,0x74,0x46,0x3a,0x0f,0x40,0x73,0x6b,0x69,0x70,0x70,0x61,0x62,0x6c,0x65,0x46,0x3a,0x0a,0x40,0x77,0x61,0x69,0x74,0x54,0x3a,0x0a,0x40,0x6c,0x69,0x73,0x74,0x5b,0x07,0x6f,0x3a,0x15,0x52,0x50,0x47,0x3a,0x3a,0x4d,0x6f,0x76,0x65,0x43,0x6f,0x6d,0x6d,0x61,0x6e,0x64,0x07,0x3a,0x0a,0x40,0x63,0x6f,0x64,0x65,0x69,0x07,0x3a,0x10,0x40,0x70,0x61,0x72,0x61,0x6d,0x65,0x74,0x65,0x72,0x73,0x5b,0x00,0x6f,0x3b,0x0a,0x07,0x3b,0x0b,0x69,0x00,0x3b,0x0c,0x5b,0x00))
   EndEventProcessing()
   0()
  EndIf()
  250(bytes(0x04,0x08,0x6f,0x3a,0x0c,0x52,0x50,0x47,0x3a,0x3a,0x53,0x45,0x08,0x3a,0x0a,0x40,0x6e,0x61,0x6d,0x65,0x49,0x22,0x09,0x4d,0x6f,0x76,0x65,0x06,0x3a,0x06,0x45,0x54,0x3a,0x0b,0x40,0x70,0x69,0x74,0x63,0x68,0x69,0x69,0x3a,0x0c,0x40,0x76,0x6f,0x6c,0x75,0x6d,0x65,0x69,0x55))
  TeleportPlayer(0,920,231,57,2,0)
  0()



EVENT   13
 PAGE   1
  If(1,1204,0,3,0)
   ShowMessageFace("daimeikai_fc1",0,0,2,1)
   ShowMessage("\\n<Daimyokai>")
   ShowMessage("おいおい、どこに行くんだ？")
   ShowMessage("情報がないから、行き先も決まっちゃいないぜ。")
   ShowMessageFace("rovissa_fc1",0,0,2,2)
   ShowMessage("\\n<Rovissa>")
   ShowMessage("そう言えば、宿屋の前に兵士がいなかった？")
   ShowMessage("この村の人じゃないと思うけど、気になるわね……")
   205(-1,bytes(0x04,0x08,0x6f,0x3a,0x13,0x52,0x50,0x47,0x3a,0x3a,0x4d,0x6f,0x76,0x65,0x52,0x6f,0x75,0x74,0x65,0x09,0x3a,0x0c,0x40,0x72,0x65,0x70,0x65,0x61,0x74,0x46,0x3a,0x0f,0x40,0x73,0x6b,0x69,0x70,0x70,0x61,0x62,0x6c,0x65,0x46,0x3a,0x0a,0x40,0x77,0x61,0x69,0x74,0x54,0x3a,0x0a,0x40,0x6c,0x69,0x73,0x74,0x5b,0x07,0x6f,0x3a,0x15,0x52,0x50,0x47,0x3a,0x3a,0x4d,0x6f,0x76,0x65,0x43,0x6f,0x6d,0x6d,0x61,0x6e,0x64,0x07,0x3a,0x0a,0x40,0x63,0x6f,0x64,0x65,0x69,0x07,0x3a,0x10,0x40,0x70,0x61,0x72,0x61,0x6d,0x65,0x74,0x65,0x72,0x73,0x5b,0x00,0x6f,0x3b,0x0a,0x07,0x3b,0x0b,0x69,0x00,0x3b,0x0c,0x5b,0x00))
   EndEventProcessing()
   0()
  EndIf()
  250(bytes(0x04,0x08,0x6f,0x3a,0x0c,0x52,0x50,0x47,0x3a,0x3a,0x53,0x45,0x08,0x3a,0x0a,0x40,0x6e,0x61,0x6d,0x65,0x49,0x22,0x09,0x4d,0x6f,0x76,0x65,0x06,0x3a,0x06,0x45,0x54,0x3a,0x0b,0x40,0x70,0x69,0x74,0x63,0x68,0x69,0x69,0x3a,0x0c,0x40,0x76,0x6f,0x6c,0x75,0x6d,0x65,0x69,0x55))
  TeleportPlayer(0,920,231,57,2,0)
  0()



EVENT   14
 PAGE   1
  If(1,1204,0,3,0)
   ShowMessageFace("daimeikai_fc1",0,0,2,1)
   ShowMessage("\\n<Daimyokai>")
   ShowMessage("おいおい、どこに行くんだ？")
   ShowMessage("情報がないから、行き先も決まっちゃいないぜ。")
   ShowMessageFace("rovissa_fc1",0,0,2,2)
   ShowMessage("\\n<Rovissa>")
   ShowMessage("そう言えば、宿屋の前に兵士がいなかった？")
   ShowMessage("この村の人じゃないと思うけど、気になるわね……")
   205(-1,bytes(0x04,0x08,0x6f,0x3a,0x13,0x52,0x50,0x47,0x3a,0x3a,0x4d,0x6f,0x76,0x65,0x52,0x6f,0x75,0x74,0x65,0x09,0x3a,0x0c,0x40,0x72,0x65,0x70,0x65,0x61,0x74,0x46,0x3a,0x0f,0x40,0x73,0x6b,0x69,0x70,0x70,0x61,0x62,0x6c,0x65,0x46,0x3a,0x0a,0x40,0x77,0x61,0x69,0x74,0x54,0x3a,0x0a,0x40,0x6c,0x69,0x73,0x74,0x5b,0x07,0x6f,0x3a,0x15,0x52,0x50,0x47,0x3a,0x3a,0x4d,0x6f,0x76,0x65,0x43,0x6f,0x6d,0x6d,0x61,0x6e,0x64,0x07,0x3a,0x0a,0x40,0x63,0x6f,0x64,0x65,0x69,0x08,0x3a,0x10,0x40,0x70,0x61,0x72,0x61,0x6d,0x65,0x74,0x65,0x72,0x73,0x5b,0x00,0x6f,0x3b,0x0a,0x07,0x3b,0x0b,0x69,0x00,0x3b,0x0c,0x5b,0x00))
   EndEventProcessing()
   0()
  EndIf()
  250(bytes(0x04,0x08,0x6f,0x3a,0x0c,0x52,0x50,0x47,0x3a,0x3a,0x53,0x45,0x08,0x3a,0x0a,0x40,0x6e,0x61,0x6d,0x65,0x49,0x22,0x09,0x4d,0x6f,0x76,0x65,0x06,0x3a,0x06,0x45,0x54,0x3a,0x0b,0x40,0x70,0x69,0x74,0x63,0x68,0x69,0x69,0x3a,0x0c,0x40,0x76,0x6f,0x6c,0x75,0x6d,0x65,0x69,0x55))
  TeleportPlayer(0,920,231,57,2,0)
  0()



EVENT   15
 PAGE   1
  If(1,1204,0,3,0)
   ShowMessageFace("daimeikai_fc1",0,0,2,1)
   ShowMessage("\\n<Daimyokai>")
   ShowMessage("おいおい、どこに行くんだ？")
   ShowMessage("情報がないから、行き先も決まっちゃいないぜ。")
   ShowMessageFace("rovissa_fc1",0,0,2,2)
   ShowMessage("\\n<Rovissa>")
   ShowMessage("そう言えば、宿屋の前に兵士がいなかった？")
   ShowMessage("この村の人じゃないと思うけど、気になるわね……")
   205(-1,bytes(0x04,0x08,0x6f,0x3a,0x13,0x52,0x50,0x47,0x3a,0x3a,0x4d,0x6f,0x76,0x65,0x52,0x6f,0x75,0x74,0x65,0x09,0x3a,0x0c,0x40,0x72,0x65,0x70,0x65,0x61,0x74,0x46,0x3a,0x0f,0x40,0x73,0x6b,0x69,0x70,0x70,0x61,0x62,0x6c,0x65,0x46,0x3a,0x0a,0x40,0x77,0x61,0x69,0x74,0x54,0x3a,0x0a,0x40,0x6c,0x69,0x73,0x74,0x5b,0x07,0x6f,0x3a,0x15,0x52,0x50,0x47,0x3a,0x3a,0x4d,0x6f,0x76,0x65,0x43,0x6f,0x6d,0x6d,0x61,0x6e,0x64,0x07,0x3a,0x0a,0x40,0x63,0x6f,0x64,0x65,0x69,0x08,0x3a,0x10,0x40,0x70,0x61,0x72,0x61,0x6d,0x65,0x74,0x65,0x72,0x73,0x5b,0x00,0x6f,0x3b,0x0a,0x07,0x3b,0x0b,0x69,0x00,0x3b,0x0c,0x5b,0x00))
   EndEventProcessing()
   0()
  EndIf()
  250(bytes(0x04,0x08,0x6f,0x3a,0x0c,0x52,0x50,0x47,0x3a,0x3a,0x53,0x45,0x08,0x3a,0x0a,0x40,0x6e,0x61,0x6d,0x65,0x49,0x22,0x09,0x4d,0x6f,0x76,0x65,0x06,0x3a,0x06,0x45,0x54,0x3a,0x0b,0x40,0x70,0x69,0x74,0x63,0x68,0x69,0x69,0x3a,0x0c,0x40,0x76,0x6f,0x6c,0x75,0x6d,0x65,0x69,0x55))
  TeleportPlayer(0,920,231,57,2,0)
  0()



EVENT   16
 PAGE   1
  If(1,1204,0,3,0)
   ShowMessageFace("daimeikai_fc1",0,0,2,1)
   ShowMessage("\\n<Daimyokai>")
   ShowMessage("おいおい、どこに行くんだ？")
   ShowMessage("情報がないから、行き先も決まっちゃいないぜ。")
   ShowMessageFace("rovissa_fc1",0,0,2,2)
   ShowMessage("\\n<Rovissa>")
   ShowMessage("そう言えば、宿屋の前に兵士がいなかった？")
   ShowMessage("この村の人じゃないと思うけど、気になるわね……")
   205(-1,bytes(0x04,0x08,0x6f,0x3a,0x13,0x52,0x50,0x47,0x3a,0x3a,0x4d,0x6f,0x76,0x65,0x52,0x6f,0x75,0x74,0x65,0x09,0x3a,0x0c,0x40,0x72,0x65,0x70,0x65,0x61,0x74,0x46,0x3a,0x0f,0x40,0x73,0x6b,0x69,0x70,0x70,0x61,0x62,0x6c,0x65,0x46,0x3a,0x0a,0x40,0x77,0x61,0x69,0x74,0x54,0x3a,0x0a,0x40,0x6c,0x69,0x73,0x74,0x5b,0x07,0x6f,0x3a,0x15,0x52,0x50,0x47,0x3a,0x3a,0x4d,0x6f,0x76,0x65,0x43,0x6f,0x6d,0x6d,0x61,0x6e,0x64,0x07,0x3a,0x0a,0x40,0x63,0x6f,0x64,0x65,0x69,0x08,0x3a,0x10,0x40,0x70,0x61,0x72,0x61,0x6d,0x65,0x74,0x65,0x72,0x73,0x5b,0x00,0x6f,0x3b,0x0a,0x07,0x3b,0x0b,0x69,0x00,0x3b,0x0c,0x5b,0x00))
   EndEventProcessing()
   0()
  EndIf()
  250(bytes(0x04,0x08,0x6f,0x3a,0x0c,0x52,0x50,0x47,0x3a,0x3a,0x53,0x45,0x08,0x3a,0x0a,0x40,0x6e,0x61,0x6d,0x65,0x49,0x22,0x09,0x4d,0x6f,0x76,0x65,0x06,0x3a,0x06,0x45,0x54,0x3a,0x0b,0x40,0x70,0x69,0x74,0x63,0x68,0x69,0x69,0x3a,0x0c,0x40,0x76,0x6f,0x6c,0x75,0x6d,0x65,0x69,0x55))
  TeleportPlayer(0,920,231,57,2,0)
  0()



EVENT   17
 PAGE   1
  If(1,1204,0,3,0)
   ShowMessageFace("daimeikai_fc1",0,0,2,1)
   ShowMessage("\\n<Daimyokai>")
   ShowMessage("おいおい、どこに行くんだ？")
   ShowMessage("情報がないから、行き先も決まっちゃいないぜ。")
   ShowMessageFace("rovissa_fc1",0,0,2,2)
   ShowMessage("\\n<Rovissa>")
   ShowMessage("そう言えば、宿屋の前に兵士がいなかった？")
   ShowMessage("この村の人じゃないと思うけど、気になるわね……")
   205(-1,bytes(0x04,0x08,0x6f,0x3a,0x13,0x52,0x50,0x47,0x3a,0x3a,0x4d,0x6f,0x76,0x65,0x52,0x6f,0x75,0x74,0x65,0x09,0x3a,0x0c,0x40,0x72,0x65,0x70,0x65,0x61,0x74,0x46,0x3a,0x0f,0x40,0x73,0x6b,0x69,0x70,0x70,0x61,0x62,0x6c,0x65,0x46,0x3a,0x0a,0x40,0x77,0x61,0x69,0x74,0x54,0x3a,0x0a,0x40,0x6c,0x69,0x73,0x74,0x5b,0x07,0x6f,0x3a,0x15,0x52,0x50,0x47,0x3a,0x3a,0x4d,0x6f,0x76,0x65,0x43,0x6f,0x6d,0x6d,0x61,0x6e,0x64,0x07,0x3a,0x0a,0x40,0x63,0x6f,0x64,0x65,0x69,0x08,0x3a,0x10,0x40,0x70,0x61,0x72,0x61,0x6d,0x65,0x74,0x65,0x72,0x73,0x5b,0x00,0x6f,0x3b,0x0a,0x07,0x3b,0x0b,0x69,0x00,0x3b,0x0c,0x5b,0x00))
   EndEventProcessing()
   0()
  EndIf()
  250(bytes(0x04,0x08,0x6f,0x3a,0x0c,0x52,0x50,0x47,0x3a,0x3a,0x53,0x45,0x08,0x3a,0x0a,0x40,0x6e,0x61,0x6d,0x65,0x49,0x22,0x09,0x4d,0x6f,0x76,0x65,0x06,0x3a,0x06,0x45,0x54,0x3a,0x0b,0x40,0x70,0x69,0x74,0x63,0x68,0x69,0x69,0x3a,0x0c,0x40,0x76,0x6f,0x6c,0x75,0x6d,0x65,0x69,0x55))
  TeleportPlayer(0,920,231,57,2,0)
  0()



EVENT   18
 PAGE   1
  If(1,1204,0,3,0)
   ShowMessageFace("daimeikai_fc1",0,0,2,1)
   ShowMessage("\\n<Daimyokai>")
   ShowMessage("おいおい、どこに行くんだ？")
   ShowMessage("情報がないから、行き先も決まっちゃいないぜ。")
   ShowMessageFace("rovissa_fc1",0,0,2,2)
   ShowMessage("\\n<Rovissa>")
   ShowMessage("そう言えば、宿屋の前に兵士がいなかった？")
   ShowMessage("この村の人じゃないと思うけど、気になるわね……")
   205(-1,bytes(0x04,0x08,0x6f,0x3a,0x13,0x52,0x50,0x47,0x3a,0x3a,0x4d,0x6f,0x76,0x65,0x52,0x6f,0x75,0x74,0x65,0x09,0x3a,0x0c,0x40,0x72,0x65,0x70,0x65,0x61,0x74,0x46,0x3a,0x0f,0x40,0x73,0x6b,0x69,0x70,0x70,0x61,0x62,0x6c,0x65,0x46,0x3a,0x0a,0x40,0x77,0x61,0x69,0x74,0x54,0x3a,0x0a,0x40,0x6c,0x69,0x73,0x74,0x5b,0x07,0x6f,0x3a,0x15,0x52,0x50,0x47,0x3a,0x3a,0x4d,0x6f,0x76,0x65,0x43,0x6f,0x6d,0x6d,0x61,0x6e,0x64,0x07,0x3a,0x0a,0x40,0x63,0x6f,0x64,0x65,0x69,0x08,0x3a,0x10,0x40,0x70,0x61,0x72,0x61,0x6d,0x65,0x74,0x65,0x72,0x73,0x5b,0x00,0x6f,0x3b,0x0a,0x07,0x3b,0x0b,0x69,0x00,0x3b,0x0c,0x5b,0x00))
   EndEventProcessing()
   0()
  EndIf()
  250(bytes(0x04,0x08,0x6f,0x3a,0x0c,0x52,0x50,0x47,0x3a,0x3a,0x53,0x45,0x08,0x3a,0x0a,0x40,0x6e,0x61,0x6d,0x65,0x49,0x22,0x09,0x4d,0x6f,0x76,0x65,0x06,0x3a,0x06,0x45,0x54,0x3a,0x0b,0x40,0x70,0x69,0x74,0x63,0x68,0x69,0x69,0x3a,0x0c,0x40,0x76,0x6f,0x6c,0x75,0x6d,0x65,0x69,0x55))
  TeleportPlayer(0,920,231,57,2,0)
  0()



EVENT   19
 PAGE   1
  If(1,1204,0,3,0)
   ShowMessageFace("daimeikai_fc1",0,0,2,1)
   ShowMessage("\\n<Daimyokai>")
   ShowMessage("おいおい、どこに行くんだ？")
   ShowMessage("情報がないから、行き先も決まっちゃいないぜ。")
   ShowMessageFace("rovissa_fc1",0,0,2,2)
   ShowMessage("\\n<Rovissa>")
   ShowMessage("そう言えば、宿屋の前に兵士がいなかった？")
   ShowMessage("この村の人じゃないと思うけど、気になるわね……")
   205(-1,bytes(0x04,0x08,0x6f,0x3a,0x13,0x52,0x50,0x47,0x3a,0x3a,0x4d,0x6f,0x76,0x65,0x52,0x6f,0x75,0x74,0x65,0x09,0x3a,0x0c,0x40,0x72,0x65,0x70,0x65,0x61,0x74,0x46,0x3a,0x0f,0x40,0x73,0x6b,0x69,0x70,0x70,0x61,0x62,0x6c,0x65,0x46,0x3a,0x0a,0x40,0x77,0x61,0x69,0x74,0x54,0x3a,0x0a,0x40,0x6c,0x69,0x73,0x74,0x5b,0x07,0x6f,0x3a,0x15,0x52,0x50,0x47,0x3a,0x3a,0x4d,0x6f,0x76,0x65,0x43,0x6f,0x6d,0x6d,0x61,0x6e,0x64,0x07,0x3a,0x0a,0x40,0x63,0x6f,0x64,0x65,0x69,0x08,0x3a,0x10,0x40,0x70,0x61,0x72,0x61,0x6d,0x65,0x74,0x65,0x72,0x73,0x5b,0x00,0x6f,0x3b,0x0a,0x07,0x3b,0x0b,0x69,0x00,0x3b,0x0c,0x5b,0x00))
   EndEventProcessing()
   0()
  EndIf()
  250(bytes(0x04,0x08,0x6f,0x3a,0x0c,0x52,0x50,0x47,0x3a,0x3a,0x53,0x45,0x08,0x3a,0x0a,0x40,0x6e,0x61,0x6d,0x65,0x49,0x22,0x09,0x4d,0x6f,0x76,0x65,0x06,0x3a,0x06,0x45,0x54,0x3a,0x0b,0x40,0x70,0x69,0x74,0x63,0x68,0x69,0x69,0x3a,0x0c,0x40,0x76,0x6f,0x6c,0x75,0x6d,0x65,0x69,0x55))
  TeleportPlayer(0,920,231,57,2,0)
  0()



EVENT   20
 PAGE   1
  If(1,1204,0,3,0)
   ShowMessageFace("daimeikai_fc1",0,0,2,1)
   ShowMessage("\\n<Daimyokai>")
   ShowMessage("おいおい、どこに行くんだ？")
   ShowMessage("情報がないから、行き先も決まっちゃいないぜ。")
   ShowMessageFace("rovissa_fc1",0,0,2,2)
   ShowMessage("\\n<Rovissa>")
   ShowMessage("そう言えば、宿屋の前に兵士がいなかった？")
   ShowMessage("この村の人じゃないと思うけど、気になるわね……")
   205(-1,bytes(0x04,0x08,0x6f,0x3a,0x13,0x52,0x50,0x47,0x3a,0x3a,0x4d,0x6f,0x76,0x65,0x52,0x6f,0x75,0x74,0x65,0x09,0x3a,0x0c,0x40,0x72,0x65,0x70,0x65,0x61,0x74,0x46,0x3a,0x0f,0x40,0x73,0x6b,0x69,0x70,0x70,0x61,0x62,0x6c,0x65,0x46,0x3a,0x0a,0x40,0x77,0x61,0x69,0x74,0x54,0x3a,0x0a,0x40,0x6c,0x69,0x73,0x74,0x5b,0x07,0x6f,0x3a,0x15,0x52,0x50,0x47,0x3a,0x3a,0x4d,0x6f,0x76,0x65,0x43,0x6f,0x6d,0x6d,0x61,0x6e,0x64,0x07,0x3a,0x0a,0x40,0x63,0x6f,0x64,0x65,0x69,0x08,0x3a,0x10,0x40,0x70,0x61,0x72,0x61,0x6d,0x65,0x74,0x65,0x72,0x73,0x5b,0x00,0x6f,0x3b,0x0a,0x07,0x3b,0x0b,0x69,0x00,0x3b,0x0c,0x5b,0x00))
   EndEventProcessing()
   0()
  EndIf()
  250(bytes(0x04,0x08,0x6f,0x3a,0x0c,0x52,0x50,0x47,0x3a,0x3a,0x53,0x45,0x08,0x3a,0x0a,0x40,0x6e,0x61,0x6d,0x65,0x49,0x22,0x09,0x4d,0x6f,0x76,0x65,0x06,0x3a,0x06,0x45,0x54,0x3a,0x0b,0x40,0x70,0x69,0x74,0x63,0x68,0x69,0x69,0x3a,0x0c,0x40,0x76,0x6f,0x6c,0x75,0x6d,0x65,0x69,0x55))
  TeleportPlayer(0,920,231,57,2,0)
  0()



EVENT   21
 PAGE   1
  If(1,1204,0,3,0)
   ShowMessageFace("daimeikai_fc1",0,0,2,1)
   ShowMessage("\\n<Daimyokai>")
   ShowMessage("おいおい、どこに行くんだ？")
   ShowMessage("情報がないから、行き先も決まっちゃいないぜ。")
   ShowMessageFace("rovissa_fc1",0,0,2,2)
   ShowMessage("\\n<Rovissa>")
   ShowMessage("そう言えば、宿屋の前に兵士がいなかった？")
   ShowMessage("この村の人じゃないと思うけど、気になるわね……")
   205(-1,bytes(0x04,0x08,0x6f,0x3a,0x13,0x52,0x50,0x47,0x3a,0x3a,0x4d,0x6f,0x76,0x65,0x52,0x6f,0x75,0x74,0x65,0x09,0x3a,0x0c,0x40,0x72,0x65,0x70,0x65,0x61,0x74,0x46,0x3a,0x0f,0x40,0x73,0x6b,0x69,0x70,0x70,0x61,0x62,0x6c,0x65,0x46,0x3a,0x0a,0x40,0x77,0x61,0x69,0x74,0x54,0x3a,0x0a,0x40,0x6c,0x69,0x73,0x74,0x5b,0x07,0x6f,0x3a,0x15,0x52,0x50,0x47,0x3a,0x3a,0x4d,0x6f,0x76,0x65,0x43,0x6f,0x6d,0x6d,0x61,0x6e,0x64,0x07,0x3a,0x0a,0x40,0x63,0x6f,0x64,0x65,0x69,0x08,0x3a,0x10,0x40,0x70,0x61,0x72,0x61,0x6d,0x65,0x74,0x65,0x72,0x73,0x5b,0x00,0x6f,0x3b,0x0a,0x07,0x3b,0x0b,0x69,0x00,0x3b,0x0c,0x5b,0x00))
   EndEventProcessing()
   0()
  EndIf()
  250(bytes(0x04,0x08,0x6f,0x3a,0x0c,0x52,0x50,0x47,0x3a,0x3a,0x53,0x45,0x08,0x3a,0x0a,0x40,0x6e,0x61,0x6d,0x65,0x49,0x22,0x09,0x4d,0x6f,0x76,0x65,0x06,0x3a,0x06,0x45,0x54,0x3a,0x0b,0x40,0x70,0x69,0x74,0x63,0x68,0x69,0x69,0x3a,0x0c,0x40,0x76,0x6f,0x6c,0x75,0x6d,0x65,0x69,0x55))
  TeleportPlayer(0,920,231,57,2,0)
  0()



EVENT   24
 PAGE   1
  ShowMessageFace("",0,0,2,1)
  ShowMessage("\\n<男>")
  ShowMessage("はぅ……ふぁぁ……")
  If(2,"A",1)
   ChangeSelfSwitch("A",0)
   RunCommonEvent(531)
   0()
  EndIf()
  0()



EVENT   25
 PAGE   1
  ShowMessageFace("",0,0,2,1)
  ShowMessage("\\n<男>")
  ShowMessage("ふぁぁ……きもちいい……")
  If(2,"A",1)
   ChangeSelfSwitch("A",0)
   RunCommonEvent(531)
   0()
  EndIf()
  0()



EVENT   26
 PAGE   1
  ShowMessageFace("",0,0,2,1)
  ShowMessage("\\n<老人>")
  ShowMessage("ほぅぅ……おぉぉ……")
  If(2,"A",1)
   ChangeSelfSwitch("A",0)
   RunCommonEvent(531)
   0()
  EndIf()
  0()



EVENT   27
 PAGE   1
  ShowMessageFace("",0,0,2,1)
  ShowMessage("\\n<子供>")
  ShowMessage("ひゃぅぅぅん……")
  ShowMessageFace("rovissa_fc1",0,0,2,2)
  ShowMessage("\\n<Rovissa>")
  ShowMessage("子供まで……ひどいわね。")
  0()



EVENT   28
 PAGE   1
  ShowMessageFace("",0,0,2,1)
  ShowMessage("\\n<旅商人>")
  ShowMessage("私は、今ここに着いたばかりですが……")
  ShowMessage("ひぇぇ、これは商売どころじゃないですね。")
  0()



EVENT   29
 PAGE   1
  ShowMessageFace("",0,0,2,1)
  ShowMessage("\\n<上級司祭>")
  ShowMessage("あなた方が、あの恐ろしい妖魔を撃退した勇者ご一行ですね。")
  ShowMessage("私がお力になりましょう。")
  250(bytes(0x04,0x08,0x6f,0x3a,0x0c,0x52,0x50,0x47,0x3a,0x3a,0x53,0x45,0x08,0x3a,0x0a,0x40,0x6e,0x61,0x6d,0x65,0x49,0x22,0x0a,0x48,0x65,0x61,0x6c,0x37,0x06,0x3a,0x06,0x45,0x54,0x3a,0x0b,0x40,0x70,0x69,0x74,0x63,0x68,0x69,0x69,0x3a,0x0c,0x40,0x76,0x6f,0x6c,0x75,0x6d,0x65,0x69,0x55))
  224(bytes(0x04,0x08,0x75,0x3a,0x0a,0x43,0x6f,0x6c,0x6f,0x72,0x25,0x00,0x00,0x00,0x00,0x00,0xe0,0x6f,0x40,0x00,0x00,0x00,0x00,0x00,0xe0,0x6f,0x40,0x00,0x00,0x00,0x00,0x00,0xe0,0x6f,0x40,0x00,0x00,0x00,0x00,0x00,0xe0,0x6f,0x40),30,true)
  314(0,0)
  ShowMessageFace("",0,0,2,2)
  ShowMessage("全員のHPとMPが全快した！")
  ShowMessageFace("",0,0,2,3)
  ShowMessage("\\n<上級司祭>")
  ShowMessage("ここで転職されますか……？")
  ShowChoices(strings("転職する","転職しない"),2)
  IfPlayerPicksChoice(0,null)
   355("SceneManager.call(Scene_JobChange)")
   Wait(1)
   314(0,0)
   EndEventProcessing()
   0()
  IfPlayerPicksChoice(1,null)
   EndEventProcessing()
   0()
  404()
  0()



EVENT   30
 PAGE   1
  250(bytes(0x04,0x08,0x6f,0x3a,0x0c,0x52,0x50,0x47,0x3a,0x3a,0x53,0x45,0x08,0x3a,0x0a,0x40,0x6e,0x61,0x6d,0x65,0x49,0x22,0x0a,0x49,0x74,0x65,0x6d,0x31,0x06,0x3a,0x06,0x45,0x54,0x3a,0x0b,0x40,0x70,0x69,0x74,0x63,0x68,0x69,0x69,0x3a,0x0c,0x40,0x76,0x6f,0x6c,0x75,0x6d,0x65,0x69,0x55))
  ChangeSelfSwitch("A",0)
  ChangeInventory_Item(3,0,0,1)
  0()
 PAGE   2
  // condition: self-switch A is ON
  0()



EVENT   31
 PAGE   1
  250(bytes(0x04,0x08,0x6f,0x3a,0x0c,0x52,0x50,0x47,0x3a,0x3a,0x53,0x45,0x08,0x3a,0x0a,0x40,0x6e,0x61,0x6d,0x65,0x49,0x22,0x0a,0x49,0x74,0x65,0x6d,0x31,0x06,0x3a,0x06,0x45,0x54,0x3a,0x0b,0x40,0x70,0x69,0x74,0x63,0x68,0x69,0x69,0x3a,0x0c,0x40,0x76,0x6f,0x6c,0x75,0x6d,0x65,0x69,0x55))
  ChangeSelfSwitch("A",0)
  ChangeInventory_Item(5,0,0,1)
  0()
 PAGE   2
  // condition: self-switch A is ON
  0()



EVENT   32
 PAGE   1
  ShowMessageFace("nekomata_fc1",2,0,2,1)
  ShowMessage("\\n<ねこまた>")
  ShowMessage("にゃ～")
  ShowMessageFace("rovissa_fc1",0,0,2,2)
  ShowMessage("\\n<Rovissa>")
  ShowMessage("わっ、かわいい子がいる……♪")
  ShowMessage("キミは大丈夫だった？　良かったね……♪")
  ShowMessageFace("nekomata_fc1",2,0,2,3)
  ShowMessage("\\n<ねこまた>")
  ShowMessage("うにゃ～♪")
  ShowMessageFace("",0,0,2,4)
  ShowMessage("ねこまたはルヴィッサにあごを撫でてもらい、ゴロゴロ言っている……")
  0()



EVENT   33
 PAGE   1
  ShowMessageFace("",0,0,2,1)
  ShowMessage("\\n<夢魔>")
  ShowMessage("あぁぁ……")
  0()



EVENT   34
 PAGE   1
  ShowMessageFace("",0,0,2,1)
  ShowMessage("\\n<夢魔>")
  ShowMessage("体が……動かないわ……")
  0()



EVENT   35
 PAGE   1
  ShowMessageFace("",0,0,2,1)
  ShowMessage("\\n<夢魔>")
  ShowMessage("う……うぅぅ……")
  0()



EVENT   36
 PAGE   1
  ShowMessageFace("",0,0,2,1)
  ShowMessage("\\n<男>")
  ShowMessage("あぁぁ……幸せだぁ……")
  If(2,"A",1)
   ChangeSelfSwitch("A",0)
   RunCommonEvent(531)
   0()
  EndIf()
  0()



EVENT   37
 PAGE   1
  ShowMessageFace("",0,0,2,1)
  ShowMessage("\\n<男>")
  ShowMessage("もっと……ずっとこうしていたい……")
  If(2,"A",1)
   ChangeSelfSwitch("A",0)
   RunCommonEvent(531)
   0()
  EndIf()
  0()



EVENT   38
 PAGE   1
  ShowMessageFace("",0,0,2,1)
  ShowMessage("\\n<村人>")
  ShowMessage("ここは極楽だぁ……はぅぅぅ……")
  If(2,"A",1)
   ChangeSelfSwitch("A",0)
   RunCommonEvent(531)
   0()
  EndIf()
  0()



EVENT   39
 PAGE   1
  ShowMessageFace("",0,0,2,1)
  ShowMessage("\\n<村人>")
  ShowMessage("あぅ……うぅぅ……")
  If(2,"A",1)
   ChangeSelfSwitch("A",0)
   RunCommonEvent(531)
   0()
  EndIf()
  0()



EVENT   40
 PAGE   1
  ShowMessageFace("",0,0,2,1)
  ShowMessage("\\n<衛兵>")
  ShowMessage("ぉ……ぁ……")
  If(2,"A",1)
   ChangeSelfSwitch("A",0)
   RunCommonEvent(531)
   0()
  EndIf()
  0()



EVENT   41
 PAGE   1
  ShowMessageFace("",0,0,2,1)
  ShowMessage("\\n<商人>")
  ShowMessage("そんな、二人でなんて……はぅぅ……")
  If(2,"A",1)
   ChangeSelfSwitch("A",0)
   RunCommonEvent(531)
   0()
  EndIf()
  0()



EVENT   42
 PAGE   1
  ShowMessageFace("",0,0,2,1)
  ShowMessage("\\n<村人>")
  ShowMessage("き、きもちいい……")
  If(2,"A",1)
   ChangeSelfSwitch("A",0)
   RunCommonEvent(531)
   0()
  EndIf()
  0()



EVENT   43
 PAGE   1
  ShowMessageFace("",0,0,2,1)
  ShowMessage("\\n<村人>")
  ShowMessage("うぁ……あぁぁぁぁ……")
  If(2,"A",1)
   ChangeSelfSwitch("A",0)
   RunCommonEvent(531)
   0()
  EndIf()
  0()
