﻿
DisplayName "Gold Fort 2F"



EVENT   1
 PAGE   1
  250(bytes(0x04,0x08,0x6f,0x3a,0x0c,0x52,0x50,0x47,0x3a,0x3a,0x53,0x45,0x08,0x3a,0x0a,0x40,0x6e,0x61,0x6d,0x65,0x49,0x22,0x09,0x4d,0x6f,0x76,0x65,0x06,0x3a,0x06,0x45,0x54,0x3a,0x0b,0x40,0x70,0x69,0x74,0x63,0x68,0x69,0x69,0x3a,0x0c,0x40,0x76,0x6f,0x6c,0x75,0x6d,0x65,0x69,0x55))
  TeleportPlayer(0,291,20,19,0,0)
  0()



EVENT   2
 PAGE   1
  250(bytes(0x04,0x08,0x6f,0x3a,0x0c,0x52,0x50,0x47,0x3a,0x3a,0x53,0x45,0x08,0x3a,0x0a,0x40,0x6e,0x61,0x6d,0x65,0x49,0x22,0x09,0x4d,0x6f,0x76,0x65,0x06,0x3a,0x06,0x45,0x54,0x3a,0x0b,0x40,0x70,0x69,0x74,0x63,0x68,0x69,0x69,0x3a,0x0c,0x40,0x76,0x6f,0x6c,0x75,0x6d,0x65,0x69,0x55))
  TeleportPlayer(0,291,21,19,0,0)
  0()



EVENT   3
 PAGE   1
  250(bytes(0x04,0x08,0x6f,0x3a,0x0c,0x52,0x50,0x47,0x3a,0x3a,0x53,0x45,0x08,0x3a,0x0a,0x40,0x6e,0x61,0x6d,0x65,0x49,0x22,0x09,0x4d,0x6f,0x76,0x65,0x06,0x3a,0x06,0x45,0x54,0x3a,0x0b,0x40,0x70,0x69,0x74,0x63,0x68,0x69,0x69,0x3a,0x0c,0x40,0x76,0x6f,0x6c,0x75,0x6d,0x65,0x69,0x55))
  TeleportPlayer(0,291,33,19,0,0)
  0()



EVENT   4
 PAGE   1
  250(bytes(0x04,0x08,0x6f,0x3a,0x0c,0x52,0x50,0x47,0x3a,0x3a,0x53,0x45,0x08,0x3a,0x0a,0x40,0x6e,0x61,0x6d,0x65,0x49,0x22,0x09,0x4d,0x6f,0x76,0x65,0x06,0x3a,0x06,0x45,0x54,0x3a,0x0b,0x40,0x70,0x69,0x74,0x63,0x68,0x69,0x69,0x3a,0x0c,0x40,0x76,0x6f,0x6c,0x75,0x6d,0x65,0x69,0x55))
  TeleportPlayer(0,291,34,19,0,0)
  0()



EVENT   5
 PAGE   1
  250(bytes(0x04,0x08,0x6f,0x3a,0x0c,0x52,0x50,0x47,0x3a,0x3a,0x53,0x45,0x08,0x3a,0x0a,0x40,0x6e,0x61,0x6d,0x65,0x49,0x22,0x09,0x4d,0x6f,0x76,0x65,0x06,0x3a,0x06,0x45,0x54,0x3a,0x0b,0x40,0x70,0x69,0x74,0x63,0x68,0x69,0x69,0x3a,0x0c,0x40,0x76,0x6f,0x6c,0x75,0x6d,0x65,0x69,0x55))
  TeleportPlayer(0,291,13,42,0,0)
  0()



EVENT   6
 PAGE   1
  250(bytes(0x04,0x08,0x6f,0x3a,0x0c,0x52,0x50,0x47,0x3a,0x3a,0x53,0x45,0x08,0x3a,0x0a,0x40,0x6e,0x61,0x6d,0x65,0x49,0x22,0x09,0x4d,0x6f,0x76,0x65,0x06,0x3a,0x06,0x45,0x54,0x3a,0x0b,0x40,0x70,0x69,0x74,0x63,0x68,0x69,0x69,0x3a,0x0c,0x40,0x76,0x6f,0x6c,0x75,0x6d,0x65,0x69,0x55))
  TeleportPlayer(0,291,14,42,0,0)
  0()



EVENT   7
 PAGE   1
  250(bytes(0x04,0x08,0x6f,0x3a,0x0c,0x52,0x50,0x47,0x3a,0x3a,0x53,0x45,0x08,0x3a,0x0a,0x40,0x6e,0x61,0x6d,0x65,0x49,0x22,0x09,0x4d,0x6f,0x76,0x65,0x06,0x3a,0x06,0x45,0x54,0x3a,0x0b,0x40,0x70,0x69,0x74,0x63,0x68,0x69,0x69,0x3a,0x0c,0x40,0x76,0x6f,0x6c,0x75,0x6d,0x65,0x69,0x55))
  TeleportPlayer(0,291,12,42,0,0)
  0()



EVENT   8
 PAGE   1
  250(bytes(0x04,0x08,0x6f,0x3a,0x0c,0x52,0x50,0x47,0x3a,0x3a,0x53,0x45,0x08,0x3a,0x0a,0x40,0x6e,0x61,0x6d,0x65,0x49,0x22,0x09,0x4d,0x6f,0x76,0x65,0x06,0x3a,0x06,0x45,0x54,0x3a,0x0b,0x40,0x70,0x69,0x74,0x63,0x68,0x69,0x69,0x3a,0x0c,0x40,0x76,0x6f,0x6c,0x75,0x6d,0x65,0x69,0x55))
  TeleportPlayer(0,291,40,42,0,0)
  0()



EVENT   9
 PAGE   1
  250(bytes(0x04,0x08,0x6f,0x3a,0x0c,0x52,0x50,0x47,0x3a,0x3a,0x53,0x45,0x08,0x3a,0x0a,0x40,0x6e,0x61,0x6d,0x65,0x49,0x22,0x09,0x4d,0x6f,0x76,0x65,0x06,0x3a,0x06,0x45,0x54,0x3a,0x0b,0x40,0x70,0x69,0x74,0x63,0x68,0x69,0x69,0x3a,0x0c,0x40,0x76,0x6f,0x6c,0x75,0x6d,0x65,0x69,0x55))
  TeleportPlayer(0,291,41,42,0,0)
  0()



EVENT   10
 PAGE   1
  250(bytes(0x04,0x08,0x6f,0x3a,0x0c,0x52,0x50,0x47,0x3a,0x3a,0x53,0x45,0x08,0x3a,0x0a,0x40,0x6e,0x61,0x6d,0x65,0x49,0x22,0x09,0x4d,0x6f,0x76,0x65,0x06,0x3a,0x06,0x45,0x54,0x3a,0x0b,0x40,0x70,0x69,0x74,0x63,0x68,0x69,0x69,0x3a,0x0c,0x40,0x76,0x6f,0x6c,0x75,0x6d,0x65,0x69,0x55))
  TeleportPlayer(0,291,42,42,0,0)
  0()



EVENT   11
 PAGE   1
  250(bytes(0x04,0x08,0x6f,0x3a,0x0c,0x52,0x50,0x47,0x3a,0x3a,0x53,0x45,0x08,0x3a,0x0a,0x40,0x6e,0x61,0x6d,0x65,0x49,0x22,0x0a,0x43,0x68,0x65,0x73,0x74,0x06,0x3a,0x06,0x45,0x54,0x3a,0x0b,0x40,0x70,0x69,0x74,0x63,0x68,0x69,0x69,0x3a,0x0c,0x40,0x76,0x6f,0x6c,0x75,0x6d,0x65,0x69,0x55))
  205(0,bytes(0x04,0x08,0x6f,0x3a,0x13,0x52,0x50,0x47,0x3a,0x3a,0x4d,0x6f,0x76,0x65,0x52,0x6f,0x75,0x74,0x65,0x09,0x3a,0x0c,0x40,0x72,0x65,0x70,0x65,0x61,0x74,0x46,0x3a,0x0f,0x40,0x73,0x6b,0x69,0x70,0x70,0x61,0x62,0x6c,0x65,0x46,0x3a,0x0a,0x40,0x77,0x61,0x69,0x74,0x54,0x3a,0x0a,0x40,0x6c,0x69,0x73,0x74,0x5b,0x0b,0x6f,0x3a,0x15,0x52,0x50,0x47,0x3a,0x3a,0x4d,0x6f,0x76,0x65,0x43,0x6f,0x6d,0x6d,0x61,0x6e,0x64,0x07,0x3a,0x0a,0x40,0x63,0x6f,0x64,0x65,0x69,0x29,0x3a,0x10,0x40,0x70,0x61,0x72,0x61,0x6d,0x65,0x74,0x65,0x72,0x73,0x5b,0x00,0x6f,0x3b,0x0a,0x07,0x3b,0x0b,0x69,0x16,0x3b,0x0c,0x5b,0x00,0x6f,0x3b,0x0a,0x07,0x3b,0x0b,0x69,0x14,0x3b,0x0c,0x5b,0x06,0x69,0x08,0x6f,0x3b,0x0a,0x07,0x3b,0x0b,0x69,0x17,0x3b,0x0c,0x5b,0x00,0x6f,0x3b,0x0a,0x07,0x3b,0x0b,0x69,0x14,0x3b,0x0c,0x5b,0x06,0x69,0x08,0x6f,0x3b,0x0a,0x07,0x3b,0x0b,0x69,0x00,0x3b,0x0c,0x5b,0x00))
  ChangeSelfSwitch("A",0)
  ChangeInventory_Item(52,0,0,1)
  0()
 PAGE   2
  // condition: self-switch A is ON
  0()



EVENT   12
 PAGE   1
  250(bytes(0x04,0x08,0x6f,0x3a,0x0c,0x52,0x50,0x47,0x3a,0x3a,0x53,0x45,0x08,0x3a,0x0a,0x40,0x6e,0x61,0x6d,0x65,0x49,0x22,0x0a,0x43,0x68,0x65,0x73,0x74,0x06,0x3a,0x06,0x45,0x54,0x3a,0x0b,0x40,0x70,0x69,0x74,0x63,0x68,0x69,0x69,0x3a,0x0c,0x40,0x76,0x6f,0x6c,0x75,0x6d,0x65,0x69,0x55))
  205(0,bytes(0x04,0x08,0x6f,0x3a,0x13,0x52,0x50,0x47,0x3a,0x3a,0x4d,0x6f,0x76,0x65,0x52,0x6f,0x75,0x74,0x65,0x09,0x3a,0x0c,0x40,0x72,0x65,0x70,0x65,0x61,0x74,0x46,0x3a,0x0f,0x40,0x73,0x6b,0x69,0x70,0x70,0x61,0x62,0x6c,0x65,0x46,0x3a,0x0a,0x40,0x77,0x61,0x69,0x74,0x54,0x3a,0x0a,0x40,0x6c,0x69,0x73,0x74,0x5b,0x0b,0x6f,0x3a,0x15,0x52,0x50,0x47,0x3a,0x3a,0x4d,0x6f,0x76,0x65,0x43,0x6f,0x6d,0x6d,0x61,0x6e,0x64,0x07,0x3a,0x0a,0x40,0x63,0x6f,0x64,0x65,0x69,0x29,0x3a,0x10,0x40,0x70,0x61,0x72,0x61,0x6d,0x65,0x74,0x65,0x72,0x73,0x5b,0x00,0x6f,0x3b,0x0a,0x07,0x3b,0x0b,0x69,0x16,0x3b,0x0c,0x5b,0x00,0x6f,0x3b,0x0a,0x07,0x3b,0x0b,0x69,0x14,0x3b,0x0c,0x5b,0x06,0x69,0x08,0x6f,0x3b,0x0a,0x07,0x3b,0x0b,0x69,0x17,0x3b,0x0c,0x5b,0x00,0x6f,0x3b,0x0a,0x07,0x3b,0x0b,0x69,0x14,0x3b,0x0c,0x5b,0x06,0x69,0x08,0x6f,0x3b,0x0a,0x07,0x3b,0x0b,0x69,0x00,0x3b,0x0c,0x5b,0x00))
  ChangeSelfSwitch("A",0)
  ChangeInventory_Item(32,0,0,1)
  0()
 PAGE   2
  // condition: self-switch A is ON
  0()



EVENT   17
 PAGE   1
  ShowMessageFace("",0,0,2,1)
  ShowMessage("\\n<Soldier>I had a wet dream...\nI can't tell dreams from reality anymore...")
  0()
 PAGE   2
  // condition: variable 1063 >= 13
  0()



EVENT   18
 PAGE   1
  ShowMessageFace("",0,0,2,1)
  ShowMessage("\\n<Soldier>I can die in peace now...")
  0()
 PAGE   2
  // condition: variable 1063 >= 13
  0()



EVENT   19
 PAGE   1
  ShowMessageFace("",0,0,2,1)
  ShowMessage("\\n<Soldier>I peed myself...")
  0()
 PAGE   2
  // condition: variable 1063 >= 13
  0()



EVENT   20
 PAGE   1
  ShowMessageFace("",0,0,2,1)
  ShowMessage("\\n<Soldier>Succubi are amazing...")
  0()
 PAGE   2
  // condition: variable 1063 >= 13
  0()



EVENT   21
 PAGE   1
  ShowMessageFace("",0,0,2,1)
  ShowMessage("\\n<Soldier>Hauuu...")
  0()
 PAGE   2
  // condition: variable 1063 >= 13
  0()



EVENT   22
 PAGE   1
  ShowMessageFace("",0,0,2,1)
  ShowMessage("\\n<Soldier>A world of dreams...")
  0()
 PAGE   2
  // condition: variable 1063 >= 13
  0()



EVENT   23
 PAGE   1
  ShowMessageFace("",0,0,2,1)
  ShowMessage("\\n<Soldier>You'd never believe what I've seen...")
  0()
 PAGE   2
  // condition: variable 1063 >= 13
  0()



EVENT   24
 PAGE   1
  ShowMessageFace("",0,0,2,1)
  ShowMessage("\\n<Mage>I thought I'd be fine since I'm a woman...")
  0()
 PAGE   2
  // condition: variable 1063 >= 13
  0()



EVENT   25
 PAGE   1
  ShowMessageFace("",0,0,2,1)
  ShowMessage("\\n<Soldier>Mama...")
  0()
 PAGE   2
  // condition: variable 1063 >= 13
  0()



EVENT   26
 PAGE   1
  ShowMessageFace("",0,0,2,1)
  ShowMessage("\\n<Soldier>Auuu...")
  0()
 PAGE   2
  // condition: variable 1063 >= 13
  0()



EVENT   27
 PAGE   1
  ShowMessageFace("",0,0,2,1)
  ShowMessage("\\n<Soldier>No moreeeeee!")
  0()
 PAGE   2
  // condition: variable 1063 >= 13
  0()



EVENT   28
 PAGE   1
  ShowMessageFace("",0,0,2,1)
  ShowMessage("\\n<Mage>Is this Heaven...?")
  0()
 PAGE   2
  // condition: variable 1063 >= 13
  0()



EVENT   29
 PAGE   1
  ShowMessageFace("",0,0,2,1)
  ShowMessage("\\n<Mage>If only you could understand...")
  0()
 PAGE   2
  // condition: variable 1063 >= 13
  0()



EVENT   30
 PAGE   1
  ShowMessageFace("",0,0,2,1)
  ShowMessage("\\n<Mage>Hauuu...")
  0()
 PAGE   2
  // condition: variable 1063 >= 13
  0()



EVENT   31
 PAGE   1
  ShowMessageFace("",0,0,2,1)
  ShowMessage("\\n<Mage>My body won't respond...")
  0()
 PAGE   2
  // condition: variable 1063 >= 13
  0()



EVENT   32
 PAGE   1
  ShowMessageFace("",0,0,2,1)
  ShowMessage("\\n<Knight>How embarrassing...")
  0()
 PAGE   2
  // condition: variable 1063 >= 13
  0()



EVENT   33
 PAGE   1
  ShowMessageFace("",0,0,2,1)
  ShowMessage("\\n<Mage>That was so good...")
  0()
 PAGE   2
  // condition: variable 1063 >= 13
  0()



EVENT   34
 PAGE   1
  ShowMessageFace("",0,0,2,1)
  ShowMessage("\\n<Knight>No way...")
  0()
 PAGE   2
  // condition: variable 1063 >= 13
  0()



EVENT   35
 PAGE   1
  ShowMessageFace("",0,0,2,1)
  ShowMessage("\\n<Knight>Unnnngh...")
  0()
 PAGE   2
  // condition: variable 1063 >= 13
  0()



EVENT   36
 PAGE   1
  ShowMessageFace("",0,0,2,1)
  ShowMessage("It's the General's logbook. Read it?")
  ShowChoices(strings("Read","Don't read"),2)
  IfPlayerPicksChoice(0,null)
   ShowMessageFace("",0,0,2,2)
   ShowMessage("April 1")
   ShowMessage("My queen, oh my queen... My queen, my queen, my queen...")
   ShowMessage("My queen, oh my queen... My queen, my queen, my queen...")
   ShowMessage("My queen, oh my queen... My queen, my queen, my queen...")
   If(2,"A",1)
    If(0,6,0)
     ShowMessageFace("sonia_fc3",7,0,2,3)
     ShowMessage("\\n<Sonya>What the hell is this!?")
     0()
    Else()
     ShowMessageFace("ruka_fc1",0,0,2,4)
     ShowMessage("\\n<Luka>What in the world is this?")
     0()
    EndIf()
    0()
   EndIf()
   ShowMessageFace("",0,0,2,5)
   ShowMessage("April 8")
   ShowMessage("Aaah, my queen...\nMy queen... Aaah, my queen...")
   ShowMessageFace("",0,0,2,6)
   ShowMessage("April 15")
   ShowMessage("We are devoted to our beautiful queen.\nWe will gladly lay down our lives for our queen.\nI live only to serve my queen...")
   ShowMessageFace("",0,0,2,7)
   ShowMessage("April 22")
   ShowMessage("After three weeks of being stationed here, my reason is gradually returning. Nevertheless, my chest still burns in maddening devotion to my queen. It's not just me, either. Everyone here feels the same way.")
   ShowMessageFace("",0,0,2,8)
   ShowMessage("April 25")
   ShowMessage("As my mind clears, I'm now aware of how strange my thoughts were. I'm still devoted to my queen, but not maddeningly so. What happened to my mind to make me so obviously messed up?")
   ShowMessageFace("",0,0,2,9)
   ShowMessage("May 3")
   ShowMessage("The soldiers assigned here are regaining their sanity, but not as much as myself. It seems that the more recently a soldier was in Grangold, the more deranged they are.")
   ShowMessageFace("",0,0,2,10)
   ShowMessage("May 15")
   ShowMessage("I've figured it out. We were all brainwashed at Grangold Palace. The farther we get from the palace and the longer it's been, the weaker the spell becomes.")
   ShowMessageFace("",0,0,2,11)
   ShowMessage("Come to think of it, when did that woman become queen, and when did she begin ruling the country? The king, the king--")
   ShowMessageFace("",0,0,2,12)
   ShowMessage("The entries end here...")
   If(2,"A",1)
    ChangeSelfSwitch("A",0)
    If(0,4,0)
     ShowMessageFace("alice_fc5",3,0,2,13)
     ShowMessage("\\n<Alice>.........")
     0()
    EndIf()
    If(0,5,0)
     ShowMessageFace("iriasu_fc4",7,0,2,14)
     ShowMessage("\\n<Ilias>.........")
     0()
    EndIf()
    0()
   EndIf()
   0()
  IfPlayerPicksChoice(1,null)
   0()
  404()
  0()



EVENT   37
 PAGE   1
  ShowMessageFace("",0,0,2,1)
  ShowMessage("\\n<Soldier>That was the best...")
  0()
 PAGE   2
  // condition: variable 1063 >= 13
  0()



EVENT   38
 PAGE   1
  ShowMessageFace("",0,0,2,1)
  ShowMessage("He looks like he's breathed his last...")
  If(2,"A",1)
   ChangeSelfSwitch("A",0)
   If(1,1063,0,3,2)
    If(0,4,0)
     ShowMessageFace("alice_fc6",0,0,2,2)
     ShowMessage("\\n<Alice>Hey, Alma Elma! You promised!")
     0()
    EndIf()
    If(0,5,0)
     ShowMessageFace("iriasu_fc4",7,0,2,3)
     ShowMessage("\\n<Ilias>Alma Elma!!\nYou said you didn't kill anyone!")
     0()
    EndIf()
    ShowMessageFace("arumaeruma_fc2",2,0,2,4)
    ShowMessage("\\n<Alma Elma>I resent the accusation!\nThis guy was dead before we arrived.")
    If(0,6,0)
     ShowMessageFace("sonia_fc2",2,0,2,5)
     ShowMessage("\\n<Sonya>Yeah, it looks like he's been dead several days. He shows no signs of injury, so I can't determine the cause of death.")
     ShowMessageFace("ruka_fc1",0,0,2,6)
     ShowMessage("\\n<Luka>How do you know that, Sonya?")
     ShowMessageFace("sonia_fc4",0,0,2,7)
     ShowMessage("\\n<Sonya>Since you seem to keep forgetting... I am a temple priestess who studied the basics of medicine.")
     0()
    Else()
     ShowMessageFace("ruka_fc1",0,0,2,8)
     ShowMessage("\\n<Luka>It looks like he's been dead for several days. I don't see any injuries on him, though.")
     0()
    EndIf()
    If(0,4,0)
     ShowMessageFace("alice_fc6",0,0,2,9)
     ShowMessage("\\n<Alice>What could have killed the person in charge of the fort? And why is his body still lying here?")
     0()
    EndIf()
    If(0,5,0)
     ShowMessageFace("iriasu_fc4",2,0,2,10)
     ShowMessage("\\n<Ilias>What could have killed the person in charge of the fort? And why is his body still lying here?")
     0()
    EndIf()
    0()
   EndIf()
   0()
  EndIf()
  0()
 PAGE   2
  // condition: variable 1063 >= 13
  0()

EVENT   39
 PAGE   1
  ShowMessageFace("",0,0,2,1)
  ShowMessage("\\n<Mage>I came so many times...")
  0()
 PAGE   2
  // condition: variable 1063 >= 13
  0()



EVENT   40
 PAGE   1
  ShowMessageFace("",0,0,2,1)
  ShowMessage("\\n<Mage>So... humiliating...")
  0()
 PAGE   2
  // condition: variable 1063 >= 13
  0()


