﻿


EVENT   1
 PAGE   1
  0()
 PAGE   2
  // condition: switch 31 is ON
  0()



EVENT   2
 PAGE   1
  0()
 PAGE   2
  // condition: switch 31 is ON
  0()



EVENT   3
 PAGE   1
  0()
 PAGE   2
  // condition: switch 31 is ON
  0()



EVENT   4
 PAGE   1
  0()
 PAGE   2
  // condition: switch 34 is ON
  0()



EVENT   5
 PAGE   1
  0()
 PAGE   2
  // condition: switch 34 is ON
  0()



EVENT   6
 PAGE   1
  0()
 PAGE   2
  // condition: switch 34 is ON
  0()



EVENT   7
 PAGE   1
  0()



EVENT   9
 PAGE   1
  0()



EVENT   10
 PAGE   1
  0()



EVENT   13
 PAGE   1
  PictureDisplay(5,"80_soniachaos_st01",0,0,0,0,100,100,0,0)
  PictureMove(5,null,0,0,0,0,100,100,255,0,60,false)
  ShowMessageFace("soniachaos_fc1",0,0,2,1)
  ShowMessage("\\n<Sonya Chaos>■■■■■■■■■■■■■■■■■■■■■■■■■■■\n■■■■■■■■■■■■■■■■■■■■■■■■■■■\n■■■■■■■■■■■■■■■■■■■■■■■■■■■")
  ShowMessageFace("ruka_fc1",0,0,2,2)
  ShowMessage("\\n<Luka>Sonya... Y-you're...")
  ShowMessageFace("iriasu_fc4",7,0,2,3)
  ShowMessage("\\n<Ilias>Such power...!\nLuka, this is no time to lose focus!")
  ShowMessageFace("iriasu_fc4",7,0,2,4)
  ShowMessage("\\n<Ilias>With Sonya like this, we're the only ones who can stop her! At this rate, she'll destroy the entire world, you know?!")
  ShowMessageFace("ruka_fc1",0,0,2,5)
  ShowMessage("\\n<Luka>............")
  ShowMessageFace("ruka_fc1",0,0,2,6)
  ShowMessage("\\n<Luka>You're right...\nSonya would be the saddest of anyone if that happened...")
  ShowMessageFace("iriasu_fc4",7,0,2,7)
  ShowMessage("\\n<Ilias>We must prevent Sonya from destroying the world by any means! Let's go, Luka!")
  ShowMessageFace("ruka_fc1",0,0,2,8)
  ShowMessage("\\n<Luka>Agreed... Sonya, I won't let you do this!\nI'll save both you and the world!")
  ShowMessageFace("soniachaos_fc1",0,0,2,9)
  ShowMessage("\\n<Sonya Chaos>■■■■■■■■■■■■■■■■■■■■■■■■■■■\n■■■■■■■■■■■■■■■■■■■■■■■■■■■\n■■■■■■■■■■■■■■■■■■■■■■■■■■■")
  ShowMessageFace("",0,0,2,10)
  ShowMessage("If we don't stop Sonya here, this world is doomed.\nWe're the only ones who can prevent that--")
  ShowMessageFace("ruka_fc1",0,0,2,11)
  ShowMessage("\\n<Luka>Let's go, everyone!\nWe'll save Sonya and this world!")
  314(0,0)
  PictureClear(5)
  SetBattleBGM(bytes(0x04,0x08,0x6f,0x3a,0x0d,0x52,0x50,0x47,0x3a,0x3a,0x42,0x47,0x4d,0x08,0x3a,0x0a,0x40,0x6e,0x61,0x6d,0x65,0x49,0x22,0x10,0x62,0x6f,0x73,0x73,0x5f,0x73,0x6f,0x6e,0x69,0x61,0x33,0x06,0x3a,0x06,0x45,0x54,0x3a,0x0c,0x40,0x76,0x6f,0x6c,0x75,0x6d,0x65,0x69,0x69,0x3a,0x0b,0x40,0x70,0x69,0x74,0x63,0x68,0x69,0x69))
  ChangeSwitch(22,22,0)
  Battle(0,870,false,false)
  ChangeSwitch(22,22,1)
  SetBattleBGM(bytes(0x04,0x08,0x6f,0x3a,0x0d,0x52,0x50,0x47,0x3a,0x3a,0x42,0x47,0x4d,0x08,0x3a,0x0a,0x40,0x6e,0x61,0x6d,0x65,0x49,0x22,0x0b,0x62,0x61,0x74,0x74,0x6c,0x65,0x06,0x3a,0x06,0x45,0x54,0x3a,0x0c,0x40,0x76,0x6f,0x6c,0x75,0x6d,0x65,0x69,0x69,0x3a,0x0b,0x40,0x70,0x69,0x74,0x63,0x68,0x69,0x69))
  ChangeSwitch(32,32,0)
  PictureDisplay(5,"80_soniachaos_st04",0,0,0,0,100,100,0,0)
  PictureMove(5,null,0,0,0,0,100,100,255,0,60,true)
  ShowMessageFace("soniachaos_fc1",3,0,2,12)
  ShowMessage("\\n<Sonya Chaos>■■■■■■■■■■...")
  ShowMessageFace("iriasu_fc4",7,0,2,13)
  ShowMessage("\\n<Ilias>We've got her backed into a corner...but what about Adramelech?!")
  PictureClear(5)
  Wait(60)
  241(bytes(0x04,0x08,0x6f,0x3a,0x0d,0x52,0x50,0x47,0x3a,0x3a,0x42,0x47,0x4d,0x08,0x3a,0x0a,0x40,0x6e,0x61,0x6d,0x65,0x49,0x22,0x0e,0x62,0x6f,0x73,0x73,0x5f,0x65,0x64,0x65,0x6e,0x06,0x3a,0x06,0x45,0x54,0x3a,0x0c,0x40,0x76,0x6f,0x6c,0x75,0x6d,0x65,0x69,0x69,0x3a,0x0b,0x40,0x70,0x69,0x74,0x63,0x68,0x69,0x69))
  ShowMessageFace("eden_fc2",4,0,2,14)
  ShowMessage("\\n<Eden>Seiii!")
  212(7,208,true)
  ShowMessageFace("lilith2_fc1",0,0,2,15)
  ShowMessage("\\n<Lilith>Haaa!")
  212(7,1170,true)
  PictureDisplay(5,"80_adramelek_st27",0,0,0,0,100,100,0,0)
  PictureMove(5,null,0,0,0,0,100,100,255,0,60,true)
  ShowMessageFace("adramelek_fc2",0,0,2,16)
  ShowMessage("\\n<Adramelech>■■■■■■■■...")
  205(7,bytes(0x04,0x08,0x6f,0x3a,0x13,0x52,0x50,0x47,0x3a,0x3a,0x4d,0x6f,0x76,0x65,0x52,0x6f,0x75,0x74,0x65,0x09,0x3a,0x0c,0x40,0x72,0x65,0x70,0x65,0x61,0x74,0x46,0x3a,0x0f,0x40,0x73,0x6b,0x69,0x70,0x70,0x61,0x62,0x6c,0x65,0x46,0x3a,0x0a,0x40,0x77,0x61,0x69,0x74,0x54,0x3a,0x0a,0x40,0x6c,0x69,0x73,0x74,0x5b,0x07,0x6f,0x3a,0x15,0x52,0x50,0x47,0x3a,0x3a,0x4d,0x6f,0x76,0x65,0x43,0x6f,0x6d,0x6d,0x61,0x6e,0x64,0x07,0x3a,0x0a,0x40,0x63,0x6f,0x64,0x65,0x69,0x2c,0x3a,0x10,0x40,0x70,0x61,0x72,0x61,0x6d,0x65,0x74,0x65,0x72,0x73,0x5b,0x00,0x6f,0x3b,0x0a,0x07,0x3b,0x0b,0x69,0x00,0x3b,0x0c,0x5b,0x00))
  250(bytes(0x04,0x08,0x6f,0x3a,0x0c,0x52,0x50,0x47,0x3a,0x3a,0x53,0x45,0x08,0x3a,0x0a,0x40,0x6e,0x61,0x6d,0x65,0x49,0x22,0x0a,0x46,0x69,0x72,0x65,0x39,0x06,0x3a,0x06,0x45,0x54,0x3a,0x0b,0x40,0x70,0x69,0x74,0x63,0x68,0x69,0x69,0x3a,0x0c,0x40,0x76,0x6f,0x6c,0x75,0x6d,0x65,0x69,0x55))
  PictureMove(5,null,0,0,0,240,100,100,0,0,60,true)
  PictureClear(5)
  Wait(60)
  ShowMessageFace("ruka_fc1",0,0,2,17)
  ShowMessage("\\n<Luka>...They did it!")
  ShowMessageFace("lilith2_fc1",2,0,2,18)
  ShowMessage("\\n<Lilith>No... We've already defeated her three times.\nBut every time we defeat her...")
  Wait(30)
  241(bytes(0x04,0x08,0x6f,0x3a,0x0d,0x52,0x50,0x47,0x3a,0x3a,0x42,0x47,0x4d,0x08,0x3a,0x0a,0x40,0x6e,0x61,0x6d,0x65,0x49,0x22,0x11,0x73,0x63,0x65,0x6e,0x65,0x5f,0x63,0x68,0x61,0x6f,0x73,0x31,0x06,0x3a,0x06,0x45,0x54,0x3a,0x0c,0x40,0x76,0x6f,0x6c,0x75,0x6d,0x65,0x69,0x69,0x3a,0x0b,0x40,0x70,0x69,0x74,0x63,0x68,0x69,0x69))
  212(7,542,false)
  Wait(60)
  205(7,bytes(0x04,0x08,0x6f,0x3a,0x13,0x52,0x50,0x47,0x3a,0x3a,0x4d,0x6f,0x76,0x65,0x52,0x6f,0x75,0x74,0x65,0x09,0x3a,0x0c,0x40,0x72,0x65,0x70,0x65,0x61,0x74,0x46,0x3a,0x0f,0x40,0x73,0x6b,0x69,0x70,0x70,0x61,0x62,0x6c,0x65,0x46,0x3a,0x0a,0x40,0x77,0x61,0x69,0x74,0x54,0x3a,0x0a,0x40,0x6c,0x69,0x73,0x74,0x5b,0x07,0x6f,0x3a,0x15,0x52,0x50,0x47,0x3a,0x3a,0x4d,0x6f,0x76,0x65,0x43,0x6f,0x6d,0x6d,0x61,0x6e,0x64,0x07,0x3a,0x0a,0x40,0x63,0x6f,0x64,0x65,0x69,0x2d,0x3a,0x10,0x40,0x70,0x61,0x72,0x61,0x6d,0x65,0x74,0x65,0x72,0x73,0x5b,0x00,0x6f,0x3b,0x0a,0x07,0x3b,0x0b,0x69,0x00,0x3b,0x0c,0x5b,0x00))
  PictureDisplay(5,"80_adramelek_st22",0,0,0,0,100,100,0,0)
  PictureMove(5,null,0,0,0,0,100,100,255,0,60,true)
  ShowMessageFace("adramelek_fc2",1,0,2,19)
  ShowMessage("\\n<Adramelech>■■■■■■■■■■erase■■■■■■■...\n■■■■■■■■■■■■■■■th■■■...")
  ShowMessageFace("morrigan_fc1",2,0,2,20)
  ShowMessage("\\n<Morrigan>That's cheating!\nEvery time she revives, she gets stronger!")
  ShowMessageFace("shion_fc1",2,0,2,21)
  ShowMessage("\\n<Zion>This is impossible...\nWe can't win if she just revives no matter how many times she's defeated!")
  ShowMessageFace("gnosis_fc1",2,0,2,22)
  ShowMessage("\\n<Gnosis>...I propose a withdrawal.\nWithin 15 minutes, this world will be eroded by the XX-class apoptosis and disappear completely.")
  ShowMessageFace("iriasu_fc4",7,0,2,23)
  ShowMessage("\\n<Ilias>Then...is there really no path to victory?")
  ShowMessageFace("eden_fc2",3,0,2,24)
  ShowMessage("\\n<Eden>Forgive me, Ilias...\nThe moment an XX-class is downloaded into a physical world, that world's destruction is inevitable...")
  PictureMove(5,null,0,0,0,0,100,100,0,0,30,true)
  PictureClear(5)
  241(bytes(0x04,0x08,0x6f,0x3a,0x0d,0x52,0x50,0x47,0x3a,0x3a,0x42,0x47,0x4d,0x08,0x3a,0x0a,0x40,0x6e,0x61,0x6d,0x65,0x49,0x22,0x11,0x73,0x63,0x65,0x6e,0x65,0x5f,0x63,0x68,0x61,0x6f,0x73,0x33,0x06,0x3a,0x06,0x45,0x54,0x3a,0x0c,0x40,0x76,0x6f,0x6c,0x75,0x6d,0x65,0x69,0x69,0x3a,0x0b,0x40,0x70,0x69,0x74,0x63,0x68,0x69,0x69))
  284("StarlitSky",false,false,0,0)
  212(7,547,false)
  ShowMessageFace("adramelek_fc2",1,0,2,25)
  ShowMessage("\\n<Adramelech>■■■■■■■■■■■■■■■■■■■■■■■■■■■\n■■■■■■■■■■■■■■■■■■■■■■■■■■■\n■■■■■■■■■■■■■■■■■■■■■■■■■■■")
  Wait(30)
  ShowMessageFace("ruka_fc1",0,0,2,26)
  ShowMessage("\\n<Luka>Our world...will be swallowed by chaos...")
  ShowMessageFace("",0,0,2,27)
  ShowMessage("This is just like the Great Disaster from thirty years ago we had recently witnessed--\nNo, it's on an even larger scale than that--")
  ShowMessageFace("lilith2_fc1",2,0,2,28)
  ShowMessage("\\n<Lilith>Astaroth! Morrigan! We're withdrawing from this world!")
  ShowMessageFace("iriasu_fc4",7,0,2,29)
  ShowMessage("\\n<Ilias>You intend to flee and abandon this world?!")
  ShowMessageFace("astaroth_fc1",2,0,2,30)
  ShowMessage("\\n<Astaroth>You should quickly escape to a parallel world as well! This world's collapse cannot be stopped...")
  ShowMessageFace("morrigan_fc1",2,0,2,31)
  ShowMessage("\\n<Morrigan>Tch, our work in this world is over...!")
  ShowMessageFace("lilith2_fc1",2,0,2,32)
  ShowMessage("\\n<Lilith>Then let's escape!")
  PictureClear(5)
  Wait(60)
  250(bytes(0x04,0x08,0x6f,0x3a,0x0c,0x52,0x50,0x47,0x3a,0x3a,0x53,0x45,0x08,0x3a,0x0a,0x40,0x6e,0x61,0x6d,0x65,0x49,0x22,0x0e,0x6d,0x6f,0x6e,0x5f,0x77,0x69,0x6e,0x64,0x31,0x06,0x3a,0x06,0x45,0x54,0x3a,0x0b,0x40,0x70,0x69,0x74,0x63,0x68,0x69,0x69,0x3a,0x0c,0x40,0x76,0x6f,0x6c,0x75,0x6d,0x65,0x69,0x55))
  ChangeSwitch(31,31,0)
  Wait(30)
  205(7,bytes(0x04,0x08,0x6f,0x3a,0x13,0x52,0x50,0x47,0x3a,0x3a,0x4d,0x6f,0x76,0x65,0x52,0x6f,0x75,0x74,0x65,0x09,0x3a,0x0c,0x40,0x72,0x65,0x70,0x65,0x61,0x74,0x46,0x3a,0x0f,0x40,0x73,0x6b,0x69,0x70,0x70,0x61,0x62,0x6c,0x65,0x46,0x3a,0x0a,0x40,0x77,0x61,0x69,0x74,0x54,0x3a,0x0a,0x40,0x6c,0x69,0x73,0x74,0x5b,0x07,0x6f,0x3a,0x15,0x52,0x50,0x47,0x3a,0x3a,0x4d,0x6f,0x76,0x65,0x43,0x6f,0x6d,0x6d,0x61,0x6e,0x64,0x07,0x3a,0x0a,0x40,0x63,0x6f,0x64,0x65,0x69,0x18,0x3a,0x10,0x40,0x70,0x61,0x72,0x61,0x6d,0x65,0x74,0x65,0x72,0x73,0x5b,0x00,0x6f,0x3b,0x0a,0x07,0x3b,0x0b,0x69,0x00,0x3b,0x0c,0x5b,0x00))
  ShowMessageFace("shion_fc1",2,0,2,33)
  ShowMessage("\\n<Zion>Those succubus scum! We let them get away!")
  ShowMessageFace("gnosis_fc1",2,0,2,34)
  ShowMessage("\\n<Gnosis>Erosion rate of chaos: accelerating... Less than five minutes until certain destruction...")
  ShowMessageFace("eden_fc2",4,0,2,35)
  ShowMessage("\\n<Eden>For Ilias' sake... I will not retreat!")
  212(7,547,false)
  ShowMessageFace("adramelek_fc2",1,0,2,36)
  ShowMessage("\\n<Adramelech>■■■■■■■■■■■■■■■■■■■■■■■■■■■\n■■■■■■■■■■■■■■■■■■■■■■■■■■■\n■■■■■■■■■■■■■■■■■■■■■■■■■■■")
  Wait(30)
  ShowMessageFace("iriasu_fc4",2,0,2,37)
  ShowMessage("\\n<Ilias>The power of chaos is consuming the world...\nAt this rate, the world will be doomed...")
  Wait(30)
  ShowMessageFace("",0,1,1,38)
  ShowMessage("No...")
  Wait(30)
  ShowMessageFace("iriasu_fc4",7,0,2,39)
  ShowMessage("\\n<Ilias>That voice is...")
  ShowMessageFace("ruka_fc1",0,0,2,40)
  ShowMessage("\\n<Luka>Sonya...?!")
  Wait(30)
  ShowMessageFace("",0,1,1,41)
  ShowMessage("I won't let this world be destroyed--")
  Wait(15)
  250(bytes(0x04,0x08,0x6f,0x3a,0x0c,0x52,0x50,0x47,0x3a,0x3a,0x53,0x45,0x08,0x3a,0x0a,0x40,0x6e,0x61,0x6d,0x65,0x49,0x22,0x0d,0x6d,0x6f,0x6e,0x5f,0x62,0x6f,0x6d,0x31,0x06,0x3a,0x06,0x45,0x54,0x3a,0x0b,0x40,0x70,0x69,0x74,0x63,0x68,0x69,0x69,0x3a,0x0c,0x40,0x76,0x6f,0x6c,0x75,0x6d,0x65,0x69,0x69))
  225(7,7,120,true)
  PictureDisplay(1,"sys_noise",0,0,0,0,100,100,0,0)
  PictureMove(1,null,0,0,0,0,100,100,255,0,60,true)
  PictureMove(1,null,0,0,0,0,100,100,0,0,60,true)
  ChangeSwitch(33,33,0)
  ShowMessageFace("soniachaos_fc1",3,0,2,42)
  ShowMessage("\\n<Sonya Chaos>■abso■■ly■■n't allo■■■...!")
  205(14,bytes(0x04,0x08,0x6f,0x3a,0x13,0x52,0x50,0x47,0x3a,0x3a,0x4d,0x6f,0x76,0x65,0x52,0x6f,0x75,0x74,0x65,0x09,0x3a,0x0c,0x40,0x72,0x65,0x70,0x65,0x61,0x74,0x46,0x3a,0x0f,0x40,0x73,0x6b,0x69,0x70,0x70,0x61,0x62,0x6c,0x65,0x46,0x3a,0x0a,0x40,0x77,0x61,0x69,0x74,0x46,0x3a,0x0a,0x40,0x6c,0x69,0x73,0x74,0x5b,0x09,0x6f,0x3a,0x15,0x52,0x50,0x47,0x3a,0x3a,0x4d,0x6f,0x76,0x65,0x43,0x6f,0x6d,0x6d,0x61,0x6e,0x64,0x07,0x3a,0x0a,0x40,0x63,0x6f,0x64,0x65,0x69,0x22,0x3a,0x10,0x40,0x70,0x61,0x72,0x61,0x6d,0x65,0x74,0x65,0x72,0x73,0x5b,0x06,0x69,0x0b,0x6f,0x3b,0x0a,0x07,0x3b,0x0b,0x69,0x23,0x3b,0x0c,0x5b,0x06,0x69,0x0a,0x6f,0x3b,0x0a,0x07,0x3b,0x0b,0x69,0x08,0x3b,0x0c,0x5b,0x00,0x6f,0x3b,0x0a,0x07,0x3b,0x0b,0x69,0x00,0x3b,0x0c,0x5b,0x00))
  205(7,bytes(0x04,0x08,0x6f,0x3a,0x13,0x52,0x50,0x47,0x3a,0x3a,0x4d,0x6f,0x76,0x65,0x52,0x6f,0x75,0x74,0x65,0x09,0x3a,0x0c,0x40,0x72,0x65,0x70,0x65,0x61,0x74,0x46,0x3a,0x0f,0x40,0x73,0x6b,0x69,0x70,0x70,0x61,0x62,0x6c,0x65,0x46,0x3a,0x0a,0x40,0x77,0x61,0x69,0x74,0x46,0x3a,0x0a,0x40,0x6c,0x69,0x73,0x74,0x5b,0x07,0x6f,0x3a,0x15,0x52,0x50,0x47,0x3a,0x3a,0x4d,0x6f,0x76,0x65,0x43,0x6f,0x6d,0x6d,0x61,0x6e,0x64,0x07,0x3a,0x0a,0x40,0x63,0x6f,0x64,0x65,0x69,0x16,0x3a,0x10,0x40,0x70,0x61,0x72,0x61,0x6d,0x65,0x74,0x65,0x72,0x73,0x5b,0x00,0x6f,0x3b,0x0a,0x07,0x3b,0x0b,0x69,0x00,0x3b,0x0c,0x5b,0x00))
  Wait(60)
  241(bytes(0x04,0x08,0x6f,0x3a,0x0d,0x52,0x50,0x47,0x3a,0x3a,0x42,0x47,0x4d,0x08,0x3a,0x0a,0x40,0x6e,0x61,0x6d,0x65,0x49,0x22,0x10,0x62,0x6f,0x73,0x73,0x5f,0x73,0x6f,0x6e,0x69,0x61,0x33,0x06,0x3a,0x06,0x45,0x54,0x3a,0x0c,0x40,0x76,0x6f,0x6c,0x75,0x6d,0x65,0x69,0x69,0x3a,0x0b,0x40,0x70,0x69,0x74,0x63,0x68,0x69,0x69))
  PictureDisplay(5,"80_soniachaos_st04",0,0,-150,0,100,100,255,0)
  PictureDisplay(6,"80_adramelek_st28",0,0,150,0,100,100,255,0)
  ShowMessageFace("",0,0,2,43)
  ShowMessage("Sonya Chaos throws herself toward Adramelech!\nAdramelech counters!")
  ShowMessageFace("ruka_fc1",0,0,2,44)
  ShowMessage("\\n<Luka>Stop, Sonya!\nYour body is about to collapse!")
  ShowMessageFace("iriasu_fc4",7,0,2,45)
  ShowMessage("\\n<Ilias>Don't go near them, Luka!\nYou'll be swallowed by the waves of chaos from their collisions!")
  PictureDisplay(7,"iv_adramelek1",0,0,0,0,100,100,0,0)
  PictureMove(7,null,0,0,0,0,100,100,255,0,60,true)
  PictureClear(5)
  PictureClear(6)
  Wait(60)
  ShowMessageFace("soniachaos_fc1",3,0,2,46)
  ShowMessage("\\n<Sonya Chaos>■■■■■■■■...!!")
  ShowMessageFace("adramelek_fc2",7,0,2,47)
  ShowMessage("\\n<Adramelech>■■■■■■■■■■■■■■...!!")
  Wait(60)
  ShowMessageFace("soniachaos_fc1",3,0,2,48)
  ShowMessage("\\n<Sonya Chaos>■■■■■■■■■■■■■■■■■■■■■■■■■■■\n■■■■■■■■■■■■■■■■■■■■■■■■■■■\n■■■■■■■■■■■■■■■■■■■■■■■■■■■")
  ShowMessageFace("adramelek_fc2",7,0,2,49)
  ShowMessage("\\n<Adramelech>■■■■■■■■■■■■■■■■■■■■■■■■■■■\n■■■■■■■■■■■■■■■■■■■■■■■■■■■\n■■■■■■■■■■■■■■■■■■■■■■■■■■■")
  242(1)
  250(bytes(0x04,0x08,0x6f,0x3a,0x0c,0x52,0x50,0x47,0x3a,0x3a,0x53,0x45,0x08,0x3a,0x0a,0x40,0x6e,0x61,0x6d,0x65,0x49,0x22,0x0f,0x6d,0x6f,0x6e,0x5f,0x73,0x6c,0x61,0x73,0x68,0x33,0x06,0x3a,0x06,0x45,0x54,0x3a,0x0b,0x40,0x70,0x69,0x74,0x63,0x68,0x69,0x69,0x3a,0x0c,0x40,0x76,0x6f,0x6c,0x75,0x6d,0x65,0x69,0x69))
  Wait(30)
  ShowMessageFace("",0,0,2,50)
  ShowMessage("Their weapons penetrate each other's bodies.\nThe shockwaves of the clashing apoptoses blow out like a hurricane.")
  Wait(30)
  ShowMessageFace("",0,0,2,51)
  ShowMessage("It was as if time had stopped.\nThe erosion of chaos stopped, and the scattering dust settled.")
  Wait(30)
  241(bytes(0x04,0x08,0x6f,0x3a,0x0d,0x52,0x50,0x47,0x3a,0x3a,0x42,0x47,0x4d,0x08,0x3a,0x0a,0x40,0x6e,0x61,0x6d,0x65,0x49,0x22,0x14,0x73,0x63,0x65,0x6e,0x65,0x5f,0x6b,0x61,0x6e,0x61,0x73,0x69,0x6d,0x69,0x33,0x06,0x3a,0x06,0x45,0x54,0x3a,0x0c,0x40,0x76,0x6f,0x6c,0x75,0x6d,0x65,0x69,0x69,0x3a,0x0b,0x40,0x70,0x69,0x74,0x63,0x68,0x69,0x69))
  ShowMessageFace("",0,1,1,52)
  ShowMessage("Goodbye, Luka...\nGoodbye, everyone...")
  ShowMessageFace("",0,1,1,53)
  ShowMessage("Reversing 17 minutes from the current time of F10325...\nWith this, these last 17 minutes have been erased from the world...")
  ShowMessageFace("",0,1,1,54)
  ShowMessage("Copying and pasting \"Sonya\" from F10192X065Y212\nI'll leave you a virtual image of \"me\" so that you won't be lonely, right...?")
  PictureDisplay(10,"sys_noise",0,0,0,0,100,100,0,0)
  PictureMove(10,null,0,0,0,0,100,100,255,0,60,true)
  ChangeSwitch(31,31,1)
  ChangeSwitch(32,32,1)
  ChangeSwitch(33,33,1)
  TeleportPlayer(0,751,1,0,0,2)
  PictureClear(7)
  Wait(60)
  PictureMove(10,null,0,0,0,0,100,100,0,0,60,true)
  PictureClear(10)
  0()



EVENT   14
 PAGE   1
  0()
 PAGE   2
  // condition: switch 32 is ON
  0()
 PAGE   3
  // condition: switch 33 is ON
  0()
