﻿


EVENT   1
 PAGE   1
  0()



EVENT   2
 PAGE   1
  0()



EVENT   3
 PAGE   1
  0()



EVENT   4
 PAGE   1
  0()



EVENT   8
 PAGE   1
  0()



EVENT   16
 PAGE   1
  0()



EVENT   17
 PAGE   1
  0()



EVENT   22
 PAGE   1
  0()



EVENT   23
 PAGE   1
  0()



EVENT   24
 PAGE   1
  0()



EVENT   25
 PAGE   1
  0()



EVENT   26
 PAGE   1
  0()



EVENT   5
 PAGE   1
  281(1)
  250(bytes(0x04,0x08,0x6f,0x3a,0x0c,0x52,0x50,0x47,0x3a,0x3a,0x53,0x45,0x08,0x3a,0x0a,0x40,0x6e,0x61,0x6d,0x65,0x49,0x22,0x09,0x4d,0x6f,0x76,0x65,0x06,0x3a,0x06,0x45,0x54,0x3a,0x0b,0x40,0x70,0x69,0x74,0x63,0x68,0x69,0x69,0x3a,0x0c,0x40,0x76,0x6f,0x6c,0x75,0x6d,0x65,0x69,0x55))
  TeleportPlayer(0,936,6,11,0,0)
  0()



EVENT   7
 PAGE   1
  281(1)
  250(bytes(0x04,0x08,0x6f,0x3a,0x0c,0x52,0x50,0x47,0x3a,0x3a,0x53,0x45,0x08,0x3a,0x0a,0x40,0x6e,0x61,0x6d,0x65,0x49,0x22,0x09,0x4d,0x6f,0x76,0x65,0x06,0x3a,0x06,0x45,0x54,0x3a,0x0b,0x40,0x70,0x69,0x74,0x63,0x68,0x69,0x69,0x3a,0x0c,0x40,0x76,0x6f,0x6c,0x75,0x6d,0x65,0x69,0x55))
  TeleportPlayer(0,936,29,6,0,0)
  0()



EVENT   18
 PAGE   1
  281(1)
  250(bytes(0x04,0x08,0x6f,0x3a,0x0c,0x52,0x50,0x47,0x3a,0x3a,0x53,0x45,0x08,0x3a,0x0a,0x40,0x6e,0x61,0x6d,0x65,0x49,0x22,0x09,0x4d,0x6f,0x76,0x65,0x06,0x3a,0x06,0x45,0x54,0x3a,0x0b,0x40,0x70,0x69,0x74,0x63,0x68,0x69,0x69,0x3a,0x0c,0x40,0x76,0x6f,0x6c,0x75,0x6d,0x65,0x69,0x55))
  TeleportPlayer(0,936,23,22,0,0)
  0()



EVENT   13
 PAGE   1
  250(bytes(0x04,0x08,0x6f,0x3a,0x0c,0x52,0x50,0x47,0x3a,0x3a,0x53,0x45,0x08,0x3a,0x0a,0x40,0x6e,0x61,0x6d,0x65,0x49,0x22,0x09,0x4d,0x6f,0x76,0x65,0x06,0x3a,0x06,0x45,0x54,0x3a,0x0b,0x40,0x70,0x69,0x74,0x63,0x68,0x69,0x69,0x3a,0x0c,0x40,0x76,0x6f,0x6c,0x75,0x6d,0x65,0x69,0x55))
  TeleportPlayer(0,847,16,48,0,0)
  ChangeSwitch(31,31,1)
  0()



EVENT   28
 PAGE   1
  ShowMessageFace("",0,0,2,1)
  ShowMessage("\\n<商人>")
  ShowMessage("私は、死ぬ瞬間まで商人です。")
  ShowMessage("さあ、アイテムを買っていって下さい。")
  Shop(0,2,0,0,false)
  605(0,11,0,0)
  605(0,13,0,0)
  605(0,14,0,0)
  605(0,15,0,0)
  605(0,16,0,0)
  605(0,17,0,0)
  605(0,18,0,0)
  605(0,19,0,0)
  605(0,20,0,0)
  605(0,21,0,0)
  0()



EVENT   6
 PAGE   1
  281(1)
  250(bytes(0x04,0x08,0x6f,0x3a,0x0c,0x52,0x50,0x47,0x3a,0x3a,0x53,0x45,0x08,0x3a,0x0a,0x40,0x6e,0x61,0x6d,0x65,0x49,0x22,0x09,0x4d,0x6f,0x76,0x65,0x06,0x3a,0x06,0x45,0x54,0x3a,0x0b,0x40,0x70,0x69,0x74,0x63,0x68,0x69,0x69,0x3a,0x0c,0x40,0x76,0x6f,0x6c,0x75,0x6d,0x65,0x69,0x55))
  TeleportPlayer(0,936,14,8,0,0)
  0()



EVENT   27
 PAGE   1
  ShowMessageFace("",0,0,2,1)
  ShowMessage("\\n<武器屋>")
  ShowMessage("売ります！　買います！")
  ShowMessage("この命、尽きるまで！！")
  ShowMessageFace("byakunen_fc1",0,0,2,2)
  ShowMessage("\\n<Hakunen>")
  ShowMessage("気合いの入った商人さんが多いですね……")
  Shop(1,104,0,0,false)
  605(1,315,0,0)
  605(1,741,0,0)
  605(2,12,0,0)
  605(2,25,0,0)
  605(2,137,0,0)
  605(2,189,0,0)
  605(2,250,0,0)
  605(2,264,0,0)
  605(2,274,0,0)
  605(2,286,0,0)
  0()



EVENT   31
 PAGE   1
  If(0,2913,1)
   ShowMessageFace("",0,0,2,1)
   ShowMessage("\\n<兵士>")
   ShowMessage("な、なんて強さだ！")
   ShowMessage("君達、早く逃げるんだ……！")
   0()
  Else()
   ShowMessageFace("",0,0,2,2)
   ShowMessage("\\n<兵士>")
   ShowMessage("た、助かったよ。")
   ShowMessage("君達は、この村の者ではないようだな。")
   ShowMessageFace("",0,0,2,3)
   ShowMessage("\\n<兵士>")
   ShowMessage("不運な旅人のようだが、腕は確かと見た。")
   ShowMessage("なんとか、無事に脱出して助けを呼んでくれ。")
   0()
  EndIf()
  0()



EVENT   42
 PAGE   1
  ShowMessageFace("",0,0,2,1)
  ShowMessage("\\n<戦士>")
  ShowMessage("はぁはぁ、逃げるだけで精一杯なんて……")
  0()



EVENT   33
 PAGE   1
  ShowMessageFace("",0,0,2,1)
  ShowMessage("\\n<青年>")
  ShowMessage("はぁはぁ、助かったよ……")
  ShowMessage("あんた勇者かい、とっても強いんだな。")
  ShowMessageFace("",0,0,2,2)
  ShowMessage("\\n<青年>")
  ShowMessage("それにしても、村が襲撃を受けるなんて……")
  ShowMessage("これも魔王の仕業なのか……")
  ShowMessageFace("kazuya_fc2",2,0,2,3)
  ShowMessage("\\n<Kazuya>")
  ShowMessage("（この世界にも魔王がいるのか……")
  ShowMessage("　でも、この一件とは関係なさそうだな）")
  0()



EVENT   50
 PAGE   1
  250(bytes(0x04,0x08,0x6f,0x3a,0x0c,0x52,0x50,0x47,0x3a,0x3a,0x53,0x45,0x08,0x3a,0x0a,0x40,0x6e,0x61,0x6d,0x65,0x49,0x22,0x0a,0x49,0x74,0x65,0x6d,0x31,0x06,0x3a,0x06,0x45,0x54,0x3a,0x0b,0x40,0x70,0x69,0x74,0x63,0x68,0x69,0x69,0x3a,0x0c,0x40,0x76,0x6f,0x6c,0x75,0x6d,0x65,0x69,0x55))
  ChangeSelfSwitch("A",0)
  ChangeInventory_Item(77,0,0,1)
  0()
 PAGE   2
  // condition: self-switch A is ON
  0()



EVENT   51
 PAGE   1
  250(bytes(0x04,0x08,0x6f,0x3a,0x0c,0x52,0x50,0x47,0x3a,0x3a,0x53,0x45,0x08,0x3a,0x0a,0x40,0x6e,0x61,0x6d,0x65,0x49,0x22,0x0a,0x49,0x74,0x65,0x6d,0x31,0x06,0x3a,0x06,0x45,0x54,0x3a,0x0b,0x40,0x70,0x69,0x74,0x63,0x68,0x69,0x69,0x3a,0x0c,0x40,0x76,0x6f,0x6c,0x75,0x6d,0x65,0x69,0x55))
  ChangeSelfSwitch("A",0)
  ChangeInventory_Item(16,0,0,1)
  0()
 PAGE   2
  // condition: self-switch A is ON
  0()



EVENT   52
 PAGE   1
  250(bytes(0x04,0x08,0x6f,0x3a,0x0c,0x52,0x50,0x47,0x3a,0x3a,0x53,0x45,0x08,0x3a,0x0a,0x40,0x6e,0x61,0x6d,0x65,0x49,0x22,0x0a,0x49,0x74,0x65,0x6d,0x31,0x06,0x3a,0x06,0x45,0x54,0x3a,0x0b,0x40,0x70,0x69,0x74,0x63,0x68,0x69,0x69,0x3a,0x0c,0x40,0x76,0x6f,0x6c,0x75,0x6d,0x65,0x69,0x55))
  ChangeSelfSwitch("A",0)
  ChangeInventory_Item(5,0,0,1)
  0()
 PAGE   2
  // condition: self-switch A is ON
  0()



EVENT   32
 PAGE   1
  0()



EVENT   21
 PAGE   1
  0()



EVENT   10
 PAGE   1
  0()



EVENT   14
 PAGE   1
  250(bytes(0x04,0x08,0x6f,0x3a,0x0c,0x52,0x50,0x47,0x3a,0x3a,0x53,0x45,0x08,0x3a,0x0a,0x40,0x6e,0x61,0x6d,0x65,0x49,0x22,0x09,0x4d,0x6f,0x76,0x65,0x06,0x3a,0x06,0x45,0x54,0x3a,0x0b,0x40,0x70,0x69,0x74,0x63,0x68,0x69,0x69,0x3a,0x0c,0x40,0x76,0x6f,0x6c,0x75,0x6d,0x65,0x69,0x55))
  TeleportPlayer(0,847,66,152,0,0)
  0()



EVENT   9
 PAGE   1
  250(bytes(0x04,0x08,0x6f,0x3a,0x0c,0x52,0x50,0x47,0x3a,0x3a,0x53,0x45,0x08,0x3a,0x0a,0x40,0x6e,0x61,0x6d,0x65,0x49,0x22,0x09,0x4d,0x6f,0x76,0x65,0x06,0x3a,0x06,0x45,0x54,0x3a,0x0b,0x40,0x70,0x69,0x74,0x63,0x68,0x69,0x69,0x3a,0x0c,0x40,0x76,0x6f,0x6c,0x75,0x6d,0x65,0x69,0x55))
  TeleportPlayer(0,847,17,48,0,0)
  ChangeSwitch(31,31,1)
  0()



EVENT   11
 PAGE   1
  250(bytes(0x04,0x08,0x6f,0x3a,0x0c,0x52,0x50,0x47,0x3a,0x3a,0x53,0x45,0x08,0x3a,0x0a,0x40,0x6e,0x61,0x6d,0x65,0x49,0x22,0x09,0x4d,0x6f,0x76,0x65,0x06,0x3a,0x06,0x45,0x54,0x3a,0x0b,0x40,0x70,0x69,0x74,0x63,0x68,0x69,0x69,0x3a,0x0c,0x40,0x76,0x6f,0x6c,0x75,0x6d,0x65,0x69,0x55))
  TeleportPlayer(0,847,16,27,0,0)
  0()



EVENT   12
 PAGE   1
  250(bytes(0x04,0x08,0x6f,0x3a,0x0c,0x52,0x50,0x47,0x3a,0x3a,0x53,0x45,0x08,0x3a,0x0a,0x40,0x6e,0x61,0x6d,0x65,0x49,0x22,0x09,0x4d,0x6f,0x76,0x65,0x06,0x3a,0x06,0x45,0x54,0x3a,0x0b,0x40,0x70,0x69,0x74,0x63,0x68,0x69,0x69,0x3a,0x0c,0x40,0x76,0x6f,0x6c,0x75,0x6d,0x65,0x69,0x55))
  TeleportPlayer(0,847,17,27,0,0)
  0()



EVENT   38
 PAGE   1
  ShowMessageFace("",0,0,2,1)
  ShowMessage("\\n<兵士>")
  ShowMessage("ぐっ！　この人形、なんて強さだ……！")
  ShowMessageFace("mukuro_fc1",0,0,2,2)
  ShowMessage("\\n<Mukuro>")
  ShowMessage("なんで抵抗する？")
  ShowMessage("私と一緒に、果てたくないのか……？")
  ShowMessageFace("kazuya_fc2",2,0,2,3)
  ShowMessage("\\n<Kazuya>")
  ShowMessage("やめろ、躯！")
  205(0,bytes(0x04,0x08,0x6f,0x3a,0x13,0x52,0x50,0x47,0x3a,0x3a,0x4d,0x6f,0x76,0x65,0x52,0x6f,0x75,0x74,0x65,0x09,0x3a,0x0c,0x40,0x72,0x65,0x70,0x65,0x61,0x74,0x46,0x3a,0x0f,0x40,0x73,0x6b,0x69,0x70,0x70,0x61,0x62,0x6c,0x65,0x46,0x3a,0x0a,0x40,0x77,0x61,0x69,0x74,0x54,0x3a,0x0a,0x40,0x6c,0x69,0x73,0x74,0x5b,0x08,0x6f,0x3a,0x15,0x52,0x50,0x47,0x3a,0x3a,0x4d,0x6f,0x76,0x65,0x43,0x6f,0x6d,0x6d,0x61,0x6e,0x64,0x07,0x3a,0x0a,0x40,0x63,0x6f,0x64,0x65,0x69,0x29,0x3a,0x10,0x40,0x70,0x61,0x72,0x61,0x6d,0x65,0x74,0x65,0x72,0x73,0x5b,0x00,0x6f,0x3b,0x0a,0x07,0x3b,0x0b,0x69,0x1e,0x3b,0x0c,0x5b,0x00,0x6f,0x3b,0x0a,0x07,0x3b,0x0b,0x69,0x00,0x3b,0x0c,0x5b,0x00))
  PictureDisplay(5,"80_mukuro_st01",0,0,0,0,100,100,0,0)
  PictureMove(5,null,0,0,0,0,100,100,255,0,30,true)
  ShowMessageFace("mukuro_fc1",0,0,2,4)
  ShowMessage("\\n<Mukuro>")
  ShowMessage("お前、私と添い遂げたいのか？")
  ShowMessage("じゃあ、お前にしよう……")
  PictureClear(5)
  Battle(0,1350,false,false)
  ChangeSwitch(2913,2913,0)
  ShowMessageFace("",0,0,2,5)
  ShowMessage("\\n<兵士>")
  ShowMessage("た、助かったよ。")
  ShowMessage("君達は、この村の者ではないようだな。")
  ShowMessageFace("",0,0,2,6)
  ShowMessage("\\n<兵士>")
  ShowMessage("不運な旅人のようだが、腕は確かと見た。")
  ShowMessage("なんとか、無事に脱出して助けを呼んでくれ。")
  ShowMessageFace("byakunen_fc1",0,0,2,7)
  ShowMessage("\\n<Hakunen>")
  ShowMessage("はい、お任せ下さい。")
  0()
 PAGE   2
  // condition: switch 2913 is ON
  0()



EVENT   54
 PAGE   1
  0()
 PAGE   2
  // condition: variable 1206 >= 2
  0()



EVENT   30
 PAGE   1
  0()
 PAGE   2
  // condition: variable 1206 >= 3
  PictureDisplay(5,"80_nemea_st01",0,0,0,0,100,100,0,0)
  PictureMove(5,null,0,0,0,0,100,100,255,0,30,true)
  ShowMessageFace("nemea_fc1",0,0,2,1)
  ShowMessage("\\n<Nemea>")
  ShowMessage("うふふっ……捕まえたわよ♡")
  250(bytes(0x04,0x08,0x6f,0x3a,0x0c,0x52,0x50,0x47,0x3a,0x3a,0x53,0x45,0x08,0x3a,0x0a,0x40,0x6e,0x61,0x6d,0x65,0x49,0x22,0x0a,0x44,0x6f,0x77,0x6e,0x31,0x06,0x3a,0x06,0x45,0x54,0x3a,0x0b,0x40,0x70,0x69,0x74,0x63,0x68,0x69,0x69,0x3a,0x0c,0x40,0x76,0x6f,0x6c,0x75,0x6d,0x65,0x69,0x55))
  ShowMessageFace("",0,0,2,2)
  ShowMessage("ネメアに捕まってしまった……")
  241(bytes(0x04,0x08,0x6f,0x3a,0x0d,0x52,0x50,0x47,0x3a,0x3a,0x42,0x47,0x4d,0x08,0x3a,0x0a,0x40,0x6e,0x61,0x6d,0x65,0x49,0x22,0x09,0x65,0x72,0x6f,0x31,0x06,0x3a,0x06,0x45,0x54,0x3a,0x0c,0x40,0x76,0x6f,0x6c,0x75,0x6d,0x65,0x69,0x69,0x3a,0x0b,0x40,0x70,0x69,0x74,0x63,0x68,0x69,0x69))
  PictureDisplay(5,"80_nemea_st06",0,0,0,0,100,100,255,0)
  ShowMessageFace("nemea_fc1",5,0,2,3)
  ShowMessage("\\n<Nemea>")
  ShowMessage("怖くないわ……")
  ShowMessage("お姉さんが、優しく逝かせてあげるから……♡")
  ShowMessageFace("kazuya_fc2",3,0,2,4)
  ShowMessage("\\n<Kazuya>")
  ShowMessage("や、やめろ――うわぁぁぁ！！")
  221()
  PictureClear(5)
  RunCommonEvent(104)
  RunCommonEvent(105)
  ShowMessageFace("kazuya_fc2",3,0,2,5)
  ShowMessage("\\n<Kazuya>")
  ShowMessage("ぁ……ぁぁ……")
  ShowMessageFace("nemea_fc1",5,0,2,6)
  ShowMessage("\\n<Nemea>")
  ShowMessage("うふふっ、美味しかったわ……♡")
  242(1)
  Wait(120)
  ShowMessageFace("",0,0,2,7)
  ShowMessage("・・・・・・・・")
  RunCommonEvent(2999)
  0()



EVENT   34
 PAGE   1
  0()
 PAGE   2
  // condition: switch 31 is ON
  0()



EVENT   35
 PAGE   1
  281(1)
  250(bytes(0x04,0x08,0x6f,0x3a,0x0c,0x52,0x50,0x47,0x3a,0x3a,0x53,0x45,0x08,0x3a,0x0a,0x40,0x6e,0x61,0x6d,0x65,0x49,0x22,0x09,0x4d,0x6f,0x76,0x65,0x06,0x3a,0x06,0x45,0x54,0x3a,0x0b,0x40,0x70,0x69,0x74,0x63,0x68,0x69,0x69,0x3a,0x0c,0x40,0x76,0x6f,0x6c,0x75,0x6d,0x65,0x69,0x55))
  TeleportPlayer(0,936,14,25,0,0)
  216(0)
  241(bytes(0x04,0x08,0x6f,0x3a,0x0d,0x52,0x50,0x47,0x3a,0x3a,0x42,0x47,0x4d,0x08,0x3a,0x0a,0x40,0x6e,0x61,0x6d,0x65,0x49,0x22,0x16,0x64,0x75,0x6e,0x67,0x65,0x6f,0x6e,0x5f,0x74,0x61,0x72,0x75,0x74,0x61,0x72,0x6f,0x31,0x06,0x3a,0x06,0x45,0x54,0x3a,0x0c,0x40,0x76,0x6f,0x6c,0x75,0x6d,0x65,0x69,0x69,0x3a,0x0b,0x40,0x70,0x69,0x74,0x63,0x68,0x69,0x69))
  ChangeVariable(1206,1206,0,0,5)
  ShowMessageFace("kazuya_fc2",2,0,2,1)
  ShowMessage("\\n<Kazuya>")
  ShowMessage("ここまでは来ないか……")
  ShowMessage("逃げ切ったみたいだな。")
  ShowMessageFace("byakunen_fc1",2,0,2,2)
  ShowMessage("\\n<Hakunen>")
  ShowMessage("あの人、なんだか私ばかり視ていた気が……")
  ShowMessage("自意識過剰ですかね？")
  ShowMessageFace("lanpass_fc2",3,0,2,3)
  ShowMessage("\\n<Lampas>")
  ShowMessage("いや、実際にガン見してたし……")
  ShowMessage("舌舐めずりもしてたよ。")
  ShowMessageFace("youkosan_fc1",0,0,2,4)
  ShowMessage("\\n<Dream Fox>")
  ShowMessage("気に入られたみたいだね、おめでとう！")
  ShowMessageFace("byakunen_fc2",5,0,2,5)
  ShowMessage("\\n<Hakunen>")
  ShowMessage("何一つ、めでたい事などありませんよ……")
  ChangeSaveEnabled(1)
  EndEventProcessing()
  0()



EVENT   37
 PAGE   1
  281(1)
  250(bytes(0x04,0x08,0x6f,0x3a,0x0c,0x52,0x50,0x47,0x3a,0x3a,0x53,0x45,0x08,0x3a,0x0a,0x40,0x6e,0x61,0x6d,0x65,0x49,0x22,0x09,0x4d,0x6f,0x76,0x65,0x06,0x3a,0x06,0x45,0x54,0x3a,0x0b,0x40,0x70,0x69,0x74,0x63,0x68,0x69,0x69,0x3a,0x0c,0x40,0x76,0x6f,0x6c,0x75,0x6d,0x65,0x69,0x55))
  TeleportPlayer(0,847,63,67,0,0)
  RunCommonEvent(536)
  0()



EVENT   39
 PAGE   1
  ShowMessageFace("kazuya_fc2",3,0,2,1)
  ShowMessage("\\n<Kazuya>")
  ShowMessage("戻ったら、命はない！")
  205(-1,bytes(0x04,0x08,0x6f,0x3a,0x13,0x52,0x50,0x47,0x3a,0x3a,0x4d,0x6f,0x76,0x65,0x52,0x6f,0x75,0x74,0x65,0x09,0x3a,0x0c,0x40,0x72,0x65,0x70,0x65,0x61,0x74,0x46,0x3a,0x0f,0x40,0x73,0x6b,0x69,0x70,0x70,0x61,0x62,0x6c,0x65,0x46,0x3a,0x0a,0x40,0x77,0x61,0x69,0x74,0x54,0x3a,0x0a,0x40,0x6c,0x69,0x73,0x74,0x5b,0x07,0x6f,0x3a,0x15,0x52,0x50,0x47,0x3a,0x3a,0x4d,0x6f,0x76,0x65,0x43,0x6f,0x6d,0x6d,0x61,0x6e,0x64,0x07,0x3a,0x0a,0x40,0x63,0x6f,0x64,0x65,0x69,0x06,0x3a,0x10,0x40,0x70,0x61,0x72,0x61,0x6d,0x65,0x74,0x65,0x72,0x73,0x5b,0x00,0x6f,0x3b,0x0a,0x07,0x3b,0x0b,0x69,0x00,0x3b,0x0c,0x5b,0x00))
  EndEventProcessing()
  0()



EVENT   15
 PAGE   1
  281(1)
  250(bytes(0x04,0x08,0x6f,0x3a,0x0c,0x52,0x50,0x47,0x3a,0x3a,0x53,0x45,0x08,0x3a,0x0a,0x40,0x6e,0x61,0x6d,0x65,0x49,0x22,0x09,0x4d,0x6f,0x76,0x65,0x06,0x3a,0x06,0x45,0x54,0x3a,0x0b,0x40,0x70,0x69,0x74,0x63,0x68,0x69,0x69,0x3a,0x0c,0x40,0x76,0x6f,0x6c,0x75,0x6d,0x65,0x69,0x55))
  TeleportPlayer(0,847,63,67,0,0)
  RunCommonEvent(536)
  0()



EVENT   36
 PAGE   1
  281(1)
  250(bytes(0x04,0x08,0x6f,0x3a,0x0c,0x52,0x50,0x47,0x3a,0x3a,0x53,0x45,0x08,0x3a,0x0a,0x40,0x6e,0x61,0x6d,0x65,0x49,0x22,0x09,0x4d,0x6f,0x76,0x65,0x06,0x3a,0x06,0x45,0x54,0x3a,0x0b,0x40,0x70,0x69,0x74,0x63,0x68,0x69,0x69,0x3a,0x0c,0x40,0x76,0x6f,0x6c,0x75,0x6d,0x65,0x69,0x55))
  TeleportPlayer(0,847,63,67,0,0)
  RunCommonEvent(536)
  0()



EVENT   40
 PAGE   1
  PictureDisplay(5,"80_vinum_st03",0,0,0,0,100,100,0,0)
  PictureMove(5,null,0,0,0,0,100,100,255,0,30,true)
  ShowMessageFace("vinum_fc1",2,0,2,1)
  ShowMessage("\\n<Vinum>")
  ShowMessage("わざわざ儂に声を掛けるとは……")
  ShowMessage("その命、いらんと見える。")
  221()
  PictureClear(5)
  RunCommonEvent(104)
  RunCommonEvent(105)
  ShowMessageFace("kazuya_fc2",3,0,2,2)
  ShowMessage("\\n<Kazuya>")
  ShowMessage("ぁ……ぁぁ……")
  ShowMessageFace("vinum_fc1",0,0,2,3)
  ShowMessage("\\n<Vinum>")
  ShowMessage("読書しながら、上質の精で一服……")
  ShowMessage("ふむ、悪くないわい。")
  242(1)
  Wait(120)
  ShowMessageFace("",0,0,2,4)
  ShowMessage("・・・・・・・・")
  RunCommonEvent(2999)
  0()



EVENT   41
 PAGE   1
  250(bytes(0x04,0x08,0x6f,0x3a,0x0c,0x52,0x50,0x47,0x3a,0x3a,0x53,0x45,0x08,0x3a,0x0a,0x40,0x6e,0x61,0x6d,0x65,0x49,0x22,0x0e,0x6d,0x6f,0x6e,0x5f,0x64,0x6f,0x6f,0x72,0x31,0x06,0x3a,0x06,0x45,0x54,0x3a,0x0b,0x40,0x70,0x69,0x74,0x63,0x68,0x69,0x69,0x3a,0x0c,0x40,0x76,0x6f,0x6c,0x75,0x6d,0x65,0x69,0x69))
  205(0,bytes(0x04,0x08,0x6f,0x3a,0x13,0x52,0x50,0x47,0x3a,0x3a,0x4d,0x6f,0x76,0x65,0x52,0x6f,0x75,0x74,0x65,0x09,0x3a,0x0c,0x40,0x72,0x65,0x70,0x65,0x61,0x74,0x46,0x3a,0x0f,0x40,0x73,0x6b,0x69,0x70,0x70,0x61,0x62,0x6c,0x65,0x46,0x3a,0x0a,0x40,0x77,0x61,0x69,0x74,0x46,0x3a,0x0a,0x40,0x6c,0x69,0x73,0x74,0x5b,0x0c,0x6f,0x3a,0x15,0x52,0x50,0x47,0x3a,0x3a,0x4d,0x6f,0x76,0x65,0x43,0x6f,0x6d,0x6d,0x61,0x6e,0x64,0x07,0x3a,0x0a,0x40,0x63,0x6f,0x64,0x65,0x69,0x16,0x3a,0x10,0x40,0x70,0x61,0x72,0x61,0x6d,0x65,0x74,0x65,0x72,0x73,0x5b,0x00,0x6f,0x3b,0x0a,0x07,0x3b,0x0b,0x69,0x14,0x3b,0x0c,0x5b,0x06,0x69,0x08,0x6f,0x3b,0x0a,0x07,0x3b,0x0b,0x69,0x17,0x3b,0x0c,0x5b,0x00,0x6f,0x3b,0x0a,0x07,0x3b,0x0b,0x69,0x14,0x3b,0x0c,0x5b,0x06,0x69,0x08,0x6f,0x3b,0x0a,0x07,0x3b,0x0b,0x69,0x18,0x3b,0x0c,0x5b,0x00,0x6f,0x3b,0x0a,0x07,0x3b,0x0b,0x69,0x2a,0x3b,0x0c,0x5b,0x00,0x6f,0x3b,0x0a,0x07,0x3b,0x0b,0x69,0x00,0x3b,0x0c,0x5b,0x00))
  Wait(20)
  250(bytes(0x04,0x08,0x6f,0x3a,0x0c,0x52,0x50,0x47,0x3a,0x3a,0x53,0x45,0x08,0x3a,0x0a,0x40,0x6e,0x61,0x6d,0x65,0x49,0x22,0x0f,0x6d,0x6f,0x6e,0x5f,0x62,0x72,0x65,0x61,0x6b,0x37,0x06,0x3a,0x06,0x45,0x54,0x3a,0x0b,0x40,0x70,0x69,0x74,0x63,0x68,0x69,0x69,0x3a,0x0c,0x40,0x76,0x6f,0x6c,0x75,0x6d,0x65,0x69,0x69))
  Wait(60)
  ShowMessageFace("kazuya_fc2",3,0,2,1)
  ShowMessage("\\n<Kazuya>")
  ShowMessage("なんなんだよ、このドア！")
  ShowMessage("絶対おかしいだろ！？")
  ChangeSwitch(2922,2922,0)
  RunCommonEvent(514)
  0()



EVENT   46
 PAGE   1
  281(1)
  250(bytes(0x04,0x08,0x6f,0x3a,0x0c,0x52,0x50,0x47,0x3a,0x3a,0x53,0x45,0x08,0x3a,0x0a,0x40,0x6e,0x61,0x6d,0x65,0x49,0x22,0x09,0x4d,0x6f,0x76,0x65,0x06,0x3a,0x06,0x45,0x54,0x3a,0x0b,0x40,0x70,0x69,0x74,0x63,0x68,0x69,0x69,0x3a,0x0c,0x40,0x76,0x6f,0x6c,0x75,0x6d,0x65,0x69,0x55))
  TeleportPlayer(0,847,44,31,2,0)
  0()



EVENT   53
 PAGE   1
  281(1)
  250(bytes(0x04,0x08,0x6f,0x3a,0x0c,0x52,0x50,0x47,0x3a,0x3a,0x53,0x45,0x08,0x3a,0x0a,0x40,0x6e,0x61,0x6d,0x65,0x49,0x22,0x09,0x4d,0x6f,0x76,0x65,0x06,0x3a,0x06,0x45,0x54,0x3a,0x0b,0x40,0x70,0x69,0x74,0x63,0x68,0x69,0x69,0x3a,0x0c,0x40,0x76,0x6f,0x6c,0x75,0x6d,0x65,0x69,0x55))
  TeleportPlayer(0,936,37,19,0,0)
  0()



EVENT   19
 PAGE   1
  RunCommonEvent(537)
  0()
 PAGE   2
  // condition: switch 2922 is ON
  RunCommonEvent(537)
  0()



EVENT   20
 PAGE   1
  281(1)
  250(bytes(0x04,0x08,0x6f,0x3a,0x0c,0x52,0x50,0x47,0x3a,0x3a,0x53,0x45,0x08,0x3a,0x0a,0x40,0x6e,0x61,0x6d,0x65,0x49,0x22,0x09,0x4d,0x6f,0x76,0x65,0x06,0x3a,0x06,0x45,0x54,0x3a,0x0b,0x40,0x70,0x69,0x74,0x63,0x68,0x69,0x69,0x3a,0x0c,0x40,0x76,0x6f,0x6c,0x75,0x6d,0x65,0x69,0x55))
  TeleportPlayer(0,847,11,116,0,0)
  0()



EVENT   45
 PAGE   1
  ShowMessageFace("kazuya_fc2",2,0,2,1)
  ShowMessage("\\n<Kazuya>")
  ShowMessage("あの図書室には戻らない方がいいな……")
  205(-1,bytes(0x04,0x08,0x6f,0x3a,0x13,0x52,0x50,0x47,0x3a,0x3a,0x4d,0x6f,0x76,0x65,0x52,0x6f,0x75,0x74,0x65,0x09,0x3a,0x0c,0x40,0x72,0x65,0x70,0x65,0x61,0x74,0x46,0x3a,0x0f,0x40,0x73,0x6b,0x69,0x70,0x70,0x61,0x62,0x6c,0x65,0x46,0x3a,0x0a,0x40,0x77,0x61,0x69,0x74,0x54,0x3a,0x0a,0x40,0x6c,0x69,0x73,0x74,0x5b,0x07,0x6f,0x3a,0x15,0x52,0x50,0x47,0x3a,0x3a,0x4d,0x6f,0x76,0x65,0x43,0x6f,0x6d,0x6d,0x61,0x6e,0x64,0x07,0x3a,0x0a,0x40,0x63,0x6f,0x64,0x65,0x69,0x09,0x3a,0x10,0x40,0x70,0x61,0x72,0x61,0x6d,0x65,0x74,0x65,0x72,0x73,0x5b,0x00,0x6f,0x3b,0x0a,0x07,0x3b,0x0b,0x69,0x00,0x3b,0x0c,0x5b,0x00))
  0()



EVENT   55
 PAGE   1
  0()
 PAGE   2
  // condition: variable 1206 >= 8
  0()



EVENT   56
 PAGE   1
  ShowMessageFace("",0,0,2,1)
  ShowMessage("躯はいっさい反応しない。")
  ShowMessage("機能を停止しているようだ……")
  0()



EVENT   67
 PAGE   1
  281(1)
  250(bytes(0x04,0x08,0x6f,0x3a,0x0c,0x52,0x50,0x47,0x3a,0x3a,0x53,0x45,0x08,0x3a,0x0a,0x40,0x6e,0x61,0x6d,0x65,0x49,0x22,0x09,0x4d,0x6f,0x76,0x65,0x06,0x3a,0x06,0x45,0x54,0x3a,0x0b,0x40,0x70,0x69,0x74,0x63,0x68,0x69,0x69,0x3a,0x0c,0x40,0x76,0x6f,0x6c,0x75,0x6d,0x65,0x69,0x55))
  TeleportPlayer(0,936,23,30,0,0)
  0()



EVENT   68
 PAGE   1
  250(bytes(0x04,0x08,0x6f,0x3a,0x0c,0x52,0x50,0x47,0x3a,0x3a,0x53,0x45,0x08,0x3a,0x0a,0x40,0x6e,0x61,0x6d,0x65,0x49,0x22,0x09,0x4d,0x6f,0x76,0x65,0x06,0x3a,0x06,0x45,0x54,0x3a,0x0b,0x40,0x70,0x69,0x74,0x63,0x68,0x69,0x69,0x3a,0x0c,0x40,0x76,0x6f,0x6c,0x75,0x6d,0x65,0x69,0x55))
  TeleportPlayer(0,847,53,58,0,0)
  0()



EVENT   69
 PAGE   1
  0()
 PAGE   2
  // condition: variable 1206 >= 9
  PictureDisplay(5,"80_vinum_st05",0,0,0,0,100,100,0,0)
  PictureMove(5,null,0,0,0,0,100,100,255,0,30,true)
  ShowMessageFace("vinum_fc1",4,0,2,1)
  ShowMessage("\\n<Vinum>")
  ShowMessage("くふふっ……もう逃げられんのう。")
  250(bytes(0x04,0x08,0x6f,0x3a,0x0c,0x52,0x50,0x47,0x3a,0x3a,0x53,0x45,0x08,0x3a,0x0a,0x40,0x6e,0x61,0x6d,0x65,0x49,0x22,0x0a,0x44,0x6f,0x77,0x6e,0x31,0x06,0x3a,0x06,0x45,0x54,0x3a,0x0b,0x40,0x70,0x69,0x74,0x63,0x68,0x69,0x69,0x3a,0x0c,0x40,0x76,0x6f,0x6c,0x75,0x6d,0x65,0x69,0x55))
  ShowMessageFace("",0,0,2,2)
  ShowMessage("ヴィヌムに捕まってしまった……")
  241(bytes(0x04,0x08,0x6f,0x3a,0x0d,0x52,0x50,0x47,0x3a,0x3a,0x42,0x47,0x4d,0x08,0x3a,0x0a,0x40,0x6e,0x61,0x6d,0x65,0x49,0x22,0x09,0x65,0x72,0x6f,0x31,0x06,0x3a,0x06,0x45,0x54,0x3a,0x0c,0x40,0x76,0x6f,0x6c,0x75,0x6d,0x65,0x69,0x69,0x3a,0x0b,0x40,0x70,0x69,0x74,0x63,0x68,0x69,0x69))
  ShowMessageFace("vinum_fc1",4,0,2,3)
  ShowMessage("\\n<Vinum>")
  ShowMessage("さぁて、それでは……食らうとするか。")
  ShowMessageFace("kazuya_fc2",3,0,2,4)
  ShowMessage("\\n<Kazuya>")
  ShowMessage("や、やめろ――うわぁぁぁ！！")
  221()
  PictureClear(5)
  RunCommonEvent(104)
  RunCommonEvent(105)
  ShowMessageFace("kazuya_fc2",3,0,2,5)
  ShowMessage("\\n<Kazuya>")
  ShowMessage("ぁ……ぁぁ……")
  ShowMessageFace("vinum_fc1",4,0,2,6)
  ShowMessage("\\n<Vinum>")
  ShowMessage("……ふむ、実に美味かったぞ。")
  242(1)
  Wait(120)
  ShowMessageFace("",0,0,2,7)
  ShowMessage("・・・・・・・・")
  RunCommonEvent(2999)
  0()



EVENT   70
 PAGE   1
  ChangeSaveEnabled(1)
  250(bytes(0x04,0x08,0x6f,0x3a,0x0c,0x52,0x50,0x47,0x3a,0x3a,0x53,0x45,0x08,0x3a,0x0a,0x40,0x6e,0x61,0x6d,0x65,0x49,0x22,0x09,0x4d,0x6f,0x76,0x65,0x06,0x3a,0x06,0x45,0x54,0x3a,0x0b,0x40,0x70,0x69,0x74,0x63,0x68,0x69,0x69,0x3a,0x0c,0x40,0x76,0x6f,0x6c,0x75,0x6d,0x65,0x69,0x55))
  TeleportPlayer(0,936,18,28,2,0)
  ChangeVariable(1206,1206,0,0,10)
  ChangeSwitch(31,31,1)
  ChangeSwitch(32,32,1)
  ChangeSwitch(33,33,1)
  0()



EVENT   72
 PAGE   1
  205(-1,bytes(0x04,0x08,0x6f,0x3a,0x13,0x52,0x50,0x47,0x3a,0x3a,0x4d,0x6f,0x76,0x65,0x52,0x6f,0x75,0x74,0x65,0x09,0x3a,0x0c,0x40,0x72,0x65,0x70,0x65,0x61,0x74,0x46,0x3a,0x0f,0x40,0x73,0x6b,0x69,0x70,0x70,0x61,0x62,0x6c,0x65,0x46,0x3a,0x0a,0x40,0x77,0x61,0x69,0x74,0x54,0x3a,0x0a,0x40,0x6c,0x69,0x73,0x74,0x5b,0x08,0x6f,0x3a,0x15,0x52,0x50,0x47,0x3a,0x3a,0x4d,0x6f,0x76,0x65,0x43,0x6f,0x6d,0x6d,0x61,0x6e,0x64,0x07,0x3a,0x0a,0x40,0x63,0x6f,0x64,0x65,0x69,0x09,0x3a,0x10,0x40,0x70,0x61,0x72,0x61,0x6d,0x65,0x74,0x65,0x72,0x73,0x5b,0x00,0x6f,0x3b,0x0a,0x07,0x3b,0x0b,0x69,0x17,0x3b,0x0c,0x5b,0x00,0x6f,0x3b,0x0a,0x07,0x3b,0x0b,0x69,0x00,0x3b,0x0c,0x5b,0x00))
  241(bytes(0x04,0x08,0x6f,0x3a,0x0d,0x52,0x50,0x47,0x3a,0x3a,0x42,0x47,0x4d,0x08,0x3a,0x0a,0x40,0x6e,0x61,0x6d,0x65,0x49,0x22,0x0a,0x6b,0x69,0x6b,0x69,0x32,0x06,0x3a,0x06,0x45,0x54,0x3a,0x0c,0x40,0x76,0x6f,0x6c,0x75,0x6d,0x65,0x69,0x69,0x3a,0x0b,0x40,0x70,0x69,0x74,0x63,0x68,0x69,0x69))
  ShowSpeechBalloon(-1,1,false)
  ShowMessageFace("",0,0,2,1)
  ShowMessage("\\n<村人>")
  ShowMessage("この人形はなんなんだ……うわぁっ！！")
  ShowMessageFace("mukuro_fc1",0,0,2,2)
  ShowMessage("\\n<躯Ａ>")
  ShowMessage("私と果てるのは、お前か……？")
  ShowMessageFace("",0,0,2,3)
  ShowMessage("\\n<兵士>")
  ShowMessage("来るな……ひぃぃっ！！")
  ShowMessageFace("mukuro_fc1",0,0,2,4)
  ShowMessage("\\n<躯Ｂ>")
  ShowMessage("私の機能で、極楽を味わいながら逝ってしまえ……")
  ShowMessageFace("",0,0,2,5)
  ShowMessage("無数の人形に襲われ、追い回され――")
  ShowMessage("そして犯される、まさに地獄絵図。")
  ShowMessageFace("",0,0,2,6)
  ShowMessage("しかも、人々に襲いかかっている人形は――")
  ShowMessageFace("kazuya_fc2",3,0,2,7)
  ShowMessage("\\n<Kazuya>")
  ShowMessage("まさか、躯……！？")
  ShowMessage("いや……外見は同じだけど、アレは違う……")
  ShowMessageFace("byakunen_fc1",2,0,2,8)
  ShowMessage("\\n<Hakunen>")
  ShowMessage("カズヤさん、あの人形達を御存知なのですか？")
  ShowMessageFace("kazuya_fc2",2,0,2,9)
  ShowMessage("\\n<Kazuya>")
  ShowMessage("あれは、躯――搾精人形に、怨念が取り付いた悪魔だ。")
  ShowMessage("でも、目の前の彼女たちは少し違う……")
  ShowMessageFace("byakunen_fc1",2,0,2,10)
  ShowMessage("\\n<Hakunen>")
  ShowMessage("違うとは、どういう事なのですか――")
  ShowMessageFace("",0,0,2,11)
  ShowMessage("\\n<兵士>")
  ShowMessage("うわぁぁっ！！")
  ShowMessageFace("kazuya_fc2",2,0,2,12)
  ShowMessage("\\n<Kazuya>")
  ShowMessage("悠長に話してる場合じゃない！")
  ShowMessage("襲われている住民達を助けよう！")
  ShowMessageFace("byakunen_fc1",0,0,2,13)
  ShowMessage("\\n<Hakunen>")
  ShowMessage("はい……！")
  205(-1,bytes(0x04,0x08,0x6f,0x3a,0x13,0x52,0x50,0x47,0x3a,0x3a,0x4d,0x6f,0x76,0x65,0x52,0x6f,0x75,0x74,0x65,0x09,0x3a,0x0c,0x40,0x72,0x65,0x70,0x65,0x61,0x74,0x46,0x3a,0x0f,0x40,0x73,0x6b,0x69,0x70,0x70,0x61,0x62,0x6c,0x65,0x46,0x3a,0x0a,0x40,0x77,0x61,0x69,0x74,0x54,0x3a,0x0a,0x40,0x6c,0x69,0x73,0x74,0x5b,0x0c,0x6f,0x3a,0x15,0x52,0x50,0x47,0x3a,0x3a,0x4d,0x6f,0x76,0x65,0x43,0x6f,0x6d,0x6d,0x61,0x6e,0x64,0x07,0x3a,0x0a,0x40,0x63,0x6f,0x64,0x65,0x69,0x22,0x3a,0x10,0x40,0x70,0x61,0x72,0x61,0x6d,0x65,0x74,0x65,0x72,0x73,0x5b,0x06,0x69,0x0a,0x6f,0x3b,0x0a,0x07,0x3b,0x0b,0x69,0x23,0x3b,0x0c,0x5b,0x06,0x69,0x09,0x6f,0x3b,0x0a,0x07,0x3b,0x0b,0x69,0x08,0x3b,0x0c,0x5b,0x00,0x6f,0x3b,0x0a,0x07,0x3b,0x0b,0x69,0x08,0x3b,0x0c,0x5b,0x00,0x6f,0x3b,0x0a,0x07,0x3b,0x0b,0x69,0x22,0x3b,0x0c,0x5b,0x06,0x69,0x09,0x6f,0x3b,0x0a,0x07,0x3b,0x0b,0x69,0x23,0x3b,0x0c,0x5b,0x06,0x69,0x08,0x6f,0x3b,0x0a,0x07,0x3b,0x0b,0x69,0x00,0x3b,0x0c,0x5b,0x00))
  205(54,bytes(0x04,0x08,0x6f,0x3a,0x13,0x52,0x50,0x47,0x3a,0x3a,0x4d,0x6f,0x76,0x65,0x52,0x6f,0x75,0x74,0x65,0x09,0x3a,0x0c,0x40,0x72,0x65,0x70,0x65,0x61,0x74,0x46,0x3a,0x0f,0x40,0x73,0x6b,0x69,0x70,0x70,0x61,0x62,0x6c,0x65,0x46,0x3a,0x0a,0x40,0x77,0x61,0x69,0x74,0x54,0x3a,0x0a,0x40,0x6c,0x69,0x73,0x74,0x5b,0x07,0x6f,0x3a,0x15,0x52,0x50,0x47,0x3a,0x3a,0x4d,0x6f,0x76,0x65,0x43,0x6f,0x6d,0x6d,0x61,0x6e,0x64,0x07,0x3a,0x0a,0x40,0x63,0x6f,0x64,0x65,0x69,0x16,0x3a,0x10,0x40,0x70,0x61,0x72,0x61,0x6d,0x65,0x74,0x65,0x72,0x73,0x5b,0x00,0x6f,0x3b,0x0a,0x07,0x3b,0x0b,0x69,0x00,0x3b,0x0c,0x5b,0x00))
  PictureDisplay(5,"80_mukuro_st01",0,0,0,0,100,100,0,0)
  PictureMove(5,null,0,0,0,0,100,100,255,0,30,true)
  ShowMessageFace("mukuro_fc1",0,0,2,14)
  ShowMessage("\\n<Mukuro>")
  ShowMessage("ここにも、男がいた……")
  ShowMessageFace("mukuro_fc1",0,0,2,15)
  ShowMessage("\\n<Mukuro>")
  ShowMessage("ここにいる男は、襲って良いと言われた。")
  ShowMessage("その精、吸わせてもらうぞ……")
  ShowMessageFace("kazuya_fc2",2,0,2,16)
  ShowMessage("\\n<Kazuya>")
  ShowMessage("躯、僕が分からないのか……！？")
  ShowMessage("僕だ、カズヤだ！")
  ShowMessageFace("mukuro_fc1",0,0,2,17)
  ShowMessage("\\n<Mukuro>")
  ShowMessage("カズヤ……？")
  ShowMessage("そんな名前は私のデータに登録されていない。")
  ShowMessageFace("",0,0,2,18)
  ShowMessage("データ……！？")
  ShowMessage("それじゃあ、怨念というより機械――")
  ShowMessageFace("kazuya_fc2",2,0,2,19)
  ShowMessage("\\n<Kazuya>")
  ShowMessage("これで、はっきりしたな……")
  ShowMessage("僕の知っている躯とはまるで別物だ。")
  ShowMessageFace("",0,0,2,20)
  ShowMessage("そして、さっきの動き――")
  ShowMessage("その俊敏さは、未完成だったあの時とは比べものにならない。")
  ShowMessageFace("kazuya_fc2",0,0,2,21)
  ShowMessage("\\n<Kazuya>")
  ShowMessage("本来の躯より、性能がかなり強化されてるみたいだな……")
  ShowMessage("油断するなよ！　白念くん！")
  ShowMessageFace("byakunen_fc1",0,0,2,22)
  ShowMessage("\\n<Hakunen>")
  ShowMessage("はい！　全力でお相手をします！")
  ShowMessageFace("mukuro_fc1",0,0,2,23)
  ShowMessage("\\n<Mukuro>")
  ShowMessage("どっちが、共に果ててくれる……？")
  ShowMessage("さあ、一緒に逝こう……")
  PictureClear(5)
  Battle(0,1350,false,false)
  ChangeVariable(1206,1206,0,0,2)
  ShowMessageFace("kazuya_fc2",2,0,2,24)
  ShowMessage("\\n<Kazuya>")
  ShowMessage("……………………")
  ShowMessageFace("",0,0,2,25)
  ShowMessage("実際に戦ってみて、更に確信が持てた……")
  ShowMessage("この躯は、僕の知っている躯とはまったく異なる。")
  ShowMessageFace("",0,0,2,26)
  ShowMessage("性能面は強化されているし、動きも機械的……")
  ShowMessage("これが悪魔の動きとは、とても考えられない。")
  ShowMessageFace("kazuya_fc2",0,0,2,27)
  ShowMessage("\\n<Kazuya>")
  ShowMessage("白念くん……躯は、死の孤独に囚われていた。")
  ShowMessage("そして、自分の『伴侶』を探して襲っていたんだ。")
  ShowMessageFace("byakunen_fc1",2,0,2,28)
  ShowMessage("\\n<Hakunen>")
  ShowMessage("伴侶……ですか？")
  ShowMessageFace("kazuya_fc2",0,0,2,29)
  ShowMessage("\\n<Kazuya>")
  ShowMessage("成仏のために共に堕ちてくれる相手――")
  ShowMessage("搾精機能を使って、自分と強制的に契約させるために。")
  ShowMessageFace("kazuya_fc2",0,0,2,30)
  ShowMessage("\\n<Kazuya>")
  ShowMessage("……でも、この躯はまったく違う。")
  ShowMessage("まるで、搾精自体が目的みたいだ。")
  ShowMessageFace("",0,0,2,31)
  ShowMessage("そもそも、何故複数の躯が存在するんだ？")
  ShowMessage("僕の知っている躯は、一人だけのはずだ。")
  ShowMessageFace("",0,0,2,32)
  ShowMessage("そうなれば、考えられる事はただ一つ。")
  ShowMessage("何者かが、躯の体だけを量産した――")
  ShowMessageFace("byakunen_fc1",0,0,2,33)
  ShowMessage("\\n<Hakunen>")
  ShowMessage("カズヤさん、他の躯も倒しましょう！")
  ShowMessage("住民達を助けるんです！")
  ShowMessageFace("kazuya_fc2",0,0,2,34)
  ShowMessage("\\n<Kazuya>")
  ShowMessage("ああ……そうだな！")
  241(bytes(0x04,0x08,0x6f,0x3a,0x0d,0x52,0x50,0x47,0x3a,0x3a,0x42,0x47,0x4d,0x08,0x3a,0x0a,0x40,0x6e,0x61,0x6d,0x65,0x49,0x22,0x16,0x64,0x75,0x6e,0x67,0x65,0x6f,0x6e,0x5f,0x74,0x61,0x72,0x75,0x74,0x61,0x72,0x6f,0x31,0x06,0x3a,0x06,0x45,0x54,0x3a,0x0c,0x40,0x76,0x6f,0x6c,0x75,0x6d,0x65,0x69,0x69,0x3a,0x0b,0x40,0x70,0x69,0x74,0x63,0x68,0x69,0x69))
  EndEventProcessing()
  0()
 PAGE   2
  // condition: variable 1206 >= 2
  0()



EVENT   43
 PAGE   1
  // condition: variable 1206 >= 2
  ScrollMap(2,5,4)
  217()
  Wait(60)
  241(bytes(0x04,0x08,0x6f,0x3a,0x0d,0x52,0x50,0x47,0x3a,0x3a,0x42,0x47,0x4d,0x08,0x3a,0x0a,0x40,0x6e,0x61,0x6d,0x65,0x49,0x22,0x0c,0x62,0x6f,0x73,0x73,0x30,0x2d,0x34,0x06,0x3a,0x06,0x45,0x54,0x3a,0x0c,0x40,0x76,0x6f,0x6c,0x75,0x6d,0x65,0x69,0x69,0x3a,0x0b,0x40,0x70,0x69,0x74,0x63,0x68,0x69,0x69))
  PictureDisplay(5,"80_nemea_st01",0,0,0,0,100,100,0,0)
  PictureMove(5,null,0,0,0,0,100,100,255,0,30,true)
  ShowMessageFace("kazuya_fc2",2,0,2,1)
  ShowMessage("\\n<Kazuya>")
  ShowMessage("お前は……ネメア！？")
  PictureDisplay(5,"80_nemea_st04",0,0,0,0,100,100,255,0)
  ShowMessageFace("nemea_fc1",3,0,2,2)
  ShowMessage("\\n<Nemea>")
  ShowMessage("あら、いらっしゃい♡")
  ShowMessageFace("nemea_fc1",3,0,2,3)
  ShowMessage("\\n<Nemea>")
  ShowMessage("でも少しだけ待ってね。")
  ShowMessage("もう、食事が終わるところだから……")
  PictureClear(5)
  Wait(30)
  ShowMessageFace("",0,0,2,4)
  ShowMessage("\\n<少年>")
  ShowMessage("あぁぁ……ふぁぁぁ……")
  ShowMessage("き、きもちいいよぉ……")
  ShowMessageFace("nemea_fc1",0,0,2,5)
  ShowMessage("\\n<Nemea>")
  ShowMessage("うふふっ、大丈夫……怖くはないわ。")
  ShowMessage("このまま、安らかに天国に逝きなさい……")
  250(bytes(0x04,0x08,0x6f,0x3a,0x0c,0x52,0x50,0x47,0x3a,0x3a,0x53,0x45,0x08,0x3a,0x0a,0x40,0x6e,0x61,0x6d,0x65,0x49,0x22,0x13,0x6d,0x6f,0x6e,0x5f,0x65,0x72,0x6f,0x5f,0x63,0x68,0x75,0x70,0x61,0x36,0x06,0x3a,0x06,0x45,0x54,0x3a,0x0b,0x40,0x70,0x69,0x74,0x63,0x68,0x69,0x69,0x3a,0x0c,0x40,0x76,0x6f,0x6c,0x75,0x6d,0x65,0x69,0x69))
  ChangeSwitch(31,31,0)
  ShowMessageFace("",0,0,2,6)
  ShowMessage("ネメアに抱かれた少年が、みるみる痩せ衰えていく。")
  ShowMessage("こうなれば、もはや助かるはずもない――")
  ShowMessageFace("byakunen_fc1",3,0,2,7)
  ShowMessage("\\n<Hakunen>")
  ShowMessage("こんな……ひどい……")
  ShowMessageFace("nemea_fc1",0,0,2,8)
  ShowMessage("\\n<Nemea>")
  ShowMessage("あら……ひどくはないわよ。")
  ShowMessage("これが、この子の望みなの。")
  ShowMessageFace("nemea_fc1",0,0,2,9)
  ShowMessage("\\n<Nemea>")
  ShowMessage("恐怖の中で逃げ惑うより、甘い快楽の中で果てたいと――")
  ShowMessage("観念して、私の胸に飛び込んできたのよ。")
  205(30,bytes(0x04,0x08,0x6f,0x3a,0x13,0x52,0x50,0x47,0x3a,0x3a,0x4d,0x6f,0x76,0x65,0x52,0x6f,0x75,0x74,0x65,0x09,0x3a,0x0c,0x40,0x72,0x65,0x70,0x65,0x61,0x74,0x46,0x3a,0x0f,0x40,0x73,0x6b,0x69,0x70,0x70,0x61,0x62,0x6c,0x65,0x46,0x3a,0x0a,0x40,0x77,0x61,0x69,0x74,0x54,0x3a,0x0a,0x40,0x6c,0x69,0x73,0x74,0x5b,0x07,0x6f,0x3a,0x15,0x52,0x50,0x47,0x3a,0x3a,0x4d,0x6f,0x76,0x65,0x43,0x6f,0x6d,0x6d,0x61,0x6e,0x64,0x07,0x3a,0x0a,0x40,0x63,0x6f,0x64,0x65,0x69,0x18,0x3a,0x10,0x40,0x70,0x61,0x72,0x61,0x6d,0x65,0x74,0x65,0x72,0x73,0x5b,0x00,0x6f,0x3b,0x0a,0x07,0x3b,0x0b,0x69,0x00,0x3b,0x0c,0x5b,0x00))
  PictureDisplay(5,"80_nemea_st01",0,0,0,0,100,100,0,0)
  PictureMove(5,null,0,0,0,0,100,100,255,0,30,true)
  ShowMessageFace("",0,0,2,10)
  ShowMessage("ネメアは、干涸らびた少年の屍を離し――")
  ShowMessage("そして、こちらに魔性のこもった視線を向けた。")
  PictureDisplay(5,"80_nemea_st04",0,0,0,0,100,100,255,0)
  ShowMessageFace("nemea_fc1",3,0,2,11)
  ShowMessage("\\n<Nemea>")
  ShowMessage("あなた達も……もう楽になりたいんじゃないかしら？")
  ShowMessageFace("nemea_fc1",3,0,2,12)
  ShowMessage("\\n<Nemea>")
  ShowMessage("怖いでしょう？　辛いでしょう……？")
  ShowMessage("諦めて、お姉さんのものになりなさい。")
  ShowMessageFace("nemea_fc1",3,0,2,13)
  ShowMessage("\\n<Nemea>")
  ShowMessage("そうすれば、楽に気持ち良く逝かせてあげるわ。")
  ShowMessage("甘く優しく、とろけるような心地良さの中でね……")
  ShowMessageFace("",0,0,2,14)
  ShowMessage("誘うような視線と、甘い芳香。")
  ShowMessage("並の人間なら、命さえ投げ出してしまうほどの誘惑だ。")
  PictureClear(5)
  ShowMessageFace("kazuya_fc2",2,0,2,15)
  ShowMessage("\\n<Kazuya>")
  ShowMessage("白念くん……惑わされるなよ。")
  ShowMessageFace("byakunen_fc3",0,0,2,16)
  ShowMessage("\\n<Hakunen>")
  ShowMessage("はい、もちろん。")
  ShowMessage("誘惑に抗う精神、培ってきたつもりです！")
  Wait(30)
  205(30,bytes(0x04,0x08,0x6f,0x3a,0x13,0x52,0x50,0x47,0x3a,0x3a,0x4d,0x6f,0x76,0x65,0x52,0x6f,0x75,0x74,0x65,0x09,0x3a,0x0c,0x40,0x72,0x65,0x70,0x65,0x61,0x74,0x46,0x3a,0x0f,0x40,0x73,0x6b,0x69,0x70,0x70,0x61,0x62,0x6c,0x65,0x46,0x3a,0x0a,0x40,0x77,0x61,0x69,0x74,0x54,0x3a,0x0a,0x40,0x6c,0x69,0x73,0x74,0x5b,0x09,0x6f,0x3a,0x15,0x52,0x50,0x47,0x3a,0x3a,0x4d,0x6f,0x76,0x65,0x43,0x6f,0x6d,0x6d,0x61,0x6e,0x64,0x07,0x3a,0x0a,0x40,0x63,0x6f,0x64,0x65,0x69,0x2a,0x3a,0x10,0x40,0x70,0x61,0x72,0x61,0x6d,0x65,0x74,0x65,0x72,0x73,0x5b,0x00,0x6f,0x3b,0x0a,0x07,0x3b,0x0b,0x69,0x09,0x3b,0x0c,0x5b,0x00,0x6f,0x3b,0x0a,0x07,0x3b,0x0b,0x69,0x2b,0x3b,0x0c,0x5b,0x00,0x6f,0x3b,0x0a,0x07,0x3b,0x0b,0x69,0x00,0x3b,0x0c,0x5b,0x00))
  ScrollMap(8,5,4)
  ShowMessageFace("nemea_fc1",5,0,2,17)
  ShowMessage("\\n<Nemea>")
  ShowMessage("さあ、いらっしゃい……")
  ShowMessage("極上の快楽の中で、天国に逝かせてあげるから。")
  ShowMessageFace("kazuya_fc2",2,0,2,18)
  ShowMessage("\\n<Kazuya>")
  ShowMessage("……とにかく、ここから逃げよう。")
  ShowMessage("あいつに捕まったら終わりだ。")
  ShowMessageFace("byakunen_fc1",0,0,2,19)
  ShowMessage("\\n<Hakunen>")
  ShowMessage("逃げ足ならば、自信はあります！")
  ShowMessage("カズヤさんも、全力で走って下さいね！")
  241(bytes(0x04,0x08,0x6f,0x3a,0x0d,0x52,0x50,0x47,0x3a,0x3a,0x42,0x47,0x4d,0x08,0x3a,0x0a,0x40,0x6e,0x61,0x6d,0x65,0x49,0x22,0x0a,0x6b,0x69,0x6b,0x69,0x31,0x06,0x3a,0x06,0x45,0x54,0x3a,0x0c,0x40,0x76,0x6f,0x6c,0x75,0x6d,0x65,0x69,0x69,0x3a,0x0b,0x40,0x70,0x69,0x74,0x63,0x68,0x69,0x69))
  250(bytes(0x04,0x08,0x6f,0x3a,0x0c,0x52,0x50,0x47,0x3a,0x3a,0x53,0x45,0x08,0x3a,0x0a,0x40,0x6e,0x61,0x6d,0x65,0x49,0x22,0x0c,0x50,0x6f,0x77,0x65,0x72,0x75,0x70,0x06,0x3a,0x06,0x45,0x54,0x3a,0x0b,0x40,0x70,0x69,0x74,0x63,0x68,0x69,0x69,0x3a,0x0c,0x40,0x76,0x6f,0x6c,0x75,0x6d,0x65,0x69,0x55))
  216(1)
  ShowMessageFace("",0,1,1,20)
  ShowMessage("追いかけてくるネメアから逃げ切れ！")
  ShowMessage("捕まってしまうとゲームオーバーだ！")
  Wait(30)
  ChangeVariable(1206,1206,0,0,3)
  ChangeSaveEnabled(0)
  EndEventProcessing()
  0()
 PAGE   2
  // condition: variable 1206 >= 3
  0()



EVENT   73
 PAGE   1
  // condition: variable 1206 >= 5
  241(bytes(0x04,0x08,0x6f,0x3a,0x0d,0x52,0x50,0x47,0x3a,0x3a,0x42,0x47,0x4d,0x08,0x3a,0x0a,0x40,0x6e,0x61,0x6d,0x65,0x49,0x22,0x0a,0x6b,0x69,0x6b,0x69,0x32,0x06,0x3a,0x06,0x45,0x54,0x3a,0x0c,0x40,0x76,0x6f,0x6c,0x75,0x6d,0x65,0x69,0x69,0x3a,0x0b,0x40,0x70,0x69,0x74,0x63,0x68,0x69,0x69))
  PictureDisplay(5,"80_vinum_st03",0,0,0,0,100,100,0,0)
  PictureMove(5,null,0,0,0,0,100,100,255,0,30,true)
  ShowMessageFace("vinum_fc1",2,0,2,1)
  ShowMessage("\\n<Vinum>")
  ShowMessage("……小僧どもか。")
  ShowMessage("幸運だったのう、儂は今読書中じゃ。")
  ShowMessageFace("",0,0,2,2)
  ShowMessage("ヴィヌムは、こちらに視線をやろうともしない。")
  ShowMessage("まるで僕達に興味はないようだ――")
  ShowMessageFace("vinum_fc1",2,0,2,3)
  ShowMessage("\\n<Vinum>")
  ShowMessage("さっさと行くが良い……")
  ShowMessage("静かにしておれば、今は見逃してやろう。")
  PictureClear(5)
  ShowMessageFace("kazuya_fc2",2,0,2,4)
  ShowMessage("\\n<Kazuya>")
  ShowMessage("……………………")
  ShowMessageFace("byakunen_fc1",0,0,2,5)
  ShowMessage("\\n<Hakunen>")
  ShowMessage("……………………")
  ShowMessageFace("",0,0,2,6)
  ShowMessage("僕と白念は、静かに頷き合った。")
  ShowMessage("ヴィヌムの気を害さなければ、ここを通れるようだ。")
  ShowMessageFace("",0,0,2,7)
  ShowMessage("ただし、騒音を立ててしまうと読書が中断されかねない。")
  ShowMessage("なるべく、音を出さないようにしながら進まなければ――")
  241(bytes(0x04,0x08,0x6f,0x3a,0x0d,0x52,0x50,0x47,0x3a,0x3a,0x42,0x47,0x4d,0x08,0x3a,0x0a,0x40,0x6e,0x61,0x6d,0x65,0x49,0x22,0x16,0x64,0x75,0x6e,0x67,0x65,0x6f,0x6e,0x5f,0x74,0x61,0x72,0x75,0x74,0x61,0x72,0x6f,0x31,0x06,0x3a,0x06,0x45,0x54,0x3a,0x0c,0x40,0x76,0x6f,0x6c,0x75,0x6d,0x65,0x69,0x69,0x3a,0x0b,0x40,0x70,0x69,0x74,0x63,0x68,0x69,0x69))
  250(bytes(0x04,0x08,0x6f,0x3a,0x0c,0x52,0x50,0x47,0x3a,0x3a,0x53,0x45,0x08,0x3a,0x0a,0x40,0x6e,0x61,0x6d,0x65,0x49,0x22,0x0c,0x50,0x6f,0x77,0x65,0x72,0x75,0x70,0x06,0x3a,0x06,0x45,0x54,0x3a,0x0b,0x40,0x70,0x69,0x74,0x63,0x68,0x69,0x69,0x3a,0x0c,0x40,0x76,0x6f,0x6c,0x75,0x6d,0x65,0x69,0x55))
  ShowMessageFace("",0,1,1,8)
  ShowMessage("音を立てずに進め！")
  ShowMessage("騒音を出してしまうとゲームオーバーだ！")
  Wait(30)
  ChangeVariable(1206,1206,0,0,6)
  EndEventProcessing()
  0()
 PAGE   2
  // condition: variable 1206 >= 6
  0()



EVENT   74
 PAGE   1
  RunCommonEvent(512)
  0()



EVENT   75
 PAGE   1
  RunCommonEvent(512)
  0()



EVENT   76
 PAGE   1
  RunCommonEvent(512)
  0()



EVENT   77
 PAGE   1
  RunCommonEvent(512)
  0()



EVENT   78
 PAGE   1
  RunCommonEvent(512)
  0()



EVENT   79
 PAGE   1
  RunCommonEvent(512)
  0()



EVENT   80
 PAGE   1
  RunCommonEvent(512)
  0()



EVENT   81
 PAGE   1
  RunCommonEvent(512)
  0()



EVENT   82
 PAGE   1
  RunCommonEvent(512)
  0()



EVENT   83
 PAGE   1
  RunCommonEvent(512)
  0()



EVENT   84
 PAGE   1
  RunCommonEvent(512)
  0()



EVENT   85
 PAGE   1
  RunCommonEvent(512)
  0()



EVENT   86
 PAGE   1
  RunCommonEvent(512)
  0()



EVENT   87
 PAGE   1
  RunCommonEvent(512)
  0()



EVENT   88
 PAGE   1
  RunCommonEvent(512)
  0()



EVENT   89
 PAGE   1
  RunCommonEvent(512)
  0()



EVENT   90
 PAGE   1
  RunCommonEvent(512)
  0()



EVENT   91
 PAGE   1
  RunCommonEvent(512)
  0()



EVENT   92
 PAGE   1
  RunCommonEvent(512)
  0()



EVENT   93
 PAGE   1
  RunCommonEvent(512)
  0()



EVENT   94
 PAGE   1
  RunCommonEvent(512)
  0()



EVENT   95
 PAGE   1
  RunCommonEvent(512)
  0()



EVENT   96
 PAGE   1
  RunCommonEvent(512)
  0()



EVENT   97
 PAGE   1
  RunCommonEvent(512)
  0()



EVENT   98
 PAGE   1
  RunCommonEvent(513)
  0()



EVENT   99
 PAGE   1
  RunCommonEvent(513)
  0()



EVENT   100
 PAGE   1
  RunCommonEvent(513)
  0()



EVENT   101
 PAGE   1
  // condition: variable 1206 >= 7
  241(bytes(0x04,0x08,0x6f,0x3a,0x0d,0x52,0x50,0x47,0x3a,0x3a,0x42,0x47,0x4d,0x08,0x3a,0x0a,0x40,0x6e,0x61,0x6d,0x65,0x49,0x22,0x0f,0x6b,0x61,0x67,0x65,0x74,0x75,0x6d,0x75,0x67,0x69,0x06,0x3a,0x06,0x45,0x54,0x3a,0x0c,0x40,0x76,0x6f,0x6c,0x75,0x6d,0x65,0x69,0x69,0x3a,0x0b,0x40,0x70,0x69,0x74,0x63,0x68,0x69,0x69))
  ShowMessageFace("kagetumugi_fc1",4,0,2,1)
  ShowMessage("\\n<影紬>")
  ShowMessage("これも不良個体……")
  ShowMessage("思念を模したAIなど、ろくに使い物にはなりませんか……")
  ShowMessageFace("byakunen_fc1",0,0,2,2)
  ShowMessage("\\n<Hakunen>")
  ShowMessage("あれは……黒子？")
  ShowMessageFace("kazuya_fc2",2,0,2,3)
  ShowMessage("\\n<Kazuya>")
  ShowMessage("……お前は何者だ？")
  ShowMessage("同盟者の一味か……！？")
  205(55,bytes(0x04,0x08,0x6f,0x3a,0x13,0x52,0x50,0x47,0x3a,0x3a,0x4d,0x6f,0x76,0x65,0x52,0x6f,0x75,0x74,0x65,0x09,0x3a,0x0c,0x40,0x72,0x65,0x70,0x65,0x61,0x74,0x46,0x3a,0x0f,0x40,0x73,0x6b,0x69,0x70,0x70,0x61,0x62,0x6c,0x65,0x46,0x3a,0x0a,0x40,0x77,0x61,0x69,0x74,0x54,0x3a,0x0a,0x40,0x6c,0x69,0x73,0x74,0x5b,0x07,0x6f,0x3a,0x15,0x52,0x50,0x47,0x3a,0x3a,0x4d,0x6f,0x76,0x65,0x43,0x6f,0x6d,0x6d,0x61,0x6e,0x64,0x07,0x3a,0x0a,0x40,0x63,0x6f,0x64,0x65,0x69,0x16,0x3a,0x10,0x40,0x70,0x61,0x72,0x61,0x6d,0x65,0x74,0x65,0x72,0x73,0x5b,0x00,0x6f,0x3b,0x0a,0x07,0x3b,0x0b,0x69,0x00,0x3b,0x0c,0x5b,0x00))
  PictureDisplay(5,"80_kagetumugi_st51",0,0,0,0,100,100,0,0)
  PictureMove(5,null,0,0,0,0,100,100,255,0,60,true)
  ShowMessageFace("kagetumugi_fc1",0,0,2,4)
  ShowMessage("\\n<影紬>")
  ShowMessage("私は、同盟者ではありません。")
  ShowMessage("この世界に息づき、この世界に活きる者ですよ。")
  ShowMessageFace("kagetumugi_fc1",0,0,2,5)
  ShowMessage("\\n<影紬>")
  ShowMessage("同盟者達とは……多少、縁がありまして。")
  ShowMessage("こうして彼女達のゲームに、人形を供出しています。")
  ShowMessageFace("kazuya_fc2",3,0,2,6)
  ShowMessage("\\n<Kazuya>")
  ShowMessage("人形……躯をお前が供出した？")
  ShowMessage("いったい、どういう事なんだ！？")
  ShowMessageFace("kagetumugi_fc1",0,0,2,7)
  ShowMessage("\\n<影紬>")
  ShowMessage("この、躯という搾精人形――")
  ShowMessage("量産したのは、この私なのですよ。")
  ShowMessageFace("kazuya_fc2",2,0,2,8)
  ShowMessage("\\n<Kazuya>")
  ShowMessage("なんで、そんな事を――")
  ShowMessage("ヤツらに肩入れするためか？")
  ShowMessageFace("kagetumugi_fc1",0,0,2,9)
  ShowMessage("\\n<影紬>")
  ShowMessage("私は、人形遣い……")
  ShowMessage("面白い設計図があれば、造りたくなるのは必定。")
  ShowMessageFace("kazuya_fc2",2,0,2,10)
  ShowMessage("\\n<Kazuya>")
  ShowMessage("なぜ、躯の設計図をお前が……？")
  ShowMessageFace("kagetumugi_fc1",0,0,2,11)
  ShowMessage("\\n<影紬>")
  ShowMessage("とあるルートで、私の手に回ってきたのですよ。")
  ShowMessage("誰の手によるものかは、申し上げられません。")
  ShowMessageFace("kazuya_fc2",0,0,2,12)
  ShowMessage("\\n<Kazuya>")
  ShowMessage("だろうね……")
  ShowMessage("まぁ、おおかたの予想は付くけど……")
  ShowMessageFace("kazuya_fc2",0,0,2,13)
  ShowMessage("\\n<Kazuya>")
  ShowMessage("それじゃあ、質問を変えるよ。")
  ShowMessage("なぜ、こんなにたくさん造った？")
  ShowMessageFace("kagetumugi_fc1",0,0,2,14)
  ShowMessage("\\n<影紬>")
  ShowMessage("私の率いるサーカスに使えないものかと……")
  ShowMessage("少々、多めに造ってみたのですよ。")
  ShowMessageFace("kagetumugi_fc1",0,0,2,15)
  ShowMessage("\\n<影紬>")
  ShowMessage("ですが、この人形は精緻過ぎます。")
  ShowMessage("優れた造形ですが、量産には向きませんね。")
  ShowMessageFace("kazuya_fc2",0,0,2,16)
  ShowMessage("\\n<Kazuya>")
  ShowMessage("……なるほどね、合点がいったよ。")
  ShowMessageFace("",0,0,2,17)
  ShowMessage("僕の知っている躯より完成度が高く――")
  ShowMessage("そして、その動作や言動に関する違和感の正体。")
  ShowMessageFace("",0,0,2,18)
  ShowMessage("やはり僕の知っている躯そのものではなく、量産された人形だったのだ。")
  ShowMessage("それも、思念を再現するというAIまで用いて――")
  ShowMessageFace("kazuya_fc2",0,0,2,19)
  ShowMessage("\\n<Kazuya>")
  ShowMessage("だけど、いくら別物だからって")
  ShowMessage("これ以上、『躯』を弄ばれるのはゴメンだ。")
  ShowMessageFace("kazuya_fc2",5,0,2,20)
  ShowMessage("\\n<Kazuya>")
  ShowMessage("今すぐその人形たちから離れてもらう……！")
  ShowMessage("さもなければ……！！")
  ShowMessageFace("byakunen_fc2",4,0,2,21)
  ShowMessage("\\n<Hakunen>")
  ShowMessage("か、カズヤさん！！")
  ShowMessage("おちついて……！")
  ShowMessageFace("kagetumugi_fc1",0,0,2,22)
  ShowMessage("\\n<影紬>")
  ShowMessage("それは失礼……貴方は、躯の縁者のようですね。")
  ShowMessage("ならば、少し確認してもらいたい事があるのですが。")
  ShowMessageFace("kagetumugi_fc1",0,0,2,23)
  ShowMessage("\\n<影紬>")
  ShowMessage("量産した中で、一体だけ異常個体があったのです。")
  ShowMessage("人格エミュレートのバグかとも思ったのですが……")
  PictureClear(5)
  Wait(30)
  TeleportEvent(102,0,55,107,4)
  ChangeSwitch(31,31,0)
  241(bytes(0x04,0x08,0x6f,0x3a,0x0d,0x52,0x50,0x47,0x3a,0x3a,0x42,0x47,0x4d,0x08,0x3a,0x0a,0x40,0x6e,0x61,0x6d,0x65,0x49,0x22,0x0c,0x62,0x6f,0x73,0x73,0x30,0x2d,0x32,0x06,0x3a,0x06,0x45,0x54,0x3a,0x0c,0x40,0x76,0x6f,0x6c,0x75,0x6d,0x65,0x69,0x69,0x3a,0x0b,0x40,0x70,0x69,0x74,0x63,0x68,0x69,0x69))
  205(102,bytes(0x04,0x08,0x6f,0x3a,0x13,0x52,0x50,0x47,0x3a,0x3a,0x4d,0x6f,0x76,0x65,0x52,0x6f,0x75,0x74,0x65,0x09,0x3a,0x0c,0x40,0x72,0x65,0x70,0x65,0x61,0x74,0x46,0x3a,0x0f,0x40,0x73,0x6b,0x69,0x70,0x70,0x61,0x62,0x6c,0x65,0x46,0x3a,0x0a,0x40,0x77,0x61,0x69,0x74,0x54,0x3a,0x0a,0x40,0x6c,0x69,0x73,0x74,0x5b,0x07,0x6f,0x3a,0x15,0x52,0x50,0x47,0x3a,0x3a,0x4d,0x6f,0x76,0x65,0x43,0x6f,0x6d,0x6d,0x61,0x6e,0x64,0x07,0x3a,0x0a,0x40,0x63,0x6f,0x64,0x65,0x69,0x07,0x3a,0x10,0x40,0x70,0x61,0x72,0x61,0x6d,0x65,0x74,0x65,0x72,0x73,0x5b,0x00,0x6f,0x3b,0x0a,0x07,0x3b,0x0b,0x69,0x00,0x3b,0x0c,0x5b,0x00))
  ShowMessageFace("",0,0,2,24)
  ShowMessage("影紬が、腕を軽く振ると――")
  ShowMessage("大きな葛籠から、一体の躯が這い出してきた。")
  PictureDisplay(5,"80_mukuro_st02",0,0,0,0,100,100,0,0)
  PictureMove(5,null,0,0,0,0,100,100,255,0,30,true)
  ShowMessageFace("mukuro_fc1",3,0,2,25)
  ShowMessage("\\n<Mukuro>")
  ShowMessage("……………………")
  PictureDisplay(5,"80_mukuro_st02",0,0,-150,0,100,100,0,0)
  PictureDisplay(6,"80_kagetumugi_st01",0,0,150,0,100,100,0,0)
  PictureMove(5,null,0,0,-150,0,100,100,255,0,30,false)
  PictureMove(6,null,0,0,150,0,100,100,255,0,30,true)
  ShowMessageFace("kagetumugi_fc1",0,0,2,26)
  ShowMessage("\\n<影紬>")
  ShowMessage("このように、命令は聞くのですが……")
  ShowMessage("うわごとのように、一つの名前を繰り返すのみ。")
  ShowMessageFace("mukuro_fc1",3,0,2,27)
  ShowMessage("\\n<Mukuro>")
  ShowMessage("…………カズヤ……")
  ShowMessageFace("kazuya_fc2",3,0,2,28)
  ShowMessage("\\n<Kazuya>")
  ShowMessage("…………！！")
  ShowMessageFace("kagetumugi_fc1",0,0,2,29)
  ShowMessage("\\n<影紬>")
  ShowMessage("おそらく、何らかのワードを求めているのでしょう。")
  ShowMessage("貴方ならば、起動トリガーに心当たりがあるのでは？")
  PictureClear(6)
  PictureDisplay(5,"80_mukuro_st02",0,0,0,0,100,100,255,0)
  ShowMessageFace("kazuya_fc2",2,0,2,30)
  ShowMessage("\\n<Kazuya>")
  ShowMessage("……………………")
  ShowMessageFace("",0,0,2,31)
  ShowMessage("あの目の色は、他の個体とは違う。")
  ShowMessage("機械的ではなく、より生気の宿った眼だ。")
  ShowMessageFace("",0,0,2,32)
  ShowMessage("もし躯以外で彼女を呼ぶ名前があるとすれば……")
  ShowMessage("もう、これしかない……")
  ShowMessageFace("",0,0,2,33)
  ShowMessage("躯に宿った彼女の『生前の名前』……")
  ShowMessage("僕の知っている、躯の本当の名前……")
  ShowMessageFace("kazuya_fc2",0,0,2,34)
  ShowMessage("\\n<Kazuya>")
  ShowMessage("『茜』……")
  ShowMessage("僕が分かるか……？")
  ShowMessageFace("mukuro_fc1",3,0,2,35)
  ShowMessage("\\n<Mukuro>")
  ShowMessage("あか……ね……")
  ShowMessage("私は……私は……そうだ……")
  ShowMessageFace("mukuro_fc1",3,0,2,36)
  ShowMessage("\\n<Mukuro>")
  ShowMessage("村のために……奈落の底に堕ちて……")
  ShowMessage("暗く……ふかくて……")
  PictureClear(5)
  Wait(30)
  205(102,bytes(0x04,0x08,0x6f,0x3a,0x13,0x52,0x50,0x47,0x3a,0x3a,0x4d,0x6f,0x76,0x65,0x52,0x6f,0x75,0x74,0x65,0x09,0x3a,0x0c,0x40,0x72,0x65,0x70,0x65,0x61,0x74,0x46,0x3a,0x0f,0x40,0x73,0x6b,0x69,0x70,0x70,0x61,0x62,0x6c,0x65,0x46,0x3a,0x0a,0x40,0x77,0x61,0x69,0x74,0x54,0x3a,0x0a,0x40,0x6c,0x69,0x73,0x74,0x5b,0x07,0x6f,0x3a,0x15,0x52,0x50,0x47,0x3a,0x3a,0x4d,0x6f,0x76,0x65,0x43,0x6f,0x6d,0x6d,0x61,0x6e,0x64,0x07,0x3a,0x0a,0x40,0x63,0x6f,0x64,0x65,0x69,0x07,0x3a,0x10,0x40,0x70,0x61,0x72,0x61,0x6d,0x65,0x74,0x65,0x72,0x73,0x5b,0x00,0x6f,0x3b,0x0a,0x07,0x3b,0x0b,0x69,0x00,0x3b,0x0c,0x5b,0x00))
  ShowMessageFace("kazuya_fc2",2,0,2,37)
  ShowMessage("\\n<Kazuya>")
  ShowMessage("ちょ、ちょっと……！！")
  ShowMessageFace("mukuro_fc1",3,0,2,38)
  ShowMessage("\\n<Mukuro>")
  ShowMessage("もう……独りはいやだ……")
  ShowMessage("誰か……誰か……そばにいて……")
  ShowMessageFace("mukuro_fc1",3,0,2,39)
  ShowMessage("\\n<Mukuro>")
  ShowMessage("私と一緒に……")
  ShowMessage("……堕ちて…………")
  ShowMessageFace("byakunen_fc2",0,0,2,40)
  ShowMessage("\\n<Hakunen>")
  ShowMessage("なんだか、様子がおかしいのですが……")
  ShowMessage("これで普通なのですか？")
  ShowMessageFace("kazuya_fc2",2,0,2,41)
  ShowMessage("\\n<Kazuya>")
  ShowMessage("いや、かなり不安定だ……！")
  ShowMessage("今の彼女は、僕の事が分かっていない……！！")
  ShowMessageFace("kazuya_fc2",2,0,2,42)
  ShowMessage("\\n<Kazuya>")
  ShowMessage("でも、これで確信が持てた……")
  ShowMessage("彼女は、僕の知っている『躯』だ……！！")
  205(102,bytes(0x04,0x08,0x6f,0x3a,0x13,0x52,0x50,0x47,0x3a,0x3a,0x4d,0x6f,0x76,0x65,0x52,0x6f,0x75,0x74,0x65,0x09,0x3a,0x0c,0x40,0x72,0x65,0x70,0x65,0x61,0x74,0x46,0x3a,0x0f,0x40,0x73,0x6b,0x69,0x70,0x70,0x61,0x62,0x6c,0x65,0x46,0x3a,0x0a,0x40,0x77,0x61,0x69,0x74,0x54,0x3a,0x0a,0x40,0x6c,0x69,0x73,0x74,0x5b,0x07,0x6f,0x3a,0x15,0x52,0x50,0x47,0x3a,0x3a,0x4d,0x6f,0x76,0x65,0x43,0x6f,0x6d,0x6d,0x61,0x6e,0x64,0x07,0x3a,0x0a,0x40,0x63,0x6f,0x64,0x65,0x69,0x07,0x3a,0x10,0x40,0x70,0x61,0x72,0x61,0x6d,0x65,0x74,0x65,0x72,0x73,0x5b,0x00,0x6f,0x3b,0x0a,0x07,0x3b,0x0b,0x69,0x00,0x3b,0x0c,0x5b,0x00))
  PictureDisplay(5,"80_mukuro_st02",0,0,0,0,100,100,0,0)
  PictureMove(5,null,0,0,0,0,100,100,255,0,30,true)
  ShowMessageFace("mukuro_fc1",3,0,2,43)
  ShowMessage("\\n<Mukuro>")
  ShowMessage("さあ、私と一緒に……")
  ShowMessage("奈落に堕ちよう……")
  ShowMessageFace("kazuya_fc2",2,0,2,44)
  ShowMessage("\\n<Kazuya>")
  ShowMessage("仕方ない……少し無茶するぞ！")
  ShowMessage("身体に大きな衝撃を与えて、僕に気付かせる！")
  ShowMessageFace("byakunen_fc1",0,0,2,45)
  ShowMessage("\\n<Hakunen>")
  ShowMessage("は、はい！！")
  ShowMessageFace("kazuya_fc2",2,0,2,46)
  ShowMessage("\\n<Kazuya>")
  ShowMessage("頼むから、正気を取り戻してくれ！")
  ShowMessage("躯！！")
  SetBattleBGM(bytes(0x04,0x08,0x6f,0x3a,0x0d,0x52,0x50,0x47,0x3a,0x3a,0x42,0x47,0x4d,0x08,0x3a,0x0a,0x40,0x6e,0x61,0x6d,0x65,0x49,0x22,0x0a,0x62,0x6f,0x73,0x73,0x31,0x06,0x3a,0x06,0x45,0x54,0x3a,0x0c,0x40,0x76,0x6f,0x6c,0x75,0x6d,0x65,0x69,0x69,0x3a,0x0b,0x40,0x70,0x69,0x74,0x63,0x68,0x69,0x69))
  Battle(0,1355,false,false)
  SetBattleBGM(bytes(0x04,0x08,0x6f,0x3a,0x0d,0x52,0x50,0x47,0x3a,0x3a,0x42,0x47,0x4d,0x08,0x3a,0x0a,0x40,0x6e,0x61,0x6d,0x65,0x49,0x22,0x0b,0x62,0x61,0x74,0x74,0x6c,0x65,0x06,0x3a,0x06,0x45,0x54,0x3a,0x0c,0x40,0x76,0x6f,0x6c,0x75,0x6d,0x65,0x69,0x69,0x3a,0x0b,0x40,0x70,0x69,0x74,0x63,0x68,0x69,0x69))
  241(bytes(0x04,0x08,0x6f,0x3a,0x0d,0x52,0x50,0x47,0x3a,0x3a,0x42,0x47,0x4d,0x08,0x3a,0x0a,0x40,0x6e,0x61,0x6d,0x65,0x49,0x22,0x13,0x73,0x63,0x65,0x6e,0x65,0x5f,0x6f,0x64,0x61,0x79,0x61,0x6b,0x61,0x32,0x06,0x3a,0x06,0x45,0x54,0x3a,0x0c,0x40,0x76,0x6f,0x6c,0x75,0x6d,0x65,0x69,0x69,0x3a,0x0b,0x40,0x70,0x69,0x74,0x63,0x68,0x69,0x69))
  ShowMessageFace("mukuro_fc1",3,0,2,47)
  ShowMessage("\\n<Mukuro>")
  ShowMessage("…………！！")
  ShowMessageFace("",0,0,2,48)
  ShowMessage("ダメージを受けた躯は、膝から崩れ落ちてしまった！")
  ShowMessageFace("kazuya_fc2",3,0,2,49)
  ShowMessage("\\n<Kazuya>")
  ShowMessage("茜！！　大丈夫か……！？")
  ShowMessageFace("mukuro_fc1",3,0,2,50)
  ShowMessage("\\n<Mukuro>")
  ShowMessage("……………………")
  ShowMessageFace("mukuro_fc1",3,0,2,51)
  ShowMessage("\\n<Mukuro>")
  ShowMessage("……言ったはずだぞ、カズヤ。")
  ShowMessage("私のことを、『茜』と呼ぶな、と……")
  ShowMessageFace("kazuya_fc2",6,0,2,52)
  ShowMessage("\\n<Kazuya>")
  ShowMessage("躯……！！")
  ShowMessage("僕が分かるんだな……！！")
  ShowMessageFace("",0,0,2,53)
  ShowMessage("未完成の搾精人形に、茜という魂が取り付いた悪魔――")
  ShowMessage("それが、躯なのだ。")
  ShowMessageFace("",0,0,2,54)
  ShowMessage("そして今、ようやく彼女は正気に戻ったらしい――")
  PictureDisplay(5,"80_kagetumugi_st51",0,0,0,0,100,100,0,0)
  PictureMove(5,null,0,0,0,0,100,100,255,0,30,true)
  ShowMessageFace("kagetumugi_fc1",0,0,2,55)
  ShowMessage("\\n<影紬>")
  ShowMessage("……なるほど、その名が起動ワードでしたか。")
  ShowMessage("なかなか面白いシステムが仕込まれたAIですね。")
  ShowMessageFace("kagetumugi_fc1",0,0,2,56)
  ShowMessage("\\n<影紬>")
  ShowMessage("人形に魂が宿る例は、珍しくもありませんが……")
  ShowMessage("その量産体にも、何らかの自我が芽生えるとは。")
  ShowMessageFace("kazuya_fc2",0,0,2,57)
  ShowMessage("\\n<Kazuya>")
  ShowMessage("……よく分からないけど、躯は躯だ。")
  ShowMessage("もうお前の操り人形じゃない……")
  ShowMessageFace("kagetumugi_fc1",0,0,2,58)
  ShowMessage("\\n<影紬>")
  ShowMessage("そう、もはや操り人形ではない……")
  ShowMessage("自我の芽生え、確かにこの私が見届けました。")
  ShowMessageFace("kazuya_fc2",0,0,2,59)
  ShowMessage("\\n<Kazuya>")
  ShowMessage("影紬……確かそう名乗ってたよな……")
  ShowMessage("次はお前が相手か……？")
  ShowMessageFace("kagetumugi_fc1",0,0,2,60)
  ShowMessage("\\n<影紬>")
  ShowMessage("いいえ……")
  ShowMessage("私は、あなた達の敵ではありませんよ。")
  ShowMessageFace("byakunen_fc3",0,0,2,61)
  ShowMessage("\\n<Hakunen>")
  ShowMessage("でも、この躯という人形をたくさん作って――")
  ShowMessageFace("kagetumugi_fc1",0,0,2,62)
  ShowMessage("\\n<影紬>")
  ShowMessage("そして、同盟者に供出しただけです。")
  ShowMessage("私自身は、この一件に介入するつもりはありませんよ。")
  ShowMessageFace("kazuya_fc4",7,0,2,63)
  ShowMessage("\\n<Kazuya>")
  ShowMessage("……………………")
  PictureDisplay(5,"80_mukuro_st02",0,0,-150,0,100,100,0,0)
  PictureDisplay(6,"80_kagetumugi_st01",0,0,150,0,100,100,0,0)
  PictureMove(5,null,0,0,-150,0,100,100,255,0,30,false)
  PictureMove(6,null,0,0,150,0,100,100,255,0,30,true)
  ShowMessageFace("kagetumugi_fc1",0,0,2,64)
  ShowMessage("\\n<影紬>")
  ShowMessage("さて――この躯は、どうしましょう。")
  ShowMessage("目覚めたばかりの自我で、貴方は何を選択しますか？")
  ShowMessageFace("mukuro_fc1",3,0,2,65)
  ShowMessage("\\n<Mukuro>")
  ShowMessage("正直、まだ状況が把握しきれていないが……")
  ShowMessage("私の答えは決まっている……")
  ShowMessageFace("mukuro_fc1",3,0,2,66)
  ShowMessage("\\n<Mukuro>")
  ShowMessage("私は……この身を挺してカズヤを守る。")
  ShowMessageFace("kagetumugi_fc1",0,0,2,67)
  ShowMessage("\\n<影紬>")
  ShowMessage("なるほど……では、その意志を尊重しましょう。")
  ShowMessage("カズヤと言いましたね、躯をあなたに託します。")
  ShowMessageFace("kagetumugi_fc1",0,0,2,68)
  ShowMessage("\\n<影紬>")
  ShowMessage("その躯は、私の手が入った改造品……")
  ShowMessage("仕込まれた戦闘ギミックは、貴方への手向けとしましょう。")
  ShowMessageFace("kazuya_fc2",0,0,2,69)
  ShowMessage("\\n<Kazuya>")
  ShowMessage("影紬……なぜ、僕達に躯を？")
  ShowMessageFace("kagetumugi_fc1",0,0,2,70)
  ShowMessage("\\n<影紬>")
  ShowMessage("……その方が、人形も幸せでしょう。")
  ShowMessageFace("kazuya_fc2",2,0,2,71)
  ShowMessage("\\n<Kazuya>")
  ShowMessage("……………………")
  PictureClear(6)
  PictureDisplay(5,"iv_kagetumugi_c1",0,0,0,0,100,100,0,0)
  PictureMove(5,null,0,0,0,0,100,100,255,0,60,true)
  ShowMessageFace("kagetumugi_fc1",0,0,2,72)
  ShowMessage("\\n<影紬>")
  ShowMessage("それでは、私はこれで失礼いたします。")
  ShowMessage("近く大規模な公演を予定しておりますので、お楽しみに。")
  ShowMessageFace("",0,0,2,73)
  ShowMessage("背中を向け、立ち去ろうとする影紬――")
  ShowMessage("その背に、僕は一つだけ問い掛けた。")
  ShowMessageFace("kazuya_fc2",0,0,2,74)
  ShowMessage("\\n<Kazuya>")
  ShowMessage("聞かせてくれ、影紬……")
  ShowMessage("君は人形遣いか？　それとも、操り人形か？")
  241(bytes(0x04,0x08,0x6f,0x3a,0x0d,0x52,0x50,0x47,0x3a,0x3a,0x42,0x47,0x4d,0x08,0x3a,0x0a,0x40,0x6e,0x61,0x6d,0x65,0x49,0x22,0x00,0x06,0x3a,0x06,0x45,0x54,0x3a,0x0c,0x40,0x76,0x6f,0x6c,0x75,0x6d,0x65,0x69,0x69,0x3a,0x0b,0x40,0x70,0x69,0x74,0x63,0x68,0x69,0x69))
  ShowMessageFace("kagetumugi_fc1",0,0,2,75)
  ShowMessage("\\n<影紬>")
  ShowMessage("……………………")
  241(bytes(0x04,0x08,0x6f,0x3a,0x0d,0x52,0x50,0x47,0x3a,0x3a,0x42,0x47,0x4d,0x08,0x3a,0x0a,0x40,0x6e,0x61,0x6d,0x65,0x49,0x22,0x0c,0x62,0x6f,0x73,0x73,0x30,0x2d,0x33,0x06,0x3a,0x06,0x45,0x54,0x3a,0x0c,0x40,0x76,0x6f,0x6c,0x75,0x6d,0x65,0x69,0x69,0x3a,0x0b,0x40,0x70,0x69,0x74,0x63,0x68,0x69,0x69))
  250(bytes(0x04,0x08,0x6f,0x3a,0x0c,0x52,0x50,0x47,0x3a,0x3a,0x53,0x45,0x08,0x3a,0x0a,0x40,0x6e,0x61,0x6d,0x65,0x49,0x22,0x0e,0x6d,0x6f,0x6e,0x5f,0x64,0x6f,0x6f,0x72,0x31,0x06,0x3a,0x06,0x45,0x54,0x3a,0x0b,0x40,0x70,0x69,0x74,0x63,0x68,0x69,0x69,0x3a,0x0c,0x40,0x76,0x6f,0x6c,0x75,0x6d,0x65,0x69,0x69))
  PictureDisplay(5,"iv_kagetumugi_c2",0,0,0,0,100,100,255,0)
  ShowMessageFace("kagetumugi_fc1",0,0,2,76)
  ShowMessage("\\n<影紬>")
  ShowMessage("私は、操り人形では、ない。")
  ShowMessageFace("byakunen_fc2",0,0,2,77)
  ShowMessage("\\n<Hakunen>")
  ShowMessage("――――！？")
  ShowMessageFace("kazuya_fc2",2,0,2,78)
  ShowMessage("\\n<Kazuya>")
  ShowMessage("…………！！")
  PictureClear(5)
  Wait(30)
  212(55,542,false)
  Wait(60)
  ChangeVariable(1206,1206,0,0,8)
  Wait(60)
  241(bytes(0x04,0x08,0x6f,0x3a,0x0d,0x52,0x50,0x47,0x3a,0x3a,0x42,0x47,0x4d,0x08,0x3a,0x0a,0x40,0x6e,0x61,0x6d,0x65,0x49,0x22,0x16,0x64,0x75,0x6e,0x67,0x65,0x6f,0x6e,0x5f,0x74,0x61,0x72,0x75,0x74,0x61,0x72,0x6f,0x31,0x06,0x3a,0x06,0x45,0x54,0x3a,0x0c,0x40,0x76,0x6f,0x6c,0x75,0x6d,0x65,0x69,0x69,0x3a,0x0b,0x40,0x70,0x69,0x74,0x63,0x68,0x69,0x69))
  ShowMessageFace("",0,0,2,79)
  ShowMessage("少し動きを止めた後――")
  ShowMessage("影紬は、そのまま消え去ってしまった。")
  ShowMessageFace("byakunen_fc2",0,0,2,80)
  ShowMessage("\\n<Hakunen>")
  ShowMessage("影紬さん……あの方は、いったい……")
  ShowMessageFace("kazuya_fc2",2,0,2,81)
  ShowMessage("\\n<Kazuya>")
  ShowMessage("最初から、人間だとは思ってなかったけどな……")
  ShowMessageFace("",0,0,2,82)
  ShowMessage("それにしても、予想以上の人外だ。")
  ShowMessage("あのまま立ち去ってくれて、本当に良かった。")
  ShowMessageFace("byakunen_fc1",2,0,2,83)
  ShowMessage("\\n<Hakunen>")
  ShowMessage("あの方、躯さんを「託す」と言っていましたよね。")
  ShowMessage("「差し上げる」でも「譲る」でもなく……")
  ShowMessageFace("kazuya_fc2",0,0,2,84)
  ShowMessage("\\n<Kazuya>")
  ShowMessage("ああ……")
  ShowMessageFace("",0,0,2,85)
  ShowMessage("あの、影紬とやら――")
  ShowMessage("人形には、なんらかの深い思い入れがあるようだ。")
  241(bytes(0x04,0x08,0x6f,0x3a,0x0d,0x52,0x50,0x47,0x3a,0x3a,0x42,0x47,0x4d,0x08,0x3a,0x0a,0x40,0x6e,0x61,0x6d,0x65,0x49,0x22,0x14,0x73,0x63,0x65,0x6e,0x65,0x5f,0x65,0x70,0x69,0x6c,0x6f,0x67,0x75,0x65,0x32,0x06,0x3a,0x06,0x45,0x54,0x3a,0x0c,0x40,0x76,0x6f,0x6c,0x75,0x6d,0x65,0x69,0x69,0x3a,0x0b,0x40,0x70,0x69,0x74,0x63,0x68,0x69,0x69))
  205(102,bytes(0x04,0x08,0x6f,0x3a,0x13,0x52,0x50,0x47,0x3a,0x3a,0x4d,0x6f,0x76,0x65,0x52,0x6f,0x75,0x74,0x65,0x09,0x3a,0x0c,0x40,0x72,0x65,0x70,0x65,0x61,0x74,0x46,0x3a,0x0f,0x40,0x73,0x6b,0x69,0x70,0x70,0x61,0x62,0x6c,0x65,0x46,0x3a,0x0a,0x40,0x77,0x61,0x69,0x74,0x54,0x3a,0x0a,0x40,0x6c,0x69,0x73,0x74,0x5b,0x07,0x6f,0x3a,0x15,0x52,0x50,0x47,0x3a,0x3a,0x4d,0x6f,0x76,0x65,0x43,0x6f,0x6d,0x6d,0x61,0x6e,0x64,0x07,0x3a,0x0a,0x40,0x63,0x6f,0x64,0x65,0x69,0x17,0x3a,0x10,0x40,0x70,0x61,0x72,0x61,0x6d,0x65,0x74,0x65,0x72,0x73,0x5b,0x00,0x6f,0x3b,0x0a,0x07,0x3b,0x0b,0x69,0x00,0x3b,0x0c,0x5b,0x00))
  PictureDisplay(5,"80_mukuro_st02",0,0,0,0,100,100,0,0)
  PictureMove(5,null,0,0,0,0,100,100,255,0,30,true)
  ShowMessageFace("mukuro_fc1",3,0,2,86)
  ShowMessage("\\n<Mukuro>")
  ShowMessage("……なんだか、妙な光景だな。")
  ShowMessage("私と同じ身体が、ごろごろ転がっている……")
  205(102,bytes(0x04,0x08,0x6f,0x3a,0x13,0x52,0x50,0x47,0x3a,0x3a,0x4d,0x6f,0x76,0x65,0x52,0x6f,0x75,0x74,0x65,0x09,0x3a,0x0c,0x40,0x72,0x65,0x70,0x65,0x61,0x74,0x46,0x3a,0x0f,0x40,0x73,0x6b,0x69,0x70,0x70,0x61,0x62,0x6c,0x65,0x46,0x3a,0x0a,0x40,0x77,0x61,0x69,0x74,0x54,0x3a,0x0a,0x40,0x6c,0x69,0x73,0x74,0x5b,0x07,0x6f,0x3a,0x15,0x52,0x50,0x47,0x3a,0x3a,0x4d,0x6f,0x76,0x65,0x43,0x6f,0x6d,0x6d,0x61,0x6e,0x64,0x07,0x3a,0x0a,0x40,0x63,0x6f,0x64,0x65,0x69,0x16,0x3a,0x10,0x40,0x70,0x61,0x72,0x61,0x6d,0x65,0x74,0x65,0x72,0x73,0x5b,0x00,0x6f,0x3b,0x0a,0x07,0x3b,0x0b,0x69,0x00,0x3b,0x0c,0x5b,0x00))
  ShowMessageFace("mukuro_fc1",3,0,2,87)
  ShowMessage("\\n<Mukuro>")
  ShowMessage("それに、この身体……")
  ShowMessage("以前のものより、かなり動きやすいぞ。")
  ShowMessageFace("kazuya_fc2",0,0,2,88)
  ShowMessage("\\n<Kazuya>")
  ShowMessage("僕の世界の時は、未完成の身体だったからね。")
  ShowMessage("量産してたし、それが完成形なんだと思う……")
  ShowMessageFace("mukuro_fc1",3,0,2,89)
  ShowMessage("\\n<Mukuro>")
  ShowMessage("……………………")
  ShowMessageFace("mukuro_fc1",3,0,2,90)
  ShowMessage("\\n<Mukuro>")
  ShowMessage("……『僕の世界』、か……")
  ShowMessage("カズヤ……私はおそらく、お前の知っている躯とも少し違う。")
  ShowMessageFace("mukuro_fc1",3,0,2,91)
  ShowMessage("\\n<Mukuro>")
  ShowMessage("お前が自分の世界に帰ることになっても")
  ShowMessage("おそらく私は……そこに帰ることはできない。")
  ShowMessageFace("mukuro_fc1",3,0,2,92)
  ShowMessage("\\n<Mukuro>")
  ShowMessage("お前の世界には、お前の世界の躯が居るんだ。")
  ShowMessage("それでもいいのか、カズヤ……")
  ShowMessageFace("kazuya_fc2",1,0,2,93)
  ShowMessage("\\n<Kazuya>")
  ShowMessage("大丈夫だよ、分かってる……")
  ShowMessage("どんな世界にあっても、躯は躯さ。")
  ShowMessageFace("kazuya_fc2",1,0,2,94)
  ShowMessage("\\n<Kazuya>")
  ShowMessage("それに、僕自身も心で感じてるんだ。")
  ShowMessage("キミは間違いなく、僕と精神で『繋がってる』。")
  ShowMessageFace("kazuya_fc2",1,0,2,95)
  ShowMessage("\\n<Kazuya>")
  ShowMessage("僕の心の中に在る、僕が知っている『躯』だ。")
  ShowMessage("……それだけの理由じゃ、不服かい？")
  ShowMessageFace("mukuro_fc1",3,0,2,96)
  ShowMessage("\\n<Mukuro>")
  ShowMessage("……………………")
  ShowMessageFace("mukuro_fc1",3,0,2,97)
  ShowMessage("\\n<Mukuro>")
  ShowMessage("ありがとう、カズヤ……")
  PictureClear(5)
  205(102,bytes(0x04,0x08,0x6f,0x3a,0x13,0x52,0x50,0x47,0x3a,0x3a,0x4d,0x6f,0x76,0x65,0x52,0x6f,0x75,0x74,0x65,0x09,0x3a,0x0c,0x40,0x72,0x65,0x70,0x65,0x61,0x74,0x46,0x3a,0x0f,0x40,0x73,0x6b,0x69,0x70,0x70,0x61,0x62,0x6c,0x65,0x46,0x3a,0x0a,0x40,0x77,0x61,0x69,0x74,0x54,0x3a,0x0a,0x40,0x6c,0x69,0x73,0x74,0x5b,0x09,0x6f,0x3a,0x15,0x52,0x50,0x47,0x3a,0x3a,0x4d,0x6f,0x76,0x65,0x43,0x6f,0x6d,0x6d,0x61,0x6e,0x64,0x07,0x3a,0x0a,0x40,0x63,0x6f,0x64,0x65,0x69,0x2a,0x3a,0x10,0x40,0x70,0x61,0x72,0x61,0x6d,0x65,0x74,0x65,0x72,0x73,0x5b,0x00,0x6f,0x3b,0x0a,0x07,0x3b,0x0b,0x69,0x0f,0x3b,0x0c,0x5b,0x00,0x6f,0x3b,0x0a,0x07,0x3b,0x0b,0x69,0x2c,0x3b,0x0c,0x5b,0x00,0x6f,0x3b,0x0a,0x07,0x3b,0x0b,0x69,0x00,0x3b,0x0c,0x5b,0x00))
  355("add_temp_actors(817)")
  249(bytes(0x04,0x08,0x6f,0x3a,0x0c,0x52,0x50,0x47,0x3a,0x3a,0x4d,0x45,0x08,0x3a,0x0a,0x40,0x6e,0x61,0x6d,0x65,0x49,0x22,0x0c,0x66,0x61,0x6e,0x66,0x61,0x6c,0x65,0x06,0x3a,0x06,0x45,0x54,0x3a,0x0b,0x40,0x70,0x69,0x74,0x63,0x68,0x69,0x69,0x3a,0x0c,0x40,0x76,0x6f,0x6c,0x75,0x6d,0x65,0x69,0x69))
  ShowMessageFace("",0,0,2,98)
  ShowMessage("躯が仲間に加わった！")
  Wait(60)
  ChangeSwitch(31,31,1)
  ShowMessageFace("byakunen_fc1",1,0,2,99)
  ShowMessage("\\n<Hakunen>")
  ShowMessage("よろしくお願いします、躯さん。")
  ShowMessage("一緒にがんばりましょう！")
  ShowMessageFace("lanpass_fc2",0,0,2,100)
  ShowMessage("\\n<Lampas>")
  ShowMessage("躯ちゃん、よろしくね～♪")
  ShowMessageFace("youkosan_fc1",0,0,2,101)
  ShowMessage("\\n<Dream Fox>")
  ShowMessage("よろしくね～♪")
  ShowMessage("ウチとランパスちゃんは、いまや仲良しコンビ♪")
  ShowMessageFace("mukuro_fc1",3,0,2,102)
  ShowMessage("\\n<Mukuro>")
  ShowMessage("このランパスは……別個体なのか。")
  ShowMessage("雰囲気が微妙に違うが……")
  ShowMessageFace("mukuro_fc1",3,0,2,103)
  ShowMessage("\\n<Mukuro>")
  ShowMessage("その割には、随分と仲が良さそうだな、カズヤ。")
  ShowMessage("……このことを彼女は知っているのか？")
  ShowMessageFace("kazuya_fc2",2,0,2,104)
  ShowMessage("\\n<Kazuya>")
  ShowMessage("え、えっと……その辺は話すと長くなるから……")
  ShowMessage("後で落ち着いたときにゆっくり説明するよ……")
  ShowMessageFace("lanpass_fc2",0,0,2,105)
  ShowMessage("\\n<Lampas>")
  ShowMessage("あれ……ちょっと待って？")
  ShowMessage("戦闘パーティはたしか、最大四人だよね……？")
  ShowMessageFace("lanpass_fc2",0,0,2,106)
  ShowMessage("\\n<Lampas>")
  ShowMessage("躯ちゃんが入って、五人になるって事は……")
  ShowMessageFace("youkosan_fc1",0,0,2,107)
  ShowMessage("\\n<Dream Fox>")
  ShowMessage("つまり……一人あぶれるね。")
  ShowMessage("この中の誰かが――")
  ShowMessageFace("lanpass_fc2",5,0,2,108)
  ShowMessage("\\n<Lampas>")
  ShowMessage("……………………")
  ShowMessageFace("youkosan_fc1",3,0,2,109)
  ShowMessage("\\n<Dream Fox>")
  ShowMessage("……………………")
  ShowMessageFace("lanpass_fc2",0,0,2,110)
  ShowMessage("\\n<Lampas>")
  ShowMessage("夢狐ちゃんって防御が弱いから、")
  ShowMessage("ちょっとした攻撃で大ダメージだよ。")
  ShowMessageFace("youkosan_fc1",0,0,2,111)
  ShowMessage("\\n<Dream Fox>")
  ShowMessage("ランパスちゃんって、")
  ShowMessage("炎を食らったらすっごく燃えるよ。")
  ShowMessageFace("kazuya_fc2",2,0,2,112)
  ShowMessage("\\n<Kazuya>")
  ShowMessage("いまや仲良しコンビ♪じゃなかったのか……")
  ShowMessageFace("byakunen_fc1",0,0,2,113)
  ShowMessage("\\n<Hakunen>")
  ShowMessage("意外ですね、お二人とも……")
  ShowMessage("むしろ、サボりたがると思ったのに。")
  ShowMessageFace("lanpass_fc2",3,0,2,114)
  ShowMessage("\\n<Lampas>")
  ShowMessage("サボるのは好きだけど、待たされるのはイヤ！！")
  ShowMessage("私は適度にサボりながら相手に求められたいの！")
  ShowMessageFace("lanpass_fc2",2,0,2,115)
  ShowMessage("\\n<Lampas>")
  ShowMessage("……ってか、白念君わりと口が悪いよね。")
  ShowMessageFace("youkosan_fc1",2,0,2,116)
  ShowMessage("\\n<Dream Fox>")
  ShowMessage("戦力外通告はやめて～！")
  ShowMessage("せめて、ローテーションにして～！")
  ShowMessageFace("kazuya_fc2",2,0,2,117)
  ShowMessage("\\n<Kazuya>")
  ShowMessage("……………………")
  ShowMessageFace("byakunen_fc1",0,0,2,118)
  ShowMessage("\\n<Hakunen>")
  ShowMessage("カズヤさん、どうされたんですか？")
  ShowMessageFace("kazuya_fc2",0,0,2,119)
  ShowMessage("\\n<Kazuya>")
  ShowMessage("いや……ちょっとね。")
  ShowMessage("さっきの一連の出来事で、ちょっと考え事……")
  ShowMessageFace("",0,0,2,120)
  ShowMessage("影紬は、躯の設計図がこの世界に渡ったと言っていた。")
  ShowMessage("だとしたら、この一件に関わっている人物は――")
  ShowMessageFace("kazuya_fc2",2,0,2,121)
  ShowMessage("\\n<Kazuya>")
  ShowMessage("……あの博士、近頃は妙に羽振りが良かったな。")
  ShowMessage("慢性的な資金不足を嘆いていたはずなのに……")
  ShowMessageFace("kazuya_fc2",3,0,2,122)
  ShowMessage("\\n<Kazuya>")
  ShowMessage("どういう経緯であれ……")
  ShowMessage("帰ったら覚えてろよあのクソ天狗……！！")
  ShowMessageFace("byakunen_fc1",2,0,2,123)
  ShowMessage("\\n<Hakunen>")
  ShowMessage("…………？")
  241(bytes(0x04,0x08,0x6f,0x3a,0x0d,0x52,0x50,0x47,0x3a,0x3a,0x42,0x47,0x4d,0x08,0x3a,0x0a,0x40,0x6e,0x61,0x6d,0x65,0x49,0x22,0x16,0x64,0x75,0x6e,0x67,0x65,0x6f,0x6e,0x5f,0x74,0x61,0x72,0x75,0x74,0x61,0x72,0x6f,0x31,0x06,0x3a,0x06,0x45,0x54,0x3a,0x0c,0x40,0x76,0x6f,0x6c,0x75,0x6d,0x65,0x69,0x69,0x3a,0x0b,0x40,0x70,0x69,0x74,0x63,0x68,0x69,0x69))
  EndEventProcessing()
  0()
 PAGE   2
  // condition: variable 1206 >= 8
  0()



EVENT   102
 PAGE   1
  // condition: switch 31 is ON
  0()



EVENT   103
 PAGE   1
  // condition: variable 1206 >= 8
  205(69,bytes(0x04,0x08,0x6f,0x3a,0x13,0x52,0x50,0x47,0x3a,0x3a,0x4d,0x6f,0x76,0x65,0x52,0x6f,0x75,0x74,0x65,0x09,0x3a,0x0c,0x40,0x72,0x65,0x70,0x65,0x61,0x74,0x46,0x3a,0x0f,0x40,0x73,0x6b,0x69,0x70,0x70,0x61,0x62,0x6c,0x65,0x46,0x3a,0x0a,0x40,0x77,0x61,0x69,0x74,0x54,0x3a,0x0a,0x40,0x6c,0x69,0x73,0x74,0x5b,0x07,0x6f,0x3a,0x15,0x52,0x50,0x47,0x3a,0x3a,0x4d,0x6f,0x76,0x65,0x43,0x6f,0x6d,0x6d,0x61,0x6e,0x64,0x07,0x3a,0x0a,0x40,0x63,0x6f,0x64,0x65,0x69,0x17,0x3a,0x10,0x40,0x70,0x61,0x72,0x61,0x6d,0x65,0x74,0x65,0x72,0x73,0x5b,0x00,0x6f,0x3b,0x0a,0x07,0x3b,0x0b,0x69,0x00,0x3b,0x0c,0x5b,0x00))
  241(bytes(0x04,0x08,0x6f,0x3a,0x0d,0x52,0x50,0x47,0x3a,0x3a,0x42,0x47,0x4d,0x08,0x3a,0x0a,0x40,0x6e,0x61,0x6d,0x65,0x49,0x22,0x0c,0x62,0x6f,0x73,0x73,0x30,0x2d,0x34,0x06,0x3a,0x06,0x45,0x54,0x3a,0x0c,0x40,0x76,0x6f,0x6c,0x75,0x6d,0x65,0x69,0x69,0x3a,0x0b,0x40,0x70,0x69,0x74,0x63,0x68,0x69,0x69))
  PictureDisplay(5,"80_vinum_st01",0,0,0,0,100,100,0,0)
  PictureMove(5,null,0,0,0,0,100,100,255,0,30,true)
  ShowMessageFace("vinum_fc1",0,0,2,1)
  ShowMessage("\\n<Vinum>")
  ShowMessage("くふふ、小僧共か……")
  ShowMessage("ようやくメインディッシュの到着じゃな。")
  ShowMessageFace("kazuya_fc2",3,0,2,2)
  ShowMessage("\\n<Kazuya>")
  ShowMessage("くっ……！")
  ShowMessage("よりにもよって、こっちの方と出くわすか……！！")
  ShowMessageFace("byakunen_fc2",4,0,2,3)
  ShowMessage("\\n<Hakunen>")
  ShowMessage("こ、これほどの数の人を……")
  ShowMessage("ひどすぎる……")
  PictureDisplay(5,"80_vinum_st05",0,0,0,0,100,100,255,0)
  ShowMessageFace("vinum_fc1",4,0,2,4)
  ShowMessage("\\n<Vinum>")
  ShowMessage("……そう怯えるでない。")
  ShowMessage("ほぅれ……天にも昇るような心地で、逝かせてやろう。")
  PictureClear(5)
  Wait(30)
  205(69,bytes(0x04,0x08,0x6f,0x3a,0x13,0x52,0x50,0x47,0x3a,0x3a,0x4d,0x6f,0x76,0x65,0x52,0x6f,0x75,0x74,0x65,0x09,0x3a,0x0c,0x40,0x72,0x65,0x70,0x65,0x61,0x74,0x46,0x3a,0x0f,0x40,0x73,0x6b,0x69,0x70,0x70,0x61,0x62,0x6c,0x65,0x46,0x3a,0x0a,0x40,0x77,0x61,0x69,0x74,0x54,0x3a,0x0a,0x40,0x6c,0x69,0x73,0x74,0x5b,0x07,0x6f,0x3a,0x15,0x52,0x50,0x47,0x3a,0x3a,0x4d,0x6f,0x76,0x65,0x43,0x6f,0x6d,0x6d,0x61,0x6e,0x64,0x07,0x3a,0x0a,0x40,0x63,0x6f,0x64,0x65,0x69,0x08,0x3a,0x10,0x40,0x70,0x61,0x72,0x61,0x6d,0x65,0x74,0x65,0x72,0x73,0x5b,0x00,0x6f,0x3b,0x0a,0x07,0x3b,0x0b,0x69,0x00,0x3b,0x0c,0x5b,0x00))
  PictureDisplay(5,"80_vinum_st05",0,0,0,0,100,100,0,0)
  PictureMove(5,null,0,0,0,0,100,100,255,0,30,true)
  ShowMessageFace("vinum_fc1",4,0,2,5)
  ShowMessage("\\n<Vinum>")
  ShowMessage("さぁ……このまま観念して、儂の馳走になるか？")
  ShowMessageFace("vinum_fc1",4,0,2,6)
  ShowMessage("\\n<Vinum>")
  ShowMessage("それとも……")
  ShowMessage("くふふっ……少しは足掻いてくれるかや？")
  PictureClear(5)
  Wait(30)
  ShowMessageFace("kazuya_fc2",2,0,2,7)
  ShowMessage("\\n<Kazuya>")
  ShowMessage("……白念くん、分かっているね……！？")
  ShowMessageFace("byakunen_fc3",0,0,2,8)
  ShowMessage("\\n<Hakunen>")
  ShowMessage("はい！　全力で逃げましょう！")
  ShowMessageFace("",0,0,2,9)
  ShowMessage("こんな怪物を相手にしては、命がいくつあっても足りない。")
  ShowMessage("捕まれば、それで終わりだ――")
  241(bytes(0x04,0x08,0x6f,0x3a,0x0d,0x52,0x50,0x47,0x3a,0x3a,0x42,0x47,0x4d,0x08,0x3a,0x0a,0x40,0x6e,0x61,0x6d,0x65,0x49,0x22,0x0a,0x6b,0x69,0x6b,0x69,0x31,0x06,0x3a,0x06,0x45,0x54,0x3a,0x0c,0x40,0x76,0x6f,0x6c,0x75,0x6d,0x65,0x69,0x69,0x3a,0x0b,0x40,0x70,0x69,0x74,0x63,0x68,0x69,0x69))
  250(bytes(0x04,0x08,0x6f,0x3a,0x0c,0x52,0x50,0x47,0x3a,0x3a,0x53,0x45,0x08,0x3a,0x0a,0x40,0x6e,0x61,0x6d,0x65,0x49,0x22,0x0c,0x50,0x6f,0x77,0x65,0x72,0x75,0x70,0x06,0x3a,0x06,0x45,0x54,0x3a,0x0b,0x40,0x70,0x69,0x74,0x63,0x68,0x69,0x69,0x3a,0x0c,0x40,0x76,0x6f,0x6c,0x75,0x6d,0x65,0x69,0x55))
  216(1)
  ShowMessageFace("",0,1,1,10)
  ShowMessage("追いかけてくるヴィヌムから逃げ切れ！")
  ShowMessage("捕まってしまうとゲームオーバーだ！")
  Wait(30)
  ChangeVariable(1206,1206,0,0,9)
  ChangeSaveEnabled(0)
  EndEventProcessing()
  0()
 PAGE   2
  // condition: variable 1206 >= 9
  0()



EVENT   104
 PAGE   1
  0()



EVENT   105
 PAGE   1
  0()



EVENT   106
 PAGE   1
  ShowMessageFace("",0,0,2,1)
  ShowMessage("\\n<中年>")
  ShowMessage("ひ、ひぃぃっ……！")
  ShowMessage("なんで、こんな事に……！")
  ShowMessageFace("kazuya_fc2",2,0,2,2)
  ShowMessage("\\n<Kazuya>")
  ShowMessage("待っていて下さい、すぐに助けを呼んできますから。")
  ShowMessageFace("",0,0,2,3)
  ShowMessage("僕達だけで、ここの全員を保護する事は不可能だ。")
  ShowMessage("一刻も早くここを脱出し、救援を要請するしかない――")
  0()



EVENT   47
 PAGE   1
  0()



EVENT   48
 PAGE   1
  0()



EVENT   107
 PAGE   1
  0()



EVENT   108
 PAGE   1
  ShowMessageFace("",0,0,2,1)
  ShowMessage("\\n<少女>")
  ShowMessage("友達が、この先の部屋に行っちゃったの。")
  ShowMessage("どうか、助けてあげて……")
  205(-1,bytes(0x04,0x08,0x6f,0x3a,0x13,0x52,0x50,0x47,0x3a,0x3a,0x4d,0x6f,0x76,0x65,0x52,0x6f,0x75,0x74,0x65,0x09,0x3a,0x0c,0x40,0x72,0x65,0x70,0x65,0x61,0x74,0x46,0x3a,0x0f,0x40,0x73,0x6b,0x69,0x70,0x70,0x61,0x62,0x6c,0x65,0x46,0x3a,0x0a,0x40,0x77,0x61,0x69,0x74,0x54,0x3a,0x0a,0x40,0x6c,0x69,0x73,0x74,0x5b,0x07,0x6f,0x3a,0x15,0x52,0x50,0x47,0x3a,0x3a,0x4d,0x6f,0x76,0x65,0x43,0x6f,0x6d,0x6d,0x61,0x6e,0x64,0x07,0x3a,0x0a,0x40,0x63,0x6f,0x64,0x65,0x69,0x15,0x3a,0x10,0x40,0x70,0x61,0x72,0x61,0x6d,0x65,0x74,0x65,0x72,0x73,0x5b,0x00,0x6f,0x3b,0x0a,0x07,0x3b,0x0b,0x69,0x00,0x3b,0x0c,0x5b,0x00))
  ShowMessageFace("kazuya_fc2",2,0,2,2)
  ShowMessage("\\n<Kazuya>")
  ShowMessage("この先、気配が普通じゃないな……")
  ShowMessageFace("",0,0,2,3)
  ShowMessage("少女に告げるわけにはいかないが――")
  ShowMessage("この先に踏み込んだ友達とやらが、無事とはとても思えない。")
  205(-1,bytes(0x04,0x08,0x6f,0x3a,0x13,0x52,0x50,0x47,0x3a,0x3a,0x4d,0x6f,0x76,0x65,0x52,0x6f,0x75,0x74,0x65,0x09,0x3a,0x0c,0x40,0x72,0x65,0x70,0x65,0x61,0x74,0x46,0x3a,0x0f,0x40,0x73,0x6b,0x69,0x70,0x70,0x61,0x62,0x6c,0x65,0x46,0x3a,0x0a,0x40,0x77,0x61,0x69,0x74,0x54,0x3a,0x0a,0x40,0x6c,0x69,0x73,0x74,0x5b,0x07,0x6f,0x3a,0x15,0x52,0x50,0x47,0x3a,0x3a,0x4d,0x6f,0x76,0x65,0x43,0x6f,0x6d,0x6d,0x61,0x6e,0x64,0x07,0x3a,0x0a,0x40,0x63,0x6f,0x64,0x65,0x69,0x17,0x3a,0x10,0x40,0x70,0x61,0x72,0x61,0x6d,0x65,0x74,0x65,0x72,0x73,0x5b,0x00,0x6f,0x3b,0x0a,0x07,0x3b,0x0b,0x69,0x00,0x3b,0x0c,0x5b,0x00))
  ShowMessageFace("kazuya_fc2",1,0,2,4)
  ShowMessage("\\n<Kazuya>")
  ShowMessage("君は、絶対に行っちゃいけない。")
  ShowMessage("ここで隠れているんだ……いいね？")
  ShowMessageFace("",0,0,2,5)
  ShowMessage("\\n<少女>")
  ShowMessage("うん……")
  0()



EVENT   109
 PAGE   1
  0()



EVENT   110
 PAGE   1
  0()



EVENT   111
 PAGE   1
  0()



EVENT   112
 PAGE   1
  0()



EVENT   113
 PAGE   1
  0()



EVENT   114
 PAGE   1
  0()



EVENT   115
 PAGE   1
  0()



EVENT   116
 PAGE   1
  0()



EVENT   117
 PAGE   1
  0()



EVENT   118
 PAGE   1
  0()



EVENT   119
 PAGE   1
  ShowMessageFace("",0,0,2,1)
  ShowMessage("\\n<シスター>")
  ShowMessage("イリアス様、お助け下さい……")
  ShowMessage("イリアス様、お助け下さい……")
  ShowMessageFace("",0,0,2,2)
  ShowMessage("ひたすら祈りの言葉を繰り返しているようだ……")
  0()



EVENT   120
 PAGE   1
  0()



EVENT   121
 PAGE   1
  0()



EVENT   122
 PAGE   1
  ShowMessageFace("kazuya_fc2",2,0,2,1)
  ShowMessage("\\n<Kazuya>")
  ShowMessage("躯……動かないな、どうなってるんだ？")
  ShowMessageFace("",0,0,2,2)
  ShowMessage("まったく反応しない。")
  ShowMessage("機能が停止しているようだ……")
  0()



EVENT   123
 PAGE   1
  ShowMessageFace("mukuro_fc1",0,0,2,1)
  ShowMessage("\\n<Mukuro>")
  ShowMessage("か……は、て……")
  ShowMessageFace("kazuya_fc2",2,0,2,2)
  ShowMessage("\\n<Kazuya>")
  ShowMessage("どうなってるんだ、壊れてるのか……？")
  ShowMessageFace("",0,0,2,3)
  ShowMessage("言葉は聞き取れず、動こうともしない。")
  ShowMessage("機能が停止寸前のようだ……")
  0()



EVENT   29
 PAGE   1
  ShowMessageFace("",0,0,2,1)
  ShowMessage("\\n<戦士>")
  ShowMessage("この先に行っちゃ駄目だ……")
  ShowMessage("この先に行っちゃ駄目だ……")
  ShowMessageFace("",0,0,2,2)
  ShowMessage("同じ言葉を、うわごとのように繰り返している……")
  0()



EVENT   49
 PAGE   1
  0()



EVENT   124
 PAGE   1
  0()



EVENT   125
 PAGE   1
  0()



EVENT   126
 PAGE   1
  0()



EVENT   127
 PAGE   1
  0()



EVENT   128
 PAGE   1
  0()



EVENT   129
 PAGE   1
  0()



EVENT   130
 PAGE   1
  0()



EVENT   57
 PAGE   1
  ShowMessageFace("",0,0,2,1)
  ShowMessage("躯はいっさい反応しない。")
  ShowMessage("機能を停止しているようだ……")
  0()



EVENT   58
 PAGE   1
  ShowMessageFace("",0,0,2,1)
  ShowMessage("躯はいっさい反応しない。")
  ShowMessage("機能を停止しているようだ……")
  0()



EVENT   59
 PAGE   1
  ShowMessageFace("",0,0,2,1)
  ShowMessage("躯はいっさい反応しない。")
  ShowMessage("機能を停止しているようだ……")
  0()



EVENT   60
 PAGE   1
  ShowMessageFace("",0,0,2,1)
  ShowMessage("躯はいっさい反応しない。")
  ShowMessage("機能を停止しているようだ……")
  0()



EVENT   61
 PAGE   1
  ShowMessageFace("",0,0,2,1)
  ShowMessage("躯はいっさい反応しない。")
  ShowMessage("機能を停止しているようだ……")
  0()



EVENT   62
 PAGE   1
  ShowMessageFace("",0,0,2,1)
  ShowMessage("躯はいっさい反応しない。")
  ShowMessage("機能を停止しているようだ……")
  0()



EVENT   64
 PAGE   1
  ShowMessageFace("",0,0,2,1)
  ShowMessage("躯はいっさい反応しない。")
  ShowMessage("機能を停止しているようだ……")
  0()



EVENT   131
 PAGE   1
  ShowMessageFace("",0,0,2,1)
  ShowMessage("躯はいっさい反応しない。")
  ShowMessage("機能を停止しているようだ……")
  0()



EVENT   63
 PAGE   1
  ShowMessageFace("",0,0,2,1)
  ShowMessage("躯はいっさい反応しない。")
  ShowMessage("機能を停止しているようだ……")
  0()



EVENT   71
 PAGE   1
  ShowMessageFace("",0,0,2,1)
  ShowMessage("躯はいっさい反応しない。")
  ShowMessage("機能を停止しているようだ……")
  0()



EVENT   66
 PAGE   1
  ShowMessageFace("",0,0,2,1)
  ShowMessage("躯はいっさい反応しない。")
  ShowMessage("機能を停止しているようだ……")
  0()



EVENT   65
 PAGE   1
  ShowMessageFace("",0,0,2,1)
  ShowMessage("躯はいっさい反応しない。")
  ShowMessage("機能を停止しているようだ……")
  0()



EVENT   132
 PAGE   1
  0()



EVENT   133
 PAGE   1
  0()



EVENT   134
 PAGE   1
  0()



EVENT   135
 PAGE   1
  0()



EVENT   136
 PAGE   1
  0()



EVENT   138
 PAGE   1
  0()



EVENT   139
 PAGE   1
  0()



EVENT   140
 PAGE   1
  0()



EVENT   141
 PAGE   1
  0()



EVENT   142
 PAGE   1
  0()



EVENT   143
 PAGE   1
  0()



EVENT   144
 PAGE   1
  0()



EVENT   145
 PAGE   1
  0()



EVENT   146
 PAGE   1
  0()



EVENT   147
 PAGE   1
  0()



EVENT   137
 PAGE   1
  ShowMessageFace("",0,0,2,1)
  ShowMessage("転職の書が開かれたまま放置されている……")
  355("SceneManager.call(Scene_JobChange)")
  314(0,0)
  EndEventProcessing()
  0()



EVENT   148
 PAGE   1
  ShowMessageFace("",0,0,2,1)
  ShowMessage("転職の書が開かれたまま放置されている……")
  355("SceneManager.call(Scene_JobChange)")
  Wait(1)
  314(0,0)
  EndEventProcessing()
  0()



EVENT   149
 PAGE   1
  250(bytes(0x04,0x08,0x6f,0x3a,0x0c,0x52,0x50,0x47,0x3a,0x3a,0x53,0x45,0x08,0x3a,0x0a,0x40,0x6e,0x61,0x6d,0x65,0x49,0x22,0x0a,0x43,0x68,0x65,0x73,0x74,0x06,0x3a,0x06,0x45,0x54,0x3a,0x0b,0x40,0x70,0x69,0x74,0x63,0x68,0x69,0x69,0x3a,0x0c,0x40,0x76,0x6f,0x6c,0x75,0x6d,0x65,0x69,0x55))
  205(0,bytes(0x04,0x08,0x6f,0x3a,0x13,0x52,0x50,0x47,0x3a,0x3a,0x4d,0x6f,0x76,0x65,0x52,0x6f,0x75,0x74,0x65,0x09,0x3a,0x0c,0x40,0x72,0x65,0x70,0x65,0x61,0x74,0x46,0x3a,0x0f,0x40,0x73,0x6b,0x69,0x70,0x70,0x61,0x62,0x6c,0x65,0x46,0x3a,0x0a,0x40,0x77,0x61,0x69,0x74,0x54,0x3a,0x0a,0x40,0x6c,0x69,0x73,0x74,0x5b,0x0b,0x6f,0x3a,0x15,0x52,0x50,0x47,0x3a,0x3a,0x4d,0x6f,0x76,0x65,0x43,0x6f,0x6d,0x6d,0x61,0x6e,0x64,0x07,0x3a,0x0a,0x40,0x63,0x6f,0x64,0x65,0x69,0x29,0x3a,0x10,0x40,0x70,0x61,0x72,0x61,0x6d,0x65,0x74,0x65,0x72,0x73,0x5b,0x00,0x6f,0x3b,0x0a,0x07,0x3b,0x0b,0x69,0x16,0x3b,0x0c,0x5b,0x00,0x6f,0x3b,0x0a,0x07,0x3b,0x0b,0x69,0x14,0x3b,0x0c,0x5b,0x06,0x69,0x08,0x6f,0x3b,0x0a,0x07,0x3b,0x0b,0x69,0x17,0x3b,0x0c,0x5b,0x00,0x6f,0x3b,0x0a,0x07,0x3b,0x0b,0x69,0x14,0x3b,0x0c,0x5b,0x06,0x69,0x08,0x6f,0x3b,0x0a,0x07,0x3b,0x0b,0x69,0x00,0x3b,0x0c,0x5b,0x00))
  ChangeSelfSwitch("A",0)
  ChangeInventoryArmor(290,0,0,1,false)
  0()
 PAGE   2
  // condition: self-switch A is ON
  0()



EVENT   150
 PAGE   1
  250(bytes(0x04,0x08,0x6f,0x3a,0x0c,0x52,0x50,0x47,0x3a,0x3a,0x53,0x45,0x08,0x3a,0x0a,0x40,0x6e,0x61,0x6d,0x65,0x49,0x22,0x0a,0x43,0x68,0x65,0x73,0x74,0x06,0x3a,0x06,0x45,0x54,0x3a,0x0b,0x40,0x70,0x69,0x74,0x63,0x68,0x69,0x69,0x3a,0x0c,0x40,0x76,0x6f,0x6c,0x75,0x6d,0x65,0x69,0x55))
  205(0,bytes(0x04,0x08,0x6f,0x3a,0x13,0x52,0x50,0x47,0x3a,0x3a,0x4d,0x6f,0x76,0x65,0x52,0x6f,0x75,0x74,0x65,0x09,0x3a,0x0c,0x40,0x72,0x65,0x70,0x65,0x61,0x74,0x46,0x3a,0x0f,0x40,0x73,0x6b,0x69,0x70,0x70,0x61,0x62,0x6c,0x65,0x46,0x3a,0x0a,0x40,0x77,0x61,0x69,0x74,0x54,0x3a,0x0a,0x40,0x6c,0x69,0x73,0x74,0x5b,0x0b,0x6f,0x3a,0x15,0x52,0x50,0x47,0x3a,0x3a,0x4d,0x6f,0x76,0x65,0x43,0x6f,0x6d,0x6d,0x61,0x6e,0x64,0x07,0x3a,0x0a,0x40,0x63,0x6f,0x64,0x65,0x69,0x29,0x3a,0x10,0x40,0x70,0x61,0x72,0x61,0x6d,0x65,0x74,0x65,0x72,0x73,0x5b,0x00,0x6f,0x3b,0x0a,0x07,0x3b,0x0b,0x69,0x16,0x3b,0x0c,0x5b,0x00,0x6f,0x3b,0x0a,0x07,0x3b,0x0b,0x69,0x14,0x3b,0x0c,0x5b,0x06,0x69,0x08,0x6f,0x3b,0x0a,0x07,0x3b,0x0b,0x69,0x17,0x3b,0x0c,0x5b,0x00,0x6f,0x3b,0x0a,0x07,0x3b,0x0b,0x69,0x14,0x3b,0x0c,0x5b,0x06,0x69,0x08,0x6f,0x3b,0x0a,0x07,0x3b,0x0b,0x69,0x00,0x3b,0x0c,0x5b,0x00))
  ChangeSelfSwitch("A",0)
  ChangeInventoryWeapon(315,0,0,1,false)
  0()
 PAGE   2
  // condition: self-switch A is ON
  0()



EVENT   151
 PAGE   1
  250(bytes(0x04,0x08,0x6f,0x3a,0x0c,0x52,0x50,0x47,0x3a,0x3a,0x53,0x45,0x08,0x3a,0x0a,0x40,0x6e,0x61,0x6d,0x65,0x49,0x22,0x0a,0x43,0x68,0x65,0x73,0x74,0x06,0x3a,0x06,0x45,0x54,0x3a,0x0b,0x40,0x70,0x69,0x74,0x63,0x68,0x69,0x69,0x3a,0x0c,0x40,0x76,0x6f,0x6c,0x75,0x6d,0x65,0x69,0x55))
  205(0,bytes(0x04,0x08,0x6f,0x3a,0x13,0x52,0x50,0x47,0x3a,0x3a,0x4d,0x6f,0x76,0x65,0x52,0x6f,0x75,0x74,0x65,0x09,0x3a,0x0c,0x40,0x72,0x65,0x70,0x65,0x61,0x74,0x46,0x3a,0x0f,0x40,0x73,0x6b,0x69,0x70,0x70,0x61,0x62,0x6c,0x65,0x46,0x3a,0x0a,0x40,0x77,0x61,0x69,0x74,0x54,0x3a,0x0a,0x40,0x6c,0x69,0x73,0x74,0x5b,0x0b,0x6f,0x3a,0x15,0x52,0x50,0x47,0x3a,0x3a,0x4d,0x6f,0x76,0x65,0x43,0x6f,0x6d,0x6d,0x61,0x6e,0x64,0x07,0x3a,0x0a,0x40,0x63,0x6f,0x64,0x65,0x69,0x29,0x3a,0x10,0x40,0x70,0x61,0x72,0x61,0x6d,0x65,0x74,0x65,0x72,0x73,0x5b,0x00,0x6f,0x3b,0x0a,0x07,0x3b,0x0b,0x69,0x16,0x3b,0x0c,0x5b,0x00,0x6f,0x3b,0x0a,0x07,0x3b,0x0b,0x69,0x14,0x3b,0x0c,0x5b,0x06,0x69,0x08,0x6f,0x3b,0x0a,0x07,0x3b,0x0b,0x69,0x17,0x3b,0x0c,0x5b,0x00,0x6f,0x3b,0x0a,0x07,0x3b,0x0b,0x69,0x14,0x3b,0x0c,0x5b,0x06,0x69,0x08,0x6f,0x3b,0x0a,0x07,0x3b,0x0b,0x69,0x00,0x3b,0x0c,0x5b,0x00))
  ChangeSelfSwitch("A",0)
  ChangeInventoryArmor(26,0,0,1,false)
  0()
 PAGE   2
  // condition: self-switch A is ON
  0()



EVENT   153
 PAGE   1
  250(bytes(0x04,0x08,0x6f,0x3a,0x0c,0x52,0x50,0x47,0x3a,0x3a,0x53,0x45,0x08,0x3a,0x0a,0x40,0x6e,0x61,0x6d,0x65,0x49,0x22,0x0a,0x43,0x68,0x65,0x73,0x74,0x06,0x3a,0x06,0x45,0x54,0x3a,0x0b,0x40,0x70,0x69,0x74,0x63,0x68,0x69,0x69,0x3a,0x0c,0x40,0x76,0x6f,0x6c,0x75,0x6d,0x65,0x69,0x55))
  205(0,bytes(0x04,0x08,0x6f,0x3a,0x13,0x52,0x50,0x47,0x3a,0x3a,0x4d,0x6f,0x76,0x65,0x52,0x6f,0x75,0x74,0x65,0x09,0x3a,0x0c,0x40,0x72,0x65,0x70,0x65,0x61,0x74,0x46,0x3a,0x0f,0x40,0x73,0x6b,0x69,0x70,0x70,0x61,0x62,0x6c,0x65,0x46,0x3a,0x0a,0x40,0x77,0x61,0x69,0x74,0x46,0x3a,0x0a,0x40,0x6c,0x69,0x73,0x74,0x5b,0x0b,0x6f,0x3a,0x15,0x52,0x50,0x47,0x3a,0x3a,0x4d,0x6f,0x76,0x65,0x43,0x6f,0x6d,0x6d,0x61,0x6e,0x64,0x07,0x3a,0x0a,0x40,0x63,0x6f,0x64,0x65,0x69,0x29,0x3a,0x10,0x40,0x70,0x61,0x72,0x61,0x6d,0x65,0x74,0x65,0x72,0x73,0x5b,0x00,0x6f,0x3b,0x0a,0x07,0x3b,0x0b,0x69,0x16,0x3b,0x0c,0x5b,0x00,0x6f,0x3b,0x0a,0x07,0x3b,0x0b,0x69,0x14,0x3b,0x0c,0x5b,0x06,0x69,0x08,0x6f,0x3b,0x0a,0x07,0x3b,0x0b,0x69,0x17,0x3b,0x0c,0x5b,0x00,0x6f,0x3b,0x0a,0x07,0x3b,0x0b,0x69,0x14,0x3b,0x0c,0x5b,0x06,0x69,0x08,0x6f,0x3b,0x0a,0x07,0x3b,0x0b,0x69,0x00,0x3b,0x0c,0x5b,0x00))
  Wait(15)
  250(bytes(0x04,0x08,0x6f,0x3a,0x0c,0x52,0x50,0x47,0x3a,0x3a,0x53,0x45,0x08,0x3a,0x0a,0x40,0x6e,0x61,0x6d,0x65,0x49,0x22,0x0c,0x43,0x68,0x69,0x63,0x6b,0x65,0x6e,0x06,0x3a,0x06,0x45,0x54,0x3a,0x0b,0x40,0x70,0x69,0x74,0x63,0x68,0x69,0x69,0x3a,0x0c,0x40,0x76,0x6f,0x6c,0x75,0x6d,0x65,0x69,0x55))
  ShowMessageFace("kazuya_fc2",3,0,2,1)
  ShowMessage("\\n<Kazuya>")
  ShowMessage("宝箱の中にニワトリが！？")
  ChangeSelfSwitch("A",0)
  RunCommonEvent(514)
  0()
 PAGE   2
  // condition: self-switch A is ON
  0()



EVENT   154
 PAGE   1
  250(bytes(0x04,0x08,0x6f,0x3a,0x0c,0x52,0x50,0x47,0x3a,0x3a,0x53,0x45,0x08,0x3a,0x0a,0x40,0x6e,0x61,0x6d,0x65,0x49,0x22,0x0a,0x49,0x74,0x65,0x6d,0x31,0x06,0x3a,0x06,0x45,0x54,0x3a,0x0b,0x40,0x70,0x69,0x74,0x63,0x68,0x69,0x69,0x3a,0x0c,0x40,0x76,0x6f,0x6c,0x75,0x6d,0x65,0x69,0x55))
  ChangeSelfSwitch("A",0)
  ChangeInventory_Item(8,0,0,1)
  0()
 PAGE   2
  // condition: self-switch A is ON
  0()



EVENT   155
 PAGE   1
  250(bytes(0x04,0x08,0x6f,0x3a,0x0c,0x52,0x50,0x47,0x3a,0x3a,0x53,0x45,0x08,0x3a,0x0a,0x40,0x6e,0x61,0x6d,0x65,0x49,0x22,0x0a,0x49,0x74,0x65,0x6d,0x31,0x06,0x3a,0x06,0x45,0x54,0x3a,0x0b,0x40,0x70,0x69,0x74,0x63,0x68,0x69,0x69,0x3a,0x0c,0x40,0x76,0x6f,0x6c,0x75,0x6d,0x65,0x69,0x55))
  ChangeSelfSwitch("A",0)
  ChangeInventory_Item(11,0,0,1)
  0()
 PAGE   2
  // condition: self-switch A is ON
  0()



EVENT   156
 PAGE   1
  ShowMessageFace("",0,0,2,1)
  ShowMessage("このベッドなら、安全に休めそうだ。")
  ShowMessage("体を休めますか？")
  ShowChoices(strings("はい","いいえ"),2)
  IfPlayerPicksChoice(0,null)
   221()
   249(bytes(0x04,0x08,0x6f,0x3a,0x0c,0x52,0x50,0x47,0x3a,0x3a,0x4d,0x45,0x08,0x3a,0x0a,0x40,0x6e,0x61,0x6d,0x65,0x49,0x22,0x08,0x49,0x6e,0x6e,0x06,0x3a,0x06,0x45,0x54,0x3a,0x0b,0x40,0x70,0x69,0x74,0x63,0x68,0x69,0x69,0x3a,0x0c,0x40,0x76,0x6f,0x6c,0x75,0x6d,0x65,0x69,0x69))
   Wait(150)
   314(0,0)
   222()
   0()
  IfPlayerPicksChoice(1,null)
   0()
  404()
  0()



EVENT   44
 PAGE   1
  250(bytes(0x04,0x08,0x6f,0x3a,0x0c,0x52,0x50,0x47,0x3a,0x3a,0x53,0x45,0x08,0x3a,0x0a,0x40,0x6e,0x61,0x6d,0x65,0x49,0x22,0x0a,0x43,0x68,0x65,0x73,0x74,0x06,0x3a,0x06,0x45,0x54,0x3a,0x0b,0x40,0x70,0x69,0x74,0x63,0x68,0x69,0x69,0x3a,0x0c,0x40,0x76,0x6f,0x6c,0x75,0x6d,0x65,0x69,0x55))
  205(0,bytes(0x04,0x08,0x6f,0x3a,0x13,0x52,0x50,0x47,0x3a,0x3a,0x4d,0x6f,0x76,0x65,0x52,0x6f,0x75,0x74,0x65,0x09,0x3a,0x0c,0x40,0x72,0x65,0x70,0x65,0x61,0x74,0x46,0x3a,0x0f,0x40,0x73,0x6b,0x69,0x70,0x70,0x61,0x62,0x6c,0x65,0x46,0x3a,0x0a,0x40,0x77,0x61,0x69,0x74,0x54,0x3a,0x0a,0x40,0x6c,0x69,0x73,0x74,0x5b,0x0b,0x6f,0x3a,0x15,0x52,0x50,0x47,0x3a,0x3a,0x4d,0x6f,0x76,0x65,0x43,0x6f,0x6d,0x6d,0x61,0x6e,0x64,0x07,0x3a,0x0a,0x40,0x63,0x6f,0x64,0x65,0x69,0x29,0x3a,0x10,0x40,0x70,0x61,0x72,0x61,0x6d,0x65,0x74,0x65,0x72,0x73,0x5b,0x00,0x6f,0x3b,0x0a,0x07,0x3b,0x0b,0x69,0x16,0x3b,0x0c,0x5b,0x00,0x6f,0x3b,0x0a,0x07,0x3b,0x0b,0x69,0x14,0x3b,0x0c,0x5b,0x06,0x69,0x08,0x6f,0x3b,0x0a,0x07,0x3b,0x0b,0x69,0x17,0x3b,0x0c,0x5b,0x00,0x6f,0x3b,0x0a,0x07,0x3b,0x0b,0x69,0x14,0x3b,0x0c,0x5b,0x06,0x69,0x08,0x6f,0x3b,0x0a,0x07,0x3b,0x0b,0x69,0x00,0x3b,0x0c,0x5b,0x00))
  ChangeSelfSwitch("A",0)
  ChangeInventoryArmor(137,0,0,1,false)
  0()
 PAGE   2
  // condition: self-switch A is ON
  0()



EVENT   157
 PAGE   1
  ShowMessageFace("",0,0,2,1)
  ShowMessage("このベッドなら、安全に休めそうだ。")
  ShowMessage("体を休めますか？")
  ShowChoices(strings("はい","いいえ"),2)
  IfPlayerPicksChoice(0,null)
   221()
   249(bytes(0x04,0x08,0x6f,0x3a,0x0c,0x52,0x50,0x47,0x3a,0x3a,0x4d,0x45,0x08,0x3a,0x0a,0x40,0x6e,0x61,0x6d,0x65,0x49,0x22,0x08,0x49,0x6e,0x6e,0x06,0x3a,0x06,0x45,0x54,0x3a,0x0b,0x40,0x70,0x69,0x74,0x63,0x68,0x69,0x69,0x3a,0x0c,0x40,0x76,0x6f,0x6c,0x75,0x6d,0x65,0x69,0x69))
   Wait(150)
   314(0,0)
   222()
   0()
  IfPlayerPicksChoice(1,null)
   0()
  404()
  0()



EVENT   152
 PAGE   1
  // condition: variable 1206 >= 3
  ShowMessageFace("kazuya_fc2",2,0,2,1)
  ShowMessage("\\n<Kazuya>")
  ShowMessage("この先に逃げ場はない！")
  205(-1,bytes(0x04,0x08,0x6f,0x3a,0x13,0x52,0x50,0x47,0x3a,0x3a,0x4d,0x6f,0x76,0x65,0x52,0x6f,0x75,0x74,0x65,0x09,0x3a,0x0c,0x40,0x72,0x65,0x70,0x65,0x61,0x74,0x46,0x3a,0x0f,0x40,0x73,0x6b,0x69,0x70,0x70,0x61,0x62,0x6c,0x65,0x46,0x3a,0x0a,0x40,0x77,0x61,0x69,0x74,0x54,0x3a,0x0a,0x40,0x6c,0x69,0x73,0x74,0x5b,0x07,0x6f,0x3a,0x15,0x52,0x50,0x47,0x3a,0x3a,0x4d,0x6f,0x76,0x65,0x43,0x6f,0x6d,0x6d,0x61,0x6e,0x64,0x07,0x3a,0x0a,0x40,0x63,0x6f,0x64,0x65,0x69,0x06,0x3a,0x10,0x40,0x70,0x61,0x72,0x61,0x6d,0x65,0x74,0x65,0x72,0x73,0x5b,0x00,0x6f,0x3b,0x0a,0x07,0x3b,0x0b,0x69,0x00,0x3b,0x0c,0x5b,0x00))
  0()



EVENT   158
 PAGE   1
  // condition: variable 1206 >= 9
  ShowMessageFace("kazuya_fc2",2,0,2,1)
  ShowMessage("\\n<Kazuya>")
  ShowMessage("この先に逃げ場はない！")
  205(-1,bytes(0x04,0x08,0x6f,0x3a,0x13,0x52,0x50,0x47,0x3a,0x3a,0x4d,0x6f,0x76,0x65,0x52,0x6f,0x75,0x74,0x65,0x09,0x3a,0x0c,0x40,0x72,0x65,0x70,0x65,0x61,0x74,0x46,0x3a,0x0f,0x40,0x73,0x6b,0x69,0x70,0x70,0x61,0x62,0x6c,0x65,0x46,0x3a,0x0a,0x40,0x77,0x61,0x69,0x74,0x54,0x3a,0x0a,0x40,0x6c,0x69,0x73,0x74,0x5b,0x07,0x6f,0x3a,0x15,0x52,0x50,0x47,0x3a,0x3a,0x4d,0x6f,0x76,0x65,0x43,0x6f,0x6d,0x6d,0x61,0x6e,0x64,0x07,0x3a,0x0a,0x40,0x63,0x6f,0x64,0x65,0x69,0x07,0x3a,0x10,0x40,0x70,0x61,0x72,0x61,0x6d,0x65,0x74,0x65,0x72,0x73,0x5b,0x00,0x6f,0x3b,0x0a,0x07,0x3b,0x0b,0x69,0x00,0x3b,0x0c,0x5b,0x00))
  0()
