﻿
DisplayName "夜の国 中核"



EVENT   1
 PAGE   1
  250(bytes(0x04,0x08,0x6f,0x3a,0x0c,0x52,0x50,0x47,0x3a,0x3a,0x53,0x45,0x08,0x3a,0x0a,0x40,0x6e,0x61,0x6d,0x65,0x49,0x22,0x0b,0x4d,0x61,0x67,0x69,0x63,0x31,0x06,0x3a,0x06,0x45,0x54,0x3a,0x0b,0x40,0x70,0x69,0x74,0x63,0x68,0x69,0x69,0x3a,0x0c,0x40,0x76,0x6f,0x6c,0x75,0x6d,0x65,0x69,0x55))
  TeleportPlayer(0,934,19,6,2,1)
  0()



EVENT   2
 PAGE   1
  250(bytes(0x04,0x08,0x6f,0x3a,0x0c,0x52,0x50,0x47,0x3a,0x3a,0x53,0x45,0x08,0x3a,0x0a,0x40,0x6e,0x61,0x6d,0x65,0x49,0x22,0x0b,0x4d,0x61,0x67,0x69,0x63,0x31,0x06,0x3a,0x06,0x45,0x54,0x3a,0x0b,0x40,0x70,0x69,0x74,0x63,0x68,0x69,0x69,0x3a,0x0c,0x40,0x76,0x6f,0x6c,0x75,0x6d,0x65,0x69,0x55))
  TeleportPlayer(0,934,19,6,2,1)
  0()



EVENT   5
 PAGE   1
  0()
 PAGE   2
  // condition: switch 32 is ON
  0()
 PAGE   3
  // condition: variable 1212 >= 8
  0()



EVENT   6
 PAGE   1
  // condition: variable 1212 >= 7
  241(bytes(0x04,0x08,0x6f,0x3a,0x0d,0x52,0x50,0x47,0x3a,0x3a,0x42,0x47,0x4d,0x08,0x3a,0x0a,0x40,0x6e,0x61,0x6d,0x65,0x49,0x22,0x0c,0x62,0x6f,0x73,0x73,0x30,0x2d,0x32,0x06,0x3a,0x06,0x45,0x54,0x3a,0x0c,0x40,0x76,0x6f,0x6c,0x75,0x6d,0x65,0x69,0x69,0x3a,0x0b,0x40,0x70,0x69,0x74,0x63,0x68,0x69,0x69))
  205(-1,bytes(0x04,0x08,0x6f,0x3a,0x13,0x52,0x50,0x47,0x3a,0x3a,0x4d,0x6f,0x76,0x65,0x52,0x6f,0x75,0x74,0x65,0x09,0x3a,0x0c,0x40,0x72,0x65,0x70,0x65,0x61,0x74,0x46,0x3a,0x0f,0x40,0x73,0x6b,0x69,0x70,0x70,0x61,0x62,0x6c,0x65,0x46,0x3a,0x0a,0x40,0x77,0x61,0x69,0x74,0x54,0x3a,0x0a,0x40,0x6c,0x69,0x73,0x74,0x5b,0x09,0x6f,0x3a,0x15,0x52,0x50,0x47,0x3a,0x3a,0x4d,0x6f,0x76,0x65,0x43,0x6f,0x6d,0x6d,0x61,0x6e,0x64,0x07,0x3a,0x0a,0x40,0x63,0x6f,0x64,0x65,0x69,0x09,0x3a,0x10,0x40,0x70,0x61,0x72,0x61,0x6d,0x65,0x74,0x65,0x72,0x73,0x5b,0x00,0x6f,0x3b,0x0a,0x07,0x3b,0x0b,0x69,0x09,0x3b,0x0c,0x5b,0x00,0x6f,0x3b,0x0a,0x07,0x3b,0x0b,0x69,0x09,0x3b,0x0c,0x5b,0x00,0x6f,0x3b,0x0a,0x07,0x3b,0x0b,0x69,0x00,0x3b,0x0c,0x5b,0x00))
  217()
  ShowMessageFace("ruka_fc1",0,0,2,1)
  ShowMessage("\\n<Luka>")
  ShowMessage("これが……ゲート……")
  ShowMessageFace("rejeo_fc1",1,0,2,2)
  ShowMessage("\\n<Rigeo>")
  ShowMessage("あの時、私達が見た黒い渦……")
  If(0,4,0)
   ShowMessageFace("alice_fc5",2,0,2,3)
   ShowMessage("\\n<Alice>")
   ShowMessage("後は、これを壊すだけだ。")
   ShowMessage("七人の勇者の力を結集して――")
   0()
  EndIf()
  If(0,5,0)
   ShowMessageFace("iriasu_fc4",7,0,2,4)
   ShowMessage("\\n<Ilias>")
   ShowMessage("それでは、さっそく破壊しましょう。")
   ShowMessage("七人の勇者の力を結集して――")
   0()
  EndIf()
  ShowMessageFace("rovissa_fc1",0,0,2,5)
  ShowMessage("\\n<Rovissa>")
  ShowMessage("……その前に、もうひとつ壊すものがあるわよ。")
  ShowMessage("エスト！　いるんでしょ、出てきなさい！")
  242(1)
  ShowMessageFace("est_fc2",1,0,2,6)
  ShowMessage("\\n<？？？>")
  ShowMessage("ふふ……もちろん、アタシはここにいるわ。")
  ShowMessage("夢の中に、いつでもね――")
  ShowMessageFace("lars_fc01",0,0,2,7)
  ShowMessage("\\n<Lars>")
  ShowMessage("…………！！")
  If(0,4,0)
   ShowMessageFace("alice_fc6",0,0,2,8)
   ShowMessage("\\n<Alice>")
   ShowMessage("とうとう現れたか。")
   ShowMessage("貴様が、「夢の主」――")
   0()
  EndIf()
  If(0,5,0)
   ShowMessageFace("iriasu_fc4",7,0,2,9)
   ShowMessage("\\n<Ilias>")
   ShowMessage("とうとう現れましたね。")
   ShowMessage("貴方が、「夢の主」――")
   0()
  EndIf()
  ShowMessageFace("ruka_fc1",0,0,2,10)
  ShowMessage("\\n<Luka>")
  ShowMessage("エスト・モルン――")
  212(7,856,false)
  Wait(30)
  ChangeSwitch(31,31,0)
  241(bytes(0x04,0x08,0x6f,0x3a,0x0d,0x52,0x50,0x47,0x3a,0x3a,0x42,0x47,0x4d,0x08,0x3a,0x0a,0x40,0x6e,0x61,0x6d,0x65,0x49,0x22,0x0a,0x71,0x75,0x65,0x65,0x6e,0x06,0x3a,0x06,0x45,0x54,0x3a,0x0c,0x40,0x76,0x6f,0x6c,0x75,0x6d,0x65,0x69,0x69,0x3a,0x0b,0x40,0x70,0x69,0x74,0x63,0x68,0x69,0x69))
  Wait(60)
  PictureDisplay(5,"80_est_st01",0,0,0,0,100,100,0,0)
  PictureMove(5,null,0,0,0,0,100,100,255,0,30,true)
  ShowMessageFace("est_fc1",1,0,2,11)
  ShowMessage("\\n<Est>")
  ShowMessage("アタシはエスト……")
  ShowMessage("人々が見る、快楽の夢。")
  ShowMessageFace("est_fc1",1,0,2,12)
  ShowMessage("\\n<Est>")
  ShowMessage("夢、期待、希望、願望……")
  ShowMessage("あなた達の想いが、アタシをここに引き寄せたのよ。")
  If(0,4,0)
   ShowMessageFace("alice_fc6",1,0,2,13)
   ShowMessage("\\n<Alice>")
   ShowMessage("誰も、貴様などの到来を望んでなどおらん！")
   ShowMessage("さっさと引っ込むがいい！")
   0()
  EndIf()
  If(0,5,0)
   ShowMessageFace("iriasu_fc4",7,0,2,14)
   ShowMessage("\\n<Ilias>")
   ShowMessage("誰も貴方の到来など望んでいません！")
   ShowMessage("早く元の世界に帰りなさい！")
   0()
  EndIf()
  ShowMessageFace("est_fc1",1,0,2,15)
  ShowMessage("\\n<Est>")
  ShowMessage("ふふ、そんな事はないわ……")
  ShowMessage("ここに望みがあるからこそ、アタシは引き寄せられたの。")
  ShowMessageFace("est_fc1",1,0,2,16)
  ShowMessage("\\n<Est>")
  ShowMessage("あなた達が、そしてこの世界が――")
  ShowMessage("終わりなき夢を望んでいるのよ。")
  ShowMessageFace("rovissa_fc1",0,0,2,17)
  ShowMessage("\\n<Rovissa>")
  ShowMessage("もう、あんたには振り回されないわよ……")
  ShowMessage("ここで倒してやるわ！")
  ShowMessageFace("ruka_fc1",0,0,2,18)
  ShowMessage("\\n<Luka>")
  ShowMessage("ああ……必ず勝ってみせる！")
  ShowMessageFace("est_fc1",1,0,2,19)
  ShowMessage("\\n<Est>")
  ShowMessage("倒す……？　勝つ……？")
  ShowMessage("そんなこと、アタシに対して出来はしないわ。")
  ShowMessageFace("est_fc1",1,0,2,20)
  ShowMessage("\\n<Est>")
  ShowMessage("貴方達は、アタシの望むことをするの。")
  ShowMessage("甘い悦びを与え、とろけそうな愛を交わし――")
  ShowMessageFace("lawrat_fc1",0,0,2,21)
  ShowMessage("\\n<Lauratt>")
  ShowMessage("……………………")
  ShowMessageFace("",0,0,2,22)
  ShowMessage("エストの言う通り、夢魔に対し通常攻撃は通じない。")
  ShowMessage("快楽で攻めるしか、勝つ手段はないのだ。")
  ShowMessageFace("",0,0,2,23)
  ShowMessage("だが、それこそエストの望む事ならば――")
  ShowMessageFace("est_fc1",1,0,2,24)
  ShowMessage("\\n<Est>")
  ShowMessage("うふふっ……分かったみたいね。")
  ShowMessageFace("est_fc1",1,0,2,25)
  ShowMessage("\\n<Est>")
  ShowMessage("そこには、勝利も敗北もないわ。")
  ShowMessage("ただ、快楽があるのみよ……")
  ShowMessageFace("rovissa_fc1",0,0,2,26)
  ShowMessage("\\n<Rovissa>")
  ShowMessage("みんな、エストの言葉に耳を貸さないで。")
  ShowMessage("夢に引き込まれるわよ……！")
  If(0,4,0)
   ShowMessageFace("alice_fc6",1,0,2,27)
   ShowMessage("\\n<Alice>")
   ShowMessage("そうだ……ここで、この者を倒すのみ！")
   ShowMessage("快楽で責めたて、元いた世界に追い返してくれる！")
   0()
  EndIf()
  If(0,5,0)
   ShowMessageFace("iriasu_fc4",7,0,2,28)
   ShowMessage("\\n<Ilias>")
   ShowMessage("その通り……ここで、この者を倒します！")
   ShowMessage("快楽で責めたて、元いた世界に追い返しますよ！")
   0()
  EndIf()
  ShowMessageFace("ruka_fc1",0,0,2,29)
  ShowMessage("\\n<Luka>")
  ShowMessage("ああ……行くぞ！")
  ShowMessage("この世界、お前の思い通りにはさせない！")
  ShowMessageFace("est_fc1",1,0,2,30)
  ShowMessage("\\n<Est>")
  ShowMessage("さあ勇者達、アタシの望みを叶えて……")
  ShowMessage("甘い快楽を、狂おしい悦びを味わわせて……")
  SetBattleBGM(bytes(0x04,0x08,0x6f,0x3a,0x0d,0x52,0x50,0x47,0x3a,0x3a,0x42,0x47,0x4d,0x08,0x3a,0x0a,0x40,0x6e,0x61,0x6d,0x65,0x49,0x22,0x08,0x63,0x62,0x35,0x06,0x3a,0x06,0x45,0x54,0x3a,0x0c,0x40,0x76,0x6f,0x6c,0x75,0x6d,0x65,0x69,0x69,0x3a,0x0b,0x40,0x70,0x69,0x74,0x63,0x68,0x69,0x69))
  283("DarkSpace","")
  Battle(0,1416,false,false)
  314(0,0)
  SetBattleBGM(bytes(0x04,0x08,0x6f,0x3a,0x0d,0x52,0x50,0x47,0x3a,0x3a,0x42,0x47,0x4d,0x08,0x3a,0x0a,0x40,0x6e,0x61,0x6d,0x65,0x49,0x22,0x0b,0x62,0x61,0x74,0x74,0x6c,0x65,0x06,0x3a,0x06,0x45,0x54,0x3a,0x0c,0x40,0x76,0x6f,0x6c,0x75,0x6d,0x65,0x69,0x69,0x3a,0x0b,0x40,0x70,0x69,0x74,0x63,0x68,0x69,0x69))
  241(bytes(0x04,0x08,0x6f,0x3a,0x0d,0x52,0x50,0x47,0x3a,0x3a,0x42,0x47,0x4d,0x08,0x3a,0x0a,0x40,0x6e,0x61,0x6d,0x65,0x49,0x22,0x0a,0x71,0x75,0x65,0x65,0x6e,0x06,0x3a,0x06,0x45,0x54,0x3a,0x0c,0x40,0x76,0x6f,0x6c,0x75,0x6d,0x65,0x69,0x69,0x3a,0x0b,0x40,0x70,0x69,0x74,0x63,0x68,0x69,0x69))
  216(1)
  355("set_temp_actors(1,801,807,811,815,819,823)")
  314(0,0)
  ShowMessageFace("est_fc1",1,0,2,31)
  ShowMessage("\\n<Est>")
  ShowMessage("ふふっ、いいわぁ……♡")
  212(7,859,true)
  ShowMessageFace("",0,0,2,32)
  ShowMessage("エストは、弱ったどころか――")
  ShowMessage("ますます、力が増したようだ！")
  ShowMessageFace("est_fc1",1,0,2,33)
  ShowMessage("\\n<Est>")
  ShowMessage("七つの世界から来た者達の与えてくれる快楽……")
  ShowMessage("七つの夢……とても素敵よ……♡")
  212(7,859,true)
  If(0,4,0)
   ShowMessageFace("alice_fc6",0,0,2,34)
   ShowMessage("\\n<Alice>")
   ShowMessage("おい、どういう事だ……！？")
   ShowMessage("倒すどころか、夢の力がますます――")
   0()
  EndIf()
  If(0,5,0)
   ShowMessageFace("iriasu_fc4",5,0,2,35)
   ShowMessage("\\n<Ilias>")
   ShowMessage("これは、どういう事です……！？")
   ShowMessage("倒すどころか、夢の力がますます――")
   0()
  EndIf()
  ShowMessageFace("est_fc1",1,0,2,36)
  ShowMessage("\\n<Est>")
  ShowMessage("悦びこそ、アタシの力。")
  ShowMessage("存分に快楽が味わえて、アタシは最高潮よ……")
  ShowMessageFace("est_fc1",1,0,2,37)
  ShowMessage("\\n<Est>")
  ShowMessage("もっと、アタシを酔わせて……")
  ShowMessage("もっともっと愛して、愛させて……")
  212(7,859,true)
  If(0,4,0)
   ShowMessageFace("alice_fc6",0,0,2,38)
   ShowMessage("\\n<Alice>")
   ShowMessage("ぐっ……なんという快楽の波動……！")
   0()
  EndIf()
  If(0,5,0)
   ShowMessageFace("iriasu_fc4",5,0,2,39)
   ShowMessage("\\n<Ilias>")
   ShowMessage("ううっ……なんという快楽の波動……！")
   0()
  EndIf()
  ShowMessageFace("magatu_fc2",5,0,2,40)
  ShowMessage("\\n<Magatsu>")
  ShowMessage("これは、たまらん……")
  ShowMessage("意識が、乱れて……")
  ShowMessageFace("rejeo_fc1",1,0,2,41)
  ShowMessage("\\n<Rigeo>")
  ShowMessage("だめ……私、イっちゃう……♡")
  ShowMessageFace("tarsa_fc2",1,0,2,42)
  ShowMessage("\\n<Tarsa>")
  ShowMessage("イイわぁ……")
  ShowMessage("もう私、百回以上イっちゃったぁ……♡")
  212(7,859,true)
  ShowMessageFace("lanpass_fc2",1,0,2,43)
  ShowMessage("\\n<Lampas>")
  ShowMessage("あぁぁ～♡")
  ShowMessage("こんなの、駄目だって～♡")
  ShowMessageFace("youkosan_fc1",7,0,2,44)
  ShowMessage("\\n<Dream Fox>")
  ShowMessage("あへぇぇぇ～～♡")
  ShowMessage("らめぇぇぇぇ～～♡")
  ShowMessageFace("mukuro_fc1",3,0,2,45)
  ShowMessage("\\n<Mukuro>")
  ShowMessage("体が……心が……なんだこれは……")
  ShowMessage("感情が解けていく……動けない……")
  212(7,859,true)
  ShowMessageFace("ruka_fc1",0,0,2,46)
  ShowMessage("\\n<Luka>")
  ShowMessage("くっ、みんな……！？")
  ShowMessageFace("",0,0,2,47)
  ShowMessage("エストが放つ快楽のオーラに、みな心が乱されていく。")
  ShowMessage("欲情どころか、意識さえ危ういようだ。")
  If(0,4,0)
   ShowMessageFace("alice_fc5",3,0,2,48)
   ShowMessage("\\n<Alice>")
   ShowMessage("くっ、無念……")
   0()
  EndIf()
  If(0,5,0)
   ShowMessageFace("iriasu_fc4",4,0,2,49)
   ShowMessage("\\n<Ilias>")
   ShowMessage("こんな……この私が……")
   0()
  EndIf()
  ShowMessageFace("rejeo_fc1",1,0,2,50)
  ShowMessage("\\n<Rigeo>")
  ShowMessage("私も、もう駄目……")
  250(bytes(0x04,0x08,0x6f,0x3a,0x0c,0x52,0x50,0x47,0x3a,0x3a,0x53,0x45,0x08,0x3a,0x0a,0x40,0x6e,0x61,0x6d,0x65,0x49,0x22,0x0d,0x6d,0x6f,0x6e,0x5f,0x64,0x6f,0x77,0x6e,0x06,0x3a,0x06,0x45,0x54,0x3a,0x0b,0x40,0x70,0x69,0x74,0x63,0x68,0x69,0x69,0x3a,0x0c,0x40,0x76,0x6f,0x6c,0x75,0x6d,0x65,0x69,0x69))
  Wait(30)
  250(bytes(0x04,0x08,0x6f,0x3a,0x0c,0x52,0x50,0x47,0x3a,0x3a,0x53,0x45,0x08,0x3a,0x0a,0x40,0x6e,0x61,0x6d,0x65,0x49,0x22,0x0d,0x6d,0x6f,0x6e,0x5f,0x64,0x6f,0x77,0x6e,0x06,0x3a,0x06,0x45,0x54,0x3a,0x0b,0x40,0x70,0x69,0x74,0x63,0x68,0x69,0x69,0x3a,0x0c,0x40,0x76,0x6f,0x6c,0x75,0x6d,0x65,0x69,0x69))
  Wait(10)
  250(bytes(0x04,0x08,0x6f,0x3a,0x0c,0x52,0x50,0x47,0x3a,0x3a,0x53,0x45,0x08,0x3a,0x0a,0x40,0x6e,0x61,0x6d,0x65,0x49,0x22,0x0d,0x6d,0x6f,0x6e,0x5f,0x64,0x6f,0x77,0x6e,0x06,0x3a,0x06,0x45,0x54,0x3a,0x0b,0x40,0x70,0x69,0x74,0x63,0x68,0x69,0x69,0x3a,0x0c,0x40,0x76,0x6f,0x6c,0x75,0x6d,0x65,0x69,0x69))
  ShowMessageFace("",0,0,2,51)
  ShowMessage("仲間達は、意識を保っていられなくなり――")
  ShowMessage("そして、次々と倒れていった。")
  ShowMessageFace("",0,0,2,52)
  ShowMessage("もはや、立っているのは数人という有様。")
  ShowMessage("たちまち僕達は、絶望的な状況に立たされてしまう――")
  ShowMessageFace("kazuya_fc2",3,0,2,53)
  ShowMessage("\\n<Kazuya>")
  ShowMessage("こんなの、どう太刀打ちしろっていうんだ……！")
  ShowMessageFace("rest_fc1",0,0,2,54)
  ShowMessage("\\n<Lest>")
  ShowMessage("女性陣がこれじゃ、僕達なんてひとたまりも――")
  ShowMessageFace("lawrat_fc1",0,0,2,55)
  ShowMessage("\\n<Lauratt>")
  ShowMessage("…………？")
  ShowMessageFace("byakunen_fc3",0,0,2,56)
  ShowMessage("\\n<Hakunen>")
  ShowMessage("で、でも……私達、割と耐えていませんか？")
  ShowMessageFace("ruka_fc1",0,0,2,57)
  ShowMessage("\\n<Luka>")
  ShowMessage("た、確かに……")
  ShowMessageFace("",0,0,2,58)
  ShowMessage("そうだ――")
  ShowMessage("僕達七人は、まだ正気を保てている。")
  ShowMessageFace("",0,0,2,59)
  ShowMessage("他の仲間達は、もはや戦闘不能なのに――")
  ShowMessage("七人の勇者だけが、屈していないのだ。")
  ShowMessageFace("rest_fc1",0,0,2,60)
  ShowMessage("\\n<Lest>")
  ShowMessage("いったい、どういう事なんだ？")
  ShowMessage("僕なんて、色仕掛けに弱いはずなのに……")
  ShowMessageFace("est_fc1",1,0,2,61)
  ShowMessage("\\n<Est>")
  ShowMessage("ふふっ……あなた達には、加護があるのよ。")
  ShowMessage("その紋章を見てみなさい……")
  ShowMessageFace("ruka_fc1",0,0,2,62)
  ShowMessage("\\n<Luka>")
  ShowMessage("えっ……？")
  PictureDisplay(5,"iv_collabo_emb",0,0,0,0,100,100,0,0)
  PictureMove(5,null,0,0,0,0,100,100,255,0,30,true)
  ShowMessageFace("",0,0,2,63)
  ShowMessage("僕の――そして、勇者達の手の甲に備わった紋章。")
  ShowMessage("それが、輝きを放っているのが分かる。")
  ShowMessageFace("byakunen_fc1",1,0,2,64)
  ShowMessage("\\n<Hakunen>")
  ShowMessage("これは……「コラボの証」のおかげなのですね！")
  ShowMessageFace("kazuya_fc2",6,0,2,65)
  ShowMessage("\\n<Kazuya>")
  ShowMessage("この力で、エストに対抗できるって事か！")
  ShowMessage("これならば――")
  PictureDisplay(5,"80_est_st01",0,0,0,0,100,100,0,0)
  PictureMove(5,null,0,0,0,0,100,100,255,0,30,true)
  ShowMessageFace("est_fc1",1,0,2,66)
  ShowMessage("\\n<Est>")
  ShowMessage("でも、あなた達はアタシに触れることが出来ない……")
  ShowMessage("夢魔の望むやり方でしか……ね。")
  ShowMessageFace("nobissa_fc1",0,0,2,67)
  ShowMessage("\\n<Novissa>")
  ShowMessage("……………………")
  ShowMessageFace("",0,0,2,68)
  ShowMessage("そう――夢魔は、快楽でしか干渉できない。")
  ShowMessage("その他の攻撃は、いっさい通じないのだ。")
  ShowMessageFace("",0,0,2,69)
  ShowMessage("だが、今の僕達は――")
  ShowMessageFace("ruka_fc1",0,0,2,70)
  ShowMessage("\\n<Luka>")
  ShowMessage("この「コラボの証」から、力を感じる……")
  ShowMessage("これは――")
  250(bytes(0x04,0x08,0x6f,0x3a,0x0c,0x52,0x50,0x47,0x3a,0x3a,0x53,0x45,0x08,0x3a,0x0a,0x40,0x6e,0x61,0x6d,0x65,0x49,0x22,0x0e,0x6d,0x6f,0x6e,0x5f,0x70,0x6f,0x77,0x65,0x72,0x06,0x3a,0x06,0x45,0x54,0x3a,0x0b,0x40,0x70,0x69,0x74,0x63,0x68,0x69,0x69,0x3a,0x0c,0x40,0x76,0x6f,0x6c,0x75,0x6d,0x65,0x69,0x69))
  ShowMessageFace("",0,0,2,71)
  ShowMessage("温かな波動が、体中に広がっていく。")
  ShowMessage("柔らかで優しい力が、全身に根付くのを感じる――")
  ShowMessageFace("est_fc1",1,0,2,72)
  ShowMessage("\\n<Est>")
  ShowMessage("うふふっ……それは「愛」ね。")
  ShowMessage("とっても素敵じゃない……♡")
  ShowMessageFace("lars_fc01",0,0,2,73)
  ShowMessage("\\n<Lars>")
  ShowMessage("…………！？")
  ShowMessageFace("",0,0,2,74)
  ShowMessage("エスト言うところの、「愛」の力――")
  ShowMessage("それが、全身に漲っていくのが分かる。")
  ShowMessageFace("",0,0,2,75)
  ShowMessage("この体を満たす「愛」。")
  ShowMessage("それは、エストの放つ快楽のオーラと同質の力だった――")
  ShowMessageFace("ruka_fc1",0,0,2,76)
  ShowMessage("\\n<Luka>")
  ShowMessage("この力なら、エストにも通じるはずだ！")
  ShowMessage("みんな、行くぞ……！")
  ShowMessageFace("rest_fc1",0,0,2,77)
  ShowMessage("\\n<Lest>")
  ShowMessage("僕の腕にも、そして剣にまで……")
  ShowMessage("これなら、エストにも干渉できる！")
  ShowMessageFace("lawrat_fc1",0,0,2,78)
  ShowMessage("\\n<Lauratt>")
  ShowMessage("…………！！")
  PictureClear(5)
  DefineLabel("準備")
  ShowMessageFace("",0,0,2,79)
  ShowMessage("七人の勇者で、最後の決戦に臨む。")
  ShowMessage("戦いの準備は良いだろうか？")
  ShowChoices(strings("戦いの準備をする","このまま戦う"),0)
  IfPlayerPicksChoice(0,null)
   351()
   JumpToLabel("準備")
   0()
  IfPlayerPicksChoice(1,null)
   0()
  404()
  Wait(30)
  241(bytes(0x04,0x08,0x6f,0x3a,0x0d,0x52,0x50,0x47,0x3a,0x3a,0x42,0x47,0x4d,0x08,0x3a,0x0a,0x40,0x6e,0x61,0x6d,0x65,0x49,0x22,0x0a,0x74,0x69,0x74,0x6c,0x65,0x06,0x3a,0x06,0x45,0x54,0x3a,0x0c,0x40,0x76,0x6f,0x6c,0x75,0x6d,0x65,0x69,0x69,0x3a,0x0b,0x40,0x70,0x69,0x74,0x63,0x68,0x69,0x69))
  PictureDisplay(5,"iv_collabo",0,0,0,0,100,100,0,0)
  PictureMove(5,null,0,0,0,0,100,100,255,0,60,true)
  ShowMessageFace("",0,0,2,80)
  ShowMessage("紋章により、「愛」の力を帯びた僕達――七人の勇者。")
  ShowMessage("今こそ、この戦いに決着をつける時だ。")
  ShowMessageFace("kazuya_fc1",0,0,2,81)
  ShowMessage("\\n<Kazuya>")
  ShowMessage("これが「愛」の力――")
  ShowMessage("分かった、これをぶつければいいんだな。")
  ShowMessageFace("byakunen_fc1",0,0,2,82)
  ShowMessage("\\n<Hakunen>")
  ShowMessage("ちょっと恥ずかしいですが……")
  ShowMessage("みんなの愛、一つにしましょう！")
  ShowMessageFace("nobissa_fc1",0,0,2,83)
  ShowMessage("\\n<Novissa>")
  ShowMessage("…………！！")
  ShowMessageFace("",0,0,2,84)
  ShowMessage("七人の力が、ここに一つとなる。")
  ShowMessage("これで、もうエストに負けはしない――")
  ShowMessageFace("ruka_fc1",0,0,2,85)
  ShowMessage("\\n<Luka>")
  ShowMessage("夢の主――エスト・モルン！")
  ShowMessage("そろそろ夢から醒める時だ！")
  ShowMessageFace("est_fc1",1,0,2,86)
  ShowMessage("\\n<Est>")
  ShowMessage("うふふっ、愉しくなってきたわね。")
  ShowMessage("もっともっと、アタシを昂ぶらせて……♡")
  PictureClear(5)
  283("DarkSpace","")
  SetBattleBGM(bytes(0x04,0x08,0x6f,0x3a,0x0d,0x52,0x50,0x47,0x3a,0x3a,0x42,0x47,0x4d,0x08,0x3a,0x0a,0x40,0x6e,0x61,0x6d,0x65,0x49,0x22,0x08,0x63,0x62,0x35,0x06,0x3a,0x06,0x45,0x54,0x3a,0x0c,0x40,0x76,0x6f,0x6c,0x75,0x6d,0x65,0x69,0x69,0x3a,0x0b,0x40,0x70,0x69,0x74,0x63,0x68,0x69,0x69))
  242(1)
  Battle(0,1417,false,false)
  SetBattleBGM(bytes(0x04,0x08,0x6f,0x3a,0x0d,0x52,0x50,0x47,0x3a,0x3a,0x42,0x47,0x4d,0x08,0x3a,0x0a,0x40,0x6e,0x61,0x6d,0x65,0x49,0x22,0x0b,0x62,0x61,0x74,0x74,0x6c,0x65,0x06,0x3a,0x06,0x45,0x54,0x3a,0x0c,0x40,0x76,0x6f,0x6c,0x75,0x6d,0x65,0x69,0x69,0x3a,0x0b,0x40,0x70,0x69,0x74,0x63,0x68,0x69,0x69))
  241(bytes(0x04,0x08,0x6f,0x3a,0x0d,0x52,0x50,0x47,0x3a,0x3a,0x42,0x47,0x4d,0x08,0x3a,0x0a,0x40,0x6e,0x61,0x6d,0x65,0x49,0x22,0x14,0x73,0x63,0x65,0x6e,0x65,0x5f,0x6b,0x61,0x6e,0x61,0x73,0x69,0x6d,0x69,0x34,0x06,0x3a,0x06,0x45,0x54,0x3a,0x0c,0x40,0x76,0x6f,0x6c,0x75,0x6d,0x65,0x69,0x69,0x3a,0x0b,0x40,0x70,0x69,0x74,0x63,0x68,0x69,0x69))
  314(0,0)
  355("release_temp_actors")
  PictureDisplay(5,"80_est_st01",0,0,0,0,100,100,0,0)
  PictureMove(5,null,0,0,0,0,100,100,255,0,30,true)
  ShowMessageFace("est_fc1",1,0,2,87)
  ShowMessage("\\n<Est>")
  ShowMessage("あン……素敵……♡")
  ShowMessage("こんなに感じるなんて……♡")
  ShowMessageFace("",0,0,2,88)
  ShowMessage("エストが放つ、快楽のオーラ――")
  ShowMessage("それは大きく弾け、みるみる少なくなっていった。")
  PictureClear(5)
  ShowMessageFace("",0,0,2,89)
  ShowMessage("同時に、後方に広がっていたゲートも大きく揺らぎ――")
  Wait(30)
  212(5,542,false)
  Wait(60)
  ChangeSwitch(32,32,0)
  Wait(60)
  ShowMessageFace("",0,0,2,90)
  ShowMessage("そして、たちまち消え去ってしまう。")
  ShowMessage("ついに僕達は、最終目的を果たしたのだ――")
  PictureDisplay(5,"80_est_st01",0,0,0,0,100,100,0,0)
  PictureMove(5,null,0,0,0,0,100,100,255,0,30,true)
  ShowMessageFace("est_fc1",1,0,2,91)
  ShowMessage("\\n<Est>")
  ShowMessage("ゲートは消えたわ……")
  ShowMessage("これが、望みだったのでしょう……？")
  ShowMessageFace("ruka_fc1",0,0,2,92)
  ShowMessage("\\n<Luka>")
  ShowMessage("ああ……素直に負けを認めたんだな。")
  ShowMessageFace("est_fc1",1,0,2,93)
  ShowMessage("\\n<Est>")
  ShowMessage("あら、アタシは何にも負けていないわ……")
  ShowMessage("極上の快楽、存分に愉しむ事が出来たのだから。")
  ShowMessageFace("",0,0,2,94)
  ShowMessage("負け惜しみか――いや、違う。")
  ShowMessage("エストは心から、深い満足感を抱いているようだ。")
  ShowMessageFace("",0,0,2,95)
  ShowMessage("僕達の手の甲に宿った「コラボの証」も、徐々に薄れていく。")
  ShowMessage("役割を終え、効果を失っていくのだ――")
  ShowMessageFace("ruka_fc1",0,0,2,96)
  ShowMessage("\\n<Luka>")
  ShowMessage("エスト……")
  ShowMessage("「コラボの証」は、お前が僕達に授けたんじゃないか？")
  ShowMessageFace("est_fc1",1,0,2,97)
  ShowMessage("\\n<Est>")
  ShowMessage("そう……それは、アタシからのサービスよ。")
  ShowMessage("おかげで、七つの世界の快楽を味わう事ができたわ……")
  ShowMessageFace("ruka_fc1",0,0,2,98)
  ShowMessage("\\n<Luka>")
  ShowMessage("そもそも、七人の勇者を――")
  ShowMessage("異世界から、この世界に呼び込んだのも――")
  ShowMessageFace("",0,0,2,99)
  ShowMessage("エストが呼んだのは、本当に同盟者達だけだったのか。")
  ShowMessage("七人の勇者やその仲間達も、彼女自身が――")
  ShowMessageFace("est_fc1",1,0,2,100)
  ShowMessage("\\n<Est>")
  ShowMessage("うふふっ……")
  ShowMessage("アタシが催した宴、愉しんでもらえたかしら……？")
  ShowChoices(strings("存分に愉しめた","愉しめなかった","物足りない"),0)
  IfPlayerPicksChoice(0,null)
   ShowMessageFace("ruka_fc1",0,0,2,101)
   ShowMessage("\\n<Luka>")
   ShowMessage("十分に愉しんだよ……")
   ShowMessage("でも、夢を見るのももう終わりだ。")
   0()
  IfPlayerPicksChoice(1,null)
   ShowMessageFace("ruka_fc1",0,0,2,102)
   ShowMessage("\\n<Luka>")
   ShowMessage("もう、勘弁願いたいよ……")
   ShowMessage("どちらにしろ、夢を見るのももう終わりだ。")
   0()
  IfPlayerPicksChoice(2,null)
   ShowMessageFace("ruka_fc1",0,0,2,103)
   ShowMessage("\\n<Luka>")
   ShowMessage("この程度じゃ、満足できないな……")
   ShowMessage("どちらにしろ、夢を見るのももう終わりだ。")
   0()
  404()
  ShowMessageFace("est_fc1",1,0,2,104)
  ShowMessage("\\n<Est>")
  ShowMessage("夢に終わりはないわ……")
  ShowMessage("かりそめの現実のあと、また夢に還るのよ。")
  ShowMessageFace("est_fc1",1,0,2,105)
  ShowMessage("\\n<Est>")
  ShowMessage("だから……しばらくは、現実を愉しみなさい。")
  ShowMessage("あなた達の夢、十分に愉しませてもらったわ……")
  ShowMessageFace("est_fc1",1,0,2,106)
  ShowMessage("\\n<Est>")
  ShowMessage("それじゃあ、アタシは行くわね。")
  ShowMessage("また、夢の中で逢いましょう……うふふふっ♡")
  ShowMessageFace("ruka_fc1",0,0,2,107)
  ShowMessage("\\n<Luka>")
  ShowMessage("……………………")
  PictureClear(5)
  Wait(30)
  212(7,856,false)
  Wait(30)
  ChangeSwitch(31,31,1)
  Wait(90)
  ShowMessageFace("",0,0,2,108)
  ShowMessage("そして――")
  ShowMessage("エストも、ゲートも、コラボの証も消え失せた。")
  ShowMessageFace("",0,0,2,109)
  ShowMessage("全ては消え去り――")
  ShowMessage("そして、夢の終わりが訪れたのだ――")
  242(1)
  Wait(120)
  221()
  Wait(120)
  ChangeVariable(1212,1212,0,0,8)
  ChangeSwitch(32,32,1)
  TeleportPlayer(0,864,0,0,0,2)
  0()
 PAGE   2
  // condition: variable 1212 >= 8
  0()



EVENT   7
 PAGE   1
  // condition: switch 31 is ON
  0()



EVENT   3
 PAGE   1
  250(bytes(0x04,0x08,0x6f,0x3a,0x0c,0x52,0x50,0x47,0x3a,0x3a,0x53,0x45,0x08,0x3a,0x0a,0x40,0x6e,0x61,0x6d,0x65,0x49,0x22,0x0a,0x43,0x68,0x65,0x73,0x74,0x06,0x3a,0x06,0x45,0x54,0x3a,0x0b,0x40,0x70,0x69,0x74,0x63,0x68,0x69,0x69,0x3a,0x0c,0x40,0x76,0x6f,0x6c,0x75,0x6d,0x65,0x69,0x55))
  205(0,bytes(0x04,0x08,0x6f,0x3a,0x13,0x52,0x50,0x47,0x3a,0x3a,0x4d,0x6f,0x76,0x65,0x52,0x6f,0x75,0x74,0x65,0x09,0x3a,0x0c,0x40,0x72,0x65,0x70,0x65,0x61,0x74,0x46,0x3a,0x0f,0x40,0x73,0x6b,0x69,0x70,0x70,0x61,0x62,0x6c,0x65,0x46,0x3a,0x0a,0x40,0x77,0x61,0x69,0x74,0x54,0x3a,0x0a,0x40,0x6c,0x69,0x73,0x74,0x5b,0x0b,0x6f,0x3a,0x15,0x52,0x50,0x47,0x3a,0x3a,0x4d,0x6f,0x76,0x65,0x43,0x6f,0x6d,0x6d,0x61,0x6e,0x64,0x07,0x3a,0x0a,0x40,0x63,0x6f,0x64,0x65,0x69,0x29,0x3a,0x10,0x40,0x70,0x61,0x72,0x61,0x6d,0x65,0x74,0x65,0x72,0x73,0x5b,0x00,0x6f,0x3b,0x0a,0x07,0x3b,0x0b,0x69,0x16,0x3b,0x0c,0x5b,0x00,0x6f,0x3b,0x0a,0x07,0x3b,0x0b,0x69,0x14,0x3b,0x0c,0x5b,0x06,0x69,0x08,0x6f,0x3b,0x0a,0x07,0x3b,0x0b,0x69,0x17,0x3b,0x0c,0x5b,0x00,0x6f,0x3b,0x0a,0x07,0x3b,0x0b,0x69,0x14,0x3b,0x0c,0x5b,0x06,0x69,0x08,0x6f,0x3b,0x0a,0x07,0x3b,0x0b,0x69,0x00,0x3b,0x0c,0x5b,0x00))
  ChangeSelfSwitch("A",0)
  ChangeInventoryWeapon(941,0,0,1,false)
  ShowMessageFace("lars_fc01",0,0,2,1)
  ShowMessage("\\n<Lars>")
  ShowMessage("…………！？")
  ShowMessageFace("rovissa_fc1",0,0,2,2)
  ShowMessage("\\n<Rovissa>")
  ShowMessage("なんで、これがこんな所に……！？")
  ShowMessageFace("rovissa_fc1",0,0,2,3)
  ShowMessage("\\n<Rovissa>")
  ShowMessage("……まあいいわ、ありがたく使わせてもらうから。")
  0()
 PAGE   2
  // condition: self-switch A is ON
  0()



EVENT   4
 PAGE   1
  250(bytes(0x04,0x08,0x6f,0x3a,0x0c,0x52,0x50,0x47,0x3a,0x3a,0x53,0x45,0x08,0x3a,0x0a,0x40,0x6e,0x61,0x6d,0x65,0x49,0x22,0x0a,0x43,0x68,0x65,0x73,0x74,0x06,0x3a,0x06,0x45,0x54,0x3a,0x0b,0x40,0x70,0x69,0x74,0x63,0x68,0x69,0x69,0x3a,0x0c,0x40,0x76,0x6f,0x6c,0x75,0x6d,0x65,0x69,0x55))
  205(0,bytes(0x04,0x08,0x6f,0x3a,0x13,0x52,0x50,0x47,0x3a,0x3a,0x4d,0x6f,0x76,0x65,0x52,0x6f,0x75,0x74,0x65,0x09,0x3a,0x0c,0x40,0x72,0x65,0x70,0x65,0x61,0x74,0x46,0x3a,0x0f,0x40,0x73,0x6b,0x69,0x70,0x70,0x61,0x62,0x6c,0x65,0x46,0x3a,0x0a,0x40,0x77,0x61,0x69,0x74,0x54,0x3a,0x0a,0x40,0x6c,0x69,0x73,0x74,0x5b,0x0b,0x6f,0x3a,0x15,0x52,0x50,0x47,0x3a,0x3a,0x4d,0x6f,0x76,0x65,0x43,0x6f,0x6d,0x6d,0x61,0x6e,0x64,0x07,0x3a,0x0a,0x40,0x63,0x6f,0x64,0x65,0x69,0x29,0x3a,0x10,0x40,0x70,0x61,0x72,0x61,0x6d,0x65,0x74,0x65,0x72,0x73,0x5b,0x00,0x6f,0x3b,0x0a,0x07,0x3b,0x0b,0x69,0x16,0x3b,0x0c,0x5b,0x00,0x6f,0x3b,0x0a,0x07,0x3b,0x0b,0x69,0x14,0x3b,0x0c,0x5b,0x06,0x69,0x08,0x6f,0x3b,0x0a,0x07,0x3b,0x0b,0x69,0x17,0x3b,0x0c,0x5b,0x00,0x6f,0x3b,0x0a,0x07,0x3b,0x0b,0x69,0x14,0x3b,0x0c,0x5b,0x06,0x69,0x08,0x6f,0x3b,0x0a,0x07,0x3b,0x0b,0x69,0x00,0x3b,0x0c,0x5b,0x00))
  ChangeSelfSwitch("A",0)
  ChangeInventoryArmor(356,0,0,1,false)
  ShowMessageFace("daimeikai_fc1",0,0,2,1)
  ShowMessage("\\n<Daimyokai>")
  ShowMessage("おっ、これは宝具じゃないか！")
  ShowMessage("防御用だな、ここは俺様が――")
  ShowMessageFace("",0,0,2,2)
  ShowMessage("大明海は、六魂幡を身にまとった！")
  ShowMessage("意志を持つ闇が、大明海の精力を吸い取る！")
  ShowMessageFace("daimeikai_fc1",1,0,2,3)
  ShowMessage("\\n<Daimyokai>")
  ShowMessage("ほぉッ……！　おおぉぉッ……！")
  ShowMessage("こいつ、俺の精力を吸ってやがる……！！")
  ShowMessageFace("magatu_fc1",2,0,2,4)
  ShowMessage("\\n<Magatsu>")
  ShowMessage("儂によこせ、大明海。")
  ShowMessage("お主の精力、果てるまで奪い去られるぞ。")
  ShowMessageFace("",0,0,2,5)
  ShowMessage("マガツは大明海から六魂幡を引き剥がした！")
  ShowMessage("六魂幡は、マガツの体に絡み付くように装着される……")
  ShowMessageFace("magatu_fc1",0,0,2,6)
  ShowMessage("\\n<Magatsu>")
  ShowMessage("ほう……この宝具、儂を主と認めたか。")
  ShowMessage("なかなか可愛い奴ではないか。")
  ShowMessageFace("byakunen_fc1",1,0,2,7)
  ShowMessage("\\n<Hakunen>")
  ShowMessage("流石です、お師匠様！")
  ShowMessageFace("daimeikai_fc1",1,0,2,8)
  ShowMessage("\\n<Daimyokai>")
  ShowMessage("ぐぬぬ……")
  0()
 PAGE   2
  // condition: self-switch A is ON
  0()



EVENT   8
 PAGE   1
  RunCommonEvent(499)
  0()



EVENT   9
 PAGE   1
  // condition: variable 1216 >= 2
  ShowMessageFace(binary"",0,0,2,1)
  ShowMessage("エストの甘い残り香が漂っている……")
  Wait(30)
  318(0,1,0,866)
  318(0,801,0,866)
  318(0,807,0,866)
  318(0,811,0,866)
  318(0,815,0,866)
  318(0,819,0,866)
  318(0,823,0,866)
  318(0,801,0,867)
  318(0,807,0,867)
  318(0,823,0,867)
  249(bytes(0x04,0x08,0x6f,0x3a,0x0c,0x52,0x50,0x47,0x3a,0x3a,0x4d,0x45,0x08,0x3a,0x0a,0x40,0x6e,0x61,0x6d,0x65,0x49,0x22,0x11,0x6d,0x6f,0x6e,0x5f,0x66,0x61,0x6e,0x66,0x61,0x6c,0x65,0x33,0x06,0x3a,0x06,0x45,0x54,0x3a,0x0b,0x40,0x70,0x69,0x74,0x63,0x68,0x69,0x69,0x3a,0x0c,0x40,0x76,0x6f,0x6c,0x75,0x6d,0x65,0x69,0x69))
  ShowMessageFace(binary"",0,0,2,2)
  ShowMessage("七人の勇者は\\I[99]\\C[1]七つの世界の勇者達\\C[0]を習得した！")
  ShowMessage("ラルス・ロウラット・ノビッサは\\I[99]\\C[1]バトルファック封印\\C[0]を習得した！")
  ChangeSelfSwitch(binary"A",0)
  EndEventProcessing()
  0()
 PAGE   2
  // condition: self-switch A is ON
  0()
