﻿
DisplayName "ポケット魔王城 コラボルーム"



EVENT   4
 PAGE   1
  0()



EVENT   5
 PAGE   1
  0()



EVENT   6
 PAGE   1
  0()



EVENT   7
 PAGE   1
  0()



EVENT   8
 PAGE   1
  PictureDisplay(5,"80_lars_st11",0,0,0,0,100,100,0,0)
  PictureMove(5,null,0,0,0,0,100,100,255,0,30,true)
  ShowMessageFace("lars_fc01",0,0,2,1)
  ShowMessage("\\n<Lars>")
  ShowMessage("……………………")
  ShowMessageFace("ruka_fc1",0,0,2,2)
  ShowMessage("\\n<Luka>")
  ShowMessage("す、すごい貫禄……")
  ShowMessage("まさに、歴戦の勇者の佇まい……")
  ShowMessageFace("lars_fc01",0,0,2,3)
  ShowMessage("\\n<Lars>")
  ShowMessage("……………………")
  ShowMessageFace("ruka_fc1",0,0,2,4)
  ShowMessage("\\n<Luka>")
  ShowMessage("そして、かたくなに無言……")
  ShowMessage("これが、真の勇者なのか……")
  ShowMessageFace("rovissa_fc1",0,0,2,5)
  ShowMessage("\\n<Rovissa>")
  ShowMessage("ぜんぜん喋らないってわけでもないのよ。")
  ShowMessage("ねぇラルス、いつものやつをお願い。")
  ShowMessageFace("lars_fc01",0,0,2,6)
  ShowMessage("\\n<Lars>")
  ShowMessage("……………………")
  250(bytes(0x04,0x08,0x6f,0x3a,0x0c,0x52,0x50,0x47,0x3a,0x3a,0x53,0x45,0x08,0x3a,0x0a,0x40,0x6e,0x61,0x6d,0x65,0x49,0x22,0x0e,0x6d,0x6f,0x6e,0x5f,0x70,0x6f,0x77,0x65,0x72,0x06,0x3a,0x06,0x45,0x54,0x3a,0x0b,0x40,0x70,0x69,0x74,0x63,0x68,0x69,0x69,0x3a,0x0c,0x40,0x76,0x6f,0x6c,0x75,0x6d,0x65,0x69,0x69))
  ShowMessageFace("",0,0,2,7)
  ShowMessage("ラルスは甘い言葉を囁いた！")
  ShowMessage("ムードが上がった！")
  ShowMessageFace("ruka_fc1",0,0,2,8)
  ShowMessage("\\n<Luka>")
  ShowMessage("ふぁぁぁ……")
  ShowMessage("なんて甘い囁き……")
  ShowMessageFace("sonia_fc1",5,0,2,9)
  ShowMessage("\\n<Sonya>")
  ShowMessage("負けないで、ルカ！")
  ShowMessage("こっちも甘く囁くのよ！")
  ShowMessageFace("ruka_fc1",0,0,2,10)
  ShowMessage("\\n<Luka>")
  ShowMessage("ジュティ～ム……")
  ShowMessage("ヘブン、プリ～ズ……")
  ShowMessageFace("",0,0,2,11)
  ShowMessage("ルカは甘い言葉を囁いた！")
  ShowMessageFace("rovissa_fc1",0,0,2,12)
  ShowMessage("\\n<Rovissa>")
  ShowMessage("……………………")
  ShowMessageFace("lars_fc01",0,0,2,13)
  ShowMessage("\\n<Lars>")
  ShowMessage("……………………")
  250(bytes(0x04,0x08,0x6f,0x3a,0x0c,0x52,0x50,0x47,0x3a,0x3a,0x53,0x45,0x08,0x3a,0x0a,0x40,0x6e,0x61,0x6d,0x65,0x49,0x22,0x0e,0x44,0x61,0x72,0x6b,0x6e,0x65,0x73,0x73,0x31,0x06,0x3a,0x06,0x45,0x54,0x3a,0x0b,0x40,0x70,0x69,0x74,0x63,0x68,0x69,0x69,0x3a,0x0c,0x40,0x76,0x6f,0x6c,0x75,0x6d,0x65,0x69,0x55))
  ShowMessageFace("",0,0,2,14)
  ShowMessage("ムードが下がった……")
  If(0,4,0)
   ShowMessageFace("alice_fc5",6,0,2,15)
   ShowMessage("\\n<Alice>")
   ShowMessage("ぜんぜんダメではないか！")
   0()
  EndIf()
  If(0,5,0)
   ShowMessageFace("iriasu_fc4",5,0,2,16)
   ShowMessage("\\n<Ilias>")
   ShowMessage("まるでダメではないですか！")
   0()
  EndIf()
  PictureClear(5)
  0()



EVENT   9
 PAGE   1
  PictureDisplay(5,"80_rovissa_st01",0,0,0,0,100,100,0,0)
  PictureMove(5,null,0,0,0,0,100,100,255,0,30,true)
  If(0,4,0)
   ShowMessageFace("alice_fc5",0,0,2,1)
   ShowMessage("\\n<Alice>")
   ShowMessage("貴様は、魔王のかけらだとか……")
   ShowMessage("……かけらとは、どういう意味なのだ？")
   0()
  EndIf()
  If(0,5,0)
   ShowMessageFace("iriasu_fc4",2,0,2,2)
   ShowMessage("\\n<Ilias>")
   ShowMessage("貴方は、魔王のかけらという話ですが……")
   ShowMessage("……かけらとは、どういう意味なのです？")
   0()
  EndIf()
  ShowMessageFace("rovissa_fc1",0,0,2,3)
  ShowMessage("\\n<Rovissa>")
  ShowMessage("魔王の残した力と意志の一部……")
  ShowMessage("簡単に言えば、そういう感じかな。")
  If(0,4,0)
   ShowMessageFace("alice_fc5",1,0,2,4)
   ShowMessage("\\n<Alice>")
   ShowMessage("ならば、同じ魔王のよしみ。")
   ShowMessage("力を合わせ、決戦に臨もうではないか！")
   ShowMessageFace("rovissa_fc1",0,0,2,5)
   ShowMessage("\\n<Rovissa>")
   ShowMessage("うん、よろしくね！")
   0()
  EndIf()
  If(0,5,0)
   ShowMessageFace("iriasu_fc4",0,0,2,6)
   ShowMessage("\\n<Ilias>")
   ShowMessage("まあ、どちらにしろ異世界の魔王。")
   ShowMessage("ここで排斥する必要はないでしょう……今後ともよろしく。")
   ShowMessageFace("rovissa_fc1",0,0,2,7)
   ShowMessage("\\n<Rovissa>")
   ShowMessage("よろしく……なんか感じ悪いわね。")
   0()
  EndIf()
  ShowMessageFace("sonia_fc1",0,0,2,8)
  ShowMessage("\\n<Sonya>")
  ShowMessage("私はソニア、ルカの幼馴染みよ。")
  ShowMessage("よろしくね。")
  ShowMessageFace("rovissa_fc1",0,0,2,9)
  ShowMessage("\\n<Rovissa>")
  ShowMessage("ふぅん、幼馴染み……ねぇ。")
  ShowMessageFace("sonia_fc2",2,0,2,10)
  ShowMessage("\\n<Sonya>")
  ShowMessage("な……何……？")
  ShowMessageFace("rovissa_fc1",0,0,2,11)
  ShowMessage("\\n<Rovissa>")
  ShowMessage("……幼馴染みの恋愛って、だいたい上手くいかないよね。")
  ShowMessageFace("sonia_fc3",2,0,2,12)
  ShowMessage("\\n<Sonya>")
  ShowMessage("いきなり正面から心臓をえぐってきた！？")
  ShowMessageFace("lars_fc01",0,0,2,13)
  ShowMessage("\\n<Lars>")
  ShowMessage("……………………")
  PictureClear(5)
  0()



EVENT   14
 PAGE   1
  0()
 PAGE   2
  // condition: switch 2916 is ON
  PictureDisplay(5,"80_lawrat_st01",0,0,0,0,100,100,0,0)
  PictureMove(5,null,0,0,0,0,100,100,255,0,30,true)
  ShowMessageFace("lawrat_fc1",0,0,2,1)
  ShowMessage("\\n<Lauratt>")
  ShowMessage("……………………")
  ShowMessageFace("byakunen_fc1",1,0,2,2)
  ShowMessage("\\n<Hakunen>")
  ShowMessage("ロウラットさんって、すごく足が速いですね。")
  ShowMessage("魔城で一緒に逃げた時、驚いてしまいました。")
  ShowMessageFace("rejeo_fc1",0,0,2,3)
  ShowMessage("\\n<Rigeo>")
  ShowMessage("夢世界で、走る機会も多かったから……")
  ShowMessage("足腰が鍛えられたのかもね。")
  ShowMessageFace("byakunen_fc1",1,0,2,4)
  ShowMessage("\\n<Hakunen>")
  ShowMessage("そう言うリジェオさんも、相当に速かったです。")
  ShowMessage("夢世界というのは、足の速さが必要なのですか？")
  ShowMessageFace("rejeo_fc1",0,0,2,5)
  ShowMessage("\\n<Rigeo>")
  ShowMessage("そういうわけじゃないけど……")
  ShowMessage("いや、そういうわけなのかも……？")
  ShowMessageFace("lawrat_fc1",0,0,2,6)
  ShowMessage("\\n<Lauratt>")
  ShowMessage("……………………")
  If(0,4,0)
   ShowMessageFace("alice_fc5",0,0,2,7)
   ShowMessage("\\n<Alice>")
   ShowMessage("夢世界とは、精神的な世界だと思っていたが……")
   ShowMessage("なぜ、足腰が鍛えられるのだ……？")
   0()
  EndIf()
  If(0,5,0)
   ShowMessageFace("iriasu_fc4",2,0,2,8)
   ShowMessage("\\n<Ilias>")
   ShowMessage("夢世界とは、精神的な世界だと思っていましたが……")
   ShowMessage("なぜ、足腰が鍛えられるのです……？")
   0()
  EndIf()
  PictureClear(5)
  0()



EVENT   15
 PAGE   1
  0()
 PAGE   2
  // condition: switch 2916 is ON
  PictureDisplay(5,"80_rejeo_st01",0,0,0,0,100,100,0,0)
  PictureMove(5,null,0,0,0,0,100,100,255,0,30,true)
  ShowMessageFace("sonia_fc1",2,0,2,1)
  ShowMessage("\\n<Sonya>")
  ShowMessage("ねぇねぇ、リジェオはロウラットの事が好きなの？")
  ShowMessageFace("rejeo_fc1",1,0,2,2)
  ShowMessage("\\n<Rigeo>")
  ShowMessage("えっ……！？")
  ShowMessageFace("rejeo_fc1",0,0,2,3)
  ShowMessage("\\n<Rigeo>")
  ShowMessage("私とロウラットとは、契約関係。")
  ShowMessage("そういうのじゃ、ないから……")
  ShowMessageFace("magatu_fc1",0,0,2,4)
  ShowMessage("\\n<Magatsu>")
  ShowMessage("ほう、それは残念だ。")
  ShowMessage("其方とロウラットなら、良きめおとになりそうじゃが。")
  ShowMessageFace("rejeo_fc1",1,0,2,5)
  ShowMessage("\\n<Rigeo>")
  ShowMessage("め……めおと！？")
  ShowMessageFace("youkosan_fc1",0,0,2,6)
  ShowMessage("\\n<Dream Fox>")
  ShowMessage("子供は何人がいい？")
  ShowMessage("男の子？　女の子？")
  ShowMessageFace("rejeo_fc1",1,0,2,7)
  ShowMessage("\\n<Rigeo>")
  ShowMessage("こ……こども！？")
  ShowMessageFace("daimeikai_fc1",0,0,2,8)
  ShowMessage("\\n<Daimyokai>")
  ShowMessage("ひひひ……節操なくまぐわいまくって……")
  ShowMessage("ネズミのように増えぬようにな。")
  ShowMessageFace("rejeo_fc1",1,0,2,9)
  ShowMessage("\\n<Rigeo>")
  ShowMessage("ま、まぐわい――")
  ShowMessageFace("rejeo_fc1",1,0,2,10)
  ShowMessage("\\n<Rigeo>")
  ShowMessage("……それは、ぜんぜん問題ないけど。")
  ShowMessage("さっきも精の献上とか、してもらったし。")
  ShowMessageFace("sonia_fc2",2,0,2,11)
  ShowMessage("\\n<Sonya>")
  ShowMessage("そこら辺は、当然のように夢魔なんだ……")
  PictureClear(5)
  0()



EVENT   18
 PAGE   1
  0()
 PAGE   2
  // condition: switch 2916 is ON
  PictureDisplay(5,"80_byakunen_st01",0,0,0,0,100,100,0,0)
  PictureMove(5,null,0,0,0,0,100,100,255,0,30,true)
  ShowMessageFace("byakunen_fc1",1,0,2,1)
  ShowMessage("\\n<Hakunen>")
  ShowMessage("このお城には、様々なあやかし……")
  ShowMessage("いえ、魔物さんがおられるのですね。")
  ShowMessageFace("byakunen_fc1",1,0,2,2)
  ShowMessage("\\n<Hakunen>")
  ShowMessage("人とあやかしの共存は、私の理想なのです。")
  ShowMessage("この世界は、それが実現出来ているのですね……")
  If(0,4,0)
   ShowMessageFace("alice_fc5",2,0,2,3)
   ShowMessage("\\n<Alice>")
   ShowMessage("人と魔物との距離が近いということは……")
   ShowMessage("その分、必然的にトラブルも多くなる。")
   ShowMessageFace("alice_fc5",2,0,2,4)
   ShowMessage("\\n<Alice>")
   ShowMessage("何より、魔物は人の精を――")
   ShowMessage("そして種族によっては、肉までエサとするのだ。")
   ShowMessageFace("alice_fc5",2,0,2,5)
   ShowMessage("\\n<Alice>")
   ShowMessage("その生態の違いを、乗り越えなければ――")
   ShowMessage("真の意味での、種族共存はならんだろう。")
   ShowMessageFace("byakunen_fc1",0,0,2,6)
   ShowMessage("\\n<Hakunen>")
   ShowMessage("その秘訣は、何とお考えですか？")
   ShowMessageFace("alice_fc5",2,0,2,7)
   ShowMessage("\\n<Alice>")
   ShowMessage("例えば……貴様の大好物は何だ？")
   ShowMessageFace("byakunen_fc1",2,0,2,8)
   ShowMessage("\\n<Hakunen>")
   ShowMessage("えっと、お蕎麦ですが……")
   ShowMessageFace("alice_fc5",2,0,2,9)
   ShowMessage("\\n<Alice>")
   ShowMessage("ならば……")
   ShowMessage("道の向こうから、美味しそうなお蕎麦が歩いてきたとしよう。")
   ShowMessageFace("byakunen_fc2",4,0,2,10)
   ShowMessage("\\n<Hakunen>")
   ShowMessage("お、お蕎麦が……！？")
   ShowMessageFace("alice_fc5",2,0,2,11)
   ShowMessage("\\n<Alice>")
   ShowMessage("そして貴様がお蕎麦を食べようとしたところ――")
   ShowMessage("「やめて！　食べないで！」とお蕎麦が言うのだ。")
   ShowMessageFace("kazuya_fc2",2,0,2,12)
   ShowMessage("\\n<Kazuya>")
   ShowMessage("なんだかシュール過ぎる光景だな……")
   ShowMessageFace("alice_fc5",2,0,2,13)
   ShowMessage("\\n<Alice>")
   ShowMessage("さあ、どうする白念？")
   ShowMessage("貴様はお蕎麦を食べるのか……？")
   ShowMessageFace("byakunen_fc1",1,0,2,14)
   ShowMessage("\\n<Hakunen>")
   ShowMessage("はい、食べます。")
   ShowMessage("蕎麦は蕎麦ですので。")
   ShowMessageFace("alice_fc5",3,0,2,15)
   ShowMessage("\\n<Alice>")
   ShowMessage("迷わず食べるか……うむむ。")
   ShowMessageFace("ruka_fc1",0,0,2,16)
   ShowMessage("\\n<Luka>")
   ShowMessage("これ……適切な例えなの？")
   ShowMessageFace("alice_fc5",0,0,2,17)
   ShowMessage("\\n<Alice>")
   ShowMessage("何の話か分からなくなってきたな……")
   ShowMessage("おまけにお蕎麦が食べたくなってきたぞ。")
   ShowMessageFace("byakunen_fc1",1,0,2,18)
   ShowMessage("\\n<Hakunen>")
   ShowMessage("はい、同感です！")
   ShowMessage("この世界のお蕎麦、ぜひ食べてみたいです。")
   ShowMessageFace("ruka_fc1",0,0,2,19)
   ShowMessage("\\n<Luka>")
   ShowMessage("それじゃあ、一緒にヤマタイにでも食べに行こうよ。")
   ShowMessage("人と魔物が共存してる光景でも見学しながら。")
   ShowMessageFace("byakunen_fc1",1,0,2,20)
   ShowMessage("\\n<Hakunen>")
   ShowMessage("喜んで、ご一緒させて頂きます！")
   ShowMessageFace("alice_fc5",6,0,2,21)
   ShowMessage("\\n<Alice>")
   ShowMessage("絶対にやめろ！")
   ShowMessage("貴様等二人が連れ立つなど、エサまっしぐらだぞ！")
   0()
  EndIf()
  If(0,5,0)
   ShowMessageFace("iriasu_fc4",2,0,2,22)
   ShowMessage("\\n<Ilias>")
   ShowMessage("魔物との共存が理想ですか……")
   ShowMessage("あなたは、どこかの誰かにそっくりですね。")
   ShowMessageFace("iriasu_fc4",2,0,2,23)
   ShowMessage("\\n<Ilias>")
   ShowMessage("ですが、簡単な事ではありませんよ。")
   ShowMessage("現にこの世界でも、魔物絡みのトラブルが多発しているのです。")
   ShowMessageFace("byakunen_fc1",0,0,2,24)
   ShowMessage("\\n<Hakunen>")
   ShowMessage("種族共存の秘訣は、何とお考えですか？")
   ShowMessageFace("iriasu_fc4",7,0,2,25)
   ShowMessage("\\n<Ilias>")
   ShowMessage("相互理解も良いですが……")
   ShowMessage("統治の観点から見ると、連帯感が何より重要です。")
   ShowMessageFace("iriasu_fc4",7,0,2,26)
   ShowMessage("\\n<Ilias>")
   ShowMessage("例えば、人と魔物が手を組んで対抗する共通の敵など――")
   ShowMessageFace("iriasu_fc4",2,0,2,27)
   ShowMessage("\\n<Ilias>")
   ShowMessage("……………………")
   ShowMessageFace("iriasu_fc4",2,0,2,28)
   ShowMessage("\\n<Ilias>")
   ShowMessage("……この話は、やめにしましょう。")
   ShowMessageFace("byakunen_fc1",2,0,2,29)
   ShowMessage("\\n<Hakunen>")
   ShowMessage("は……はい。")
   ShowMessageFace("ruka_fc1",0,0,2,30)
   ShowMessage("\\n<Luka>")
   ShowMessage("それじゃあ、一緒にヤマタイにでも行こうよ。")
   ShowMessage("お蕎麦でも食べながら、皆が仲良くするところを眺めよう。")
   ShowMessageFace("byakunen_fc1",1,0,2,31)
   ShowMessage("\\n<Hakunen>")
   ShowMessage("喜んで、ご一緒させて頂きます！")
   ShowMessageFace("iriasu_fc4",5,0,2,32)
   ShowMessage("\\n<Ilias>")
   ShowMessage("や、やめるのです！")
   ShowMessage("あなた達二人が連れ立つなど、たちまち魔物のエサに！！")
   0()
  EndIf()
  PictureClear(5)
  0()



EVENT   19
 PAGE   1
  0()
 PAGE   2
  // condition: switch 2916 is ON
  PictureDisplay(5,"80_magatu_st01",0,0,0,0,100,100,0,0)
  PictureMove(5,null,0,0,0,0,100,100,255,0,30,true)
  If(0,4,0)
   ShowMessageFace("alice_fc5",1,0,2,1)
   ShowMessage("\\n<Alice>")
   ShowMessage("貴様が、まほろば山の頭マガツか。")
   ShowMessage("随分と美味そうな……いや、立派な弟子を育てたものだ。")
   ShowMessageFace("magatu_fc1",0,0,2,2)
   ShowMessage("\\n<Magatsu>")
   ShowMessage("くくく……実に美味そうだろう。")
   ShowMessageFace("byakunen_fc2",5,0,2,3)
   ShowMessage("\\n<Hakunen>")
   ShowMessage("お師匠様……なぜ美味い方を肯定するのですか。")
   ShowMessageFace("alice_fc5",2,0,2,4)
   ShowMessage("\\n<Alice>")
   ShowMessage("だが、美味さなら……")
   ShowMessage("いや、立派さなら我が弟子も負けてはいまい。")
   ShowMessageFace("ruka_fc1",0,0,2,5)
   ShowMessage("\\n<Luka>")
   ShowMessage("アリスに、弟子なんていたの――")
   ShowMessage("……ひょっとして、僕！？")
   ShowMessageFace("alice_fc5",0,0,2,6)
   ShowMessage("\\n<Alice>")
   ShowMessage("貴様には、いくつも剣技を仕込んだのだ。")
   ShowMessage("事実上、余の弟子と言っても間違ってはいまい。")
   ShowMessageFace("magatu_fc1",0,0,2,7)
   ShowMessage("\\n<Magatsu>")
   ShowMessage("なるほど……")
   ShowMessage("では、ここは弟子対決といかぬか？")
   ShowMessageFace("alice_fc5",1,0,2,8)
   ShowMessage("\\n<Alice>")
   ShowMessage("面白い、受けて立ってやろう……")
   ShowMessage("どのように優劣を競うというのだ？")
   0()
  EndIf()
  If(0,5,0)
   ShowMessageFace("iriasu_fc4",0,0,2,9)
   ShowMessage("\\n<Ilias>")
   ShowMessage("貴方が、まほろば山の頭マガツですか。")
   ShowMessage("なかなか優秀な弟子を持っているようですね。")
   ShowMessageFace("magatu_fc1",0,0,2,10)
   ShowMessage("\\n<Magatsu>")
   ShowMessage("くくく、実に立派に育ったものよ。")
   ShowMessageFace("iriasu_fc4",0,0,2,11)
   ShowMessage("\\n<Ilias>")
   ShowMessage("ですが、ルカには及ばないでしょう。")
   ShowMessage("あの者は、私が丹念に育てた弟子のようなものです。")
   ShowMessageFace("ruka_fc1",0,0,2,12)
   ShowMessage("\\n<Luka>")
   ShowMessage("僕が……弟子？")
   ShowMessageFace("magatu_fc1",0,0,2,13)
   ShowMessage("\\n<Magatsu>")
   ShowMessage("なるほど……")
   ShowMessage("では、ここは弟子対決といかぬか？")
   ShowMessageFace("iriasu_fc4",0,0,2,14)
   ShowMessage("\\n<Ilias>")
   ShowMessage("無論、受けて立ちましょう。")
   ShowMessage("どのように優劣を競うのですか？")
   0()
  EndIf()
  ShowMessageFace("ruka_fc1",0,0,2,15)
  ShowMessage("\\n<Luka>")
  ShowMessage("悪いけど、戦いは勘弁してよ……")
  ShowMessageFace("byakunen_fc1",0,0,2,16)
  ShowMessage("\\n<Hakunen>")
  ShowMessage("同感です、暴力を競うつもりはありません。")
  ShowMessageFace("rejeo_fc1",0,0,2,17)
  ShowMessage("\\n<Rigeo>")
  ShowMessage("足の速さを競ってみたら？")
  ShowMessage("ロウラットに先に捕まった方が負け。")
  ShowMessageFace("ruka_fc1",0,0,2,18)
  ShowMessage("\\n<Luka>")
  ShowMessage("それは……ちょっとしんどいな。")
  ShowMessage("しかもロウラットが追いかけてくるのか。")
  ShowMessageFace("byakunen_fc1",2,0,2,19)
  ShowMessage("\\n<Hakunen>")
  ShowMessage("ロウラットさん、凄まじい健脚ですからね……")
  ShowMessageFace("daimeikai_fc1",0,0,2,20)
  ShowMessage("\\n<Daimyokai>")
  ShowMessage("魔物狩りで勝負はどうだ？")
  ShowMessage("制限時間内に、多く狩った方が勝ちだ。")
  ShowMessageFace("byakunen_fc3",0,0,2,21)
  ShowMessage("\\n<Hakunen>")
  ShowMessage("……お断りします！")
  ShowMessageFace("tarsa_fc2",1,0,2,22)
  ShowMessage("\\n<Tarsa>")
  ShowMessage("私の即抜きフェラで、どれだけ耐えられるか……")
  ShowMessage("……ってのは、どう？")
  ShowMessageFace("ruka_fc1",0,0,2,23)
  ShowMessage("\\n<Luka>")
  ShowMessage("い、イヤだよ……！")
  ShowMessageFace("youkosan_fc1",0,0,2,24)
  ShowMessage("\\n<Dream Fox>")
  ShowMessage("娼夫対決ってのはどう？")
  ShowMessage("二人で娼夫をやって、お客さんの多い方が勝ち。")
  If(0,4,0)
   ShowMessageFace("alice_fc5",1,0,2,25)
   ShowMessage("\\n<Alice>")
   ShowMessage("それは良いな……")
   ShowMessage("余はもちろん、ルカの元に行くぞ！")
   0()
  EndIf()
  If(0,5,0)
   ShowMessageFace("iriasu_fc4",0,0,2,26)
   ShowMessage("\\n<Ilias>")
   ShowMessage("それは良いですね……")
   ShowMessage("私はもちろん、ルカの元に行きましょう。")
   0()
  EndIf()
  ShowMessageFace("magatu_fc1",0,0,2,27)
  ShowMessage("\\n<Magatsu>")
  ShowMessage("儂は当然、白念に相手をしてもらおう。")
  ShowMessage("白念の娼館、大繁盛に違いない。")
  If(0,4,0)
   ShowMessageFace("alice_fc5",1,0,2,28)
   ShowMessage("\\n<Alice>")
   ShowMessage("なんのルカよ、貴様の宿屋で娼夫サービスを始めろ。")
   ShowMessage("きっと大勢の女性客が食いつくぞ！")
   0()
  EndIf()
  If(0,5,0)
   ShowMessageFace("iriasu_fc4",0,0,2,29)
   ShowMessage("\\n<Ilias>")
   ShowMessage("なんのルカ、貴方の宿屋で娼夫サービスを始めるのです。")
   ShowMessage("きっと大勢の女性客が食いつきますよ！")
   0()
  EndIf()
  ShowMessageFace("ruka_fc1",0,0,2,30)
  ShowMessage("\\n<Luka>")
  ShowMessage("……………………")
  ShowMessageFace("byakunen_fc1",2,0,2,31)
  ShowMessage("\\n<Hakunen>")
  ShowMessage("……………………")
  ShowMessageFace("rejeo_fc1",0,0,2,32)
  ShowMessage("\\n<Rigeo>")
  ShowMessage("弟子って、何だろう……")
  ShowMessageFace("lawrat_fc1",0,0,2,33)
  ShowMessage("\\n<Lauratt>")
  ShowMessage("……………………")
  PictureClear(5)
  0()



EVENT   20
 PAGE   1
  PictureDisplay(5,"80_youkosan_st01",0,0,0,0,100,100,0,0)
  PictureMove(5,null,0,0,0,0,100,100,255,0,30,true)
  If(0,4,0)
   ShowMessageFace("alice_fc5",0,0,2,1)
   ShowMessage("\\n<Alice>")
   ShowMessage("異世界の狐は、少々雰囲気が違うな。")
   ShowMessage("獣の要素が、より強く発現しているのか。")
   0()
  EndIf()
  If(0,5,0)
   ShowMessageFace("iriasu_fc4",2,0,2,2)
   ShowMessage("\\n<Ilias>")
   ShowMessage("異世界の狐は、なかなか雰囲気が違いますね。")
   ShowMessage("獣の要素が、より強く発現しているようです。")
   0()
  EndIf()
  ShowMessageFace("youkosan_fc1",0,0,2,3)
  ShowMessage("\\n<Dream Fox>")
  ShowMessage("ん～、そうなのかな？")
  ShowMessage("この世界の妖狐は、割と人間っぽいね。")
  If(0,1102,0)
   If(0,1103,0)
    ShowMessageFace("youko_fc1",0,0,2,4)
    ShowMessage("\\n<きつね>")
    ShowMessage("なんだか、不思議な感じ！")
    ShowMessage("でも、かわいいね♪")
    ShowMessageFace("kamuro_fc1",0,0,2,5)
    ShowMessage("\\n<かむろ>")
    ShowMessage("まさか、異世界の同胞にお目に掛かるとは……")
    ShowMessage("こちらの世界に、ようこそお越し下さいました。")
    ShowMessageFace("magatu_fc1",0,0,2,6)
    ShowMessage("\\n<Magatsu>")
    ShowMessage("こっちの狐は、礼儀正しいのう。")
    ShowMessage("夢狐よ、お前も少し見習ったらどうだ？")
    ShowMessageFace("youkosan_fc1",2,0,2,7)
    ShowMessage("\\n<Dream Fox>")
    ShowMessage("もう……マガッつぁんはうるさいなぁ。")
    ShowMessage("これでもウチ、相当に行儀良くしてるんだよ？")
    ShowMessageFace("youko_fc1",0,0,2,8)
    ShowMessage("\\n<きつね>")
    ShowMessage("夢狐って、どういういわれの名前なの？")
    ShowMessage("なんだかすごくファンタジックだけど……")
    ShowMessageFace("youkosan_fc1",0,0,2,9)
    ShowMessage("\\n<Dream Fox>")
    ShowMessage("いつでも酒ばっかり飲んで、寝てるから……")
    ShowMessage("酔って夢ばかり見てる狐っていう意味。")
    ShowMessageFace("kamuro_fc1",0,0,2,10)
    ShowMessage("\\n<かむろ>")
    ShowMessage("ぜんぜんファンタジックじゃありませんね……")
    ShowMessageFace("youkosan_fc1",0,0,2,11)
    ShowMessage("\\n<Dream Fox>")
    ShowMessage("きつねちゃんこそ、その名前はどうなの？")
    ShowMessage("そのままじゃない……？")
    ShowMessageFace("youko_fc1",0,0,2,12)
    ShowMessage("\\n<きつね>")
    ShowMessage("えへへっ、そうだよね～♪")
    ShowMessageFace("kamuro_fc1",0,0,2,13)
    ShowMessage("\\n<かむろ>")
    ShowMessage("でもきつね先輩、自分で決めたんですよね？")
    ShowMessage("二尾に昇進した時、好きな名前が付けられるんですから。")
    ShowMessageFace("youko_fc1",0,0,2,14)
    ShowMessage("\\n<きつね>")
    ShowMessage("ちょっと……思い入れのある名前でね。")
    ShowMessage("ただの狐のころ、仲の良かった女の子にそう呼ばれてたの。")
    ShowMessageFace("youkosan_fc1",0,0,2,15)
    ShowMessage("\\n<Dream Fox>")
    ShowMessage("へぇ、そうだったの。")
    ShowMessage("今もその女の子に、そう呼ばれてるの？")
    ShowMessageFace("youko_fc1",0,0,2,16)
    ShowMessage("\\n<きつね>")
    ShowMessage("あたしが二尾になる前に、お空に行っちゃった。")
    ShowMessageFace("kamuro_fc1",2,0,2,17)
    ShowMessage("\\n<かむろ>")
    ShowMessage("…………！！")
    ShowMessageFace("youkosan_fc1",2,0,2,18)
    ShowMessage("\\n<Dream Fox>")
    ShowMessage("そうだったの……")
    ShowMessage("ねぇ、今度一緒に酒でも飲もうよ。")
    ShowMessageFace("youko_fc1",0,0,2,19)
    ShowMessage("\\n<きつね>")
    ShowMessage("お酒はダメなんだけど……")
    ShowMessage("ちょっとだけなら、いいかな？")
    ShowMessageFace("magatu_fc1",2,0,2,20)
    ShowMessage("\\n<Magatsu>")
    ShowMessage("やめておけ……")
    ShowMessage("こいつと飲むと、ロクな酔い方せんぞ。")
    ShowMessageFace("youkosan_fc1",2,0,2,21)
    ShowMessage("\\n<Dream Fox>")
    ShowMessage("信用無いねー、マガッつぁん……")
    0()
   EndIf()
   0()
  EndIf()
  PictureClear(5)
  0()



EVENT   21
 PAGE   1
  PictureDisplay(5,"80_daimeikai_st01",0,0,0,0,100,100,0,0)
  PictureMove(5,null,0,0,0,0,100,100,255,0,30,true)
  ShowMessageFace("daimeikai_fc1",1,0,2,1)
  ShowMessage("\\n<Daimyokai>")
  ShowMessage("まったく……この城は魔物だらけだな。")
  ShowMessage("うんざりするぜ……")
  ShowMessageFace("magatu_fc1",2,0,2,2)
  ShowMessage("\\n<Magatsu>")
  ShowMessage("気に入らんなら、其方一人で全員を封じるか？")
  ShowMessageFace("daimeikai_fc1",1,0,2,3)
  ShowMessage("\\n<Daimyokai>")
  ShowMessage("俺の世界ならいざ知らず……")
  ShowMessage("どうせよその世界だ、知ったこっちゃねぇ。")
  ShowMessageFace("daimeikai_fc1",0,0,2,4)
  ShowMessage("\\n<Daimyokai>")
  ShowMessage("だが、この世界には様々な秘宝があると見た。")
  ShowMessage("集めるだけ集めて、元の世界に持ち帰ってやるぜ！")
  If(0,4,0)
   ShowMessageFace("alice_fc5",3,0,2,5)
   ShowMessage("\\n<Alice>")
   ShowMessage("やれやれ……")
   ShowMessage("こいつは本当に、名の知れた退魔師なのか？")
   0()
  EndIf()
  If(0,5,0)
   ShowMessageFace("iriasu_fc4",2,0,2,6)
   ShowMessage("\\n<Ilias>")
   ShowMessage("まったく、なんと意地汚い退魔師なのでしょう……")
   ShowMessage("そちらの世界の神は、ちゃんと監督しているのですか？")
   0()
  EndIf()
  ShowMessageFace("byakunen_fc1",2,0,2,7)
  ShowMessage("\\n<Hakunen>")
  ShowMessage("この方が、迷惑をお掛けして……")
  ShowMessage("本当に申し訳ありません。")
  ShowMessageFace("daimeikai_fc1",1,0,2,8)
  ShowMessage("\\n<Daimyokai>")
  ShowMessage("おい白念！")
  ShowMessage("いつからお前は、俺の保護者になった！？")
  If(0,4,0)
   ShowMessageFace("alice_fc5",2,0,2,9)
   ShowMessage("\\n<Alice>")
   ShowMessage("ともかく、今は戦力が必要だ。")
   ShowMessage("秘宝の一つや二つはくれてやるから、協力しろ。")
   0()
  EndIf()
  If(0,5,0)
   ShowMessageFace("iriasu_fc4",7,0,2,10)
   ShowMessage("\\n<Ilias>")
   ShowMessage("ともかく、今は戦力が必要なのです。")
   ShowMessage("秘宝の一つや二つは授けますから、協力しなさい。")
   0()
  EndIf()
  ShowMessageFace("daimeikai_fc1",2,0,2,11)
  ShowMessage("\\n<Daimyokai>")
  ShowMessage("うひひっ、その言葉に嘘はないな？")
  ShowMessage("これも仕事だ、報酬はちゃんともらっていくぜ。")
  If(0,4,0)
   ShowMessageFace("alice_fc5",3,0,2,12)
   ShowMessage("\\n<Alice>")
   ShowMessage("やれやれ……")
   0()
  EndIf()
  If(0,5,0)
   ShowMessageFace("iriasu_fc4",2,0,2,13)
   ShowMessage("\\n<Ilias>")
   ShowMessage("やれやれ……")
   0()
  EndIf()
  PictureClear(5)
  0()
 PAGE   2
  // condition: variable 1212 >= 8
  0()



EVENT   22
 PAGE   1
  PictureDisplay(5,"80_kazuya_st01",0,0,0,0,100,100,0,0)
  PictureMove(5,null,0,0,0,0,100,100,255,0,30,true)
  If(0,4,0)
   ShowMessageFace("alice_fc5",0,0,2,1)
   ShowMessage("\\n<Alice>")
   ShowMessage("貴様は、ずいぶんと死線をかいくぐったようだな。")
   ShowMessage("場数を踏んだのが、一挙一動から伝わってくるぞ。")
   0()
  EndIf()
  If(0,5,0)
   ShowMessageFace("iriasu_fc4",0,0,2,2)
   ShowMessage("\\n<Ilias>")
   ShowMessage("貴方は、ずいぶんと死線をくぐり抜けたようですね。")
   ShowMessage("一挙一動から、踏んだ場数が窺えます。")
   0()
  EndIf()
  ShowMessageFace("kazuya_fc2",0,0,2,3)
  ShowMessage("\\n<Kazuya>")
  ShowMessage("いや、別にそれほどでも……")
  ShowMessage("でも職業柄、こういう状況には慣れてるかな。")
  ShowMessageFace("byakunen_fc1",1,0,2,4)
  ShowMessage("\\n<Hakunen>")
  ShowMessage("カズヤさんは、経験豊富な方なのですよ。")
  ShowMessageFace("kazuya_fc2",0,0,2,5)
  ShowMessage("\\n<Kazuya>")
  ShowMessage("結婚はしてないけどね……")
  ShowMessageFace("sonia_fc1",0,0,2,6)
  ShowMessage("\\n<Sonya>")
  ShowMessage("じゃあ、恋人は？")
  ShowMessageFace("kazuya_fc2",0,0,2,7)
  ShowMessage("\\n<Kazuya>")
  ShowMessage("いる……って言っていいのかな……")
  ShowMessage("ちょっと複雑な事情なんだよね……")
  ShowMessageFace("rejeo_fc1",0,0,2,8)
  ShowMessage("\\n<Rigeo>")
  ShowMessage("浮気したことは？")
  ShowMessageFace("kazuya_fc2",2,0,2,9)
  ShowMessage("\\n<Kazuya>")
  ShowMessage("もちろん無いよ。")
  ShowMessage("親友の彼女に、執拗に襲われたことはあるけど。")
  ShowMessageFace("tarsa_fc2",1,0,2,10)
  ShowMessage("\\n<Tarsa>")
  ShowMessage("Hなダンス対決はやったことある？")
  ShowMessageFace("kazuya_fc2",2,0,2,11)
  ShowMessage("\\n<Kazuya>")
  ShowMessage("それは……経験がある、かな。")
  ShowMessage("しかもテレビの前でアイドルと……")
  ShowMessageFace("rest_fc1",0,0,2,12)
  ShowMessage("\\n<Lest>")
  ShowMessage("100Gで体を売ったことは？")
  ShowMessageFace("kazuya_fc2",3,0,2,13)
  ShowMessage("\\n<Kazuya>")
  ShowMessage("ないよ！")
  ShowMessage("金額まで指定するって、やけに具体的だな！")
  ShowMessageFace("daimeikai_fc1",0,0,2,14)
  ShowMessage("\\n<Daimyokai>")
  ShowMessage("雌ニワトリに変えられて、")
  ShowMessage("オスと交尾させられそうになった事は……？")
  ShowMessageFace("kazuya_fc2",2,0,2,15)
  ShowMessage("\\n<Kazuya>")
  ShowMessage("どういう状況だよ！！？")
  ShowMessageFace("kazuya_fc2",3,0,2,16)
  ShowMessage("\\n<Kazuya>")
  ShowMessage("……っていうか、もう質問禁止！")
  ShowMessage("そんなおもしろ経験ばかりしてるわけじゃないから！")
  ShowMessageFace("daimeikai_fc1",1,0,2,17)
  ShowMessage("\\n<Daimyokai>")
  ShowMessage("俺はおもしろくなかったぞ！")
  ShowMessageFace("kazuya_fc2",3,0,2,18)
  ShowMessage("\\n<Kazuya>")
  ShowMessage("やっぱり実体験かよ！！")
  PictureClear(5)
  0()



EVENT   23
 PAGE   1
  PictureDisplay(5,"80_lanpass_st01",0,0,0,0,100,100,0,0)
  PictureMove(5,null,0,0,0,0,100,100,255,0,30,true)
  If(0,4,0)
   ShowMessageFace("lanpass_fc2",2,0,2,1)
   ShowMessage("\\n<Lampas>")
   ShowMessage("ねぇねぇ……")
   ShowMessage("キミって、魔王なんだよね？")
   ShowMessageFace("alice_fc5",0,0,2,2)
   ShowMessage("\\n<Alice>")
   ShowMessage("確かに、余は代16代魔王だが……")
   ShowMessage("どうも、魔王に対する印象が悪いようだな。")
   0()
  EndIf()
  If(0,5,0)
   ShowMessageFace("lanpass_fc2",2,0,2,3)
   ShowMessage("\\n<Lampas>")
   ShowMessage("ねぇねぇ……")
   ShowMessage("この世界にも、魔王がいるんだよね？")
   ShowMessageFace("iriasu_fc4",0,0,2,4)
   ShowMessage("\\n<Ilias>")
   ShowMessage("その口ぶりからすると……")
   ShowMessage("あなたの世界の魔王も、ろくでもないようですね。")
   0()
  EndIf()
  ShowMessageFace("lanpass_fc2",2,0,2,5)
  ShowMessage("\\n<Lampas>")
  ShowMessage("私の主の魔王が、性格サイアクだったから……")
  ShowMessage("部下使いが荒くて、さんざん苦労させられたんだよ。")
  ShowMessageFace("lanpass_fc2",2,0,2,6)
  ShowMessage("\\n<Lampas>")
  ShowMessage("気分次第で、コキ使われて、焼かれて、埋められて……")
  ShowMessage("本当に悲惨な扱いだったね。")
  If(0,4,0)
   ShowMessageFace("alice_fc5",1,0,2,7)
   ShowMessage("\\n<Alice>")
   ShowMessage("安心するが良い、ここでそんな事はせん。")
   ShowMessage("余は、全ての魔物を平等に扱うのだ！")
   ShowMessageFace("lanpass_fc2",3,0,2,8)
   ShowMessage("\\n<Lampas>")
   ShowMessage("いいねぇ、『全ての魔物を平等に』……")
   ShowMessage("うちのガキンチョ魔王にも聞かせてやりたいわ。")
   ShowMessageFace("lanpass_fc2",3,0,2,9)
   ShowMessage("\\n<Lampas>")
   ShowMessage("このまま、上司と職場を変えちゃうのも悪くないなぁ。")
   ShowMessage("一生ついていくよぉ♪")
   ShowMessageFace("youkosan_fc1",2,0,2,10)
   ShowMessage("\\n<Dream Fox>")
   ShowMessage("ねぇ……")
   ShowMessage("この魔王、机の下でずっとウチの足を踏んでるんだけど。")
   ShowMessageFace("alice_fc5",0,0,2,11)
   ShowMessage("\\n<Alice>")
   ShowMessage("……狐が喋るな。")
   ShowMessageFace("lanpass_fc2",5,0,2,12)
   ShowMessage("\\n<Lampas>")
   ShowMessage("わぁー……")
   ShowMessage("さっそく前言撤回したいかも。")
   0()
  EndIf()
  If(0,5,0)
   ShowMessageFace("iriasu_fc4",0,0,2,13)
   ShowMessage("\\n<Ilias>")
   ShowMessage("この世界の魔王も、割と悲惨な扱いですよ。")
   ShowMessage("小さくなって、駆けずり回って、牢にまで入れられて……")
   ShowMessageFace("lanpass_fc2",5,0,2,14)
   ShowMessage("\\n<Lampas>")
   ShowMessage("なんで魔王がそんな事に……？")
   0()
  EndIf()
  PictureClear(5)
  0()



EVENT   24
 PAGE   1
  PictureDisplay(5,"80_mukuro_st02",0,0,0,0,100,100,0,0)
  PictureMove(5,null,0,0,0,0,100,100,255,0,30,true)
  ShowMessageFace("mukuro_fc1",3,0,2,1)
  ShowMessage("\\n<Mukuro>")
  ShowMessage("お前も……搾精人形か？")
  ShowMessageFace("brunhild_fc1",0,0,2,2)
  ShowMessage("\\n<ヒルデ>")
  ShowMessage("たぶん違うけど……妊娠機能はあるよ。")
  ShowMessageFace("mukuro_fc1",3,0,2,3)
  ShowMessage("\\n<Mukuro>")
  ShowMessage("妊娠機能……")
  ShowMessage("……………………")
  ShowMessageFace("kazuya_fc2",2,0,2,4)
  ShowMessage("\\n<Kazuya>")
  ShowMessage("……僕に目線で何かを訴えるのはやめてよ。")
  ShowMessage("そんなの、結博士に頼むくらいしか方法は――")
  ShowMessageFace("stein_fc2",1,0,2,5)
  ShowMessage("\\n<Promestein>")
  ShowMessage("なるほど、妊娠機能ですか。")
  ShowMessage("いくつか案があるので、比較検討しましょう……")
  ShowMessageFace("kazuya_fc2",3,0,2,6)
  ShowMessage("\\n<Kazuya>")
  ShowMessage("なんか結博士みたいなのが出て来たー！？")
  ShowMessageFace("stein_fc2",1,0,2,7)
  ShowMessage("\\n<Promestein>")
  ShowMessage("カズヤさん、あなたも新機能はいりませんか？")
  ShowMessage("ブレストキャノンやレーザーアイなんて、どうです？")
  ShowMessageFace("kazuya_fc2",3,0,2,8)
  ShowMessage("\\n<Kazuya>")
  ShowMessage("やっぱり結博士だこの人！！")
  ShowMessage("隙あらば僕まで魔改造する気だ！！！！")
  ShowMessageFace("mukuro_fc1",3,0,2,9)
  ShowMessage("\\n<Mukuro>")
  ShowMessage("カズヤにレーザーアイか……")
  ShowMessage("悪くない……")
  ShowMessageFace("kazuya_fc2",3,0,2,10)
  ShowMessage("\\n<Kazuya>")
  ShowMessage("いや欲しがるなよ！")
  ShowMessageFace("chrom_fc2",1,0,2,11)
  ShowMessage("\\n<クロム>")
  ShowMessage("儂もその人形には興味があるのじゃ！")
  ShowMessage("ちょっと解体させてほしいのじゃ！")
  ShowMessageFace("kazuya_fc2",3,0,2,12)
  ShowMessage("\\n<Kazuya>")
  ShowMessage("また変なのが出てきた！")
  ShowMessage("ダメに決まってるだろ！")
  ShowMessageFace("chrom_fc2",1,0,2,13)
  ShowMessage("\\n<クロム>")
  ShowMessage("ちょっと解体させてくれたら……")
  ShowMessage("特別に大気圏離脱装備を組み込んでやろう！")
  ShowMessageFace("mukuro_fc1",3,0,2,14)
  ShowMessage("\\n<Mukuro>")
  ShowMessage("大気圏離脱……面白そうだな。")
  ShowMessage("……よし、いいぞ。")
  ShowMessageFace("kazuya_fc2",3,0,2,15)
  ShowMessage("\\n<Kazuya>")
  ShowMessage("ダメって言ってるだろうに！！！！")
  ShowMessage("躯も宇宙に飛ぶ予定ないでしょ！！！")
  ShowMessageFace("kazuya_fc2",2,0,2,16)
  ShowMessage("\\n<Kazuya>")
  ShowMessage("ハァハァ……")
  ShowMessage("油断も隙もない……")
  ShowMessageFace("mukuro_fc1",3,0,2,17)
  ShowMessage("\\n<Mukuro>")
  ShowMessage("カズヤ、身体に疲労の症状を確認したが")
  ShowMessage("搾精機能でも使ってリフレッシュするか？")
  ShowMessageFace("kazuya_fc2",2,0,2,18)
  ShowMessage("\\n<Kazuya>")
  ShowMessage("それ、余計に疲れるよね……？")
  PictureClear(5)
  0()



EVENT   26
 PAGE   1
  0()
 PAGE   2
  // condition: switch 2916 is ON
  PictureDisplay(5,"80_rest_st01",0,0,0,0,100,100,0,0)
  PictureMove(5,null,0,0,0,0,100,100,255,0,30,true)
  ShowMessageFace("ruka_fc1",0,0,2,1)
  ShowMessage("\\n<Luka>")
  ShowMessage("君は、万能剣士と名高いんだってね。")
  ShowMessage("一緒に戦えるなんて、光栄だよ！")
  ShowMessageFace("rest_fc1",0,0,2,2)
  ShowMessage("\\n<Lest>")
  ShowMessage("こちらこそ、よろしく。")
  ShowMessage("七人の勇者に加われるなんて光栄だ。")
  ShowMessageFace("sonia_fc1",0,0,2,3)
  ShowMessage("\\n<Sonya>")
  ShowMessage("へぇ……")
  ShowMessage("なんとなく、雰囲気がルカに似てるよね。")
  ShowMessageFace("rest_fc1",0,0,2,4)
  ShowMessage("\\n<Lest>")
  ShowMessage("き、君のその格好は……")
  ShowMessage("いや、なんでもない……")
  ShowMessageFace("sonia_fc2",2,0,2,5)
  ShowMessage("\\n<Sonya>")
  ShowMessage("ん……どうしたの？")
  ShowMessageFace("tarsa_fc2",1,0,2,6)
  ShowMessage("\\n<Tarsa>")
  ShowMessage("レストは純情だから……")
  ShowMessage("きわどい格好の女の子は直視できないのよね♪")
  ShowMessageFace("sonia_fc1",2,0,2,7)
  ShowMessage("\\n<Sonya>")
  ShowMessage("へぇ……そうなんだ♪")
  250(bytes(0x04,0x08,0x6f,0x3a,0x0c,0x52,0x50,0x47,0x3a,0x3a,0x53,0x45,0x08,0x3a,0x0a,0x40,0x6e,0x61,0x6d,0x65,0x49,0x22,0x0a,0x57,0x69,0x6e,0x64,0x38,0x06,0x3a,0x06,0x45,0x54,0x3a,0x0b,0x40,0x70,0x69,0x74,0x63,0x68,0x69,0x69,0x3a,0x0c,0x40,0x76,0x6f,0x6c,0x75,0x6d,0x65,0x69,0x55))
  ShowMessageFace("magatu_fc1",0,0,2,8)
  ShowMessage("\\n<Magatsu>")
  ShowMessage("ほほう……万能剣士殿は、女体に弱いとな？")
  ShowMessage("おっと、いたずらな風が儂の衣服を。")
  ShowMessageFace("rest_fc1",0,0,2,9)
  ShowMessage("\\n<Lest>")
  ShowMessage("ちょ、ちょっと……！？")
  250(bytes(0x04,0x08,0x6f,0x3a,0x0c,0x52,0x50,0x47,0x3a,0x3a,0x53,0x45,0x08,0x3a,0x0a,0x40,0x6e,0x61,0x6d,0x65,0x49,0x22,0x11,0x6d,0x6f,0x6e,0x5f,0x65,0x72,0x6f,0x5f,0x70,0x79,0x75,0x34,0x06,0x3a,0x06,0x45,0x54,0x3a,0x0b,0x40,0x70,0x69,0x74,0x63,0x68,0x69,0x69,0x3a,0x0c,0x40,0x76,0x6f,0x6c,0x75,0x6d,0x65,0x69,0x69))
  ShowMessageFace("tarsa_fc2",1,0,2,10)
  ShowMessage("\\n<Tarsa>")
  ShowMessage("うっかり、おっぱいがレストの顔に……♪")
  ShowMessageFace("rest_fc1",0,0,2,11)
  ShowMessage("\\n<Lest>")
  ShowMessage("むぐぐっ……助けてぇ！！")
  ShowMessageFace("kazuya_fc4",1,0,2,12)
  ShowMessage("\\n<Kazuya>")
  ShowMessage("（ちょっと羨ましい……）")
  PictureClear(5)
  0()



EVENT   31
 PAGE   1
  0()
 PAGE   2
  // condition: switch 2916 is ON
  PictureDisplay(5,"80_tarsa_st11",0,0,0,0,100,100,0,0)
  PictureMove(5,null,0,0,0,0,100,100,255,0,30,true)
  ShowMessageFace("tarsa_fc2",1,0,2,1)
  ShowMessage("\\n<Tarsa>")
  ShowMessage("七人の勇者って、みんなとっても美味しそう♡")
  ShowMessage("ねぇねぇ、つまみ食いしてもいいかな～♪")
  If(0,4,0)
   ShowMessageFace("alice_fc6",1,0,2,2)
   ShowMessage("\\n<Alice>")
   ShowMessage("ダメだ！")
   0()
  EndIf()
  If(0,5,0)
   ShowMessageFace("iriasu_fc5",0,0,2,3)
   ShowMessage("\\n<Ilias>")
   ShowMessage("ダメです！")
   0()
  EndIf()
  ShowMessageFace("sonia_fc2",5,0,2,4)
  ShowMessage("\\n<Sonya>")
  ShowMessage("ダメー！")
  ShowMessageFace("rovissa_fc1",0,0,2,5)
  ShowMessage("\\n<Rovissa>")
  ShowMessage("ダメに決まってるでしょ！")
  ShowMessageFace("rejeo_fc1",0,0,2,6)
  ShowMessage("\\n<Rigeo>")
  ShowMessage("……ダメよ。")
  ShowMessageFace("lanpass_fc2",2,0,2,7)
  ShowMessage("\\n<Lampas>")
  ShowMessage("ダメ～！")
  ShowMessageFace("mukuro_fc1",3,0,2,8)
  ShowMessage("\\n<Mukuro>")
  ShowMessage("駄目だ……")
  ShowMessageFace("magatu_fc1",0,0,2,9)
  ShowMessage("\\n<Magatsu>")
  ShowMessage("ふむ、構わんぞ。")
  ShowMessageFace("byakunen_fc2",4,0,2,10)
  ShowMessage("\\n<Hakunen>")
  ShowMessage("だ、ダメですよ！")
  ShowMessageFace("rest_fc1",0,0,2,11)
  ShowMessage("\\n<Lest>")
  ShowMessage("……………………")
  ShowMessageFace("rejeo_fc1",0,0,2,12)
  ShowMessage("\\n<Rigeo>")
  ShowMessage("あれ……レストはいいの？")
  ShowMessageFace("tarsa_fc2",1,0,2,13)
  ShowMessage("\\n<Tarsa>")
  ShowMessage("もう、食べちゃった♡")
  ShowMessageFace("rest_fc1",0,0,2,14)
  ShowMessage("\\n<Lest>")
  ShowMessage("ふ、不本意ながら……")
  ShowMessage("すまない……")
  ShowMessageFace("tarsa_fc2",1,0,2,15)
  ShowMessage("\\n<Tarsa>")
  ShowMessage("そういうわけで……")
  ShowMessage("次は、お許しの出てる白念君かな？")
  ShowMessageFace("byakunen_fc1",2,0,2,16)
  ShowMessage("\\n<Hakunen>")
  ShowMessage("だから、ダメですって……")
  ShowMessageFace("youkosan_fc1",0,0,2,17)
  ShowMessage("\\n<Dream Fox>")
  ShowMessage("じゃあ……ウチも、レスト君食べていい？")
  ShowMessageFace("tarsa_fc2",1,0,2,18)
  ShowMessage("\\n<Tarsa>")
  ShowMessage("うん、いいよっ♪")
  ShowMessageFace("rest_fc1",0,0,2,19)
  ShowMessage("\\n<Lest>")
  ShowMessage("なんで君が許可を出すんだ……！？")
  PictureClear(5)
  0()



EVENT   1
 PAGE   1
  // condition: switch 4 is ON
  0()
 PAGE   2
  // condition: switch 5 is ON
  0()
 PAGE   3
  // condition: switch 2916 is ON
  0()



EVENT   2
 PAGE   1
  0()
 PAGE   2
  // condition: switch 2916 is ON
  0()



EVENT   3
 PAGE   1
  0()
 PAGE   2
  // condition: switch 2916 is ON
  0()



EVENT   10
 PAGE   1
  241(bytes(0x04,0x08,0x6f,0x3a,0x0d,0x52,0x50,0x47,0x3a,0x3a,0x42,0x47,0x4d,0x08,0x3a,0x0a,0x40,0x6e,0x61,0x6d,0x65,0x49,0x22,0x16,0x64,0x75,0x6e,0x67,0x65,0x6f,0x6e,0x5f,0x63,0x6f,0x6c,0x6f,0x73,0x73,0x65,0x75,0x6d,0x06,0x3a,0x06,0x45,0x54,0x3a,0x0c,0x40,0x76,0x6f,0x6c,0x75,0x6d,0x65,0x69,0x69,0x3a,0x0b,0x40,0x70,0x69,0x74,0x63,0x68,0x69,0x69))
  If(0,4,0)
   PictureDisplay(5,"80_alice_st73",0,0,0,0,100,100,0,0)
   PictureMove(5,null,0,0,0,0,100,100,255,0,30,true)
   ShowMessageFace("alice_fc5",2,0,2,1)
   ShowMessage("\\n<Alice>")
   ShowMessage("さて、異世界の勇者および仲間達よ……")
   ShowMessage("この世界を救うため、よく集まってくれた。")
   0()
  EndIf()
  If(0,5,0)
   PictureDisplay(5,"80_iriasu_st38",0,0,0,0,100,100,0,0)
   PictureMove(5,null,0,0,0,0,100,100,255,0,30,true)
   ShowMessageFace("iriasu_fc4",7,0,2,2)
   ShowMessage("\\n<Ilias>")
   ShowMessage("さて、異世界の勇者とその仲間達……")
   ShowMessage("この世界を救うため、よく集まってくれましたね。")
   0()
  EndIf()
  ShowMessageFace("rejeo_fc1",0,0,2,3)
  ShowMessage("\\n<Rigeo>")
  ShowMessage("呼び込まれたのは無理矢理だし……")
  ShowMessage("元の世界に戻るためでもあるんだけどね。")
  ShowMessageFace("rovissa_fc1",0,0,2,4)
  ShowMessage("\\n<Rovissa>")
  ShowMessage("でも、この世界の惨状を見なかったことには出来ないわ。")
  ShowMessage("なにせ、エストの仕業となればね……")
  If(0,4,0)
   PictureDisplay(5,"80_alice_st71",0,0,0,0,100,100,255,0)
   ShowMessageFace("alice_fc5",0,0,2,5)
   ShowMessage("\\n<Alice>")
   ShowMessage("「夢の主」は、貴様達の世界から来たのだったな。")
   ShowMessage("その名は、エスト・モルン――")
   0()
  EndIf()
  If(0,5,0)
   PictureDisplay(5,"80_iriasu_st33",0,0,0,0,100,100,255,0)
   ShowMessageFace("iriasu_fc4",2,0,2,6)
   ShowMessage("\\n<Ilias>")
   ShowMessage("「夢の主」は、貴方達の世界出身でしたね。")
   ShowMessage("その名は、エスト・モルン――")
   0()
  EndIf()
  ShowMessageFace("",0,0,2,7)
  ShowMessage("話によれば、凄まじい力を備えた夢魔。")
  ShowMessage("もちろん快楽以外に倒す術はない、強大な存在だという。")
  If(0,4,0)
   ShowMessageFace("alice_fc5",0,0,2,8)
   ShowMessage("\\n<Alice>")
   ShowMessage("その者を倒し、この世界に通じるゲートを破壊する――")
   ShowMessage("そうすれば、我々の勝利だ。")
   0()
  EndIf()
  If(0,5,0)
   PictureDisplay(5,"80_iriasu_st38",0,0,0,0,100,100,255,0)
   ShowMessageFace("iriasu_fc4",7,0,2,9)
   ShowMessage("\\n<Ilias>")
   ShowMessage("その者を倒し、この世界に通じるゲートを破壊する――")
   ShowMessage("そうすれば、我々の勝利です。")
   0()
  EndIf()
  ShowMessageFace("magatu_fc1",2,0,2,10)
  ShowMessage("\\n<Magatsu>")
  ShowMessage("そもそも、ゲートを破壊することは可能なのか？")
  ShowMessage("おそらく物理的な干渉は難しいであろう……")
  ShowMessageFace("kazuya_fc1",0,0,2,11)
  ShowMessage("\\n<Kazuya>")
  ShowMessage("場所も実物も分からないまま、決死で魔城に潜入……")
  ShowMessage("思えば、ずいぶん無謀な行動をした気がするな。")
  ShowMessageFace("byakunen_fc1",2,0,2,12)
  ShowMessage("\\n<Hakunen>")
  ShowMessage("まさか、あんなに広いと思っていませんでした。")
  ShowMessage("大名様のお城よりはるかに大きいなんて……")
  ShowMessageFace("rejeo_fc1",1,0,2,13)
  ShowMessage("\\n<Rigeo>")
  ShowMessage("私も、ちょっと反省……")
  ShowMessageFace("lawrat_fc1",0,0,2,14)
  ShowMessage("\\n<Lauratt>")
  ShowMessage("……………………")
  If(0,4,0)
   ShowMessageFace("alice_fc5",0,0,2,15)
   ShowMessage("\\n<Alice>")
   ShowMessage("まあまあ、状況が切迫していたのだから仕方ない。")
   ShowMessage("完全召喚が成っていたら、もはや手遅れだったしな。")
   0()
  EndIf()
  If(0,5,0)
   PictureDisplay(5,"80_iriasu_st33",0,0,0,0,100,100,255,0)
   ShowMessageFace("iriasu_fc4",2,0,2,16)
   ShowMessage("\\n<Ilias>")
   ShowMessage("切迫した状況下だったので、仕方ないでしょう。")
   ShowMessage("完全召喚が成っていたら、もはや手遅れでした。")
   0()
  EndIf()
  ShowMessageFace("ruka_fc1",0,0,2,17)
  ShowMessage("\\n<Luka>")
  ShowMessage("魔城召喚を妨害してくれた、")
  ShowMessage("レストやノビッサ達の活躍のお陰だね。")
  ShowMessageFace("rest_fc1",0,0,2,18)
  ShowMessage("\\n<Lest>")
  ShowMessage("どういたしまして、お役に立てて何よりだ。")
  ShowMessageFace("nobissa_fc1",0,0,2,19)
  ShowMessage("\\n<Novissa>")
  ShowMessage("……………………")
  ShowMessageFace("tarsa_fc2",1,0,2,20)
  ShowMessage("\\n<Tarsa>")
  ShowMessage("私はちょっと肩身が狭い感じ……")
  ShowMessage("後で、個人的にお礼するから許してね♪")
  If(0,4,0)
   ShowMessageFace("alice_fc5",0,0,2,21)
   ShowMessage("\\n<Alice>")
   ShowMessage("……操られた者に罪はない。")
   ShowMessage("各国の王や女王など、操られ過ぎだしな。")
   0()
  EndIf()
  If(0,5,0)
   ShowMessageFace("iriasu_fc4",2,0,2,22)
   ShowMessage("\\n<Ilias>")
   ShowMessage("……操られた以上、責任を問う気はありません。")
   ShowMessage("こちらの各国王族も、散々な有様ですしね。")
   0()
  EndIf()
  ShowMessageFace("grandnoa_fc1",0,0,2,23)
  ShowMessage("\\n<グランドノア女王>")
  ShowMessage("今回の一件、面目の立たせようもありません……")
  ShowMessageFace("grangold_fc2",0,0,2,24)
  ShowMessage("\\n<グランゴルド王>")
  ShowMessage("気にする必要はないさ。")
  ShowMessage("王たる者、一度や二度は洗脳されてこそ一人前だ。")
  ShowMessageFace("sara_fc1",1,0,2,25)
  ShowMessage("\\n<サラ>")
  ShowMessage("「洗脳された国王の会」にようこそ！")
  ShowMessage("お揃いのTシャツでも作ってみる？")
  ShowMessageFace("saniria_fc2",0,0,2,26)
  ShowMessage("\\n<サン・イリア王>")
  ShowMessage("私なども、常々疑っているのだ。")
  ShowMessage("この意識、すでに機械に乗っ取られているのではないかと……")
  ShowMessageFace("kazuya_fc2",3,0,2,27)
  ShowMessage("\\n<Kazuya>")
  ShowMessage("（これが四大国の王達……")
  ShowMessage("　この世界、ハードモードだな）")
  If(0,4,0)
   ShowMessageFace("alice_fc5",0,0,2,28)
   ShowMessage("\\n<Alice>")
   ShowMessage("さて、話を戻すぞ。")
   ShowMessage("ゲートの場所は、手探りで見つけるしかないな。")
   ShowMessageFace("alice_fc5",0,0,2,29)
   ShowMessage("\\n<Alice>")
   ShowMessage("徹底的に足で調査するなり……")
   ShowMessage("中にいる奴を脅して聞き出すなり、どうにかなる。")
   ShowMessageFace("alice_fc5",0,0,2,30)
   ShowMessage("\\n<Alice>")
   ShowMessage("それより問題は、ゲートの壊し方だ。")
   ShowMessage("発見したとて、壊せなければ意味はない。")
   0()
  EndIf()
  If(0,5,0)
   PictureDisplay(5,"80_iriasu_st38",0,0,0,0,100,100,255,0)
   ShowMessageFace("iriasu_fc4",7,0,2,31)
   ShowMessage("\\n<Ilias>")
   ShowMessage("さて、話を戻しましょう。")
   ShowMessage("ゲートの場所は、手探りで見つけるしかありません。")
   ShowMessageFace("iriasu_fc4",7,0,2,32)
   ShowMessage("\\n<Ilias>")
   ShowMessage("徹底的に城内を探索するなり……")
   ShowMessage("中の者から無理にでも聞き出すなり、手はあります。")
   ShowMessageFace("iriasu_fc4",7,0,2,33)
   ShowMessage("\\n<Ilias>")
   ShowMessage("それより問題なのは、ゲートの壊し方です。")
   ShowMessage("発見したとて、壊せなければ意味がありません……")
   0()
  EndIf()
  ShowMessageFace("rest_fc1",0,0,2,34)
  ShowMessage("\\n<Lest>")
  ShowMessage("どうやって壊す、か……")
  ShowMessageFace("lars_fc01",0,0,2,35)
  ShowMessage("\\n<Lars>")
  ShowMessage("……………………")
  ShowMessageFace("",0,0,2,36)
  ShowMessage("ゲートを、どうやって壊せば良いのか。")
  ShowMessage("壊す手段がなければ、どんな作戦も意味がないのだ――")
  PictureClear(5)
  Wait(30)
  241(bytes(0x04,0x08,0x6f,0x3a,0x0d,0x52,0x50,0x47,0x3a,0x3a,0x42,0x47,0x4d,0x08,0x3a,0x0a,0x40,0x6e,0x61,0x6d,0x65,0x49,0x22,0x0f,0x73,0x68,0x69,0x72,0x6f,0x75,0x73,0x61,0x67,0x69,0x06,0x3a,0x06,0x45,0x54,0x3a,0x0c,0x40,0x76,0x6f,0x6c,0x75,0x6d,0x65,0x69,0x69,0x3a,0x0b,0x40,0x70,0x69,0x74,0x63,0x68,0x69,0x69))
  ChangeSwitch(31,31,0)
  250(bytes(0x04,0x08,0x6f,0x3a,0x0c,0x52,0x50,0x47,0x3a,0x3a,0x53,0x45,0x08,0x3a,0x0a,0x40,0x6e,0x61,0x6d,0x65,0x49,0x22,0x10,0x6d,0x6f,0x6e,0x5f,0x74,0x61,0x6d,0x61,0x6d,0x6f,0x32,0x06,0x3a,0x06,0x45,0x54,0x3a,0x0b,0x40,0x70,0x69,0x74,0x63,0x68,0x69,0x69,0x3a,0x0c,0x40,0x76,0x6f,0x6c,0x75,0x6d,0x65,0x69,0x55))
  205(11,bytes(0x04,0x08,0x6f,0x3a,0x13,0x52,0x50,0x47,0x3a,0x3a,0x4d,0x6f,0x76,0x65,0x52,0x6f,0x75,0x74,0x65,0x09,0x3a,0x0c,0x40,0x72,0x65,0x70,0x65,0x61,0x74,0x46,0x3a,0x0f,0x40,0x73,0x6b,0x69,0x70,0x70,0x61,0x62,0x6c,0x65,0x46,0x3a,0x0a,0x40,0x77,0x61,0x69,0x74,0x54,0x3a,0x0a,0x40,0x6c,0x69,0x73,0x74,0x5b,0x08,0x6f,0x3a,0x15,0x52,0x50,0x47,0x3a,0x3a,0x4d,0x6f,0x76,0x65,0x43,0x6f,0x6d,0x6d,0x61,0x6e,0x64,0x07,0x3a,0x0a,0x40,0x63,0x6f,0x64,0x65,0x69,0x13,0x3a,0x10,0x40,0x70,0x61,0x72,0x61,0x6d,0x65,0x74,0x65,0x72,0x73,0x5b,0x07,0x69,0x00,0x69,0x00,0x6f,0x3b,0x0a,0x07,0x3b,0x0b,0x69,0x18,0x3b,0x0c,0x5b,0x00,0x6f,0x3b,0x0a,0x07,0x3b,0x0b,0x69,0x00,0x3b,0x0c,0x5b,0x00))
  PictureDisplay(5,"80_sirousagi_st01",0,0,0,0,100,100,0,0)
  PictureMove(5,null,0,0,0,0,100,100,255,0,30,true)
  ShowMessageFace("sirousagi_fc1",0,0,2,37)
  ShowMessage("\\n<White Rabbit>")
  ShowMessage("じゃじゃ～ん♪")
  ShowMessage("それなら、大丈夫だよ～♪")
  ShowMessageFace("rejeo_fc1",1,0,2,38)
  ShowMessage("\\n<Rigeo>")
  ShowMessage("わっ……またウサギ！？")
  241(bytes(0x04,0x08,0x6f,0x3a,0x0d,0x52,0x50,0x47,0x3a,0x3a,0x42,0x47,0x4d,0x08,0x3a,0x0a,0x40,0x6e,0x61,0x6d,0x65,0x49,0x22,0x16,0x64,0x75,0x6e,0x67,0x65,0x6f,0x6e,0x5f,0x63,0x6f,0x6c,0x6f,0x73,0x73,0x65,0x75,0x6d,0x06,0x3a,0x06,0x45,0x54,0x3a,0x0c,0x40,0x76,0x6f,0x6c,0x75,0x6d,0x65,0x69,0x69,0x3a,0x0b,0x40,0x70,0x69,0x74,0x63,0x68,0x69,0x69))
  If(0,4,0)
   ShowMessageFace("alice_fc5",2,0,2,39)
   ShowMessage("\\n<Alice>")
   ShowMessage("白兎か……")
   ShowMessage("ゲートを壊す方法が、あるというのか？")
   0()
  EndIf()
  If(0,5,0)
   ShowMessageFace("iriasu_fc4",7,0,2,40)
   ShowMessage("\\n<Ilias>")
   ShowMessage("白兎ですか……")
   ShowMessage("ゲートを壊す方法とやら、聞かせてもらいましょう。")
   0()
  EndIf()
  ShowMessageFace("sirousagi_fc1",0,0,2,41)
  ShowMessage("\\n<White Rabbit>")
  ShowMessage("その方法こそ、「コラボの証」なのさ。")
  ShowMessageFace("sirousagi_fc1",0,0,2,42)
  ShowMessage("\\n<White Rabbit>")
  ShowMessage("七人の勇者が、その紋章の力を全開にすれば――")
  ShowMessage("異世界のゲートを消滅させる力を発揮するんだよ。")
  PictureDisplay(5,"iv_collabo_emb",0,0,0,0,100,100,0,0)
  PictureMove(5,null,0,0,0,0,100,100,255,0,30,true)
  ShowMessageFace("ruka_fc1",0,0,2,43)
  ShowMessage("\\n<Luka>")
  ShowMessage("「コラボの証」が……！？")
  ShowMessageFace("rest_fc1",0,0,2,44)
  ShowMessage("\\n<Lest>")
  ShowMessage("この紋章は、そのためのものだったのか……")
  ShowMessageFace("",0,0,2,45)
  ShowMessage("七人の勇者の力で、ゲートを破壊できる――")
  ShowMessage("そんな力が、僕達には備わっていたのだ。")
  PictureDisplay(5,"80_sirousagi_st01",0,0,0,0,100,100,255,0)
  ShowMessageFace("sirousagi_fc1",0,0,2,46)
  ShowMessage("\\n<White Rabbit>")
  ShowMessage("もう一つ、知っておくべき事があるよ。")
  ShowMessage("魔城の最奥には、とても大事な部屋があるんだ。")
  ShowMessageFace("sirousagi_fc1",0,0,2,47)
  ShowMessage("\\n<White Rabbit>")
  ShowMessage("魔力供給室とでも言うべきかな……")
  ShowMessage("その中にある「モノ」が、ゲート維持の魔力を供給してるの。")
  If(0,4,0)
   ShowMessageFace("alice_fc5",2,0,2,48)
   ShowMessage("\\n<Alice>")
   ShowMessage("その「モノ」とは？")
   ShowMessage("部屋の中に、何があるというのだ……？")
   0()
  EndIf()
  If(0,5,0)
   ShowMessageFace("iriasu_fc4",7,0,2,49)
   ShowMessage("\\n<Ilias>")
   ShowMessage("その「モノ」とは何です？")
   ShowMessage("部屋の中に、何があるというのです……？")
   0()
  EndIf()
  ShowMessageFace("sirousagi_fc1",0,0,2,50)
  ShowMessage("\\n<White Rabbit>")
  ShowMessage("「夢の主」によって、眠りに堕とされたボク――")
  ShowMessage("そもそもの発端になった、白兎の一人さ。")
  If(0,4,0)
   ShowMessageFace("alice_fc5",0,0,2,51)
   ShowMessage("\\n<Alice>")
   ShowMessage("ならば、その部屋にいる白兎を始末すれば――")
   0()
  EndIf()
  If(0,5,0)
   ShowMessageFace("iriasu_fc4",7,0,2,52)
   ShowMessage("\\n<Ilias>")
   ShowMessage("なら、その部屋にいる白兎を始末すれば――")
   0()
  EndIf()
  ShowMessageFace("sirousagi_fc1",2,0,2,53)
  ShowMessage("\\n<White Rabbit>")
  ShowMessage("いや、殺さないでよ。")
  ShowMessage("起こすだけでいいからさ……")
  ShowMessageFace("ruka_fc1",0,0,2,54)
  ShowMessage("\\n<Luka>")
  ShowMessage("その白兎を起こせば、ゲートの魔力供給は止まる――")
  ShowMessage("そういう事だね。")
  ShowMessageFace("sirousagi_fc1",0,0,2,55)
  ShowMessage("\\n<White Rabbit>")
  ShowMessage("そうそう、それからゲートを破壊するの。")
  ShowMessage("その手順で、この世界はすっかり元通り♪")
  ShowMessageFace("rovissa_fc1",0,0,2,56)
  ShowMessage("\\n<Rovissa>")
  ShowMessage("それじゃあ……")
  ShowMessage("魔城の最奥にある、魔力供給室を目指せばいいのね。")
  ShowMessageFace("kazuya_fc1",0,0,2,57)
  ShowMessage("\\n<Kazuya>")
  ShowMessage("……………………")
  PictureClear(5)
  ShowMessageFace("",0,0,2,58)
  ShowMessage("これで、魔城で為すべき事は定まった。")
  ShowMessage("しかし敵の牙城に乗り込む以上、簡単ではないだろう――")
  If(0,4,0)
   PictureDisplay(5,"80_alice_st73",0,0,0,0,100,100,0,0)
   PictureMove(5,null,0,0,0,0,100,100,255,0,30,true)
   ShowMessageFace("alice_fc5",2,0,2,59)
   ShowMessage("\\n<Alice>")
   ShowMessage("次に考えるべきは、魔城そのものの攻略だな。")
   ShowMessage("堅牢で入り組んだ城、中には夢魔や魔物の大群――")
   0()
  EndIf()
  If(0,5,0)
   PictureDisplay(5,"80_iriasu_st38",0,0,0,0,100,100,0,0)
   PictureMove(5,null,0,0,0,0,100,100,255,0,30,true)
   ShowMessageFace("iriasu_fc4",7,0,2,60)
   ShowMessage("\\n<Ilias>")
   ShowMessage("次に考えるべきは、魔城そのものの攻略ですね。")
   ShowMessage("堅牢で入り組んだ城、中には夢魔や魔物の大群――")
   0()
  EndIf()
  ShowMessageFace("magatu_fc1",2,0,2,61)
  ShowMessage("\\n<Magatsu>")
  ShowMessage("それに加え、同盟者達までおる。")
  ShowMessage("生半可な戦力では、どうにもならんぞ。")
  ShowMessageFace("rest_fc1",0,0,2,62)
  ShowMessage("\\n<Lest>")
  ShowMessage("この世界の軍隊に、援軍を頼めないかな？")
  ShowMessageFace("grandnoa_fc1",0,0,2,63)
  ShowMessage("\\n<グランドノア女王>")
  ShowMessage("夢魔相手では、なすすべもなく全滅でしょうね。")
  ShowMessage("どの国の軍も、あのような存在と戦う力はありません……")
  If(0,4,0)
   PictureDisplay(5,"80_alice_st71",0,0,0,0,100,100,255,0)
   ShowMessageFace("alice_fc5",0,0,2,64)
   ShowMessage("\\n<Alice>")
   ShowMessage("世界中のバトルファッカーを集めても、まるで数が足りん。")
   ShowMessage("まったく、どうしたものか……")
   0()
  EndIf()
  If(0,5,0)
   PictureDisplay(5,"80_iriasu_st33",0,0,0,0,100,100,255,0)
   ShowMessageFace("iriasu_fc4",2,0,2,65)
   ShowMessage("\\n<Ilias>")
   ShowMessage("世界中のバトルファッカーを集めても、数が足りませんね。")
   ShowMessage("さて、どうしたものか……")
   0()
  EndIf()
  ShowMessageFace("magatu_fc1",2,0,2,66)
  ShowMessage("\\n<Magatsu>")
  ShowMessage("……………………")
  PictureClear(5)
  Wait(30)
  ShowMessageFace("",0,0,2,67)
  ShowMessage("少しの間、一同が沈黙するが――")
  PictureDisplay(5,"80_rovissa_st01",0,0,0,0,100,100,0,0)
  PictureMove(5,null,0,0,0,0,100,100,255,0,30,true)
  ShowMessageFace("rovissa_fc1",0,0,2,68)
  ShowMessage("\\n<Rovissa>")
  ShowMessage("……私に、良い案があるわよ。")
  ShowMessageFace("",0,0,2,69)
  ShowMessage("口を開いたのは、ルヴィッサだった。")
  ShowMessageFace("",0,0,2,70)
  ShowMessage("彼女とラルスは、夢魔のいる世界から来たのだ。")
  ShowMessage("そして、夢魔と戦ってきた勇者の相棒なのである――")
  ShowMessageFace("rovissa_fc1",0,0,2,71)
  ShowMessage("\\n<Rovissa>")
  ShowMessage("自己紹介の時にも言ったけど……")
  ShowMessage("私は魔王のかけらで、夢魔と戦う力を持っているの。")
  ShowMessageFace("rovissa_fc1",0,0,2,72)
  ShowMessage("\\n<Rovissa>")
  ShowMessage("その力を、一時的に魔王ギルゴーンに与えるのよ。")
  ShowMessage("同じ魔王だから、力の親和性もあると思うわ。")
  If(0,4,0)
   ShowMessageFace("alice_fc5",2,0,2,73)
   ShowMessage("\\n<Alice>")
   ShowMessage("なるほど……")
   ShowMessage("……って、肝心のギルゴーンはどこだ？")
   0()
  EndIf()
  If(0,5,0)
   ShowMessageFace("iriasu_fc4",2,0,2,74)
   ShowMessage("\\n<Ilias>")
   ShowMessage("なるほど……")
   ShowMessage("ところで、肝心のギルゴーンはどこです？")
   0()
  EndIf()
  ShowMessageFace("rejeo_fc1",0,0,2,75)
  ShowMessage("\\n<Rigeo>")
  ShowMessage("部屋でふるふるしながら寝てる……")
  ShowMessage("快楽責めで、すっかり体がヘロヘロだって。")
  If(0,4,0)
   ShowMessageFace("alice_fc5",3,0,2,76)
   ShowMessage("\\n<Alice>")
   ShowMessage("やれやれ……")
   ShowMessage("そんな有様で、夢魔と対面して大丈夫なのか？")
   0()
  EndIf()
  If(0,5,0)
   ShowMessageFace("iriasu_fc4",2,0,2,77)
   ShowMessage("\\n<Ilias>")
   ShowMessage("まったく……")
   ShowMessage("そんな有様で、夢魔と対面して大丈夫なのですか？")
   0()
  EndIf()
  ShowMessageFace("rovissa_fc1",0,0,2,78)
  ShowMessage("\\n<Rovissa>")
  ShowMessage("……なら、対面しなければいいのよ。")
  ShowMessage("魔城の近くから、攻撃魔法をブッ放すの。")
  ShowMessageFace("rovissa_fc1",0,0,2,79)
  ShowMessage("\\n<Rovissa>")
  ShowMessage("あれだけ強大な魔力なら、魔城自体に大ダメージよ。")
  ShowMessage("当然、中の連中も被害は避けられないはず。")
  ShowMessageFace("ruka_fc1",0,0,2,80)
  ShowMessage("\\n<Luka>")
  ShowMessage("なるほど、砲台役に徹するってわけか……")
  PictureClear(5)
  ShowMessageFace("",0,0,2,81)
  ShowMessage("ルヴィッサの力を得たギルゴーンが、")
  ShowMessage("無尽蔵な魔力をもって外から魔城を攻撃。")
  ShowMessageFace("",0,0,2,82)
  ShowMessage("いや、あれほどの魔力から繰り出される攻撃ならば――")
  ShowMessage("ほとんど爆撃といっても良いほどだろう。")
  If(0,4,0)
   ShowMessageFace("alice_fc5",1,0,2,83)
   ShowMessage("\\n<Alice>")
   ShowMessage("ルヴィッサの力とギルゴーンの力を合わせ、")
   ShowMessage("外側から魔城を粉砕するという作戦か……！")
   0()
  EndIf()
  If(0,5,0)
   ShowMessageFace("iriasu_fc4",0,0,2,84)
   ShowMessage("\\n<Ilias>")
   ShowMessage("ルヴィッサの力とギルゴーンの力を合わせ、")
   ShowMessage("外側から魔城を粉砕するという作戦ですか……！")
   0()
  EndIf()
  ShowMessageFace("magatu_fc1",0,0,2,85)
  ShowMessage("\\n<Magatsu>")
  ShowMessage("その後に、丸裸になった城内へと突入――")
  ShowMessage("うむ、悪くないのう。")
  ShowMessageFace("kazuya_fc1",0,0,2,86)
  ShowMessage("\\n<Kazuya>")
  ShowMessage("夢の主や同盟者は、無傷で残るだろうが……")
  ShowMessage("それでも城への侵入は、かなり楽になるな。")
  ShowMessageFace("rest_fc1",0,0,2,87)
  ShowMessage("\\n<Lest>")
  ShowMessage("魔王の魔法で、城を外部から破壊……")
  ShowMessage("すごく大胆な攻城戦だね。")
  ShowMessageFace("tarsa_fc2",1,0,2,88)
  ShowMessage("\\n<Tarsa>")
  ShowMessage("ド派手でたのしそ～♪")
  ShowMessageFace("sirousagi_fc1",0,0,2,89)
  ShowMessage("\\n<White Rabbit>")
  ShowMessage("うん、いい作戦なんじゃない？")
  ShowMessage("ボクも賛成するよ。")
  If(0,4,0)
   ShowMessageFace("alice_fc5",0,0,2,90)
   ShowMessage("\\n<Alice>")
   ShowMessage("お前、まだいたのか……")
   ShowMessage("とっとと帰れ。")
   0()
  EndIf()
  If(0,5,0)
   ShowMessageFace("iriasu_fc4",2,0,2,91)
   ShowMessage("\\n<Ilias>")
   ShowMessage("まだいたのですか……とっとと消えなさい。")
   0()
  EndIf()
  ShowMessageFace("sirousagi_fc1",2,0,2,92)
  ShowMessage("\\n<White Rabbit>")
  ShowMessage("ちょっと、ひどい言い方じゃない？")
  ShowMessage("不干渉とか言いながら、いろいろサポートしてるのに……")
  If(0,4,0)
   ShowMessageFace("alice_fc6",1,0,2,93)
   ShowMessage("\\n<Alice>")
   ShowMessage("そもそも全部、貴様のせいではないか！")
   0()
  EndIf()
  If(0,5,0)
   ShowMessageFace("iriasu_fc4",7,0,2,94)
   ShowMessage("\\n<Ilias>")
   ShowMessage("これも全部、貴方のせいではないですか！")
   0()
  EndIf()
  ShowMessageFace("sirousagi_fc1",0,0,2,95)
  ShowMessage("\\n<White Rabbit>")
  ShowMessage("……ボクは悪くないよ。")
  250(bytes(0x04,0x08,0x6f,0x3a,0x0c,0x52,0x50,0x47,0x3a,0x3a,0x53,0x45,0x08,0x3a,0x0a,0x40,0x6e,0x61,0x6d,0x65,0x49,0x22,0x10,0x6d,0x6f,0x6e,0x5f,0x74,0x61,0x6d,0x61,0x6d,0x6f,0x32,0x06,0x3a,0x06,0x45,0x54,0x3a,0x0b,0x40,0x70,0x69,0x74,0x63,0x68,0x69,0x69,0x3a,0x0c,0x40,0x76,0x6f,0x6c,0x75,0x6d,0x65,0x69,0x55))
  205(11,bytes(0x04,0x08,0x6f,0x3a,0x13,0x52,0x50,0x47,0x3a,0x3a,0x4d,0x6f,0x76,0x65,0x52,0x6f,0x75,0x74,0x65,0x09,0x3a,0x0c,0x40,0x72,0x65,0x70,0x65,0x61,0x74,0x46,0x3a,0x0f,0x40,0x73,0x6b,0x69,0x70,0x70,0x61,0x62,0x6c,0x65,0x46,0x3a,0x0a,0x40,0x77,0x61,0x69,0x74,0x54,0x3a,0x0a,0x40,0x6c,0x69,0x73,0x74,0x5b,0x09,0x6f,0x3a,0x15,0x52,0x50,0x47,0x3a,0x3a,0x4d,0x6f,0x76,0x65,0x43,0x6f,0x6d,0x6d,0x61,0x6e,0x64,0x07,0x3a,0x0a,0x40,0x63,0x6f,0x64,0x65,0x69,0x13,0x3a,0x10,0x40,0x70,0x61,0x72,0x61,0x6d,0x65,0x74,0x65,0x72,0x73,0x5b,0x07,0x69,0x00,0x69,0x00,0x6f,0x3b,0x0a,0x07,0x3b,0x0b,0x69,0x15,0x3b,0x0c,0x5b,0x00,0x6f,0x3b,0x0a,0x07,0x3b,0x0b,0x69,0x2c,0x3b,0x0c,0x5b,0x00,0x6f,0x3b,0x0a,0x07,0x3b,0x0b,0x69,0x00,0x3b,0x0c,0x5b,0x00))
  ShowMessageFace("",0,0,2,96)
  ShowMessage("意地でも自分の責任は認めないらしい。")
  ShowMessage("皆から冷たい視線を受ける中、白兎は消えてしまった――")
  ChangeSwitch(31,31,1)
  ShowMessageFace("daimeikai_fc1",0,0,2,97)
  ShowMessage("\\n<Daimyokai>")
  ShowMessage("とにかく、これで作戦はまとまったな。")
  ShowMessage("さて、決行はいつにするんだ？")
  If(0,4,0)
   PictureDisplay(5,"80_alice_st71",0,0,0,0,100,100,0,0)
   PictureMove(5,null,0,0,0,0,100,100,255,0,30,true)
   ShowMessageFace("alice_fc5",0,0,2,98)
   ShowMessage("\\n<Alice>")
   ShowMessage("魔城出現以来、「夜の国」は侵蝕を続けている。")
   ShowMessage("時間の余裕は、ほとんどないと見た方が良い。")
   PictureDisplay(5,"80_alice_st73",0,0,0,0,100,100,255,0)
   ShowMessageFace("alice_fc5",2,0,2,99)
   ShowMessage("\\n<Alice>")
   ShowMessage("よって本日はゆっくり体を休め、翌朝に作戦決行――")
   ShowMessage("そう考えているが、異論のある者はいるか？")
   0()
  EndIf()
  If(0,5,0)
   PictureDisplay(5,"80_iriasu_st38",0,0,0,0,100,100,0,0)
   PictureMove(5,null,0,0,0,0,100,100,255,0,30,true)
   ShowMessageFace("iriasu_fc4",7,0,2,100)
   ShowMessage("\\n<Ilias>")
   ShowMessage("魔城出現以来、「夜の国」の侵蝕が続いています。")
   ShowMessage("私が見たところ、時間の余裕はほとんどないでしょう。")
   ShowMessageFace("iriasu_fc4",7,0,2,101)
   ShowMessage("\\n<Ilias>")
   ShowMessage("よって本日はゆっくり体を休め、翌朝に作戦決行――")
   ShowMessage("私の案に、異論はありますか？")
   0()
  EndIf()
  ShowMessageFace("",0,0,2,102)
  ShowMessage("性急な決行だが、それでも異論は出なかった。")
  ShowMessage("もはや一刻の猶予もないと、みな理解しているのだ。")
  241(bytes(0x04,0x08,0x6f,0x3a,0x0d,0x52,0x50,0x47,0x3a,0x3a,0x42,0x47,0x4d,0x08,0x3a,0x0a,0x40,0x6e,0x61,0x6d,0x65,0x49,0x22,0x0a,0x6b,0x69,0x6b,0x69,0x34,0x06,0x3a,0x06,0x45,0x54,0x3a,0x0c,0x40,0x76,0x6f,0x6c,0x75,0x6d,0x65,0x69,0x69,0x3a,0x0b,0x40,0x70,0x69,0x74,0x63,0x68,0x69,0x69))
  If(0,4,0)
   ShowMessageFace("alice_fc5",2,0,2,103)
   ShowMessage("\\n<Alice>")
   ShowMessage("……では、作戦の開始は翌朝。")
   ShowMessage("これすなわち、「夢の主」や同盟者達との決戦だ！")
   ShowMessageFace("alice_fc5",2,0,2,104)
   ShowMessage("\\n<Alice>")
   ShowMessage("異世界の勇者達、その仲間達――")
   ShowMessage("力を合わせ、なんとしても勝とうではないか！")
   0()
  EndIf()
  If(0,5,0)
   ShowMessageFace("iriasu_fc4",7,0,2,105)
   ShowMessage("\\n<Ilias>")
   ShowMessage("……それでは、作戦の開始は翌朝。")
   ShowMessage("この時をもって、「夢の主」や同盟者達との決戦を行います！")
   ShowMessageFace("iriasu_fc4",7,0,2,106)
   ShowMessage("\\n<Ilias>")
   ShowMessage("異世界の勇者達、その仲間達――")
   ShowMessage("なんとしても、勝利しましょう！")
   0()
  EndIf()
  ShowMessageFace("kazuya_fc2",1,0,2,107)
  ShowMessage("\\n<Kazuya>")
  ShowMessage("ああ！")
  ShowMessageFace("byakunen_fc1",1,0,2,108)
  ShowMessage("\\n<Hakunen>")
  ShowMessage("はい！")
  ShowMessageFace("rest_fc1",0,0,2,109)
  ShowMessage("\\n<Lest>")
  ShowMessage("任せてくれ！")
  ShowMessageFace("lars_fc01",0,0,2,110)
  ShowMessage("\\n<Lars>")
  ShowMessage("……………………")
  ShowMessageFace("nobissa_fc1",0,0,2,111)
  ShowMessage("\\n<Novissa>")
  ShowMessage("……………………")
  ShowMessageFace("lawrat_fc1",0,0,2,112)
  ShowMessage("\\n<Lauratt>")
  ShowMessage("……………………")
  ShowMessageFace("ruka_fc1",0,0,2,113)
  ShowMessage("\\n<Luka>")
  ShowMessage("……………………")
  If(0,4,0)
   PictureDisplay(5,"80_alice_st77",0,0,0,0,100,100,255,0)
   ShowMessageFace("alice_fc5",6,0,2,114)
   ShowMessage("\\n<Alice>")
   ShowMessage("だからルカ！")
   ShowMessage("貴様は無言系勇者の真似をせんでいい！")
   0()
  EndIf()
  If(0,5,0)
   PictureDisplay(5,"80_iriasu_st36",0,0,0,0,100,100,0,0)
   ShowMessageFace("iriasu_fc4",5,0,2,115)
   ShowMessage("\\n<Ilias>")
   ShowMessage("ですからルカ……")
   ShowMessage("無言系勇者の真似をしなくいていいです！")
   0()
  EndIf()
  ShowMessageFace("ruka_fc1",0,0,2,116)
  ShowMessage("\\n<Luka>")
  ShowMessage("あ、あぁ……明日もがんばろう！")
  PictureClear(5)
  Wait(30)
  ShowMessageFace("",0,0,2,117)
  ShowMessage("こうして、決戦は翌朝と決まった――")
  ShowMessage("今夜は、ゆっくりと体を休めるのみだ。")
  ShowMessageFace("",0,0,2,118)
  ShowMessage("だが、就寝までは時間がある。")
  ShowMessage("少しばかり、異世界の客人達と話をしてみようか――")
  Wait(30)
  242(1)
  221()
  211(1)
  216(1)
  ChangeSwitch(100,100,0)
  ChangeSwitch(2916,2916,0)
  Wait(60)
  314(0,0)
  222()
  241(bytes(0x04,0x08,0x6f,0x3a,0x0d,0x52,0x50,0x47,0x3a,0x3a,0x42,0x47,0x4d,0x08,0x3a,0x0a,0x40,0x6e,0x61,0x6d,0x65,0x49,0x22,0x0c,0x63,0x61,0x73,0x74,0x6c,0x65,0x36,0x06,0x3a,0x06,0x45,0x54,0x3a,0x0c,0x40,0x76,0x6f,0x6c,0x75,0x6d,0x65,0x69,0x69,0x3a,0x0b,0x40,0x70,0x69,0x74,0x63,0x68,0x69,0x69))
  0()
 PAGE   2
  // condition: switch 2916 is ON
  0()
 PAGE   3
  // condition: variable 1212 >= 8
  0()



EVENT   11
 PAGE   1
  // condition: switch 31 is ON
  0()



EVENT   12
 PAGE   1
  0()
 PAGE   2
  // condition: switch 2916 is ON
  PictureDisplay(5,"80_nobissa_st01",0,0,0,0,100,100,0,0)
  PictureMove(5,null,0,0,0,0,100,100,255,0,30,true)
  ShowMessageFace("nobissa_fc1",0,0,2,1)
  ShowMessage("\\n<Novissa>")
  ShowMessage("……………………")
  ShowMessageFace("lars_fc01",0,0,2,2)
  ShowMessage("\\n<Lars>")
  ShowMessage("……………………")
  ShowMessageFace("lawrat_fc1",0,0,2,3)
  ShowMessage("\\n<Lauratt>")
  ShowMessage("……………………")
  ShowMessageFace("ruka_fc1",0,0,2,4)
  ShowMessage("\\n<Luka>")
  ShowMessage("無言の勇者達が、目で語り合っている……")
  ShowMessage("何か通じ合うものがあるみたいだね。")
  ShowMessageFace("gnome_fc1",0,0,2,5)
  ShowMessage("\\n<ノーム>")
  ShowMessage("……………………")
  ShowMessageFace("nuruko_fc1",0,0,2,6)
  ShowMessage("\\n<ヌルコ>")
  ShowMessage("……………………")
  ShowMessageFace("mukuro_fc1",3,0,2,7)
  ShowMessage("\\n<Mukuro>")
  ShowMessage("……………………")
  ShowMessageFace("ruka_fc1",0,0,2,8)
  ShowMessage("\\n<Luka>")
  ShowMessage("無言系マスコット達も、何かを目で語っている……")
  If(0,4,0)
   ShowMessageFace("alice_fc5",0,0,2,9)
   ShowMessage("\\n<Alice>")
   ShowMessage("一人、違う者が紛れておらんか……？")
   0()
  EndIf()
  If(0,5,0)
   ShowMessageFace("iriasu_fc4",2,0,2,10)
   ShowMessage("\\n<Ilias>")
   ShowMessage("一人、違う者が紛れていませんか……？")
   0()
  EndIf()
  ShowMessageFace("sylph_fc1",7,0,2,11)
  ShowMessage("\\n<シルフ>")
  ShowMessage("……ちぃぱっぱ！")
  ShowMessageFace("rovissa_fc1",0,0,2,12)
  ShowMessage("\\n<Rovissa>")
  ShowMessage("あはっ、この子とっても可愛い……♪")
  ShowMessageFace("rejeo_fc1",0,0,2,13)
  ShowMessage("\\n<Rigeo>")
  ShowMessage("私も、ちょっと触らせて……")
  If(0,4,0)
   ShowMessageFace("alice_fc5",0,0,2,14)
   ShowMessage("\\n<Alice>")
   ShowMessage("……通訳達の方も、どうやら通じ合っているようだな。")
   0()
  EndIf()
  If(0,5,0)
   ShowMessageFace("iriasu_fc4",2,0,2,15)
   ShowMessage("\\n<Ilias>")
   ShowMessage("……通訳達の方も、どうやら通じ合っているようですね。")
   0()
  EndIf()
  ShowMessageFace("sonia_fc2",2,0,2,16)
  ShowMessage("\\n<Sonya>")
  ShowMessage("……通訳？")
  PictureClear(5)
  0()



EVENT   13
 PAGE   1
  // condition: variable 1212 >= 8
  241(bytes(0x04,0x08,0x6f,0x3a,0x0d,0x52,0x50,0x47,0x3a,0x3a,0x42,0x47,0x4d,0x08,0x3a,0x0a,0x40,0x6e,0x61,0x6d,0x65,0x49,0x22,0x14,0x73,0x63,0x65,0x6e,0x65,0x5f,0x65,0x70,0x69,0x6c,0x6f,0x67,0x75,0x65,0x32,0x06,0x3a,0x06,0x45,0x54,0x3a,0x0c,0x40,0x76,0x6f,0x6c,0x75,0x6d,0x65,0x69,0x69,0x3a,0x0b,0x40,0x70,0x69,0x74,0x63,0x68,0x69,0x69))
  ShowMessageFace("rovissa_fc1",0,0,2,1)
  ShowMessage("\\n<Rovissa>")
  ShowMessage("私達……なんで、元の世界に戻れないのよ！")
  ShowMessageFace("lars_fc01",0,0,2,2)
  ShowMessage("\\n<Lars>")
  ShowMessage("……………………")
  ShowMessageFace("",0,0,2,3)
  ShowMessage("そう――時空のゲートは、あのまま消えてしまった。")
  ShowMessage("よって異世界からの客人達は、帰れなくなったのだ。")
  ShowMessageFace("rejeo_fc1",1,0,2,4)
  ShowMessage("\\n<Rigeo>")
  ShowMessage("夢の主を倒せば、元の世界に戻れるって話だったのに――")
  ShowMessageFace("kazuya_fc2",2,0,2,5)
  ShowMessage("\\n<Kazuya>")
  ShowMessage("そもそも、それも白兎に化けた妲己の")
  ShowMessage("でっち上げだったんだよな……")
  ShowMessageFace("kazuya_fc2",2,0,2,6)
  ShowMessage("\\n<Kazuya>")
  ShowMessage("魔力供給室の件がウソだったって事は")
  ShowMessage("当然、元の世界に帰る方法もウソだったわけで……")
  ShowMessageFace("magatu_fc1",2,0,2,7)
  ShowMessage("\\n<Magatsu>")
  ShowMessage("無理矢理にでも、ゲートを開けないのか？")
  If(0,4,0)
   ShowMessageFace("alice_fc5",3,0,2,8)
   ShowMessage("\\n<Alice>")
   ShowMessage("今のところ、その手段はない……")
   ShowMessage("白兎も、呼べば来るような奴じゃないからな。")
   ShowMessageFace("alice_fc5",2,0,2,9)
   ShowMessage("\\n<Alice>")
   ShowMessage("……今現在、我々の世界に破滅が迫っている。")
   ShowMessage("それを解決すれば、何か良い手が見つかるかもしれん。")
   0()
  EndIf()
  If(0,5,0)
   ShowMessageFace("iriasu_fc4",2,0,2,10)
   ShowMessage("\\n<Ilias>")
   ShowMessage("今のところ、その手段はありません……")
   ShowMessage("白兎も、呼べば来るような者ではありませんから。")
   ShowMessageFace("iriasu_fc4",2,0,2,11)
   ShowMessage("\\n<Ilias>")
   ShowMessage("……今現在、我々の世界に破滅が迫っています。")
   ShowMessage("それを解決すれば、何か良い手が見つかるでしょう。")
   0()
  EndIf()
  ShowMessageFace("byakunen_fc1",1,0,2,12)
  ShowMessage("\\n<Hakunen>")
  ShowMessage("……ならば、私達が一緒に戦いましょう。")
  ShowMessage("今度こそ、元の世界に戻れる時まで！")
  ShowMessageFace("kazuya_fc4",7,0,2,13)
  ShowMessage("\\n<Kazuya>")
  ShowMessage("そうするしかないか……")
  ShowMessage("事務所のみんな、帰りが遅くて怒ってるだろうなぁ……")
  ShowMessageFace("kazuya_fc2",0,0,2,14)
  ShowMessage("\\n<Kazuya>")
  ShowMessage("悪いけど、しばらく世話になるよ。")
  ShowMessage("この世界のランパスと躯も、落ち着く場所が必要だし。")
  ShowMessageFace("nobissa_fc1",0,0,2,15)
  ShowMessage("\\n<Novissa>")
  ShowMessage("……………………")
  249(bytes(0x04,0x08,0x6f,0x3a,0x0c,0x52,0x50,0x47,0x3a,0x3a,0x4d,0x45,0x08,0x3a,0x0a,0x40,0x6e,0x61,0x6d,0x65,0x49,0x22,0x11,0x6d,0x6f,0x6e,0x5f,0x66,0x61,0x6e,0x66,0x61,0x6c,0x65,0x33,0x06,0x3a,0x06,0x45,0x54,0x3a,0x0b,0x40,0x70,0x69,0x74,0x63,0x68,0x69,0x69,0x3a,0x0c,0x40,0x76,0x6f,0x6c,0x75,0x6d,0x65,0x69,0x69))
  ShowMessageFace("",0,0,2,16)
  ShowMessage("異世界のゲスト達が仲間に加わった！")
  ShowMessageFace("ruka_fc1",0,0,2,17)
  ShowMessage("\\n<Luka>")
  ShowMessage("……もう一つ、大きな問題があるよね。")
  ShowMessage("みんな元の世界に戻れないって事は、同盟者達も――")
  ShowMessageFace("",0,0,2,18)
  ShowMessage("同盟者達も、自分の世界に戻ったとは思えない。")
  ShowMessage("エストさえ、まだこの世界にいるのではないか……？")
  If(0,4,0)
   ShowMessageFace("alice_fc5",2,0,2,19)
   ShowMessage("\\n<Alice>")
   ShowMessage("先の事件のような大事は、もうないだろうが――")
   ShowMessage("厄介事が生じる前に、同盟者どもを押さえねばならんな。")
   0()
  EndIf()
  If(0,5,0)
   ShowMessageFace("iriasu_fc4",2,0,2,20)
   ShowMessage("\\n<Ilias>")
   ShowMessage("あれほどの事件のような大事は、もうないでしょうが――")
   ShowMessage("厄介事が生じる前に、同盟者達を捕らえなければ。")
   0()
  EndIf()
  ShowMessageFace("amira_fc1",0,0,2,21)
  ShowMessage("\\n<アミラ>")
  ShowMessage("こんな事もあろうかと、各地から情報を集めておいたわ。")
  ShowMessage("後で、私に聞きに来て。")
  ShowMessageFace("",0,0,2,22)
  ShowMessage("さすがアミラ、頼りになる。")
  ShowMessage("彼女の情報を頼りに、同盟者達を追おう――")
  ShowMessageFace("ruka_fc1",0,0,2,23)
  ShowMessage("\\n<Luka>")
  ShowMessage("そう言えば、大明海やギルゴーンはどうしたんだ？")
  ShowMessage("ここにいないみたいだけど……")
  ShowMessageFace("magatu_fc1",2,0,2,24)
  ShowMessage("\\n<Magatsu>")
  ShowMessage("大明海は、決戦の後に姿を消したぞ。")
  ShowMessage("何かよからぬ事を企んでいなければいいのだが……")
  ShowMessageFace("rejeo_fc1",0,0,2,25)
  ShowMessage("\\n<Rigeo>")
  ShowMessage("ギルゴーンは、トゥーロマンサに戻るって言ってたわ。")
  ShowMessage("あの城、まだこの世界に残ってるの？")
  If(0,4,0)
   ShowMessageFace("alice_fc5",0,0,2,26)
   ShowMessage("\\n<Alice>")
   ShowMessage("あの二人も、放置はしておけんな。")
   ShowMessage("特にギルゴーンは、野放しにするには強大すぎる……")
   0()
  EndIf()
  If(0,5,0)
   ShowMessageFace("iriasu_fc4",2,0,2,27)
   ShowMessage("\\n<Ilias>")
   ShowMessage("あの二人も、放置してはおけませんね。")
   ShowMessage("特にギルゴーンは、野放しにするには強大すぎます……")
   0()
  EndIf()
  ShowMessageFace("",0,0,2,28)
  ShowMessage("その二人に、同盟者達――")
  ShowMessage("彼女達を見つけ出し、監視下に置かなければならない。")
  ShowMessageFace("",0,0,2,29)
  ShowMessage("さっそくアミラに情報を聞き、同盟者を追わなければ――")
  ShowMessage("まだまだ、忙しくなりそうだ。")
  242(1)
  221()
  Wait(120)
  211(1)
  ChangeSwitch(1927,1927,0)
  ChangeSwitch(502,502,1)
  ChangeSwitch(100,100,1)
  ChangeVariable(1211,1211,0,0,1)
  ChangeVariable(21,21,0,0,2)
  ChangeVariable(22,22,0,0,328)
  ChangeVariable(23,23,0,0,188)
  ChangeSwitch(2912,2912,1)
  ChangeSwitch(31,39,1)
  ChangeVariable(1213,1213,0,0,1)
  ChangeVariable(1215,1215,0,0,1)
  ChangeVariable(1216,1216,0,0,1)
  ChangeVariable(1217,1217,0,0,1)
  ChangeVariable(1218,1218,0,0,1)
  ChangeSwitch(1814,1814,1)
  ChangePartyMember(814,1,0)
  281(1)
  TeleportPlayer(0,228,24,33,2,2)
  222()
  355("gain_medal(2120)")
  EndEventProcessing()
  0()



EVENT   16
 PAGE   1
  RunCommonEvent(533)
  0()



EVENT   17
 PAGE   1
  RunCommonEvent(533)
  0()



EVENT   25
 PAGE   1
  RunCommonEvent(533)
  0()
