# -*- encoding: utf-8 -*-
=begin
=図鑑_アイテムデータ設定セクション by Foo

図鑑のアイテムの項に表示する内容を設定します。

==更新履歴
Date     Version Author Comment
13/07/20 1.0,0   Foo    新設


=end

#==============================================================================
# ■ NWConst::Library
#==============================================================================
module NWConst::Library
  # アイテム入手場所
  # 文字列はシンボルで統一してください
  GET_ITEM_PLACES = {
    1  => [:各地],
    2  => [:各地],
    3  => [:各地],
    4  => [:カジノ景品（ポルノフ）, :スノウヘブン, :ポケット魔王城],
    5  => [:各地],
    6  => [:各地],
    7  => [:各地],
    8  => [:各地],
    9  => [:各地],
    11  => [:各地],
    12  => [:ナメクジタワー, :聖山アモス, :カジノ景品（グランドール）, :サファル砂漠遺跡, :世界樹, :イリアス神殿跡, :レミナ研究所, :妖精の島（魔界）, :精霊の森（魔界）],
    13  => [:各地],
    14  => [:各地],
    15  => [:各地],
    16  => [:各地],
    17  => [:各地],
    18  => [:各地],
    19  => [:各地],
    20  => [:各地],
    21  => [:各地],
    22  => [:各地],
    23  => [:各地],
    24  => [:各地],
    25  => [:各地],
    26  => [:各地],
    27  => [:各地],
    28  => [:各地],
    29  => [:各地],
    30  => [:各地],
    31  => [:各地],
    32  => [:各地],
    35  => [:各地],
    36  => [:各地],
    37  => [:各地],
    38  => [:各地],
    39  => [:各地],
    40  => [:各地],
    41  => [:各地],
    42  => [:各地],
    43  => [:各地],
    44  => [:各地],
    45  => [:各地],
    46  => [:各地],
    47  => [:各地],
    51  => [:ロストルム村（異世界）],
    52  => [:グランゴルド],
    53  => [:各地],
    55  => [:ロストルム村（異世界）],
    56  => [:グランゴルド],
    57  => [:各地],
    59  => [:ロストルム村（異世界）],
    60  => [:グランゴルド],
    61  => [:各地],
    63  => [:ラダイト村],
    64  => [:プランセクト村],
    65  => [:各地],
    67  => [:ラダイト村],
    68  => [:プランセクト村],
    69  => [:各地],
    71  => [:ラダイト村],
    72  => [:プランセクト村],
    73  => [:各地],
    74  => [:カオスフィールド],
    75  => [:グランドール],
    76  => [:ヤマタイ村],
    77  => [:各地],
    79  => [:マギステア村],
    80  => [:ヤマタイ村],
    81  => [:各地],
    101  => [:イリアスポート, :ナタリアポート, :サン・イリア],
    102  => [:サバサ, :グランドノア, :ヤマタイ村, :ポケット魔王城],
    103  => [:サルーン],
    104  => [:グランドノア, :ヤマタイへの洞窟],
    105  => [:ゴルドポート, :幽霊船],
    106  => [:妖精の島, :孤独の地, :ヘルゴンドの洞窟（異世界）, :氷の館],
    107  => [:ポケット魔王城, :魔王城],
    109  => [:グランドノア, :グランゴルド, :サキュバスの村, :ヤマタイ村, :スノウヘブン, :ポケット魔王城],
    151  => [:ポルノフ鉱山],
    152  => [:ミダス廃鉱],
    153  => [:聖山アモス],
    154  => [:サルーン廃鉱],
    155  => [:化石鉱山],
    156  => [:溶岩鉱窟],
    157  => [:世界樹],
    158  => [:魔王城],
    160  => [:試しの洞窟],
    161  => [:ナメクジタワー],
    162  => [:タラスの丘],
    163  => [:タラスの丘],
    164  => [:イリナ山地北の洞窟],
    165  => [:イリナ山地南の洞窟, :ナメクジタワー],
    166  => [:タルタロス（イリアス大陸南）],
    167  => [:ハーピーの塔],
    168  => [:ハーピーの塔],
    169  => [:迷いの森],
    170  => [:迷いの森],
    171  => [:ロストルム山地洞窟, :ナタリア海岸],
    172  => [:タルタロス（イリアス大陸東）],
    173  => [:秘宝の洞窟],
    174  => [:秘宝の洞窟],
    175  => [:秘宝の洞窟],
    176  => [:ナタリア海岸],
    177  => [:ナタリア海岸],
    178  => [:聖山アモス],
    179  => [:聖山アモス],
    180  => [:地下図書館],
    181  => [:ラダイト村],
    182  => [:ラダイト村],
    183  => [:古代神殿跡],
    184  => [:古代神殿跡],
    185  => [:北のお化け屋敷],
    186  => [:北のお化け屋敷],
    187  => [:カルロスの丘],
    188  => [:精霊の森],
    189  => [:求道者の洞窟],
    190  => [:カルロスの丘],
    191  => [:恵みのオアシス],
    192  => [:恵みのオアシス],
    193  => [:ピラミッド],
    194  => [:ピラミッド],
    195  => [:魔導の塔],
    196  => [:魔導の塔],
    197  => [:サルーン廃鉱],
    198  => [:タルタロス（サバサ大陸北）],
    199  => [:タルタロス（サバサ大陸北）],
    200  => [:管理者の塔],
    201  => [:サファル砂漠遺跡],
    202  => [:大海賊の洞窟],
    203  => [:大海賊の洞窟],
    204  => [:大海賊の洞窟],
    205  => [:化石鉱山],
    206  => [:ヤマタイへの洞窟],
    207  => [:魔導学園],
    208  => [:魔導学園],
    209  => [:ヤマタイへの洞窟],
    210  => [:ヤマタイへの洞窟],
    211  => [:オロチの洞],
    212  => [:オロチの洞],
    213  => [:ミノタウロスの迷宮],
    214  => [:レド山],
    215  => [:ミノタウロスの迷宮],
    216  => [:プランセクト村],
    217  => [:レド山],
    218  => [:ウンディーネの泉],
    219  => [:リマ村廃墟],
    220  => [:進軍の丘],
    221  => [:ゴルド東の大毒沼],
    222  => [:進軍の丘],
    223  => [:ゴルド火山洞窟],
    224  => [:吸血鬼の城],
    225  => [:滅びの地],
    226  => [:幽霊船],
    227  => [:幽霊船],
    228  => [:北の海底神殿],
    229  => [:妖精の島],
    230  => [:妖精の島],
    231  => [:忘れられし塔, :孤独の地],
    232  => [:世界樹],
    233  => [:人形遣いの塔],
    234  => [:ライラの大滝],
    235  => [:タルタロス（ゴルド大陸西）],
    236  => [:ヘルゴンドの洞窟（異世界）],
    237  => [:魔王城（異世界）],
    238  => [:魔王城（異世界）],
    239  => [:魔王城（異世界）],
    240  => [:タルタロス（ゴルド大陸西）],
    241  => [:聖山アモス, :雪越えの洞窟, :雪のほこら, :イリアス神殿跡],
    242  => [:魔王城],
    243  => [:魔王城],
    251  => [:タルタロス（ヘルゴンド大陸西）],
    301  => [:ハピネス村, :グランドール, :サルーン],
    302  => [:ハピネス村, :グランドール, :サルーン],
    303  => [:サバサ],
    304  => [:ハピネス村, :サン・イリア, :サバサ, :グランドール],
    305  => [:イリアスベルク, :ハピネス村, :サバサ, :グランドール],
    306  => [:イリアスヴィル, :グランドール, :サルーン, :ゴルドポート],
    307  => [:イリアスヴィル, :グランドール, :ゴルドポート],
    308  => [:ラダイト村, :グランドール, :フィノア, :ヤマタイ村],
    309  => [:イリアスヴィル, :ラダイト村, :グランドール, :ゴルドポート],
    310  => [:イリアスヴィル, :ラダイト村, :グランドール, :ヤマタイ村, :ゴルドポート],
    311  => [:フィノア],
    312  => [:ラダイト村, :グランドール, :フィノア, :ヤマタイ村],
    313  => [:イリアスベルク, :グランドール, :サルーン, :フィノア],
    314  => [:フィノア],
    315  => [:ハピネス村, :グランドール],
    316  => [:イリアスヴィル, :サン・イリア, :グランドール, :サルーン, :ゴルドポート],
    317  => [:サン・イリア],
    318  => [:ラダイト村, :グランドール],
    319  => [:イリアスベルク, :グランドール, :サキュバスの村],
    320  => [:フィノア, :サキュバスの村],
    321  => [:イリアスヴィル, :グランドール, :ゴルドポート],
    322  => [:イリアスヴィルの裏山, :イリアスベルク, :イリアスポート, :ナタリアポート, :マールポート, :ゴルドポート],
    323  => [:ゴルドポート],
    324  => [:イリアスポート, :ナタリアポート, :マールポート, :ゴルドポート],
    325  => [:イリアスポート, :ナタリアポート, :マールポート, :ゴルドポート],
    326  => [:ゴルドポート],
    327  => [:イリアスポート, :ナタリアポート, :マールポート, :ゴルドポート],
    328  => [:マールポート, :ゴルドポート],
    329  => [:ミダス村, :ゴルドポート],
    330  => [:ミダス村, :ゴルドポート],
    331  => [:ミダス村, :サルーン, :ゴルドポート],
    332  => [:ナタリアポート, :グランドール, :マールポート, :ヤマタイ村, :ゴルドポート],
    333  => [:ヤマタイ村],
    334  => [:イリアスベルク, :イリアスポート, :ナタリアポート, :マールポート, :ヤマタイ村, :ゴルドポート],
    335  => [:イリアスベルク, :イリアスポート, :ナタリアポート, :マールポート, :ヤマタイ村, :ゴルドポート],
    336  => [:ナタリアポート, :グランドール, :マールポート, :ヤマタイ村, :ゴルドポート],
    337  => [:サバサ],
    338  => [:イリアスベルク, :グランドール],
    339  => [:ナタリアポート, :グランドール, :マールポート, :ゴルドポート],
    340  => [:イリアスヴィル, :ゴルドポート],
    341  => [:ミダス村, :ゴルドポート],
    342  => [:サン・イリア, :ゴルドポート, :サキュバスの村],
    343  => [:イリアスベルク, :サン・イリア, :サバサ, :グランドール, :サルーン, :グランゴルド],
    344  => [:グランドノア],
    345  => [:グランゴルド],
    346  => [:グランゴルド, :料理],
    347  => [:料理],
    348  => [:グランゴルド, :料理],
    349  => [:料理],
    350  => [:グランゴルド, :料理],
    351  => [:グランゴルド],
    352  => [:グランゴルド],
    353  => [:料理],
    354  => [:料理],
    355  => [:料理],
    356  => [:料理],
    357  => [:料理],
    358  => [:料理],
    359  => [:料理],
    360  => [:イリアスベルク, :グランドール],
    361  => [:グランドノア, :ヤマタイ村, :料理],
    362  => [:料理],
    363  => [:料理],
    364  => [:料理],
    365  => [:料理],
    366  => [:料理],
    367  => [:料理],
    368  => [:料理],
    369  => [:料理],
    370  => [:料理],
    371  => [:料理],
    372  => [:料理],
    373  => [:料理],
    374  => [:料理],
    375  => [:グランドノア, :料理],
    376  => [:グランドノア, :料理],
    377  => [:料理],
    378  => [:料理],
    379  => [:料理],
    380  => [:料理],
    381  => [:料理],
    382  => [:料理],
    383  => [:グランドノア, :料理],
    384  => [:料理],
    385  => [:料理],
    386  => [:料理],
    387  => [:料理],
    388  => [:料理],
    389  => [:グランドノア, :料理],
    390  => [:料理],
    391  => [:料理],
    392  => [:料理],
    393  => [:料理],
    394  => [:料理],
    395  => [:料理],
    396  => [:料理],
    397  => [:料理],
    398  => [:料理],
    399  => [:料理],
    400  => [:料理],
    401  => [:料理],
    402  => [:料理],
    403  => [:料理],
    404  => [:料理],
    405  => [:料理],
    406  => [:料理],
    407  => [:料理],
    408  => [:マールポート, :ヤマタイ村, :ゴルドポート],
    409  => [:イリアスベルク],
    410  => [:ヤマタイ村],
    411  => [:ヤマタイ村],
    413  => [:サキュバスの村],
    414  => [:ナタリアポート, :グランドール, :マールポート, :ゴルドポート, :スノウヘブン],
    415  => [:スノウヘブン],
    416  => [:スノウヘブン],
    417  => [:スノウヘブン],
    418  => [:スノウヘブン],
    419  => [:スノウヘブン],
    420  => [:料理],
    421  => [:スノウヘブン],
    422  => [:スノウヘブン],
    423  => [:スノウヘブン, :料理],
    424  => [:スノウヘブン, :料理],
    425  => [:料理],
    426  => [:ナタリアポート, :ゴルドポート],
    427  => [:サバサ, :マールポート, :ゴルドポート],
    428  => [:名も無きスラム, :モンテカルロ, :サバサ, :ゴッダール, :グランゴルド, :レミナ（異世界）],
    429  => [:ゴッダール, :グランゴルド, :レミナ（異世界）],
    430  => [:グランゴルド, :レミナ（異世界）],
    431  => [:ゴッダール, :グランゴルド, :レミナ（異世界）],
    432  => [:イリアスヴィル, :ミダス村],
    433  => [:イリアスポート, :ナタリアポート],
    434  => [:イリアスヴィル, :ナタリアポート, :グランドール],
    435  => [:イリアスヴィル, :ナタリアポート, :グランドール],
    436  => [:ハピネス村],
    437  => [:ナタリアポート],
    438  => [:ナタリアポート],
    439  => [:ナタリアポート],
    440  => [:各地],
    441  => [:各地],
    442  => [:各地],
    443  => [:各地],
    444  => [:各地],
    445  => [:各地],
    446  => [:各地],
    447  => [:各地],
    448  => [:各地],
    449  => [:各地],
    450  => [:各地],
    500  => [:イリアスヴィル],
    501  => [:イリアスヴィル],
    502  => [:イリアスヴィル],
    503  => [:イリアスヴィル],
    504  => [:試しの洞窟],
    505  => [:イリアスベルク],
    506  => [:名も無きスラム],
    507  => [:名も無きスラム],
    508  => [:ハーピーの集落],
    510  => [:ロストルム村（異世界）],
    511  => [:レムズ海岸],
    512  => [:エンリカ],
    513  => [:秘宝の洞窟],
    514  => [:ナタリアポート],
    515  => [:ナタリアポート],
    516  => [:地下図書館],
    517  => [:サン・イリア],
    518  => [:求道者の洞窟],
    519  => [:イリアスヴィル],
    520  => [:ピラミッド],
    521  => [:リリィの館],
    522  => [:タルタロス（サバサ大陸北）],
    523  => [:管理者の塔],
    525  => [:サルーンの丘],
    526  => [:サルーン廃鉱],
    528  => [:マールポート],
    529  => [:海軍本部],
    530  => [:グランドノア],
    531  => [:グランドノア],
    532  => [:迷宮への洞窟],
    533  => [:ゴッダール],
    534  => [:幽霊船],
    535  => [:幽霊船],
    536  => [:風光明媚の丘],
    537  => [:ヤマタイ村],
    538  => [:魔王城（異世界）],
    539  => [:グランドノア],
    540  => [:ピラミッド],
    541  => [:幽霊船],
    542  => [:北の海底神殿],
    543  => [:滅びの地周辺],
    544  => [:オロチの洞],
    545  => [:幽霊船],
    546  => [:ヤマタイ村],
    547  => [:吸血鬼の魔城],
    548  => [:魔王城（異世界）],
    549  => [:コロシアム景品],
    550  => [:コロシアム景品],
    551  => [:コロシアム景品],
    552  => [:北の海底神殿],
    553  => [:魔王城（異世界）],
    554  => [:創世の館],
    555  => [:世界樹],
    556  => [:ゴルド海岸],
    557  => [:イリアス神殿跡],
    601  => [:イリアスヴィル],
    602  => [:イリアスヴィル],
    603  => [:ヤマタイ村],
    604  => [:ミノタウロスの迷宮],
    605  => [:地下図書館],
    606  => [:サン・イリア],
    607  => [:ゴッダール],
    608  => [:海軍本部],
    609  => [:モンテカルロ],
    610  => [:ポルノフ],
    611  => [:バトルファック景品],
    612  => [:イリアスポート],
    613  => [:タルタロス（イリアス大陸南）],
    614  => [:北のお化け屋敷],
    615  => [:イリアスベルク],
    616  => [:ロストルム村（異世界）],
    617  => [:イリアスポート],
    618  => [:ミダス村],
    619  => [:メダル女王の城],
    620  => [:メダル女王の城],
    621  => [:聖山アモス],
    622  => [:レミナ（異世界）],
    623  => [:コロシアム景品],
    624  => [:サバサ],
    625  => [:サン・イリア],
    626  => [:グランゴルド],
    627  => [:ヤマタイ村],
    628  => [:バトルファック景品],
    629  => [:サン・イリア],
    630  => [:滅びの地],
    631  => [:レミナ（異世界）],
    632  => [:世界樹],
    636  => [:カジノ景品（ポケット魔王城）],
    637  => [:グランドノア],
    638  => [:サキュバスの村],
    639  => [:ヤマタイ村],
    640  => [:グランゴルド],
    700  => [:タルタロス（イリアス大陸南）],
    701  => [:タルタロス（イリアス大陸南）],
    702  => [:タルタロス（イリアス大陸南）],
    703  => [:タルタロス（イリアス大陸東）],
    704  => [:タルタロス（イリアス大陸東）],
    705  => [:タルタロス（イリアス大陸東）],
    706  => [:イリアスポート],
    707  => [:イリアスポート],
    708  => [:古代神殿跡],
    709  => [:古代神殿跡],
    710  => [:サン・イリア],
    711  => [:サン・イリア],
    712  => [:タルタロス（サバサ大陸北）],
    713  => [:管理者の塔],
    714  => [:タルタロス（ゴルド大陸西）],
    715  => [:サン・イリア],
    716  => [:イリアス神殿跡],
    717  => [:滅びの地],
    719  => [:サン・イリア],
    722  => [:蓬莱山],
  }
  # アイテム貰える仲間ID配列
  # アイテムIDに関連したアクターID配列を指定してください
  # 今のところ表示上限は３行です。  
  GET_ITEM_ACTORS = {
    1 => [59],
    2 => [110,161,177],
    4 => [58,167],
    5 => [119,159,182],
    6 => [383],
    8 => [181],
    9 => [162,185],
    11 => [72],
    12 => [105,139,171],
    13 => [70],
    14 => [90],
    17 => [100],
    22 => [89,112,131,183],
    24 => [68,92,104,117,129,152,174],
    25 => [97,121,158],
    26 => [34,62,125,142,164,173,538],
    27 => [13,64,87],
    28 => [36,66,102,137,138,157,160,163,382],
    29 => [168,179],
    30 => [12,84,101,127,140,148],
    31 => [41,155,178,180],
    32 => [540],
    41 => [77],
    45 => [126],
    51 => [91],
    59 => [77,94],
    67 => [99],
    71 => [76,107,114,115],
    72 => [176],
    75 => [26],
    79 => [5,130],
    161 => [55,61],
    162 => [56],
    164 => [71],
    165 => [73],
    166 => [78],
    218 => [14],
    310 => [54,74,541],
    321 => [15],
    322 => [542],
    334 => [543],
    416 => [45],
    422 => [165],
    431 => [75],
    436 => [81],
    442 => [60],
    445 => [57],
    448 => [79],
    509 => [55,85],
    524 => [86,122,123],
    527 => [155],
  }
end

